(ilrsgd
LogisticRegressionSGD
p0
(dp1
S'mu'
p2
F0.1
sS'eta'
p3
F0.01
sS'weight'
p4
(lp5
F-0.004965406010570986
aF-0.004996438414841255
aF0.0
aF0.0
aF0.0
aF-0.006749531959706025
aF0.0010433765618849808
aF-0.006273683713504023
aF-0.0049898361478115435
aF0.0
aF-0.0057676259056292775
aF-0.011969699135271492
aF0.0
aF-0.0089782085828746
aF0.00503877059935392
aF0.0
aF-0.005001729725641969
aF-0.004998500201506293
aF-0.0014924138487546006
aF0.0
aF-0.004952683740559952
aF0.0
aF0.0
aF-0.004996873722984837
aF-0.016342532282885965
aF-0.004987822351220618
aF-0.001005704763704189
aF-0.008981134497037562
aF-0.0049069377551950516
aF-0.006683759239613054
aF0.01228985406072741
aF-0.0024965482448247255
aF-0.0049960266079351725
aF-0.008176842584135058
aF-0.008914982359855106
aF-0.008946410061410361
aF-0.0049382819190195906
aF0.0
aF0.002523309081981317
aF-0.004907942913448823
aF-0.004923187322461401
aF-0.0021420690537453362
aF-0.0049850715990099525
aF-0.0010034006138524608
aF0.0
aF-0.004946309766521549
aF-0.0049940227301367105
aF-0.005003060950249199
aF-0.004495263648395162
aF0.005046278449168138
aF0.0050007606158021965
aF-0.004994071235771959
aF-0.007136862058125823
aF-0.018025799142339295
aF-0.0019228799764604686
aF-0.004996723043657563
aF-0.0015122059983082806
aF-0.012163649583286749
aF0.0
aF0.007994724285395927
aF-0.0022066606010602745
aF-0.008986780630312333
aF-0.005216963018785485
aF-0.014224701111964198
aF0.0
aF-0.004959517595974798
aF0.0
aF0.0
aF0.005072941951687606
aF0.005004520863779156
aF-0.008991050064639385
aF0.0
aF0.0
aF-0.0018335016109316989
aF0.005034212992816236
aF0.0
aF0.0050387411413587956
aF-0.0034091251952958726
aF0.0
aF0.005003229555912456
aF0.0
aF0.0
aF-0.0024987466997907085
aF0.0
aF0.0
aF-0.004127200308373712
aF-0.004156987307795673
aF-0.004979265764191921
aF0.0
aF-0.005000338751728006
aF-0.003620887988569644
aF-0.004991790475316438
aF0.0
aF-0.014229505400612668
aF-0.015976831094318196
aF-0.0049999917938352975
aF-0.0010027054849840403
aF-0.00498806457232787
aF-0.0009025458247079437
aF-0.0010054626218643573
aF-0.008975454917812237
aF0.0
aF-0.011790383376509422
aF0.0
aF-0.004958000451492176
aF0.0
aF-0.004115041889792105
aF0.0
aF-0.020363788750822422
aF-0.0049954769509835805
aF-0.004996725838103999
aF-0.004987583078734727
aF-0.008981601188110828
aF-0.010016858828776107
aF0.005007656960036472
aF-0.004979571505808007
aF-0.009192959024173157
aF-0.004991640618177361
aF-0.0049573802632014
aF-0.012595951549216606
aF-0.011624085696015238
aF-0.0018554709663613014
aF-0.0063538172392170866
aF0.0
aF-0.00414990137885105
aF0.0
aF0.005072290603920493
aF-0.0049686346165929976
aF0.0
aF0.0
aF0.005001055283962263
aF0.0
aF-0.00350596544854242
aF0.0
aF0.0
aF-0.007674163188903566
aF-0.00500098215635431
aF0.0
aF-0.0049382792445143535
aF-0.008863165484466012
aF-0.02293536059432188
aF-0.008926825844069272
aF-0.010766651442622718
aF0.0
aF0.0
aF-0.016674625235668778
aF-0.008987495785623727
aF-0.020628065692887068
aF0.0
aF0.005005134145762986
aF-0.008980245678157642
aF-0.004978369546974369
aF0.0
aF0.0
aF-0.016623474198848447
aF0.0
aF-0.004492533688996632
aF0.0
aF-0.004996622714761279
aF0.005001203813797266
aF0.0010244727294366936
aF-0.0049941396203407535
aF-0.002688288612380017
aF0.005007237453142823
aF-0.0049999323864007095
aF-0.012093101303893971
aF0.0
aF-0.004998733778548049
aF0.0
aF-0.01806919609356646
aF0.0
aF0.0
aF-0.008983319822752685
aF-0.004980170428760819
aF-0.004991956168027279
aF-0.008965038765922164
aF0.0
aF-0.007760284790199827
aF-0.007114781015371094
aF0.0
aF-0.00016607908125504346
aF-0.008985208535796742
aF0.0
aF-0.0026325121232320713
aF-0.0015227150119769858
aF-0.014667151110032934
aF-0.004986616953775777
aF0.0
aF-0.0011025803324959077
aF-0.00235698112282663
aF-0.004978197333666245
aF-0.018231649305721506
aF-0.0049999866632335
aF-0.008291320643683526
aF0.0
aF-0.008973365422522993
aF0.0
aF0.0
aF-0.0046495612765463865
aF-0.004961128451363872
aF-0.0142549811855576
aF0.0
aF-0.001054082007952747
aF0.0
aF-0.004979842657438567
aF-0.004999819753976655
aF-0.004982183900656773
aF-0.004999816475330027
aF0.0
aF-0.003341287076554485
aF-0.0049258954196779135
aF0.0
aF0.0
aF-0.008973839859217805
aF0.0010476724392979985
aF0.0
aF0.0
aF-0.004978858604454053
aF-0.012132139063745488
aF-0.01665741604497192
aF-0.01669758891396717
aF-0.004522025678141516
aF-0.004988125755034556
aF-0.0017533677785585631
aF-0.00499803669991914
aF0.0
aF-0.004943844865339762
aF-0.01212790416047446
aF-0.004990534671942089
aF-0.004998046042775994
aF-0.0049960697629002964
aF0.0
aF0.0
aF-0.004875314567516635
aF0.0
aF0.0
aF-0.004990736275842133
aF-0.00497508212702529
aF-0.005
aF-0.005390137393097243
aF0.0
aF0.0
aF-0.003934822993591787
aF-0.0004932475346066298
aF-0.008982761757673853
aF0.0
aF0.0053893405374125
aF0.0
aF-0.0023464261688836974
aF0.0
aF-0.008974333618824066
aF0.0
aF-0.0029990761390981894
aF0.0
aF0.0
aF0.0
aF-0.012604974133099633
aF-0.0049266745516347325
aF0.0
aF-0.004995439481306408
aF0.0
aF0.0
aF0.0
aF0.005001525037894632
aF0.002076561542615104
aF-0.00496022501942999
aF-0.004949930375852464
aF0.0
aF-0.004992597324150768
aF-0.0049843695114539475
aF-0.0016070359003601273
aF-0.004977531401176742
aF0.0
aF0.0
aF0.005001780643740763
aF-0.00827469738417912
aF0.0
aF0.0
aF-0.00496089352038339
aF-0.005012499032868435
aF0.0
aF-0.0029951476677064774
aF-0.012128953718920366
aF0.0
aF-0.014667699218568584
aF-0.0049999743311698805
aF-0.004938306722420425
aF0.0
aF0.0
aF-0.004985355765948008
aF-0.004998453519880744
aF0.00500619560852745
aF0.0
aF-0.00897069891853932
aF0.0
aF-0.0003604787712629242
aF0.0
aF-0.004994870739213099
aF-0.0049155444350838995
aF-0.008951083381353291
aF0.0
aF0.0
aF-0.004990369706599821
aF0.0042096296352232545
aF0.0
aF0.0
aF-0.004476997527824867
aF0.0
aF0.0
aF0.0
aF0.0
aF-0.006093165628547324
aF0.0
aF-0.0049985622827234625
aF-0.007132342327367881
aF0.00018367037114965824
aF0.004998513297347295
aF-0.0016645151599028758
aF-0.008954756443945496
aF0.0
aF0.0
aF0.0
aF-0.00497497704367181
aF0.0
aF-0.014666103230137437
aF0.0
aF-0.004999775636471242
aF0.0
aF0.0
aF-0.008987734603793474
aF0.0
aF0.0
aF-0.00499689217555124
aF0.0
aF-0.004917057649696316
aF-0.0073431657759201515
aF-0.004999996267410668
aF0.0
aF0.0
aF0.0
aF-0.0024958282941096805
aF0.0
aF-0.004997353059144156
aF0.005000537584254731
aF-0.004990238175029542
aF0.0
aF-0.0021647656226568045
aF0.0
aF0.0
aF0.0
aF-0.018296436380049796
aF-0.004193392942087915
aF0.0
aF0.0
aF-0.0049383845626645734
aF-0.008770306813089539
aF-0.012058949682159516
aF-0.012041614226983698
aF-0.005
aF0.0
aF-0.00896155378704553
aF0.005025595254734768
aF0.0010243885438432614
aF0.0
aF0.0
aF-0.004999993057696399
aF0.0
aF-0.006084415239811465
aF0.0
aF0.0
aF-0.0016612064470987913
aF-0.004629371209098048
aF0.0
aF-0.008629668936370774
aF0.0
aF0.0
aF0.0
aF0.0
aF0.0
aF-0.004932728267750023
aF-0.008868527903839043
aF0.0
aF0.0
aF-0.008970183087219908
aF-0.005000000141172745
aF0.0
aF-0.0023298408365745784
aF0.0
aF0.0
aF-0.004997816762922597
aF0.0
aF0.0
aF0.0
aF-0.0049977018042198585
aF-0.01664637368400314
aF-0.0005427335303234047
aF-0.004996711528440306
aF-0.008975800961300281
aF0.0
aF-0.004994424338632513
aF0.0
aF0.0
aF0.0
aF0.0
aF0.0010308660034011301
aF0.0
aF-0.004994359561230144
aF0.0
aF0.0
aF0.0
aF0.0
aF-0.004976884334843132
aF0.0
aF-0.0049917898678693805
aF0.0
aF0.0
aF0.0
aF-0.0049999948894553095
aF0.005813015231524503
aF-0.011816287996078003
aF0.0
aF0.0
aF0.0
aF0.0
aF0.005036237831844559
aF0.0
aF0.0
aF-0.006950293733820705
aF-0.0029159422073538584
aF-0.001909365473821812
aF0.0
aF0.0
aF0.0
aF0.0
aF0.0
aF0.0
aF0.0
aF0.0
aF0.0
aF-0.011906822033137266
aF-0.008946246529567083
aF0.0
aF0.0
aF-0.004874533276756954
aF-0.005670006159416315
aF-0.0049999940762636245
aF0.0
aF0.0
aF0.0
aF-0.00017840375602162263
aF-0.008982047077989146
aF0.0
aF-0.004627161531841405
aF-0.004975433398303576
aF0.0
aF0.0
aF0.0
aF-0.00605266697943084
aF0.0
aF-0.000495328454373588
aF0.0
aF0.0
aF0.0
aF0.0
aF0.0
aF0.0
aF0.0
aF-0.002491503760746563
aF0.0
aF0.0
aF-0.004962010653130097
aF0.0
aF0.0
aF0.0
aF-0.004997939069841079
aF-0.0024984184005776245
aF0.0
aF0.0
aF0.0
aF0.0
aF0.0
aF0.0
aF0.005007509791454854
aF-0.012096337560730079
aF-0.0009996132713732775
aF0.0
aF-0.004995842470986148
aF0.0
aF-0.012029579156194403
aF-0.004938304314725004
aF0.0
aF0.0
aF0.0
aF-0.0049968496880946865
aF0.0
aF-0.004995789356040994
aF-0.0007296080158556728
aF0.0
aF0.0
aF-0.004996874200261289
aF0.0
aF-0.004849174982654411
aF-0.0049137615686484
aF0.0
aF0.005000009906863643
aF0.0
aF-0.004997818950138333
aF-0.000311969150194653
aF0.0
aF0.0
aF0.0050081038224108155
aF0.0
aF0.0
aF0.0
aF-0.004902317383956684
aF0.0
aF0.0
aF0.0
aF0.0
aF0.0
aF-0.009342426008533782
aF-0.00450208321106202
aF-0.0024984959007350576
aF-0.0024996095036260205
aF-0.012098650495153863
aF-0.004996109794785369
aF0.0
aF0.0
aF-0.008801392441376425
aF0.0
aF0.0
aF-0.004999993374541625
aF0.0
aF0.0
aF-1.6989803043089297e-06
aF0.0
aF-0.002504454843301036
aF0.0
aF0.0
aF0.0025004522699032202
aF0.0
aF-0.008985544736935407
aF0.0
aF0.0
aF-0.004938292631154791
aF0.0
aF0.0009926568410560718
aF0.0
aF0.0
aF0.0
aF0.0
aF0.0
aF0.0
aF0.0
aF0.0
aF-0.008376517353936984
aF0.0
aF0.0
aF0.0
aF0.0
aF0.0
aF0.0
aF-0.00493558574690055
aF-0.0023253237535349404
aF0.0
aF0.0
aF0.0
aF0.0
aF-0.004999957756000298
aF-0.004056773156071014
aF0.0
aF-0.00491605346231351
aF-0.012094299363355175
aF0.0
aF0.0
aF0.0
aF0.0
aF-0.004938310554595355
aF0.0
aF-0.02372103845199506
aF0.0
aF0.0
aF-0.008985938286424099
aF0.0
aF0.0
aF0.0
aF-0.004991908057547332
aF-0.0050006211488324605
aF0.0
aF-0.0025002098935858
aF-0.0021478773082217557
aF0.0
aF-0.004998784566728024
aF0.0
aF0.0016730027006408906
aF0.0
aF-0.0094335536428287
aF-0.00042061314127182206
aF0.0
aF-0.0049969517938598116
aF0.0
aF0.0
aF0.0
aF0.0
aF-0.004495990383081304
aF-0.006346358066726692
aF-0.014648240049132052
aF-0.0019562124571407477
aF0.0
aF-0.0009786452391998572
aF0.0
aF0.0
aF-0.016699930534248876
aF-0.0055956460933551345
aF-0.012692174989879488
aF0.0
aF0.0
aF-0.004998348281179957
aF-0.016318554792760835
aF0.0
aF0.0
aF0.0
aF0.0
aF0.005009328004966345
aF0.0
aF0.0
aF-0.0056525678470837355
aF0.0
aF0.0
aF-0.0026427888864144905
aF-0.00494037791568506
aF-0.0045383338849506105
aF0.0
aF0.0
aF-0.005
aF0.0
aF0.0
aF0.0
aF0.0
aF0.0
aF-0.0024999714430095584
aF0.0
aF0.0
aF0.0
aF0.0
aF-0.00015475375877794704
aF0.0
aF-0.00897839756044732
aF0.00500000196163224
aF-0.004811793025496161
aF0.0
aF-0.004935175104937441
aF0.0
aF0.0
aF0.0
aF-0.0049941435030671924
aF0.0
aF0.0
aF0.0
aF0.005032464324879666
aF0.00041075854773939355
aF-0.004986077305406044
aF0.0
aF0.0
aF-0.004997950405038919
aF-0.004871763889975297
aF-0.014369587748205744
aF0.0
aF0.0
aF-0.024207770968196606
aF0.0
aF0.0
aF0.0
aF0.0016782158827500842
aF0.0
aF0.0
aF0.0
aF-0.002495404166090448
aF0.0
aF0.009048049119588453
aF0.0
aF0.0
aF0.0
aF0.0
aF0.0
aF0.0
aF-0.008982862553116614
aF0.0
aF-0.01466259322164868
aF0.0
aF-0.004938309918139354
aF0.0
aF0.0
aF-0.004830331001021058
aF-0.0004858229523064571
aF-0.003396719487070628
aF-0.014699500441296547
aF0.0
aF0.0
aF0.0
aF0.0
aF0.0
aF0.0
aF0.0
aF0.0
aF0.0
aF0.0
aF-0.004999378917804377
aF0.004999999483968996
aF0.0
aF0.0
aF0.0
aF0.0
aF0.0
aF0.0
aF0.0
aF0.0
aF0.0
aF0.0
aF0.0
aF0.0
aF-0.0029983063293256436
aF0.0
aF-0.004934392559265497
aF-0.004734809050621131
aF0.0
aF0.0
aF-0.002496785715501395
aF0.0
aF0.005001308722028006
aF0.0
aF-0.005671599093614975
aF-0.00499741243251029
aF-0.008873845375265891
aF0.0
aF-0.004024093533044023
aF0.0
aF0.0
aF0.0
aF-0.0049960321952571786
aF0.0
aF0.0
aF0.0
aF0.0
aF0.0
aF0.0010133044540476055
aF-0.00024654650867459577
aF0.0
aF0.0
aF0.0
aF0.0
aF0.0
aF-0.0016657561406087395
aF-0.024182363246581517
aF0.0
aF0.0
aF0.0
aF0.0
aF-0.00499852179941837
aF-0.004995717979125399
aF-0.002513588855041671
aF0.0
aF0.0
aF-0.004999990093136356
aF-0.004999997777965443
aF-0.004998629726231422
aF0.0
aF0.0
aF0.0
aF0.0
aF0.0
aF-0.01191699927627928
aF-0.02425259553597853
aF0.0
aF0.0
aF0.0
aF-0.004466790845170991
aF-0.006651954448796767
aF0.0
aF0.0
aF0.0
aF0.0
aF0.0
aF0.0
aF-0.004986282389663959
aF0.0
aF-0.0024901738615850113
aF0.0
aF0.0
aF0.0
aF-0.0150915379451552
aF0.0
aF0.0
aF-0.008982440226848784
aF0.0
aF-0.004990216272527738
aF-0.012111890676593998
aF0.0
aF0.0
aF0.0
aF0.0
aF0.0
aF0.0
aF-0.004938283680541197
aF0.0
aF-0.0025
aF-0.004990544712052889
aF-0.005000000129022909
aF0.0
aF0.0
aF-0.004938288012994905
aF-0.008983101938289073
aF0.0
aF-0.01940348914605993
aF0.0
aF0.001102432053081089
aF-0.0024948636507104937
aF-0.008838510908870717
aF-0.0039671721306608065
aF-0.004995340444067336
aF-0.001985582780716304
aF0.0
aF0.0
aF0.0
aF0.0
aF0.0
aF0.0
aF0.0
aF-0.004940282857082561
aF-0.002923019524878726
aF0.0
aF0.0
aF0.0
aF0.0
aF0.0
aF0.0
aF-0.0049874585923838375
aF0.0
aF0.0
aF0.0
aF0.0
aF0.0
aF-0.008894966060866354
aF0.0
aF0.0
aF0.0
aF0.0
aF0.0
aF0.0
aF0.0
aF0.0
aF-0.0030428218826861813
aF-0.008987457433569827
aF0.0
aF0.0
aF0.0
aF-0.0030452461188827033
aF0.0
aF0.0
aF-0.002499220345658779
aF-0.00394685943760718
aF0.0
aF-0.011879709022140899
aF0.0
aF0.0
aF-0.001942741877404368
aF-0.006139936845331796
aF0.0
aF0.0
aF0.0
aF0.0
aF0.0
aF0.0
aF-0.0011452384690090831
aF-0.004999980677062955
aF0.0
aF0.0
aF0.0
aF0.0
aF0.0
aF-0.004999998425375856
aF0.0
aF0.0
aF-0.008870982309245561
aF0.0
aF0.0
aF0.0
aF0.0
aF0.0
aF0.0
aF0.0
aF0.0
aF0.0
aF0.0
aF0.0
aF0.0
aF0.0
aF0.0
aF0.0
aF0.0
aF-0.024375441370065802
aF0.0
aF0.0
aF0.0
aF0.0
aF-0.004999985475496746
aF0.0
aF0.0
aF0.0
aF0.0
aF0.0
aF0.0
aF-0.004938296901963067
aF0.0
aF0.0
aF0.0
aF0.0
aF0.0
aF0.0
aF0.0
aF-0.004999750231459885
aF-0.002496177354898361
aF0.0
aF0.0
aF0.0
aF0.0
aF-0.004984352307847809
aF-0.004999995358466936
aF0.0
aF0.0
aF0.0
aF0.0
aF0.0
aF0.0
aF0.0
aF0.0
aF0.005000000458780858
aF0.0
aF0.0
aF0.0
aF0.0
aF0.0
aF0.0
aF0.0
aF0.005
aF0.0
aF0.0
aF-0.004938307248755271
aF-0.0033333169448992806
aF-0.00041666283110892906
aF0.0
aF0.0
aF0.0
aF0.0
aF0.0
aF0.0
aF0.0
aF0.0
aF0.0
aF0.0
aF0.0
aF0.0
aF0.0
aF0.0
aF0.0
aF0.0
aF0.0
aF0.0
aF0.0
aF0.0
aF0.0
aF0.0
aF0.0
aF0.0
aF0.0
aF0.0
aF0.0
aF0.0
aF0.0
aF0.0
aF-0.004999908122900162
aF-0.004996884043529154
aF0.0
aF-0.008982984334191525
aF0.0
aF0.0
aF0.0
aF0.0
aF0.0
aF0.0
aF0.0
aF0.0
aF0.0
aF0.0
aF0.0
aF0.0
aF0.0
aF0.0
aF0.0
aF0.0
aF0.0
aF0.0
aF0.0
aF0.0
aF0.0
aF0.0
aF0.0
aF0.0
aF0.0
aF0.0
aF0.0
aF-0.004999983837048872
aF0.0
aF0.0
aF0.0
aF-0.004999556252413285
aF0.0
aF-0.004065452086674007
aF-0.008907914594895717
aF-0.002017719141826634
aF0.0
aF0.0
aF0.0
aF0.0
aF0.0
aF0.0
aF0.0
aF0.0
aF0.0
aF-0.004938303540951118
aF0.0
aF0.0
aF0.0
aF0.0
aF0.0
aF0.0
aF0.0
aF0.0
aF-0.002500016666740141
aF0.0
aF0.0
aF0.0
aF-0.004999983479791966
aF0.0
aF0.0
aF0.0
aF0.0
aF0.0
aF0.0
aF0.0
aF0.0
aF0.0
aF0.0
aF0.0
aF0.0
aF0.0
aF0.0
aF0.0
aF0.0
aF-0.005000032142759569
aF0.0
aF0.0
aF0.0
aF0.0
aF0.0
aF0.0
aF0.0
aF0.0
aF0.0
aF-0.004934391221379921
aF0.0
aF0.0
aF0.0
aF0.0
aF0.0
aF0.0
aF0.0
aF-0.0049999984215823665
aF-0.0016666632964868068
aF0.0
aF0.0
aF0.0
aF0.0
aF0.0
aF0.0
aF0.0
aF0.0
aF0.0
aF0.0
aF0.0
aF0.0
aF0.0
aF-0.00499997332754725
aF0.0
aF0.0
aF0.0
aF-0.004999975022151759
aF-0.024656888479395893
aF-0.024243954876385414
aF0.0
aF0.0
aF0.0
aF0.0
aF0.0
aF0.0
aF0.0
aF0.0
aF0.0
aF0.0
aF0.0
aF0.0
aF0.0
aF0.0
aF0.0
aF0.0
aF0.0
aF0.0
aF0.0
aF0.0
aF-0.004994347399617943
aF0.0
aF0.0
aF0.0
aF0.0
aF0.0
aF0.0
aF0.0
aF0.0
aF0.0
aF0.0
aF0.0
aF0.0
aF0.0
aF0.0
aF0.0
aF0.0
aF0.0
aF0.0
aF0.0
aF0.0
aF0.0
aF0.0
aF0.0
aF0.0
aF0.0
aF0.0
aF0.0
aF0.0
aF0.0
aF0.0
aF0.0
aF0.0
aF0.0
aF0.0
aF0.0
aF0.0
aF0.0
aF0.0
aF0.0
aF0.0
aF0.0
aF0.0
aF0.0
aF0.0
aF0.0
aF0.0
aF0.0
aF0.0
aF0.0
aF0.0
aF0.0
aF0.0
aF0.0
aF0.0
aF0.0
aF0.0
aF0.0
aF0.0
aF0.0
aF0.0
aF0.0
aF0.0
aF-0.004998595881208597
aF0.0
aF-0.008985007222073852
aF0.0
aF0.0
aF0.0
aF0.0
aF0.0
aF0.0
aF0.0
aF0.0
aF0.0
aF0.0
aF0.0
aF0.0
aF-0.004999994598422783
aF0.005000005110544691
aF0.0
aF0.0
aF0.0
aF0.0
aF0.0
aF0.0
aF0.0
aF0.0
aF0.0
aF0.0
aF0.0
aF0.0
aF0.0
aF-0.0012500022384117212
aF0.0
aF0.0
aF0.0
aF0.0
aF0.0
aF0.0
aF0.0
aF0.0
aF0.0
aF0.0
aF0.0
aF0.0
aF0.0
aF0.0
aF0.0
aF0.0
aF0.0
aF0.0
aF0.0
aF0.0
aF0.0
aF-0.008987493705609372
aF0.0
aF0.0
aF0.0
aF0.0
aF0.0
aF0.0
aF0.0
aF0.0
aF0.0
aF0.0
aF0.0
aF0.0
aF0.0
aF0.0
aF0.0
aF0.0
aF0.0
aF0.0
aF0.0
aF0.0
aF0.0
aF0.0
aF0.0
aF0.0
aF0.0
aF0.0
aF0.0
aF0.0
aF0.0
aF0.0
aF0.0
aF0.0
aF0.0
aF0.0
aF0.0
aF0.0
aF0.0
aF0.0
aF0.0
aF0.0
aF0.0
aF0.0
aF0.0
aF-0.00499998189102607
aF0.0
aF0.0
aF0.0
aF0.0
aF0.0
aF0.0
aF0.0
aF0.0
aF0.0
aF0.0
aF0.0
aF0.0
aF0.0
aF0.0
aF0.0
aF0.0
aF0.0
aF0.0
aF0.0
aF0.0
aF0.0
aF0.0
aF0.0
aF0.0
aF0.0
aF0.0
aF0.0
aF0.0
aF0.0
aF0.0
aF0.0
aF0.0
aF0.0
aF0.0
aF0.0
aF0.0
aF0.0
aF0.0
aF0.0
aF0.0
aF0.0
aF0.0
aF0.0
aF0.0
aF0.0
aF0.0
aF0.0
aF0.0
aF0.0
aF0.0
aF0.0
aF0.0
aF-0.002498436222602699
aF0.0
aF0.0
aF0.0
aF0.0
aF0.0
aF0.0
aF0.0
aF0.0
aF0.0
aF0.0
aF0.0
aF0.0
aF0.0
aF0.0
aF0.0
aF0.0
aF0.0
aF0.0
aF0.0
aF0.0
aF0.0
aF0.0
aF0.0
aF-0.004999986150382725
aF0.0
aF0.0
aF0.0
aF0.0
aF0.0
aF0.0
aF0.0
aF0.0
aF0.0
aF0.0
aF0.0
aF0.0
aF0.0
aF0.0
aF0.0
aF0.0
aF0.0
aF0.0
aF0.0
aF0.0
aF-0.004498436628708183
aF0.0
aF0.0
aF0.0
aF0.0
aF0.0
aF-0.00500000306449592
aF0.0
aF0.0
aF-0.0024984073620636822
aF0.0
aF0.0
aF0.0
aF0.0
aF0.0
aF0.0
aF0.0
aF0.0
aF0.0
aF0.0
aF0.0
aF0.0
aF0.0
aF0.0
aF0.0
aF0.0
aF0.0
aF0.0
aF0.0
aF0.0
aF0.0
aF0.0
aF0.0
aF0.0
aF0.0
aF0.0
aF0.0
aF0.0
aF0.0
aF0.0
aF0.0
aF0.0
aF0.0
aF0.0
aF0.0
aF0.0
aF0.0
aF0.0
aF0.0
aF0.0
aF0.0
aF0.0
aF0.0
aF0.0
aF0.0
aF0.0
aF0.0
aF0.0
aF0.0
aF0.0
aF0.0
aF0.0
aF0.0
aF0.0
aF0.0
aF-0.007372939786636985
aF0.0
aF0.0
aF0.0
aF0.0
aF0.0
aF0.0
aF0.0
aF0.0
aF0.0
aF0.0
aF0.0
aF0.0
aF0.0
aF0.0
aF0.0009999991072408352
aF0.0
aF0.0
aF0.0
aF0.0
aF0.0
aF0.0
aF0.0
aF0.0
aF0.0
aF0.0
aF0.0
aF0.0
aF-0.0049999866632335
aF0.0
aF0.0
aF0.0
aF0.0
aF0.0
aF0.0
aF0.0
aF0.0
aF0.0
aF0.0
aF0.0
aF0.0
aF0.0
aF0.0
aF0.0
aF0.0
aF0.0
aF0.0
aF0.0
aF0.0
aF0.0
aF0.0
aF0.0
aF0.0
aF0.0
aF0.0
aF0.0
aF0.0
aF-0.0025000001843101935
aF0.0
aF0.0
aF0.0
aF0.0
aF0.0
aF0.0
aF0.0
aF0.0
aF0.0
aF0.0
aF0.0
aF0.0
aF0.0
aF0.0
aF0.0
aF0.0
aF0.0
aF0.0
aF0.0
aF0.0
aF0.0
aF0.0
aF0.0
aF0.0
aF0.0
aF0.0
aF0.0
aF0.0
aF0.0
aF0.0
aF0.0
aF0.0
aF0.0
aF0.0
aF0.0
aF0.0
aF0.0
aF0.0
aF0.0
aF0.0
aF0.0
aF0.0
aF0.0
aF0.0
aF0.0
aF0.0
aF0.0
aF0.0
aF0.0
aF0.0
aF0.0
aF0.0
aF0.0
aF0.0
aF0.0
aF0.0
aF0.0
aF-0.004997492512584107
aF0.0
aF0.0
aF-0.004498422473889846
aF0.0
aF0.0
aF0.0
aF0.0
aF0.0
aF0.0
aF0.0
aF0.0
aF0.0
aF0.0
aF0.0
aF0.0
aF0.0
aF0.0
aF0.0
aF0.0
aF0.0
aF0.0
aF0.0
aF0.0
aF0.0
aF0.0
aF0.0
aF0.0
aF0.0
aF0.0
aF0.0
aF0.0
aF0.0
aF0.0
aF0.0
aF0.0
aF0.0
aF0.0
aF0.0
aF0.0
aF0.0
aF0.0
aF0.0
aF-0.0029995309257650794
aF0.0
aF0.0
aF0.0
aF0.0
aF0.0
aF0.0
aF-0.00499998212486509
aF0.0
aF0.0
aF0.0
aF0.0
aF0.0
aF0.0
aF0.0
aF0.0
aF0.0
aF0.0
aF0.0
aF0.0
aF0.0
aF0.0
aF0.0
aF0.0
aF0.0
aF0.0
aF0.0
aF0.0
aF0.0
aF0.0
aF0.0
aF0.0
aF0.0
aF0.0
aF0.0
aF0.0
aF0.0
aF0.0
aF0.0
aF-0.001666651074297601
aF0.0
aF0.0
aF0.0
aF0.0
aF0.0
aF0.0
aF0.0
aF0.0
aF0.0
aF0.0
aF0.0
aF0.0
aF0.0
aF-0.014703604614427697
aF0.0
aF0.0
aF0.0
aF0.0
aF-0.004999993009233113
aF0.0
aF0.0
aF0.0
aF0.0
aF0.0
aF0.0
aF0.0
aF0.0
aF0.0
aF0.0
aF0.0
aF0.0
aF0.0
aF0.0
aF0.0
aF0.0
aF0.0
aF0.0
aF0.0
aF0.0
aF0.0
aF0.0
aF-0.004999985760375174
aF0.0
aF0.0
aF0.0
aF0.0
aF0.0
aF0.0
aF0.0
aF0.0
aF0.0
aF0.0
aF0.0
aF0.0
aF0.0
aF0.0
aF0.0
aF0.0
aF0.0
aF0.0
aF0.0
aF0.0
aF0.0
aF0.0
aF0.0
aF0.0
aF0.0
aF0.0
aF0.0
aF0.0
aF0.0
aF0.0
aF0.0
aF0.0
aF0.0
aF0.0
aF0.0
aF0.0
aF0.0
aF-0.0005555553846525433
aF0.0
aF0.0
aF0.0
aF0.0
aF0.0
aF0.0
aF0.0
aF0.0
aF0.0
aF0.0
aF0.0
aF0.0
aF0.0
aF0.0
aF0.0
aF0.0
aF0.0
aF0.0
aF0.0
aF0.0
aF0.0
aF0.0
aF0.0
aF0.0
aF0.0
aF0.0
aF0.0
aF0.0
aF0.0
aF0.0
aF0.0
aF0.0
aF0.0
aF0.0
aF0.0
aF0.0
aF0.0
aF0.0
aF0.0
aF0.0
aF0.0
aF0.0
aF0.0
aF-0.005
aF0.0
aF0.0
aF0.0
aF0.0
aF0.0
aF0.0
aF-0.004999991771222281
aF0.0
aF0.0
aF0.0
aF0.0
aF0.0
aF0.0
aF0.0
aF0.0
aF0.0
aF0.0
aF0.0
aF0.0
aF0.0
aF0.0
aF0.0
aF0.0
aF0.0
aF0.0
aF0.0
aF0.0
aF0.0
aF0.0
aF0.0
aF0.0
aF0.0
aF0.0
aF0.0
aF0.0
aF0.0
aF0.0
aF0.0
aF0.0
aF0.0
aF0.0
aF-0.0016666650099630793
aF0.0
aF0.0
aF0.0
aF0.0
aF0.0
aF0.0
aF0.0
aF0.0
aF0.0
aF0.0
aF0.0
aF0.0
aF0.0
aF0.0
aF0.0
aF0.0
aF0.0
aF0.0
aF0.0
aF0.0
aF0.0
aF0.0
aF0.0
aF0.0
aF0.0
aF0.0
aF0.0
aF0.0
aF0.0
aF0.0
aF0.0
aF0.0
aF0.0
aF0.0
aF0.0
aF0.0
aF0.0
aF0.0
aF0.0
aF0.0
aF0.0
aF0.0
aF0.0
aF0.0
aF0.0
aF0.0
aF0.0
aF0.0
aF0.0
aF0.0
aF0.0
aF0.0
aF0.0
aF0.0
aF0.0
aF0.0
aF0.0
aF0.0
aF0.0
aF0.0
aF0.0
aF0.0
aF0.0
aF0.0
aF0.0
aF0.0
aF0.0
aF0.0
aF0.0
aF0.0
aF-0.005000014348565201
aF0.0
aF0.0
aF0.0
aF0.0
aF0.0
aF0.0
aF0.0
aF0.0
aF0.0
aF0.0
aF0.0
aF0.0
aF0.0
aF0.0
aF0.0
aF0.0
aF0.0
aF0.0
aF0.0
aF0.0
aF0.0
aF0.0
aF0.0
aF0.0
aF0.0
aF0.0
aF0.0
aF0.0
aF0.0
aF0.0
aF0.0
aF0.0
aF0.0
aF0.0
aF0.0
aF0.0
aF0.0
aF0.0
aF0.0
aF0.0
aF0.0
aF0.0
aF0.0
aF0.0
aF0.0
aF0.0
aF0.0
aF0.0
aF0.0
aF0.0
aF0.0
aF0.0
aF0.0
aF0.0
aF0.0
aF0.004999998325747656
aF0.0
aF0.0
aF0.0
aF0.0
aF0.0
aF0.0
aF0.0
aF0.0
aF0.0
aF0.0
aF0.0
aF0.0
aF0.0
aF0.0
aF0.0
aF0.0
aF0.0
aF0.0
aF0.0
aF0.0
aF0.0
aF0.0
aF0.0
aF0.0
aF0.0
aF0.0
aF0.0
aF-0.0005555623208633998
aF0.0
aF0.0
aF0.0
aF0.0
aF0.0
aF0.0
aF0.0
aF0.0
aF0.0
aF0.0
aF0.0
aF0.0
aF0.0
aF0.0
aF0.0
aF0.0
aF0.0
aF0.0
aF0.0
aF0.0
aF0.0
aF0.0
aF0.0
aF0.0
aF0.0
aF0.0
aF0.0
aF0.0
aF0.0
aF0.0
aF0.0
aF0.0
aF0.0
aF0.0
aF0.0
aF0.0
aF0.0
aF0.0
aF0.0
aF0.0
aF0.0
aF0.0
aF-0.005000003620427982
aF0.0
aF0.0
aF0.0
aF0.0
aF0.0
aF0.0
aF0.0
aF0.0
aF0.0
aF0.0
aF0.0
aF0.0
aF0.0
aF0.0
aF0.0
aF0.0
aF0.0
aF0.0
aF0.0
aF0.0
aF0.0
aF0.0
aF0.0
aF0.0
aF0.0
aF0.0
aF0.0
aF0.0
aF0.0
aF0.0
aF0.0
aF0.0
aF0.0
aF0.0
aF0.0
aF0.0
aF0.0
aF0.0
aF0.0
aF0.0
aF0.0
aF0.0
aF0.0
aF0.0
aF0.0
aF0.0
aF0.0
aF0.0
aF0.0
aF0.0
aF0.0
aF0.0
aF0.0
aF0.0
aF0.0
aF0.0
aF0.0
aF0.0
aF0.0
aF0.0
aF0.0
aF0.0
aF0.0
aF0.0
aF0.0
aF0.0
aF0.0
aF0.0
aF0.0
aF0.0
aF0.0
aF0.0
aF0.0
aF0.0
aF0.0
aF0.0
aF0.0
aF0.0
aF0.0
aF0.0
aF0.0
aF0.0
aF0.0
aF0.0
aF0.0
aF0.0
aF0.0
aF0.0
aF0.0
aF0.0
aF0.0
aF0.0
aF0.0
aF0.0
aF0.0
aF0.0
aF0.0
aF0.0
aF0.0
aF0.0
aF0.0
aF0.0
aF0.0
aF0.0
aF0.0
aF0.0
aF0.0
aF0.0
aF0.0
aF0.0
aF0.0
aF0.0
aF0.0
aF0.0
aF0.0
aF0.0
aF0.0
aF0.0
aF0.0
aF0.0
aF0.0
aF0.0
aF0.0
aF0.0
aF0.0
aF0.0
aF0.0
aF0.0
aF0.0
aF0.0
aF0.0
aF0.0
aF0.0
aF0.0
aF0.0
aF0.0
aF0.0
aF0.0
aF0.0
aF0.0
aF0.0
aF0.0
aF0.0
aF0.0
aF0.0
aF0.0
aF0.0
aF0.0
aF0.0
aF0.0
aF0.0
aF0.0
aF0.0
aF0.0
aF0.0
aF0.0
aF0.0
aF0.0
aF0.0
aF0.0
aF0.0
aF0.0
aF0.0
aF0.0
aF0.0
aF0.0
aF0.0
aF0.0
aF0.0
aF0.0
aF0.0
aF0.0
aF0.0
aF0.0
aF0.0
aF0.0
aF0.0
aF0.0
aF0.0
aF0.0
aF0.0
aF0.0
aF0.0
aF0.0
aF0.0
aF0.0
aF0.0
aF0.0
aF0.0
aF0.0
aF0.0
aF0.0
aF0.0
aF0.0
aF0.0
aF0.0
aF0.0
aF0.0
aF0.0
aF0.0
aF0.0
aF0.0
aF0.0
aF0.0
aF0.0
aF0.0
aF0.0
aF0.0
aF0.0
aF0.0
aF0.0
aF0.0
aF0.0
aF0.0
aF0.0
aF0.0
aF0.0
aF0.0
aF0.0
aF0.0
aF0.0
aF0.0
aF0.0
aF0.0
aF0.0
aF0.0
aF0.0
aF0.0
aF0.0
aF0.0
aF0.0
aF0.0
aF0.0
aF0.0
aF0.0
aF0.0
aF0.0
aF0.0
aF0.0
aF0.0
aF0.0
aF0.0
aF0.0
aF0.0
aF0.0
aF0.0
aF0.0
aF0.0
aF0.0
aF0.0
aF0.0
aF0.0
aF0.0
aF0.0
aF0.0
aF0.0
aF0.0
aF0.0
aF0.0
aF0.0
aF0.0
aF0.0
aF0.0
aF0.0
aF0.0
aF0.0
aF0.0
aF0.0
aF0.0
aF0.0
aF0.0
aF0.0
aF0.0
aF0.0
aF0.0
aF0.0
aF0.0
aF0.0
aF0.0
aF0.0
aF0.0
aF0.0
aF0.0
aF0.0
aF0.0
aF0.0
aF0.0
aF0.0
aF0.0
aF0.0
aF0.0
aF0.0
aF0.0
aF0.0
aF0.0
aF0.0
aF0.0
aF0.0
aF0.0
aF0.0
aF0.0
aF0.0
aF0.0
aF0.0
aF0.0
aF0.0
aF0.0
aF0.0
aF0.0
aF0.0
aF0.0
aF0.0
aF0.0
aF0.0
aF0.0
aF0.0
aF0.0
aF0.0
aF0.0
aF0.0
aF0.0
aF0.0
aF0.0
aF0.0
aF0.0
aF0.0
aF0.0
aF0.0
aF0.0
aF0.0
aF0.0
aF0.0
aF0.0
aF0.0
aF0.0
aF0.0
aF0.0
aF0.0
aF0.0
aF0.0
aF0.0
aF0.0
aF0.0
aF0.0
aF0.0
aF0.0
aF0.0
aF0.0
aF0.0
aF0.0
aF0.0
aF0.0
aF0.0
aF0.0
aF0.0
aF0.0
aF0.0
aF0.0
aF0.0
aF0.0
aF0.0
aF0.0
aF0.0
aF0.0
aF0.0
aF0.0
aF0.0
aF0.0
aF0.0
aF0.0
aF0.0
aF0.0
aF0.0
aF0.0
aF0.0
aF0.0
aF0.0
aF0.0
aF0.0
aF0.0
aF0.0
aF0.0
aF0.0
aF0.0
aF0.0
aF0.0
aF0.0
aF0.0
aF0.0
aF0.0
aF0.0
aF0.0
aF0.0
aF0.0
aF0.0
aF0.0
aF0.0
aF0.0
aF0.0
aF0.0
aF0.0
aF0.0
aF0.0
aF0.0
aF0.0
aF0.0
aF0.0
aF0.0
aF0.0
aF0.0
aF0.0
aF0.0
aF0.0
aF0.0
aF0.0
aF0.0
aF0.0
aF0.0
aF0.0
aF0.0
aF0.0
aF0.0
aF0.0
aF0.0
aF0.0
aF0.0
aF0.0
aF0.0
aF0.0
aF0.0
aF0.0
aF0.0
aF0.0
aF0.0
aF0.0
aF0.0
aF0.0
aF0.0
aF0.0
aF0.0
aF0.0
aF0.0
aF0.0
aF0.0
aF0.0
aF0.0
aF0.0
aF0.0
aF0.0
aF0.0
aF0.0
aF0.0
aF0.0
aF0.0
aF0.0
aF0.0
aF0.0
aF0.0
aF0.0
aF0.0
aF0.0
aF0.0
aF0.0
aF0.0
aF0.0
aF0.0
aF0.0
aF0.0
aF0.0
aF0.0
aF0.0
aF0.0
aF0.0
aF0.0
aF0.0
aF0.0
aF0.0
aF0.0
aF0.0
aF0.0
aF0.0
aF0.0
aF0.0
aF0.0
aF0.0
aF0.0
aF0.0
aF0.0
aF0.0
aF0.0
aF0.0
aF0.0
aF0.0
aF0.0
aF0.0
aF0.0
aF0.0
aF0.0
aF0.0
aF0.0
aF0.0
aF0.0
aF0.0
aF0.0
aF0.0
aF0.0
aF0.0
aF0.0
aF0.0
aF0.0
aF0.0
aF0.0
aF0.0
aF0.0
aF0.0
aF0.0
aF0.0
aF0.0
aF0.0
aF0.0
aF0.0
aF0.0
aF0.0
aF0.0
aF0.0
aF0.0
aF0.0
aF0.0
aF0.0
aF0.0
aF0.0
aF0.0
aF0.0
aF0.0
aF0.0
aF0.0
aF0.0
aF0.0
aF0.0
aF0.0
aF0.0
aF0.0
aF0.0
aF0.0
aF0.0
aF0.0
aF0.0
aF0.0
aF0.0
aF0.0
aF0.0
aF0.0
aF0.0
aF0.0
aF0.0
aF0.0
aF0.0
aF0.0
aF0.0
aF0.0
aF0.0
aF0.0
aF0.0
aF0.0
aF0.0
aF0.0
aF0.0
aF0.0
aF0.0
aF0.0
aF0.0
aF0.0
aF0.0
aF0.0
aF0.0
aF0.0
aF0.0
aF0.0
aF0.0
aF0.0
aF0.0
aF0.0
aF0.0
aF0.0
aF0.0
aF0.0
aF0.0
aF0.0
aF0.0
aF0.0
aF0.0
aF0.0
aF0.0
aF0.0
aF0.0
aF0.0
aF0.0
aF0.0
aF0.0
aF0.0
aF0.0
aF0.0
aF0.0
aF0.0
aF0.0
aF0.0
aF0.0
aF0.0
aF0.0
aF0.0
aF0.0
aF0.0
aF0.0
aF0.0
aF0.0
aF0.0
aF0.0
aF0.0
aF0.0
aF0.0
aF0.0
aF0.0
aF0.0
aF0.0
aF0.0
aF0.0
aF0.0
aF0.0
aF0.0
aF0.0
aF0.0
aF0.0
aF0.0
aF0.0
aF0.0
aF0.0
aF0.0
aF0.0
aF0.0
aF0.0
aF0.0
aF0.0
aF0.0
aF0.0
aF0.0
aF0.0
aF0.0
aF0.0
aF0.0
aF0.0
aF0.0
aF0.0
aF0.0
aF0.0
aF0.0
aF0.0
aF0.0
aF0.0
aF0.0
aF0.0
aF0.0
aF0.0
aF0.0
aF0.0
aF0.0
aF0.0
aF0.0
aF0.0
aF0.0
aF0.0
aF0.0
aF0.0
aF0.0
aF0.0
aF0.0
aF0.0
aF0.0
aF0.0
aF0.0
aF0.0
aF0.0
aF0.0
aF0.0
aF0.0
aF0.0
aF0.0
aF0.0
aF0.0
aF0.0
aF0.0
aF0.0
aF0.0
aF0.0
aF0.0
aF0.0
aF0.0
aF0.0
aF0.0
aF0.0
aF0.0
aF0.0
aF0.0
aF0.0
aF0.0
aF0.0
aF0.0
aF0.0
aF0.0
aF0.0
aF0.0
aF0.0
aF0.0
aF0.0
aF0.0
aF0.0
aF0.0
aF0.0
aF0.0
aF0.0
aF0.0
aF0.0
aF0.0
aF0.0
aF0.0
aF0.0
aF0.0
aF0.0
aF0.0
aF0.0
aF0.0
aF0.0
aF0.0
aF0.0
aF0.0
aF0.0
aF0.0
aF0.0
aF0.0
aF0.0
aF0.0
aF0.0
aF0.0
aF0.0
aF0.0
aF0.0
aF0.0
aF0.0
aF0.0
aF0.0
aF0.0
aF0.0
aF0.0
aF0.0
aF0.0
aF0.0
aF0.0
aF0.0
aF0.0
aF0.0
aF0.0
aF0.0
aF0.0
aF0.0
aF0.0
aF0.0
aF0.0
aF0.0
aF0.0
aF0.0
aF0.0
aF0.0
aF0.0
aF0.0
aF0.0
aF0.0
aF0.0
aF0.0
aF0.0
aF0.0
aF0.0
aF0.0
aF0.0
aF0.0
aF0.0
aF0.0
aF0.0
aF0.0
aF0.0
aF0.0
aF0.0
aF0.0
aF0.0
aF0.0
aF0.0
aF0.0
aF0.0
aF0.0
aF0.0
aF0.0
aF0.0
aF0.0
aF0.0
aF0.0
aF0.0
aF0.0
aF0.0
aF0.0
aF0.0
aF0.0
aF0.0
aF0.0
aF0.0
aF0.0
aF0.0
aF0.0
aF0.0
aF0.0
aF0.0
aF0.0
aF0.0
aF0.0
aF0.0
aF0.0
aF0.0
aF0.0
aF0.0
aF0.0
aF0.0
aF0.0
aF0.0
aF0.0
aF0.0
aF0.0
aF0.0
aF0.0
aF0.0
aF0.0
aF0.0
aF0.0
aF0.0
aF0.0
aF0.0
aF0.0
aF0.0
aF0.0
aF0.0
aF0.0
aF0.0
aF0.0
aF0.0
aF0.0
aF0.0
aF0.0
aF0.0
aF0.0
aF0.0
aF0.0
aF0.0
aF0.0
aF0.0
aF0.0
aF0.0
aF0.0
aF0.0
aF0.0
aF0.0
aF0.0
aF0.0
aF0.0
aF0.0
aF0.0
aF0.0
aF0.0
aF0.0
aF0.0
aF0.0
aF0.0
aF0.0
aF0.0
aF0.0
aF0.0
aF0.0
aF0.0
aF0.0
aF0.0
aF0.0
aF0.0
aF0.0
aF0.0
aF0.0
aF0.0
aF0.0
aF0.0
aF0.0
aF0.0
aF0.0
aF0.0
aF0.0
aF0.0
aF0.0
aF0.0
aF0.0
aF0.0
aF0.0
aF0.0
aF0.0
aF0.0
aF0.0
aF0.0
aF0.0
aF0.0
aF0.0
aF0.0
aF0.0
aF0.0
aF0.0
aF0.0
aF0.0
aF0.0
aF0.0
aF0.0
aF0.0
aF0.0
aF0.0
aF0.0
aF0.0
aF0.0
aF0.0
aF0.0
aF0.0
aF0.0
aF0.0
aF0.0
aF0.0
aF0.0
aF0.0
aF0.0
aF0.0
aF0.0
aF0.0
aF0.0
aF0.0
aF0.0
aF0.0
aF0.0
aF0.0
aF0.0
aF0.0
aF0.0
aF0.0
aF0.0
aF0.0
aF0.0
aF0.0
aF0.0
aF0.0
aF0.0
aF0.0
aF0.0
aF0.0
aF0.0
aF0.0
aF0.0
aF0.0
aF0.0
aF0.0
aF0.0
aF0.0
aF0.0
aF0.0
aF0.0
aF0.0
aF0.0
aF0.0
aF0.0
aF0.0
aF0.0
aF0.0
aF0.0
aF0.0
aF0.0
aF0.0
aF0.0
aF0.0
aF0.0
aF0.0
aF0.0
aF0.0
aF0.0
aF0.0
aF0.0
aF0.0
aF0.0
aF0.0
aF0.0
aF0.0
aF0.0
aF0.0
aF0.0
aF0.0
aF0.0
aF0.0
aF0.0
aF0.0
aF0.0
aF0.0
aF0.0
aF0.0
aF0.0
aF0.0
aF0.0
aF0.0
aF0.0
aF0.0
aF0.0
aF0.0
aF0.0
aF0.0
aF0.0
aF0.0
aF0.0
aF0.0
aF0.0
aF0.0
aF0.0
aF0.0
aF0.0
aF0.0
aF0.0
aF0.0
aF0.0
aF0.0
aF0.0
aF0.0
aF0.0
aF0.0
aF0.0
aF0.0
aF0.0
aF0.0
aF0.0
aF0.0
aF0.0
aF0.0
aF0.0
aF0.0
aF0.0
aF0.0
aF0.0
aF0.0
aF0.0
aF0.0
aF0.0
aF0.0
aF0.0
aF0.0
aF0.0
aF0.0
aF0.0
aF0.0
aF0.0
aF0.0
aF0.0
aF0.0
aF0.0
aF0.0
aF0.0
aF0.0
aF0.0
aF0.0
aF0.0
aF0.0
aF0.0
aF0.0
aF0.0
aF0.0
aF0.0
aF0.0
aF0.0
aF0.0
aF0.0
aF0.0
aF0.0
aF0.0
aF0.0
aF0.0
aF0.0
aF0.0
aF0.0
aF0.0
aF0.0
aF0.0
aF0.0
aF0.0
aF0.0
aF0.0
aF0.0
aF0.0
aF0.0
aF0.0
aF0.0
aF0.0
aF0.0
aF0.0
aF0.0
aF0.0
aF0.0
aF0.0
aF0.0
aF0.0
aF0.0
aF0.0
aF0.0
aF0.0
aF0.0
aF0.0
aF0.0
aF0.0
aF0.0
aF0.0
aF0.0
aF0.0
aF0.0
aF0.0
aF0.0
aF0.0
aF0.0
aF0.0
aF0.0
aF0.0
aF0.0
aF0.0
aF0.0
aF0.0
aF0.0
aF0.0
aF0.0
aF0.0
aF0.0
aF0.0
aF0.0
aF0.0
aF0.0
aF0.0
aF0.0
aF0.0
aF0.0
aF0.0
aF0.0
aF0.0
aF0.0
aF0.0
aF0.0
aF0.0
aF0.0
aF0.0
aF0.0
aF0.0
aF0.0
aF0.0
aF0.0
aF0.0
aF0.0
aF0.0
aF0.0
aF0.0
aF0.0
aF0.0
aF0.0
aF0.0
aF0.0
aF0.0
aF0.0
aF0.0
aF0.0
aF0.0
aF0.0
aF0.0
aF0.0
aF0.0
aF0.0
aF0.0
aF0.0
aF0.0
aF0.0
aF0.0
aF0.0
aF0.0
aF0.0
aF0.0
aF0.0
aF0.0
aF0.0
aF0.0
aF0.0
aF0.0
aF0.0
aF0.0
aF0.0
aF0.0
aF0.0
aF0.0
aF0.0
aF0.0
aF0.0
aF0.0
aF0.0
aF0.0
aF0.0
aF0.0
aF0.0
aF0.0
aF0.0
aF0.0
aF0.0
aF0.0
aF0.0
aF0.0
aF0.0
aF0.0
aF0.0
aF0.0
aF0.0
aF0.0
aF0.0
aF0.0
aF0.0
aF0.0
aF0.0
aF0.0
aF0.0
aF0.0
aF0.0
aF0.0
aF0.0
aF0.0
aF0.0
aF0.0
aF0.0
aF0.0
aF0.0
aF0.0
aF0.0
aF0.0
aF0.0
aF0.0
aF0.0
aF0.0
aF0.0
aF0.0
aF0.0
aF0.0
aF0.0
aF0.0
aF0.0
aF0.0
aF0.0
aF0.0
aF0.0
aF-0.005872588871623267
aF0.00024580927723771585
aF0.0
aF-0.00019326847328303095
aF0.0
aF0.0
aF0.0
aF0.0
aF0.0
aF0.0
aF8.356946295528133e-05
aF0.0
aF0.0
aF0.0
aF0.0
aF0.0
aF0.0
aF0.0
aF0.0
aF0.0
aF0.0
aF0.0
aF0.0
aF0.0
aF0.0
aF0.0
aF0.0
aF0.0
aF0.0
aF0.0
aF0.0
aF0.0
aF0.0
aF0.0
aF0.0
aF0.0
aF0.0
aF0.0
aF0.0
aF0.0
aF0.0
aF0.0
aF0.0
aF0.0
aF0.0
aF0.0
aF0.0
aF0.0
aF0.0
aF0.0
aF0.0
aF0.0
aF0.0
aF0.0
aF0.0
aF0.0
aF0.0
aF0.0
aF0.0
aF0.0
aF0.0
aF0.0
aF0.0
aF0.0
aF0.0
aF0.0
aF0.0
aF0.0
aF0.0
aF0.0
aF0.0
aF0.0
aF0.0
aF0.0
aF0.0
aF-1.9497999958266174e-05
aF0.0
aF0.0
aF0.0
aF0.0
aF2.618e-05
aF0.0
aF0.0
aF0.0
aF0.0
aF0.0
aF0.0
aF0.0
aF0.0
aF0.0
aF0.0
aF0.0
aF0.0
aF0.0
aF0.0
aF0.0
aF0.0
aF0.0
aF0.0
aF0.0
aF0.0
aF0.0
aF0.0
aF0.0
aF0.0
aF0.0
aF0.0
aF0.0
aF0.0
aF0.0
aF0.0
aF0.0
aF0.0
aF0.0
aF0.0
aF0.0
aF0.0
aF0.0
aF0.0
aF0.0
aF0.0
aF0.0
aF0.0
aF0.0
aF0.0
aF0.0
aF0.0
aF0.0
aF0.0
aF0.0
aF0.0
aF0.0
aF0.0
aF0.0
aF0.0
aF0.0
aF0.0
aF0.0
aF0.0
aF0.0
aF0.0
aF0.0
aF0.0
aF0.0
aF0.0
aF0.0
aF0.0
aF0.0
aF0.0
aF0.0
aF0.0
aF0.0
aF0.0
aF0.0
aF0.0
aF0.0
aF0.0
aF0.0
aF0.0
aF0.0
aF0.0
aF0.0
aF0.0
aF0.0
aF0.0
aF0.0
aF0.0
aF0.0
aF0.0
aF0.0
aF0.0
aF0.0
aF0.0
aF0.0
aF0.0005
aF0.0
aF0.0
aF0.0
aF-1.1544999999999999e-05
aF0.0
aF0.0
aF0.0
aF0.0
aF0.0
aF0.0
aF0.0
aF0.0
aF0.0
aF0.0
aF0.0
aF0.0
aF0.0
aF0.0
aF0.0
aF0.0
aF0.0
aF0.0
aF0.0
aF0.0
aF0.0
aF0.0
aF0.0
aF0.0
aF0.0
aF0.0
aF0.0
aF0.0
aF0.0
aF0.0
aF0.0
aF0.0
aF0.0
aF0.0
aF0.0
aF0.0
aF0.0
aF0.0
aF0.0
aF0.0
aF0.0
aF0.0
aF0.0
aF0.0
aF0.0
aF0.0
aF0.0
aF0.0
aF0.0
aF0.0
aF0.0
aF0.0
aF0.0
aF0.0
aF7.576e-05
aF0.0
aF0.0
aF0.0
aF0.0
aF0.0
aF0.0
aF0.0
aF0.0
aF0.0
aF0.0
aF0.0
aF0.0
aF0.0
aF0.0
aF0.0
aF0.0
aF0.0
aF0.0
aF0.0
aF0.0
aF0.0
aF0.0
aF0.0
aF0.0
aF0.0
aF0.0
aF0.0
aF0.0
aF0.0
aF0.0
aF0.0
aF0.0
aF0.0
aF0.0
aF0.0
aF0.0
aF0.0
aF0.0
aF0.0
aF0.0
aF0.0
aF0.0
aF0.0
aF0.0
aF0.0
aF0.0
aF0.0
aF0.0
aF0.0
aF0.0
aF0.0
aF0.0
aF0.0
aF0.0
aF0.0
aF0.0
aF0.0
aF0.0
aF0.0
aF0.0
aF0.0
aF0.0
aF0.0
aF0.0
aF0.0
aF0.0
aF0.0
aF0.0
aF0.0
aF0.0
aF0.0
aF0.0
aF0.0
aF0.0
aF0.0
aF0.0
aF0.0
aF0.0
aF0.0
aF0.0
aF0.0
aF0.0
aF0.0
aF0.0
aF0.0
aF0.0
aF0.0
aF0.0
aF0.0
aF0.0
aF0.0
aF0.0
aF0.0
aF0.0
aF0.0
aF0.0
aF0.0
aF0.0
aF0.0
aF0.0
aF0.0
aF0.0
aF0.0
aF0.0
aF0.0
aF0.0
aF0.0
aF0.0
aF0.0
aF0.0
aF0.0
aF0.0
aF0.0
aF0.0
aF0.0
aF0.0
aF0.0
aF0.0
aF0.0
aF0.0
aF0.0
aF0.0
asb.