(ilrsgd
LogisticRegressionSGD
p0
(dp1
S'mu'
p2
F0.05
sS'eta'
p3
F0.03
sS'weight'
p4
(lp5
F-0.014578829526982882
aF-0.014915887956272519
aF0.0
aF0.0
aF0.0
aF-0.02715354845239224
aF0.002018041634574058
aF-0.033404084876236924
aF-0.014881488509967766
aF0.0
aF-0.01592926186260556
aF-0.03713818399309128
aF0.0
aF-0.028249021191222017
aF0.015389557439325467
aF0.0
aF-0.015015549151522563
aF-0.014967994888084361
aF-0.005908105868875781
aF0.0
aF-0.014533078433663364
aF0.0
aF0.0
aF-0.014971862091263381
aF-0.054803746411515156
aF-0.01487581279849668
aF-0.0014911259241942136
aF-0.02827234938400761
aF-0.013942970383291498
aF-0.02994061116527673
aF0.0419970055139328
aF-0.007456773659156986
aF-0.014951551043807096
aF-0.040407898739834976
aF-0.02754576695382402
aF-0.027905190753610636
aF-0.013966143416391168
aF0.0
aF0.00774290227648434
aF-0.013896935574857511
aF-0.014189566436447526
aF-0.009943178188937883
aF-0.01482366469476805
aF-0.0015002509545359675
aF0.0
aF-0.014470999861996911
aF-0.014934692638644349
aF-0.015027266194860807
aF-0.014141726242959764
aF0.015470170261835505
aF0.015007010840288385
aF-0.014938507730591324
aF-0.02956397788380751
aF-0.06342519420331955
aF-0.0143881899936999
aF-0.014970273133525157
aF-0.011957712083641396
aF-0.0402777901198043
aF0.0
aF0.026985539893481555
aF-0.006035147675916046
aF-0.028350574534423863
aF-0.0267111716127372
aF-0.04300165009874553
aF0.0
aF-0.014563610569784839
aF0.0
aF0.0
aF0.015787810515457888
aF0.015040808337434384
aF-0.028402182318177413
aF0.0
aF0.0
aF-0.00629956855336078
aF0.015369089244959186
aF0.0
aF0.015395629770819649
aF-0.013375411685223345
aF0.0
aF0.015038126533810708
aF0.0
aF0.0
aF-0.007487472434328812
aF0.0
aF0.0
aF-0.012888275509558698
aF-0.013104501830454288
aF-0.014760825171021556
aF0.0
aF-0.01499277553988571
aF-0.013570794038365412
aF-0.01488663879503636
aF0.0
aF-0.04901643200497474
aF-0.05407593938263858
aF-0.014999907451880491
aF-0.0014655049865667062
aF-0.014864898653353767
aF-0.0019003103147297454
aF-0.001520567289858216
aF-0.028258436734185155
aF0.0
aF-0.0523043552207235
aF0.0
aF-0.014549502688223512
aF0.0
aF-0.012427040115879338
aF0.0
aF-0.07698346543638189
aF-0.014958879420209197
aF-0.014954221319177136
aF-0.014875568844744546
aF-0.028300629548622672
aF-0.03599186781425652
aF0.015116625793075919
aF-0.014710461567183048
aF-0.03771487796372945
aF-0.014881486084514282
aF-0.014597895827868993
aF-0.04056620764847837
aF-0.0387744476399188
aF-0.014207352023771293
aF-0.02506888443805625
aF0.0
aF-0.013265972263810044
aF0.0
aF0.01584525220855403
aF-0.014691030260684728
aF0.0
aF0.0
aF0.015023106983694221
aF0.0
aF-0.031192511355656465
aF0.0
aF0.0
aF-0.03179507549432126
aF-0.014998719851295163
aF0.0
aF-0.013963889978517274
aF-0.02706635913237531
aF-0.1025623896866246
aF-0.02754847110254964
aF-0.044978035402658156
aF0.0
aF0.0
aF-0.05986399054708526
aF-0.028387447340328685
aF-0.08300138342416494
aF0.0
aF0.01505807237595486
aF-0.028276726844850174
aF-0.014762421553114224
aF0.0
aF0.0
aF-0.058892312103469416
aF0.0
aF-0.014192444793108761
aF0.0
aF-0.014963438525946289
aF0.015014083478752908
aF0.001857717389188076
aF-0.014909049782652548
aF-0.013300013744961385
aF0.015103312156566616
aF-0.014997987276113652
aF-0.05975035573385765
aF0.0
aF-0.014983052769017518
aF0.0
aF-0.06366786596316629
aF0.0
aF0.0
aF-0.028342397353861248
aF-0.014767517017121477
aF-0.014921686718725558
aF-0.028127240318141053
aF0.0
aF-0.0418822605881151
aF-0.03470760906819632
aF0.0
aF3.073484277954855e-05
aF-0.028337111625886726
aF0.0
aF-0.007451883520065036
aF-0.00597470705347742
aF-0.05051766449497888
aF-0.014824316935992458
aF0.0
aF-0.012637855020477035
aF-0.010531994847869711
aF-0.014752575206806864
aF-0.07785806866356144
aF-0.014999879969101503
aF-0.03833241744306812
aF0.0
aF-0.028169079612181007
aF0.0
aF0.0
aF-0.02116280070374939
aF-0.01462537585472464
aF-0.04379782792677216
aF0.0
aF-0.005353013787877942
aF0.0
aF-0.014811160612781404
aF-0.014996077940040466
aF-0.014794206340479983
aF-0.014997118908901845
aF0.0
aF-0.011792423657377114
aF-0.01385147732030121
aF0.0
aF0.0
aF-0.028223389096350436
aF0.0019740349010641586
aF0.0
aF0.0
aF-0.014786940493653906
aF-0.03992369417556313
aF-0.05923381472489249
aF-0.06004597276014391
aF-0.018495503052482893
aF-0.014860327682226789
aF-0.006788874992428258
aF-0.014972192022562173
aF0.0
aF-0.017972476345525984
aF-0.03985567445224239
aF-0.01490782315001691
aF-0.014983400046541376
aF-0.014933325015398595
aF0.0
aF0.0
aF-0.013174986459037634
aF0.0
aF0.0
aF-0.014876082794872103
aF-0.01477634561048121
aF-0.015
aF-0.024846113302827343
aF0.0
aF0.0
aF-0.015453649344182446
aF-0.0006552141893043911
aF-0.02833930665453263
aF0.0
aF0.020772481133405934
aF0.0
aF-0.009190653889018584
aF0.0
aF-0.028234179963519485
aF0.0
aF-0.009489536366141416
aF0.0
aF0.0
aF0.0
aF-0.04055133316764702
aF-0.013859073303430326
aF0.0
aF-0.014958733254712307
aF0.0
aF0.0
aF0.0
aF0.015018351811238865
aF0.00407572797464568
aF-0.014458058742799977
aF-0.014472966681392467
aF0.0
aF-0.01492562512489909
aF-0.014859329430693645
aF-0.008646306905725643
aF-0.014787108030575724
aF0.0
aF0.0
aF0.015026942799996843
aF-0.026257677624737415
aF0.0
aF0.0
aF-0.01461903940598576
aF-0.015112487067542988
aF0.0
aF-0.009448287524262928
aF-0.039816214304406884
aF0.0
aF-0.05059001289881654
aF-0.014999753044154678
aF-0.013956798782612157
aF0.0
aF0.0
aF-0.014861412255771096
aF-0.014976933652300985
aF0.015079102282500756
aF0.0
aF-0.028224427536970267
aF0.0
aF-5.1048791535168725e-05
aF0.0
aF-0.01491998972495489
aF-0.013688396871359431
aF-0.027989557185916003
aF0.0
aF0.0
aF-0.014817882592863131
aF0.013756861648168948
aF0.0
aF0.0
aF-0.014017885485875266
aF0.0
aF0.0
aF0.0
aF0.0
aF-0.02024205109608562
aF0.0
aF-0.01498706655495882
aF-0.024685327798405002
aF0.0008943181066278353
aF0.014990868871771078
aF-0.004970646501717119
aF-0.028071504842034568
aF0.0
aF0.0
aF0.0
aF-0.014774884521818193
aF0.0
aF-0.05056200694460072
aF0.0
aF-0.014997848706091587
aF0.0
aF0.0
aF-0.02835145890979989
aF0.0
aF0.0
aF-0.014972041508183025
aF0.0
aF-0.013763791724868633
aF-0.025370049664447527
aF-0.014999965911725446
aF0.0
aF0.0
aF0.0
aF-0.007450895266998435
aF0.0
aF-0.01497439902869457
aF0.01500492225953916
aF-0.014839355305192042
aF0.0
aF-0.01022843728839026
aF0.0
aF0.0
aF0.0
aF-0.0684402468905112
aF-0.019768538147812573
aF0.0
aF0.0
aF-0.013998396790282717
aF-0.025070817192106555
aF-0.03911546685057564
aF-0.038491194135435086
aF-0.015
aF0.0
aF-0.02809437353659747
aF0.015282238327881262
aF0.001757993765971945
aF0.0
aF0.0
aF-0.014999925517000997
aF0.0
aF-0.020164845412564348
aF0.0
aF0.0
aF-0.010750335572260707
aF-0.013799268712188556
aF0.0
aF-0.022959515586667447
aF0.0
aF0.0
aF0.0
aF0.0
aF0.0
aF-0.01390537820463946
aF-0.02633782118223244
aF0.0
aF0.0
aF-0.028141995666688867
aF-0.014999977266993666
aF0.0
aF-0.010112181618210361
aF0.0
aF0.0
aF-0.014981884235103863
aF0.0
aF0.0
aF0.0
aF-0.014961470681786932
aF-0.0594492620830675
aF-0.0025813350599825638
aF-0.014955089554255277
aF-0.028219913642082886
aF0.0
aF-0.014921055725980466
aF0.0
aF0.0
aF0.0
aF0.0
aF0.00181778572201567
aF0.0
aF-0.014946498755030723
aF0.0
aF0.0
aF0.0
aF0.0
aF-0.014776817835105772
aF0.0
aF-0.014864540253980353
aF0.0
aF0.0
aF0.0
aF-0.014999948199839625
aF0.016531884657477833
aF-0.034574116675462195
aF0.0
aF0.0
aF0.0
aF0.0
aF0.015404488028938968
aF0.0
aF0.0
aF-0.036850515078858254
aF-0.008969559505960074
aF-0.0051712910506002095
aF0.0
aF0.0
aF0.0
aF0.0
aF0.0
aF0.0
aF0.0
aF0.0
aF0.0
aF-0.0363791973351283
aF-0.02796073485499328
aF0.0
aF0.0
aF-0.012978804034569413
aF-0.03517699996917774
aF-0.01499993468410602
aF0.0
aF0.0
aF0.0
aF-0.003434468747350727
aF-0.028305651832515665
aF0.0
aF-0.02017266466577335
aF-0.014754734506087048
aF0.0
aF0.0
aF0.0
aF-0.023039216084650982
aF0.0
aF-0.0006788203558642557
aF0.0
aF0.0
aF0.0
aF0.0
aF0.0
aF0.0
aF0.0
aF-0.007406912145871875
aF0.0
aF0.0
aF-0.014623458940521453
aF0.0
aF0.0
aF0.0
aF-0.014975898209371868
aF-0.007485746133832073
aF0.0
aF0.0
aF0.0
aF0.0
aF0.0
aF0.0
aF0.015113330941493034
aF-0.039609700694160935
aF-0.0029952435017160622
aF0.0
aF-0.01494891072326883
aF0.0
aF-0.0382886468506997
aF-0.013956668994979295
aF0.0
aF0.0
aF0.0
aF-0.014971576811750285
aF0.0
aF-0.014931959348371831
aF-0.0034997599255209306
aF0.0
aF0.0
aF-0.014971778571615755
aF0.0
aF-0.012916146695380949
aF-0.017122874458464978
aF0.0
aF0.015000113165333817
aF0.0
aF-0.014979924161986553
aF-0.0009307526152371415
aF0.0
aF0.0
aF0.015126761183083204
aF0.0
aF0.0
aF0.0
aF-0.013605535899195078
aF0.0
aF0.0
aF0.0
aF0.0
aF0.0
aF-0.03208974423188357
aF-0.024567496052280806
aF-0.007485637330461822
aF-0.007496488236882911
aF-0.03941286702984492
aF-0.014952509754928
aF0.0
aF0.0
aF-0.02531986032611353
aF0.0
aF0.0
aF-0.014999935361612938
aF0.0
aF0.0
aF-1.899892329105526e-05
aF0.0
aF-0.007536866225395807
aF0.0
aF0.0
aF0.007504350695697911
aF0.0
aF-0.02836633324532675
aF0.0
aF0.0
aF-0.01397252261946628
aF0.0
aF0.0014386346177266054
aF0.0
aF0.0
aF0.0
aF0.0
aF0.0
aF0.0
aF0.0
aF0.0
aF-0.030405491399117038
aF0.0
aF0.0
aF0.0
aF0.0
aF0.0
aF0.0
aF-0.014305030946363536
aF-0.014756651255926814
aF0.0
aF0.0
aF0.0
aF0.0
aF-0.014999471772100328
aF-0.013439021562018337
aF0.0
aF-0.013775942034534208
aF-0.039330840643933905
aF0.0
aF0.0
aF0.0
aF0.0
aF-0.013956837443316869
aF0.0
aF-0.1083956989432914
aF0.0
aF0.0
aF-0.028367894328809845
aF0.0
aF0.0
aF0.0
aF-0.014876329245279936
aF-0.015003937332371023
aF0.0
aF-0.007500517555527377
aF-0.010082731836877891
aF0.0
aF-0.014981001451055406
aF0.0
aF0.003350478965992377
aF0.0
aF-0.03283116074735039
aF-0.004057097779332577
aF0.0
aF-0.014970914622332684
aF0.0
aF0.0
aF0.0
aF0.0
aF-0.014191809215737755
aF-0.020754475413223027
aF-0.05043803946266426
aF-0.007419930002249378
aF0.0
aF-0.0012197620092795295
aF0.0
aF0.0
aF-0.060255042328798455
aF-0.020392821536154963
aF-0.04685854603419427
aF0.0
aF0.0
aF-0.014971758008355743
aF-0.05323665835903385
aF0.0
aF0.0
aF0.0
aF0.0
aF0.015139626251046891
aF0.0
aF0.0
aF-0.0268307889745868
aF0.0
aF0.0
aF-0.023123356838037866
aF-0.014145278679901029
aF-0.017252855353388476
aF0.0
aF0.0
aF-0.015
aF0.0
aF0.0
aF0.0
aF0.0
aF0.0
aF-0.007499711832968847
aF0.0
aF0.0
aF0.0
aF0.0
aF-0.0007431863610758895
aF0.0
aF-0.028239657251206016
aF0.015000033846958609
aF-0.012515112238847326
aF0.0
aF-0.013928470653096244
aF0.0
aF0.0
aF0.0
aF-0.014916799360614295
aF0.0
aF0.0
aF0.0
aF0.015324272672733842
aF0.0007959915458271433
aF-0.014873793495795398
aF0.0
aF0.0
aF-0.014972765809095625
aF-0.012968723317428594
aF-0.04570996284712014
aF0.0
aF0.0
aF-0.12758784752492683
aF0.0
aF0.0
aF0.0
aF0.005126265493416935
aF0.0
aF0.0
aF0.0
aF-0.007426938818124029
aF0.0
aF0.0291426287201589
aF0.0
aF0.0
aF0.0
aF0.0
aF0.0
aF0.0
aF-0.02832598795811056
aF0.0
aF-0.05040194497887326
aF0.0
aF-0.01395673705354628
aF0.0
aF0.0
aF-0.012615590076574805
aF-0.0005807553141044522
aF-0.0155977680881669
aF-0.05091473342529089
aF0.0
aF0.0
aF0.0
aF0.0
aF0.0
aF0.0
aF0.0
aF0.0
aF0.0
aF0.0
aF-0.014991442485600847
aF0.014999996598442833
aF0.0
aF0.0
aF0.0
aF0.0
aF0.0
aF0.0
aF0.0
aF0.0
aF0.0
aF0.0
aF0.0
aF0.0
aF-0.009476399211845486
aF0.0
aF-0.014073824261891368
aF-0.023174717932413713
aF0.0
aF0.0
aF-0.007469680589723279
aF0.0
aF0.015018810624642212
aF0.0
aF-0.014240970942162664
aF-0.014968398972088659
aF-0.026742212111680312
aF0.0
aF-0.01790127944096891
aF0.0
aF0.0
aF0.0
aF-0.014931460737517527
aF0.0
aF0.0
aF0.0
aF0.0
aF0.0
aF0.001632976029058179
aF-0.003536421752687471
aF0.0
aF0.0
aF0.0
aF0.0
aF0.0
aF-0.004985864954899386
aF-0.1202895850223516
aF0.0
aF0.0
aF0.0
aF0.0
aF-0.014978320772463288
aF-0.014941910943149695
aF-0.012371999687452952
aF0.0
aF0.0
aF-0.01499988683466618
aF-0.014999970525052132
aF-0.014987535173942019
aF0.0
aF0.0
aF0.0
aF0.0
aF0.0
aF-0.036174106986847976
aF-0.12191701561328683
aF0.0
aF0.0
aF0.0
aF-0.013823491757725018
aF-0.02959348470035218
aF0.0
aF0.0
aF0.0
aF0.0
aF0.0
aF0.0
aF-0.014875469173321517
aF0.0
aF-0.007387244392551393
aF0.0
aF0.0
aF0.0
aF-0.06759463870998836
aF0.0
aF0.0
aF-0.02830870560162736
aF0.0
aF-0.014865460707410913
aF-0.039333483095920004
aF0.0
aF0.0
aF0.0
aF0.0
aF0.0
aF0.0
aF-0.013967476759215076
aF0.0
aF-0.0075
aF-0.014867789476263474
aF-0.015000000850489205
aF0.0
aF0.0
aF-0.013960106040396669
aF-0.028334467802458227
aF0.0
aF-0.07235913764033275
aF0.0
aF0.00538575833817374
aF-0.007430017252455221
aF-0.04002228597301172
aF-0.013020674332418629
aF-0.01494004787827891
aF-0.009116343779380864
aF0.0
aF0.0
aF0.0
aF0.0
aF0.0
aF0.0
aF0.0
aF-0.0142259821640509
aF-0.025128144928574455
aF0.0
aF0.0
aF0.0
aF0.0
aF0.0
aF0.0
aF-0.014886942182040064
aF0.0
aF0.0
aF0.0
aF0.0
aF0.0
aF-0.027033805387763756
aF0.0
aF0.0
aF0.0
aF0.0
aF0.0
aF0.0
aF0.0
aF0.0
aF-0.010074116523549718
aF-0.02838693428504246
aF0.0
aF0.0
aF0.0
aF-0.010108410851841467
aF0.0
aF0.0
aF-0.007492984975371911
aF-0.015593696519948774
aF0.0
aF-0.05580786349635085
aF0.0
aF0.0
aF-0.006532359906213744
aF-0.023335399863475683
aF0.0
aF0.0
aF0.0
aF0.0
aF0.0
aF0.0
aF-0.013496788660768269
aF-0.01499973024555828
aF0.0
aF0.0
aF0.0
aF0.0
aF0.0
aF-0.01499996870410935
aF0.0
aF0.0
aF-0.026360446122539082
aF0.0
aF0.0
aF0.0
aF0.0
aF0.0
aF0.0
aF0.0
aF0.0
aF0.0
aF0.0
aF0.0
aF0.0
aF0.0
aF0.0
aF0.0
aF0.0
aF-0.12776542276803546
aF0.0
aF0.0
aF0.0
aF0.0
aF-0.014999794101496745
aF0.0
aF0.0
aF0.0
aF0.0
aF0.0
aF0.0
aF-0.013956405812503148
aF0.0
aF0.0
aF0.0
aF0.0
aF0.0
aF0.0
aF0.0
aF-0.014997452790099036
aF-0.007461801879861689
aF0.0
aF0.0
aF0.0
aF0.0
aF-0.014859118795190605
aF-0.014999957301832784
aF0.0
aF0.0
aF0.0
aF0.0
aF0.0
aF0.0
aF0.0
aF0.0
aF0.01500006161841481
aF0.0
aF0.0
aF0.0
aF0.0
aF0.0
aF0.0
aF0.0
aF0.015
aF0.0
aF0.0
aF-0.013956696929297454
aF-0.009999608504926665
aF-0.0012499709668061106
aF0.0
aF0.0
aF0.0
aF0.0
aF0.0
aF0.0
aF0.0
aF0.0
aF0.0
aF0.0
aF0.0
aF0.0
aF0.0
aF0.0
aF0.0
aF0.0
aF0.0
aF0.0
aF0.0
aF0.0
aF0.0
aF0.0
aF0.0
aF0.0
aF0.0
aF0.0
aF0.0
aF0.0
aF0.0
aF0.0
aF-0.014998946490636267
aF-0.014971880572228183
aF0.0
aF-0.02834660826675793
aF0.0
aF0.0
aF0.0
aF0.0
aF0.0
aF0.0
aF0.0
aF0.0
aF0.0
aF0.0
aF0.0
aF0.0
aF0.0
aF0.0
aF0.0
aF0.0
aF0.0
aF0.0
aF0.0
aF0.0
aF0.0
aF0.0
aF0.0
aF0.0
aF0.0
aF0.0
aF0.0
aF-0.014999774617196865
aF0.0
aF0.0
aF0.0
aF-0.014994039379954239
aF0.0
aF-0.013538240044425904
aF-0.027155578760020935
aF-0.008817598376161575
aF0.0
aF0.0
aF0.0
aF0.0
aF0.0
aF0.0
aF0.0
aF0.0
aF0.0
aF-0.013956692542520854
aF0.0
aF0.0
aF0.0
aF0.0
aF0.0
aF0.0
aF0.0
aF0.0
aF-0.007499887246912179
aF0.0
aF0.0
aF0.0
aF-0.014999773088878576
aF0.0
aF0.0
aF0.0
aF0.0
aF0.0
aF0.0
aF0.0
aF0.0
aF0.0
aF0.0
aF0.0
aF0.0
aF0.0
aF0.0
aF0.0
aF0.0
aF-0.015000210241495822
aF0.0
aF0.0
aF0.0
aF0.0
aF0.0
aF0.0
aF0.0
aF0.0
aF0.0
aF-0.01407380681031279
aF0.0
aF0.0
aF0.0
aF0.0
aF0.0
aF0.0
aF0.0
aF-0.014999979476235948
aF-0.004999977733297141
aF0.0
aF0.0
aF0.0
aF0.0
aF0.0
aF0.0
aF0.0
aF0.0
aF0.0
aF0.0
aF0.0
aF0.0
aF0.0
aF-0.01499975994792527
aF0.0
aF0.0
aF0.0
aF-0.01499976530511943
aF-0.13890806424308058
aF-0.12116284726768463
aF0.0
aF0.0
aF0.0
aF0.0
aF0.0
aF0.0
aF0.0
aF0.0
aF0.0
aF0.0
aF0.0
aF0.0
aF0.0
aF0.0
aF0.0
aF0.0
aF0.0
aF0.0
aF0.0
aF0.0
aF-0.014946262544764782
aF0.0
aF0.0
aF0.0
aF0.0
aF0.0
aF0.0
aF0.0
aF0.0
aF0.0
aF0.0
aF0.0
aF0.0
aF0.0
aF0.0
aF0.0
aF0.0
aF0.0
aF0.0
aF0.0
aF0.0
aF0.0
aF0.0
aF0.0
aF0.0
aF0.0
aF0.0
aF0.0
aF0.0
aF0.0
aF0.0
aF0.0
aF0.0
aF0.0
aF0.0
aF0.0
aF0.0
aF0.0
aF0.0
aF0.0
aF0.0
aF0.0
aF0.0
aF0.0
aF0.0
aF0.0
aF0.0
aF0.0
aF0.0
aF0.0
aF0.0
aF0.0
aF0.0
aF0.0
aF0.0
aF0.0
aF0.0
aF0.0
aF0.0
aF0.0
aF0.0
aF0.0
aF0.0
aF-0.01498727842427225
aF0.0
aF-0.02836239422083762
aF0.0
aF0.0
aF0.0
aF0.0
aF0.0
aF0.0
aF0.0
aF0.0
aF0.0
aF0.0
aF0.0
aF0.0
aF-0.0149999455805469
aF0.015000051800160374
aF0.0
aF0.0
aF0.0
aF0.0
aF0.0
aF0.0
aF0.0
aF0.0
aF0.0
aF0.0
aF0.0
aF0.0
aF0.0
aF-0.0037500167206648625
aF0.0
aF0.0
aF0.0
aF0.0
aF0.0
aF0.0
aF0.0
aF0.0
aF0.0
aF0.0
aF0.0
aF0.0
aF0.0
aF0.0
aF0.0
aF0.0
aF0.0
aF0.0
aF0.0
aF0.0
aF0.0
aF-0.028387428826674506
aF0.0
aF0.0
aF0.0
aF0.0
aF0.0
aF0.0
aF0.0
aF0.0
aF0.0
aF0.0
aF0.0
aF0.0
aF0.0
aF0.0
aF0.0
aF0.0
aF0.0
aF0.0
aF0.0
aF0.0
aF0.0
aF0.0
aF0.0
aF0.0
aF0.0
aF0.0
aF0.0
aF0.0
aF0.0
aF0.0
aF0.0
aF0.0
aF0.0
aF0.0
aF0.0
aF0.0
aF0.0
aF0.0
aF0.0
aF0.0
aF0.0
aF0.0
aF0.0
aF-0.014999161263750789
aF0.0
aF0.0
aF0.0
aF0.0
aF0.0
aF0.0
aF0.0
aF0.0
aF0.0
aF0.0
aF0.0
aF0.0
aF0.0
aF0.0
aF0.0
aF0.0
aF0.0
aF0.0
aF0.0
aF0.0
aF0.0
aF0.0
aF0.0
aF0.0
aF0.0
aF0.0
aF0.0
aF0.0
aF0.0
aF0.0
aF0.0
aF0.0
aF0.0
aF0.0
aF0.0
aF0.0
aF0.0
aF0.0
aF0.0
aF0.0
aF0.0
aF0.0
aF0.0
aF0.0
aF0.0
aF0.0
aF0.0
aF0.0
aF0.0
aF0.0
aF0.0
aF0.0
aF-0.007485924578840154
aF0.0
aF0.0
aF0.0
aF0.0
aF0.0
aF0.0
aF0.0
aF0.0
aF0.0
aF0.0
aF0.0
aF0.0
aF0.0
aF0.0
aF0.0
aF0.0
aF0.0
aF0.0
aF0.0
aF0.0
aF0.0
aF0.0
aF0.0
aF-0.01499986715385163
aF0.0
aF0.0
aF0.0
aF0.0
aF0.0
aF0.0
aF0.0
aF0.0
aF0.0
aF0.0
aF0.0
aF0.0
aF0.0
aF0.0
aF0.0
aF0.0
aF0.0
aF0.0
aF0.0
aF0.0
aF-0.01423592868869131
aF0.0
aF0.0
aF0.0
aF0.0
aF0.0
aF-0.015000011987282789
aF0.0
aF0.0
aF-0.007485603835426324
aF0.0
aF0.0
aF0.0
aF0.0
aF0.0
aF0.0
aF0.0
aF0.0
aF0.0
aF0.0
aF0.0
aF0.0
aF0.0
aF0.0
aF0.0
aF0.0
aF0.0
aF0.0
aF0.0
aF0.0
aF0.0
aF0.0
aF0.0
aF0.0
aF0.0
aF0.0
aF0.0
aF0.0
aF0.0
aF0.0
aF0.0
aF0.0
aF0.0
aF0.0
aF0.0
aF0.0
aF0.0
aF0.0
aF0.0
aF0.0
aF0.0
aF0.0
aF0.0
aF0.0
aF0.0
aF0.0
aF0.0
aF0.0
aF0.0
aF0.0
aF0.0
aF0.0
aF0.0
aF0.0
aF0.0
aF-0.02571892173996666
aF0.0
aF0.0
aF0.0
aF0.0
aF0.0
aF0.0
aF0.0
aF0.0
aF0.0
aF0.0
aF0.0
aF0.0
aF0.0
aF0.0
aF0.002999994365620836
aF0.0
aF0.0
aF0.0
aF0.0
aF0.0
aF0.0
aF0.0
aF0.0
aF0.0
aF0.0
aF0.0
aF0.0
aF-0.014999879969101503
aF0.0
aF0.0
aF0.0
aF0.0
aF0.0
aF0.0
aF0.0
aF0.0
aF0.0
aF0.0
aF0.0
aF0.0
aF0.0
aF0.0
aF0.0
aF0.0
aF0.0
aF0.0
aF0.0
aF0.0
aF0.0
aF0.0
aF0.0
aF0.0
aF0.0
aF0.0
aF0.0
aF0.0
aF-0.007499994222032437
aF0.0
aF0.0
aF0.0
aF0.0
aF0.0
aF0.0
aF0.0
aF0.0
aF0.0
aF0.0
aF0.0
aF0.0
aF0.0
aF0.0
aF0.0
aF0.0
aF0.0
aF0.0
aF0.0
aF0.0
aF0.0
aF0.0
aF0.0
aF0.0
aF0.0
aF0.0
aF0.0
aF0.0
aF0.0
aF0.0
aF0.0
aF0.0
aF0.0
aF0.0
aF0.0
aF0.0
aF0.0
aF0.0
aF0.0
aF0.0
aF0.0
aF0.0
aF0.0
aF0.0
aF0.0
aF0.0
aF0.0
aF0.0
aF0.0
aF0.0
aF0.0
aF0.0
aF0.0
aF0.0
aF0.0
aF0.0
aF0.0
aF-0.014976170100454635
aF0.0
aF0.0
aF-0.014235787038375827
aF0.0
aF0.0
aF0.0
aF0.0
aF0.0
aF0.0
aF0.0
aF0.0
aF0.0
aF0.0
aF0.0
aF0.0
aF0.0
aF0.0
aF0.0
aF0.0
aF0.0
aF0.0
aF0.0
aF0.0
aF0.0
aF0.0
aF0.0
aF0.0
aF0.0
aF0.0
aF0.0
aF0.0
aF0.0
aF0.0
aF0.0
aF0.0
aF0.0
aF0.0
aF0.0
aF0.0
aF0.0
aF0.0
aF0.0
aF-0.009495785595768368
aF0.0
aF0.0
aF0.0
aF0.0
aF0.0
aF0.0
aF-0.014999830770156587
aF0.0
aF0.0
aF0.0
aF0.0
aF0.0
aF0.0
aF0.0
aF0.0
aF0.0
aF0.0
aF0.0
aF0.0
aF0.0
aF0.0
aF0.0
aF0.0
aF0.0
aF0.0
aF0.0
aF0.0
aF0.0
aF0.0
aF0.0
aF0.0
aF0.0
aF0.0
aF0.0
aF0.0
aF0.0
aF0.0
aF0.0
aF-0.004999868641741888
aF0.0
aF0.0
aF0.0
aF0.0
aF0.0
aF0.0
aF0.0
aF0.0
aF0.0
aF0.0
aF0.0
aF0.0
aF0.0
aF-0.050999769529477774
aF0.0
aF0.0
aF0.0
aF0.0
aF-0.01499992508083141
aF0.0
aF0.0
aF0.0
aF0.0
aF0.0
aF0.0
aF0.0
aF0.0
aF0.0
aF0.0
aF0.0
aF0.0
aF0.0
aF0.0
aF0.0
aF0.0
aF0.0
aF0.0
aF0.0
aF0.0
aF0.0
aF0.0
aF-0.01499987030283518
aF0.0
aF0.0
aF0.0
aF0.0
aF0.0
aF0.0
aF0.0
aF0.0
aF0.0
aF0.0
aF0.0
aF0.0
aF0.0
aF0.0
aF0.0
aF0.0
aF0.0
aF0.0
aF0.0
aF0.0
aF0.0
aF0.0
aF0.0
aF0.0
aF0.0
aF0.0
aF0.0
aF0.0
aF0.0
aF0.0
aF0.0
aF0.0
aF0.0
aF0.0
aF0.0
aF0.0
aF0.0
aF-0.0016666668492437025
aF0.0
aF0.0
aF0.0
aF0.0
aF0.0
aF0.0
aF0.0
aF0.0
aF0.0
aF0.0
aF0.0
aF0.0
aF0.0
aF0.0
aF0.0
aF0.0
aF0.0
aF0.0
aF0.0
aF0.0
aF0.0
aF0.0
aF0.0
aF0.0
aF0.0
aF0.0
aF0.0
aF0.0
aF0.0
aF0.0
aF0.0
aF0.0
aF0.0
aF0.0
aF0.0
aF0.0
aF0.0
aF0.0
aF0.0
aF0.0
aF0.0
aF0.0
aF0.0
aF-0.015
aF0.0
aF0.0
aF0.0
aF0.0
aF0.0
aF0.0
aF-0.014999762387094355
aF0.0
aF0.0
aF0.0
aF0.0
aF0.0
aF0.0
aF0.0
aF0.0
aF0.0
aF0.0
aF0.0
aF0.0
aF0.0
aF0.0
aF0.0
aF0.0
aF0.0
aF0.0
aF0.0
aF0.0
aF0.0
aF0.0
aF0.0
aF0.0
aF0.0
aF0.0
aF0.0
aF0.0
aF0.0
aF0.0
aF0.0
aF0.0
aF0.0
aF0.0
aF-0.004999994542107874
aF0.0
aF0.0
aF0.0
aF0.0
aF0.0
aF0.0
aF0.0
aF0.0
aF0.0
aF0.0
aF0.0
aF0.0
aF0.0
aF0.0
aF0.0
aF0.0
aF0.0
aF0.0
aF0.0
aF0.0
aF0.0
aF0.0
aF0.0
aF0.0
aF0.0
aF0.0
aF0.0
aF0.0
aF0.0
aF0.0
aF0.0
aF0.0
aF0.0
aF0.0
aF0.0
aF0.0
aF0.0
aF0.0
aF0.0
aF0.0
aF0.0
aF0.0
aF0.0
aF0.0
aF0.0
aF0.0
aF0.0
aF0.0
aF0.0
aF0.0
aF0.0
aF0.0
aF0.0
aF0.0
aF0.0
aF0.0
aF0.0
aF0.0
aF0.0
aF0.0
aF0.0
aF0.0
aF0.0
aF0.0
aF0.0
aF0.0
aF0.0
aF0.0
aF0.0
aF0.0
aF-0.015000129137086796
aF0.0
aF0.0
aF0.0
aF0.0
aF0.0
aF0.0
aF0.0
aF0.0
aF0.0
aF0.0
aF0.0
aF0.0
aF0.0
aF0.0
aF0.0
aF0.0
aF0.0
aF0.0
aF0.0
aF0.0
aF0.0
aF0.0
aF0.0
aF0.0
aF0.0
aF0.0
aF0.0
aF0.0
aF0.0
aF0.0
aF0.0
aF0.0
aF0.0
aF0.0
aF0.0
aF0.0
aF0.0
aF0.0
aF0.0
aF0.0
aF0.0
aF0.0
aF0.0
aF0.0
aF0.0
aF0.0
aF0.0
aF0.0
aF0.0
aF0.0
aF0.0
aF0.0
aF0.0
aF0.0
aF0.0
aF0.015000013663189626
aF0.0
aF0.0
aF0.0
aF0.0
aF0.0
aF0.0
aF0.0
aF0.0
aF0.0
aF0.0
aF0.0
aF0.0
aF0.0
aF0.0
aF0.0
aF0.0
aF0.0
aF0.0
aF0.0
aF0.0
aF0.0
aF0.0
aF0.0
aF0.0
aF0.0
aF0.0
aF0.0
aF-0.0016666898606723637
aF0.0
aF0.0
aF0.0
aF0.0
aF0.0
aF0.0
aF0.0
aF0.0
aF0.0
aF0.0
aF0.0
aF0.0
aF0.0
aF0.0
aF0.0
aF0.0
aF0.0
aF0.0
aF0.0
aF0.0
aF0.0
aF0.0
aF0.0
aF0.0
aF0.0
aF0.0
aF0.0
aF0.0
aF0.0
aF0.0
aF0.0
aF0.0
aF0.0
aF0.0
aF0.0
aF0.0
aF0.0
aF0.0
aF0.0
aF0.0
aF0.0
aF0.0
aF-0.015000017710283826
aF0.0
aF0.0
aF0.0
aF0.0
aF0.0
aF0.0
aF0.0
aF0.0
aF0.0
aF0.0
aF0.0
aF0.0
aF0.0
aF0.0
aF0.0
aF0.0
aF0.0
aF0.0
aF0.0
aF0.0
aF0.0
aF0.0
aF0.0
aF0.0
aF0.0
aF0.0
aF0.0
aF0.0
aF0.0
aF0.0
aF0.0
aF0.0
aF0.0
aF0.0
aF0.0
aF0.0
aF0.0
aF0.0
aF0.0
aF0.0
aF0.0
aF0.0
aF0.0
aF0.0
aF0.0
aF0.0
aF0.0
aF0.0
aF0.0
aF0.0
aF0.0
aF0.0
aF0.0
aF0.0
aF0.0
aF0.0
aF0.0
aF0.0
aF0.0
aF0.0
aF0.0
aF0.0
aF0.0
aF0.0
aF0.0
aF0.0
aF0.0
aF0.0
aF0.0
aF0.0
aF0.0
aF0.0
aF0.0
aF0.0
aF0.0
aF0.0
aF0.0
aF0.0
aF0.0
aF0.0
aF0.0
aF0.0
aF0.0
aF0.0
aF0.0
aF0.0
aF0.0
aF0.0
aF0.0
aF0.0
aF0.0
aF0.0
aF0.0
aF0.0
aF0.0
aF0.0
aF0.0
aF0.0
aF0.0
aF0.0
aF0.0
aF0.0
aF0.0
aF0.0
aF0.0
aF0.0
aF0.0
aF0.0
aF0.0
aF0.0
aF0.0
aF0.0
aF0.0
aF0.0
aF0.0
aF0.0
aF0.0
aF0.0
aF0.0
aF0.0
aF0.0
aF0.0
aF0.0
aF0.0
aF0.0
aF0.0
aF0.0
aF0.0
aF0.0
aF0.0
aF0.0
aF0.0
aF0.0
aF0.0
aF0.0
aF0.0
aF0.0
aF0.0
aF0.0
aF0.0
aF0.0
aF0.0
aF0.0
aF0.0
aF0.0
aF0.0
aF0.0
aF0.0
aF0.0
aF0.0
aF0.0
aF0.0
aF0.0
aF0.0
aF0.0
aF0.0
aF0.0
aF0.0
aF0.0
aF0.0
aF0.0
aF0.0
aF0.0
aF0.0
aF0.0
aF0.0
aF0.0
aF0.0
aF0.0
aF0.0
aF0.0
aF0.0
aF0.0
aF0.0
aF0.0
aF0.0
aF0.0
aF0.0
aF0.0
aF0.0
aF0.0
aF0.0
aF0.0
aF0.0
aF0.0
aF0.0
aF0.0
aF0.0
aF0.0
aF0.0
aF0.0
aF0.0
aF0.0
aF0.0
aF0.0
aF0.0
aF0.0
aF0.0
aF0.0
aF0.0
aF0.0
aF0.0
aF0.0
aF0.0
aF0.0
aF0.0
aF0.0
aF0.0
aF0.0
aF0.0
aF0.0
aF0.0
aF0.0
aF0.0
aF0.0
aF0.0
aF0.0
aF0.0
aF0.0
aF0.0
aF0.0
aF0.0
aF0.0
aF0.0
aF0.0
aF0.0
aF0.0
aF0.0
aF0.0
aF0.0
aF0.0
aF0.0
aF0.0
aF0.0
aF0.0
aF0.0
aF0.0
aF0.0
aF0.0
aF0.0
aF0.0
aF0.0
aF0.0
aF0.0
aF0.0
aF0.0
aF0.0
aF0.0
aF0.0
aF0.0
aF0.0
aF0.0
aF0.0
aF0.0
aF0.0
aF0.0
aF0.0
aF0.0
aF0.0
aF0.0
aF0.0
aF0.0
aF0.0
aF0.0
aF0.0
aF0.0
aF0.0
aF0.0
aF0.0
aF0.0
aF0.0
aF0.0
aF0.0
aF0.0
aF0.0
aF0.0
aF0.0
aF0.0
aF0.0
aF0.0
aF0.0
aF0.0
aF0.0
aF0.0
aF0.0
aF0.0
aF0.0
aF0.0
aF0.0
aF0.0
aF0.0
aF0.0
aF0.0
aF0.0
aF0.0
aF0.0
aF0.0
aF0.0
aF0.0
aF0.0
aF0.0
aF0.0
aF0.0
aF0.0
aF0.0
aF0.0
aF0.0
aF0.0
aF0.0
aF0.0
aF0.0
aF0.0
aF0.0
aF0.0
aF0.0
aF0.0
aF0.0
aF0.0
aF0.0
aF0.0
aF0.0
aF0.0
aF0.0
aF0.0
aF0.0
aF0.0
aF0.0
aF0.0
aF0.0
aF0.0
aF0.0
aF0.0
aF0.0
aF0.0
aF0.0
aF0.0
aF0.0
aF0.0
aF0.0
aF0.0
aF0.0
aF0.0
aF0.0
aF0.0
aF0.0
aF0.0
aF0.0
aF0.0
aF0.0
aF0.0
aF0.0
aF0.0
aF0.0
aF0.0
aF0.0
aF0.0
aF0.0
aF0.0
aF0.0
aF0.0
aF0.0
aF0.0
aF0.0
aF0.0
aF0.0
aF0.0
aF0.0
aF0.0
aF0.0
aF0.0
aF0.0
aF0.0
aF0.0
aF0.0
aF0.0
aF0.0
aF0.0
aF0.0
aF0.0
aF0.0
aF0.0
aF0.0
aF0.0
aF0.0
aF0.0
aF0.0
aF0.0
aF0.0
aF0.0
aF0.0
aF0.0
aF0.0
aF0.0
aF0.0
aF0.0
aF0.0
aF0.0
aF0.0
aF0.0
aF0.0
aF0.0
aF0.0
aF0.0
aF0.0
aF0.0
aF0.0
aF0.0
aF0.0
aF0.0
aF0.0
aF0.0
aF0.0
aF0.0
aF0.0
aF0.0
aF0.0
aF0.0
aF0.0
aF0.0
aF0.0
aF0.0
aF0.0
aF0.0
aF0.0
aF0.0
aF0.0
aF0.0
aF0.0
aF0.0
aF0.0
aF0.0
aF0.0
aF0.0
aF0.0
aF0.0
aF0.0
aF0.0
aF0.0
aF0.0
aF0.0
aF0.0
aF0.0
aF0.0
aF0.0
aF0.0
aF0.0
aF0.0
aF0.0
aF0.0
aF0.0
aF0.0
aF0.0
aF0.0
aF0.0
aF0.0
aF0.0
aF0.0
aF0.0
aF0.0
aF0.0
aF0.0
aF0.0
aF0.0
aF0.0
aF0.0
aF0.0
aF0.0
aF0.0
aF0.0
aF0.0
aF0.0
aF0.0
aF0.0
aF0.0
aF0.0
aF0.0
aF0.0
aF0.0
aF0.0
aF0.0
aF0.0
aF0.0
aF0.0
aF0.0
aF0.0
aF0.0
aF0.0
aF0.0
aF0.0
aF0.0
aF0.0
aF0.0
aF0.0
aF0.0
aF0.0
aF0.0
aF0.0
aF0.0
aF0.0
aF0.0
aF0.0
aF0.0
aF0.0
aF0.0
aF0.0
aF0.0
aF0.0
aF0.0
aF0.0
aF0.0
aF0.0
aF0.0
aF0.0
aF0.0
aF0.0
aF0.0
aF0.0
aF0.0
aF0.0
aF0.0
aF0.0
aF0.0
aF0.0
aF0.0
aF0.0
aF0.0
aF0.0
aF0.0
aF0.0
aF0.0
aF0.0
aF0.0
aF0.0
aF0.0
aF0.0
aF0.0
aF0.0
aF0.0
aF0.0
aF0.0
aF0.0
aF0.0
aF0.0
aF0.0
aF0.0
aF0.0
aF0.0
aF0.0
aF0.0
aF0.0
aF0.0
aF0.0
aF0.0
aF0.0
aF0.0
aF0.0
aF0.0
aF0.0
aF0.0
aF0.0
aF0.0
aF0.0
aF0.0
aF0.0
aF0.0
aF0.0
aF0.0
aF0.0
aF0.0
aF0.0
aF0.0
aF0.0
aF0.0
aF0.0
aF0.0
aF0.0
aF0.0
aF0.0
aF0.0
aF0.0
aF0.0
aF0.0
aF0.0
aF0.0
aF0.0
aF0.0
aF0.0
aF0.0
aF0.0
aF0.0
aF0.0
aF0.0
aF0.0
aF0.0
aF0.0
aF0.0
aF0.0
aF0.0
aF0.0
aF0.0
aF0.0
aF0.0
aF0.0
aF0.0
aF0.0
aF0.0
aF0.0
aF0.0
aF0.0
aF0.0
aF0.0
aF0.0
aF0.0
aF0.0
aF0.0
aF0.0
aF0.0
aF0.0
aF0.0
aF0.0
aF0.0
aF0.0
aF0.0
aF0.0
aF0.0
aF0.0
aF0.0
aF0.0
aF0.0
aF0.0
aF0.0
aF0.0
aF0.0
aF0.0
aF0.0
aF0.0
aF0.0
aF0.0
aF0.0
aF0.0
aF0.0
aF0.0
aF0.0
aF0.0
aF0.0
aF0.0
aF0.0
aF0.0
aF0.0
aF0.0
aF0.0
aF0.0
aF0.0
aF0.0
aF0.0
aF0.0
aF0.0
aF0.0
aF0.0
aF0.0
aF0.0
aF0.0
aF0.0
aF0.0
aF0.0
aF0.0
aF0.0
aF0.0
aF0.0
aF0.0
aF0.0
aF0.0
aF0.0
aF0.0
aF0.0
aF0.0
aF0.0
aF0.0
aF0.0
aF0.0
aF0.0
aF0.0
aF0.0
aF0.0
aF0.0
aF0.0
aF0.0
aF0.0
aF0.0
aF0.0
aF0.0
aF0.0
aF0.0
aF0.0
aF0.0
aF0.0
aF0.0
aF0.0
aF0.0
aF0.0
aF0.0
aF0.0
aF0.0
aF0.0
aF0.0
aF0.0
aF0.0
aF0.0
aF0.0
aF0.0
aF0.0
aF0.0
aF0.0
aF0.0
aF0.0
aF0.0
aF0.0
aF0.0
aF0.0
aF0.0
aF0.0
aF0.0
aF0.0
aF0.0
aF0.0
aF0.0
aF0.0
aF0.0
aF0.0
aF0.0
aF0.0
aF0.0
aF0.0
aF0.0
aF0.0
aF0.0
aF0.0
aF0.0
aF0.0
aF0.0
aF0.0
aF0.0
aF0.0
aF0.0
aF0.0
aF0.0
aF0.0
aF0.0
aF0.0
aF0.0
aF0.0
aF0.0
aF0.0
aF0.0
aF0.0
aF0.0
aF0.0
aF0.0
aF0.0
aF0.0
aF0.0
aF0.0
aF0.0
aF0.0
aF0.0
aF0.0
aF0.0
aF0.0
aF0.0
aF0.0
aF0.0
aF0.0
aF0.0
aF0.0
aF0.0
aF0.0
aF0.0
aF0.0
aF0.0
aF0.0
aF0.0
aF0.0
aF0.0
aF0.0
aF0.0
aF0.0
aF0.0
aF0.0
aF0.0
aF0.0
aF0.0
aF0.0
aF0.0
aF0.0
aF0.0
aF0.0
aF0.0
aF0.0
aF0.0
aF0.0
aF0.0
aF0.0
aF0.0
aF0.0
aF0.0
aF0.0
aF0.0
aF0.0
aF0.0
aF0.0
aF0.0
aF0.0
aF0.0
aF0.0
aF0.0
aF0.0
aF0.0
aF0.0
aF0.0
aF0.0
aF0.0
aF0.0
aF0.0
aF0.0
aF0.0
aF0.0
aF0.0
aF0.0
aF0.0
aF0.0
aF0.0
aF0.0
aF0.0
aF0.0
aF0.0
aF0.0
aF0.0
aF0.0
aF0.0
aF0.0
aF0.0
aF0.0
aF0.0
aF0.0
aF0.0
aF0.0
aF0.0
aF0.0
aF0.0
aF0.0
aF0.0
aF0.0
aF0.0
aF0.0
aF0.0
aF0.0
aF0.0
aF0.0
aF0.0
aF0.0
aF0.0
aF0.0
aF0.0
aF0.0
aF0.0
aF0.0
aF0.0
aF0.0
aF0.0
aF0.0
aF0.0
aF0.0
aF0.0
aF0.0
aF0.0
aF0.0
aF0.0
aF0.0
aF0.0
aF0.0
aF0.0
aF0.0
aF0.0
aF0.0
aF0.0
aF0.0
aF0.0
aF0.0
aF0.0
aF0.0
aF0.0
aF0.0
aF0.0
aF0.0
aF0.0
aF0.0
aF0.0
aF0.0
aF0.0
aF0.0
aF0.0
aF0.0
aF0.0
aF0.0
aF0.0
aF0.0
aF0.0
aF0.0
aF0.0
aF0.0
aF0.0
aF0.0
aF0.0
aF0.0
aF0.0
aF0.0
aF0.0
aF0.0
aF0.0
aF0.0
aF0.0
aF0.0
aF0.0
aF0.0
aF0.0
aF0.0
aF0.0
aF0.0
aF0.0
aF0.0
aF0.0
aF0.0
aF0.0
aF0.0
aF0.0
aF0.0
aF0.0
aF0.0
aF0.0
aF0.0
aF0.0
aF0.0
aF0.0
aF0.0
aF0.0
aF0.0
aF0.0
aF0.0
aF0.0
aF0.0
aF0.0
aF0.0
aF0.0
aF0.0
aF0.0
aF0.0
aF0.0
aF0.0
aF0.0
aF0.0
aF0.0
aF0.0
aF0.0
aF0.0
aF0.0
aF0.0
aF0.0
aF0.0
aF0.0
aF0.0
aF0.0
aF0.0
aF0.0
aF0.0
aF0.0
aF0.0
aF0.0
aF0.0
aF0.0
aF0.0
aF0.0
aF0.0
aF0.0
aF0.0
aF0.0
aF0.0
aF0.0
aF0.0
aF0.0
aF0.0
aF0.0
aF0.0
aF0.0
aF0.0
aF0.0
aF0.0
aF0.0
aF0.0
aF0.0
aF0.0
aF0.0
aF0.0
aF0.0
aF0.0
aF0.0
aF0.0
aF0.0
aF0.0
aF0.0
aF0.0
aF0.0
aF0.0
aF0.0
aF0.0
aF0.0
aF0.0
aF0.0
aF0.0
aF0.0
aF0.0
aF0.0
aF0.0
aF0.0
aF0.0
aF0.0
aF0.0
aF0.0
aF0.0
aF0.0
aF0.0
aF0.0
aF0.0
aF0.0
aF0.0
aF0.0
aF0.0
aF0.0
aF0.0
aF0.0
aF0.0
aF0.0
aF0.0
aF0.0
aF0.0
aF0.0
aF0.0
aF0.0
aF0.0
aF0.0
aF0.0
aF0.0
aF0.0
aF0.0
aF0.0
aF0.0
aF0.0
aF0.0
aF0.0
aF0.0
aF0.0
aF0.0
aF0.0
aF0.0
aF0.0
aF0.0
aF0.0
aF0.0
aF0.0
aF0.0
aF0.0
aF0.0
aF0.0
aF0.0
aF0.0
aF0.0
aF0.0
aF0.0
aF0.0
aF0.0
aF0.0
aF0.0
aF0.0
aF0.0
aF0.0
aF0.0
aF0.0
aF0.0
aF0.0
aF0.0
aF0.0
aF0.0
aF0.0
aF0.0
aF0.0
aF0.0
aF0.0
aF0.0
aF0.0
aF0.0
aF0.0
aF0.0
aF0.0
aF0.0
aF0.0
aF0.0
aF0.0
aF0.0
aF0.0
aF0.0
aF0.0
aF0.0
aF0.0
aF0.0
aF0.0
aF0.0
aF0.0
aF0.0
aF0.0
aF0.0
aF0.0
aF0.0
aF0.0
aF0.0
aF0.0
aF0.0
aF0.0
aF0.0
aF0.0
aF0.0
aF0.0
aF0.0
aF0.0
aF0.0
aF0.0
aF0.0
aF0.0
aF0.0
aF0.0
aF0.0
aF0.0
aF0.0
aF0.0
aF0.0
aF0.0
aF0.0
aF0.0
aF0.0
aF0.0
aF0.0
aF0.0
aF0.0
aF0.0
aF0.0
aF0.0
aF0.0
aF0.0
aF0.0
aF0.0
aF0.0
aF0.0
aF0.0
aF0.0
aF0.0
aF0.0
aF0.0
aF0.0
aF0.0
aF0.0
aF0.0
aF0.0
aF0.0
aF0.0
aF0.0
aF0.0
aF0.0
aF0.0
aF0.0
aF0.0
aF0.0
aF0.0
aF0.0
aF0.0
aF0.0
aF0.0
aF0.0
aF0.0
aF0.0
aF0.0
aF0.0
aF0.0
aF0.0
aF0.0
aF0.0
aF0.0
aF0.0
aF0.0
aF0.0
aF0.0
aF0.0
aF0.0
aF0.0
aF0.0
aF0.0
aF0.0
aF0.0
aF0.0
aF0.0
aF0.0
aF0.0
aF0.0
aF0.0
aF0.0
aF0.0
aF0.0
aF0.0
aF0.0
aF0.0
aF0.0
aF0.0
aF0.0
aF0.0
aF0.0
aF0.0
aF0.0
aF0.0
aF0.0
aF0.0
aF0.0
aF0.0
aF0.0
aF0.0
aF0.0
aF0.0
aF0.0
aF0.0
aF0.0
aF0.0
aF0.0
aF0.0
aF0.0
aF0.0
aF0.0
aF0.0
aF0.0
aF0.0
aF0.0
aF0.0
aF0.0
aF0.0
aF0.0
aF0.0
aF0.0
aF0.0
aF0.0
aF0.0
aF0.0
aF0.0
aF0.0
aF0.0
aF-0.025911867506427332
aF0.0007406255596190622
aF0.0
aF-0.0015261587684455825
aF0.0
aF0.0
aF0.0
aF0.0
aF0.0
aF0.0
aF7.558553616511037e-05
aF0.0
aF0.0
aF0.0
aF0.0
aF0.0
aF0.0
aF0.0
aF0.0
aF0.0
aF0.0
aF0.0
aF0.0
aF0.0
aF0.0
aF0.0
aF0.0
aF0.0
aF0.0
aF0.0
aF0.0
aF0.0
aF0.0
aF0.0
aF0.0
aF0.0
aF0.0
aF0.0
aF0.0
aF0.0
aF0.0
aF0.0
aF0.0
aF0.0
aF0.0
aF0.0
aF0.0
aF0.0
aF0.0
aF0.0
aF0.0
aF0.0
aF0.0
aF0.0
aF0.0
aF0.0
aF0.0
aF0.0
aF0.0
aF0.0
aF0.0
aF0.0
aF0.0
aF0.0
aF0.0
aF0.0
aF0.0
aF0.0
aF0.0
aF0.0
aF0.0
aF0.0
aF0.0
aF0.0
aF0.0
aF-7.102949962439554e-05
aF0.0
aF0.0
aF0.0
aF0.0
aF7.854e-05
aF0.0
aF0.0
aF0.0
aF0.0
aF0.0
aF0.0
aF0.0
aF0.0
aF0.0
aF0.0
aF0.0
aF0.0
aF0.0
aF0.0
aF0.0
aF0.0
aF0.0
aF0.0
aF0.0
aF0.0
aF0.0
aF0.0
aF0.0
aF0.0
aF0.0
aF0.0
aF0.0
aF0.0
aF0.0
aF0.0
aF0.0
aF0.0
aF0.0
aF0.0
aF0.0
aF0.0
aF0.0
aF0.0
aF0.0
aF0.0
aF0.0
aF0.0
aF0.0
aF0.0
aF0.0
aF0.0
aF0.0
aF0.0
aF0.0
aF0.0
aF0.0
aF0.0
aF0.0
aF0.0
aF0.0
aF0.0
aF0.0
aF0.0
aF0.0
aF0.0
aF0.0
aF0.0
aF0.0
aF0.0
aF0.0
aF0.0
aF0.0
aF0.0
aF0.0
aF0.0
aF0.0
aF0.0
aF0.0
aF0.0
aF0.0
aF0.0
aF0.0
aF0.0
aF0.0
aF0.0
aF0.0
aF0.0
aF0.0
aF0.0
aF0.0
aF0.0
aF0.0
aF0.0
aF0.0
aF0.0
aF0.0
aF0.0
aF0.0
aF0.0015
aF0.0
aF0.0
aF0.0
aF-3.4634999999999996e-05
aF0.0
aF0.0
aF0.0
aF0.0
aF0.0
aF0.0
aF0.0
aF0.0
aF0.0
aF0.0
aF0.0
aF0.0
aF0.0
aF0.0
aF0.0
aF0.0
aF0.0
aF0.0
aF0.0
aF0.0
aF0.0
aF0.0
aF0.0
aF0.0
aF0.0
aF0.0
aF0.0
aF0.0
aF0.0
aF0.0
aF0.0
aF0.0
aF0.0
aF0.0
aF0.0
aF0.0
aF0.0
aF0.0
aF0.0
aF0.0
aF0.0
aF0.0
aF0.0
aF0.0
aF0.0
aF0.0
aF0.0
aF0.0
aF0.0
aF0.0
aF0.0
aF0.0
aF0.0
aF0.0
aF0.00022728
aF0.0
aF0.0
aF0.0
aF0.0
aF0.0
aF0.0
aF0.0
aF0.0
aF0.0
aF0.0
aF0.0
aF0.0
aF0.0
aF0.0
aF0.0
aF0.0
aF0.0
aF0.0
aF0.0
aF0.0
aF0.0
aF0.0
aF0.0
aF0.0
aF0.0
aF0.0
aF0.0
aF0.0
aF0.0
aF0.0
aF0.0
aF0.0
aF0.0
aF0.0
aF0.0
aF0.0
aF0.0
aF0.0
aF0.0
aF0.0
aF0.0
aF0.0
aF0.0
aF0.0
aF0.0
aF0.0
aF0.0
aF0.0
aF0.0
aF0.0
aF0.0
aF0.0
aF0.0
aF0.0
aF0.0
aF0.0
aF0.0
aF0.0
aF0.0
aF0.0
aF0.0
aF0.0
aF0.0
aF0.0
aF0.0
aF0.0
aF0.0
aF0.0
aF0.0
aF0.0
aF0.0
aF0.0
aF0.0
aF0.0
aF0.0
aF0.0
aF0.0
aF0.0
aF0.0
aF0.0
aF0.0
aF0.0
aF0.0
aF0.0
aF0.0
aF0.0
aF0.0
aF0.0
aF0.0
aF0.0
aF0.0
aF0.0
aF0.0
aF0.0
aF0.0
aF0.0
aF0.0
aF0.0
aF0.0
aF0.0
aF0.0
aF0.0
aF0.0
aF0.0
aF0.0
aF0.0
aF0.0
aF0.0
aF0.0
aF0.0
aF0.0
aF0.0
aF0.0
aF0.0
aF0.0
aF0.0
aF0.0
aF0.0
aF0.0
aF0.0
aF0.0
aF0.0
asb.