(ilrsgd
LogisticRegressionSGD
p0
(dp1
S'mu'
p2
F0.05
sS'eta'
p3
F0.1
sS'weight'
p4
(lp5
F-0.0455627016054263
aF-0.04917547068585918
aF0.0
aF0.0
aF0.0
aF-0.07546545456769176
aF0.010310808053570618
aF-0.10118624352619976
aF-0.04869573492393506
aF0.0
aF-0.050033389243245706
aF-0.10334991853927206
aF0.0
aF-0.09229788593446556
aF0.054132899366561585
aF0.0
aF-0.05017420321816771
aF-0.04966478589808807
aF-0.018988096390521257
aF0.0
aF-0.04495111234718862
aF0.0
aF0.0
aF-0.04968736053307762
aF-0.14382238077152862
aF-0.04863255300909587
aF-0.004934217853073845
aF-0.09252629990981244
aF-0.039412148085323534
aF-0.08888479884805682
aF0.14932795497490564
aF-0.02453104366267145
aF-0.049467893484116766
aF-0.12271652764771109
aF-0.08502959256635273
aF-0.08854389205876487
aF-0.04015477447750611
aF0.0
aF0.027610605151667328
aF-0.038600253649671123
aF-0.04133832933964175
aF-0.027987279491223427
aF-0.04811228486874249
aF-0.005041315411240539
aF0.0
aF-0.044463441946853866
aF-0.049378263651418744
aF-0.050306646414878746
aF-0.046368804097594946
aF0.05502115359027509
aF0.05007744233491545
aF-0.049318802486904394
aF-0.09128256864481601
aF-0.17100101421612102
aF-0.03634900693726968
aF-0.04968118601207201
aF-0.028522784978905306
aF-0.1313994393562849
aF0.0
aF0.09452224223207167
aF-0.01734800995376131
aF-0.09337677210244118
aF-0.06994924406972397
aF-0.09909246607632437
aF0.0
aF-0.04524487037043234
aF0.0
aF0.0
aF0.0582271600940493
aF0.050447973248486135
aF-0.09429106648011053
aF0.0
aF0.0
aF-0.019921291037673663
aF0.053998879895822464
aF0.0
aF0.05433749560890562
aF-0.03725916900892738
aF0.0
aF0.050420014331573906
aF0.0
aF0.0
aF-0.024861048316407328
aF0.0
aF0.0
aF-0.037274980658302044
aF-0.03976585378496452
aF-0.047397308028672036
aF0.0
aF-0.04992667568524817
aF-0.04133846345277378
aF-0.048756463344038554
aF0.0
aF-0.15205941815787105
aF-0.1723342996357534
aF-0.04999897172102081
aF-0.004700615160479336
aF-0.04851442633213201
aF-0.005096489749464049
aF-0.005246255552717911
aF-0.09238282648972446
aF0.0
aF-0.12823793569788744
aF0.0
aF-0.045345386923591705
aF0.0
aF-0.03321362196967041
aF0.0
aF-0.2070067001609079
aF-0.04954452257921749
aF-0.04950741052892691
aF-0.04863225166068155
aF-0.09289300089192737
aF-0.10617184197430343
aF0.051277311189780364
aF-0.046917106162996
aF-0.10885777173549017
aF-0.048701214451998355
aF-0.045573880863262944
aF-0.12656687149819276
aF-0.12346879854909244
aF-0.01686013750348571
aF-0.08033171048992903
aF0.0
aF-0.04139396577288863
aF0.0
aF0.058902296749107214
aF-0.04661573621463638
aF0.0
aF0.0
aF0.05025373068964592
aF0.0
aF-0.07462284139056147
aF0.0
aF0.0
aF-0.09893693110948959
aF-0.049988371655972995
aF0.0
aF-0.04014337797630341
aF-0.07968513997347276
aF-0.3094088371810947
aF-0.08565373751483643
aF-0.1428087482614602
aF0.0
aF0.0
aF-0.18819783512603425
aF-0.09374966429650583
aF-0.25892024771324035
aF0.0
aF0.05062611405640099
aF-0.09262383539557403
aF-0.047402082119101074
aF0.0
aF0.0
aF-0.17936839766956986
aF0.0
aF-0.04689182137460771
aF0.0
aF-0.049601921458832285
aF0.050155592839021296
aF0.008814741630186695
aF-0.04908070332723454
aF-0.037467159782843665
aF0.05112233408668898
aF-0.04997764300760941
aF-0.1880148415859786
aF0.0
aF-0.049813229107386975
aF0.0
aF-0.17244318812397322
aF0.0
aF0.0
aF-0.09325740167948197
aF-0.047441241823095996
aF-0.04915851439736595
aF-0.09100987340215207
aF0.0
aF-0.1291479761683468
aF-0.11086771220494425
aF0.0
aF0.0013969539410744226
aF-0.09321723097198592
aF0.0
aF-0.023527467154764375
aF-0.01641087731351546
aF-0.16050240589454337
aF-0.048107846473422596
aF0.0
aF-0.0361518187459676
aF-0.03312333719659786
aF-0.04735731170201641
aF-0.23006249038637738
aF-0.049998666323350316
aF-0.11351319151126439
aF0.0
aF-0.09142808355906208
aF0.0
aF0.0
aF-0.06674454883970099
aF-0.04591459404792879
aF-0.10615136588932031
aF0.0
aF-0.01446627589763885
aF0.0
aF-0.04791129673574296
aF-0.04995787531746973
aF-0.047774400118512875
aF-0.049967991817636524
aF0.0
aF-0.035607959641439674
aF-0.03914668520285534
aF0.0
aF0.0
aF-0.09197857312972764
aF0.010169597209809568
aF0.0
aF0.0
aF-0.047694513849465756
aF-0.12763848276803447
aF-0.18265148407718151
aF-0.19024599366014833
aF-0.041161419353485204
aF-0.04846826998991944
aF-0.021895964836510705
aF-0.049693221607656865
aF0.0
aF-0.05698493305997314
aF-0.1268677448357281
aF-0.048987460350459776
aF-0.04985930787049652
aF-0.04926799879817239
aF0.0
aF0.0
aF-0.033797396672389984
aF0.0
aF0.0
aF-0.0486543679298887
aF-0.04754506379947439
aF-0.05
aF-0.07869202210113999
aF0.0
aF0.0
aF-0.05002631222571159
aF-0.0014793439834156104
aF-0.09323033017680583
aF0.0
aF0.06948300586201563
aF0.0
aF-0.024052290066346432
aF0.0
aF-0.09208726663678148
aF0.0
aF-0.03155648594461284
aF0.0
aF0.0
aF0.0
aF-0.12650501713646026
aF-0.039315425475161585
aF0.0
aF-0.04954149435694678
aF0.0
aF0.0
aF0.0
aF0.050183470449476866
aF0.016272060749331886
aF-0.04422938723752983
aF-0.0443105228795698
aF0.0
aF-0.049183240266433934
aF-0.048437480697825025
aF-0.022073271451865356
aF-0.047657958611858786
aF0.0
aF0.0
aF0.05029625894980845
aF-0.08007724551893272
aF0.0
aF0.0
aF-0.04588061006237352
aF-0.051249626037359323
aF0.0
aF-0.03110172915354421
aF-0.12654945786727897
aF0.0
aF-0.16120602393211902
aF-0.04999725575148515
aF-0.04015857499455538
aF0.0
aF0.0
aF-0.04846459591147592
aF-0.04974674364982172
aF0.050858755345290586
aF0.0
aF-0.09195572392755436
aF0.0
aF0.0010832403871954069
aF0.0
aF-0.04913476288310831
aF-0.03741943728336344
aF-0.08953285622577653
aF0.0
aF0.0
aF-0.048136149242488276
aF0.04663341217618261
aF0.0
aF0.0
aF-0.04509344510368295
aF0.0
aF0.0
aF0.0
aF0.0
aF-0.06683809691093173
aF0.0
aF-0.04985630327581225
aF-0.07764125547798284
aF0.0030332069931768802
aF0.049876770419126165
aF-0.01634306070378602
aF-0.09039599911264079
aF0.0
aF0.0
aF0.0
aF-0.04750597186327474
aF0.0
aF-0.16086445940302524
aF0.0
aF-0.04997609789883286
aF0.0
aF0.0
aF-0.09340755749564364
aF0.0
aF0.0
aF-0.04969072103751199
aF0.0
aF-0.038103710374699944
aF-0.08139022706846055
aF-0.04999962124346368
aF0.0
aF0.0
aF0.0
aF-0.02445983720682275
aF0.0
aF-0.04972152015139191
aF0.05005469108863232
aF-0.04826562323955548
aF0.0
aF-0.030962992005378387
aF0.0
aF0.0
aF0.0
aF-0.21454934479162127
aF-0.06307126851465845
aF0.0
aF0.0
aF-0.04034565749089517
aF-0.06400223435230445
aF-0.11908261068684928
aF-0.11396381031326347
aF-0.05
aF0.0
aF-0.09055194884691875
aF0.053113437391957785
aF0.007815529023490003
aF0.0
aF0.0
aF-0.04999917244313774
aF0.0
aF-0.06599042513661686
aF0.0
aF0.0
aF-0.030535374525063948
aF-0.03911765590808056
aF0.0
aF-0.0483848177050354
aF0.0
aF0.0
aF0.0
aF0.0
aF0.0
aF-0.03964458462717024
aF-0.07457093957559546
aF0.0
aF0.0
aF-0.09114484953273619
aF-0.04999974747506914
aF0.0
aF-0.03139951164449321
aF0.0
aF0.0
aF-0.0498090928355336
aF0.0
aF0.0
aF0.0
aF-0.04957874712111536
aF-0.18461429464935866
aF-0.007979077055906045
aF-0.04950459479759586
aF-0.09198421072499703
aF0.0
aF-0.04914707515731248
aF0.0
aF0.0
aF0.0
aF0.0
aF0.00845329058041764
aF0.0
aF-0.04940820895738285
aF0.0
aF0.0
aF0.0
aF0.0
aF-0.0475625146782352
aF0.0
aF-0.048554832692665695
aF0.0
aF0.0
aF0.0
aF-0.04999942444680824
aF0.056435746042137414
aF-0.08322153006233124
aF0.0
aF0.0
aF0.0
aF0.0
aF0.054386757412819224
aF0.0
aF0.0
aF-0.11172356872617718
aF-0.027867818257421212
aF-0.015157019521703794
aF0.0
aF0.0
aF0.0
aF0.0
aF0.0
aF0.0
aF0.0
aF0.0
aF0.0
aF-0.09507396737880233
aF-0.08912573969338417
aF0.0
aF0.0
aF-0.03255555245467231
aF-0.10684074727786594
aF-0.04999927429986023
aF0.0
aF0.0
aF0.0
aF-0.009514574931007026
aF-0.09286217170987916
aF0.0
aF-0.06221161397991215
aF-0.047337004299369156
aF0.0
aF0.0
aF0.0
aF-0.07586010819944723
aF0.0
aF-0.0017262669380784662
aF0.0
aF0.0
aF0.0
aF0.0
aF0.0
aF0.0
aF0.0
aF-0.023980459367440116
aF0.0
aF0.0
aF-0.045934130089441215
aF0.0
aF0.0
aF0.0
aF-0.04973365045764143
aF-0.024843094795060066
aF0.0
aF0.0
aF0.0
aF0.0
aF0.0
aF0.0
aF0.05120259204048943
aF-0.12426380302130509
aF-0.00994776901537452
aF0.0
aF-0.04944052882579828
aF0.0
aF-0.11341142806262464
aF-0.04015307712708453
aF0.0
aF0.0
aF0.0
aF-0.049684191450765025
aF0.0
aF-0.04925348450092923
aF-0.011291548866273815
aF0.0
aF0.0
aF-0.049686433212393744
aF0.0
aF-0.031103751150276082
aF-0.05652751955964199
aF0.0
aF0.05000125732856936
aF0.0
aF-0.049777076476839155
aF-0.0030516809765848175
aF0.0
aF0.0
aF0.051381857607602326
aF0.0
aF0.0
aF0.0
aF-0.0365464492891947
aF0.0
aF0.0
aF0.0
aF0.0
aF0.0
aF-0.10352276418047227
aF-0.06861135327028291
aF-0.024840670564374688
aF-0.02496108037646579
aF-0.12260723669752793
aF-0.04947992598994668
aF0.0
aF0.0
aF-0.06674909709520487
aF0.0
aF0.0
aF-0.04999928179905896
aF0.0
aF0.0
aF3.3523664216128426e-05
aF0.0
aF-0.025425616768454524
aF0.0
aF0.0
aF0.025046511716580566
aF0.0
aF-0.09352001579387767
aF0.0
aF0.0
aF-0.04018898122903427
aF0.0
aF0.004198554711119358
aF0.0
aF0.0
aF0.0
aF0.0
aF0.0
aF0.0
aF0.0
aF0.0
aF-0.09900210303711625
aF0.0
aF0.0
aF0.0
aF0.0
aF0.0
aF0.0
aF-0.042597992560415486
aF-0.04584937074544268
aF0.0
aF0.0
aF0.0
aF0.0
aF-0.049994131989638674
aF-0.04395114979398791
aF0.0
aF-0.03825736238680754
aF-0.12178285114163727
aF0.0
aF0.0
aF0.0
aF0.0
aF-0.04015898992057551
aF0.0
aF-0.2709206748525654
aF0.0
aF0.0
aF-0.09353700581366328
aF0.0
aF0.0
aF0.0
aF-0.048650938469161624
aF-0.050046061659758646
aF0.0
aF-0.025008991741769265
aF-0.029304781066551377
aF0.0
aF-0.049791321360519294
aF0.0
aF0.01599466275343083
aF0.0
aF-0.10496999610130388
aF-0.012559999167717335
aF0.0
aF-0.0496773419655718
aF0.0
aF0.0
aF0.0
aF0.0
aF-0.04687144713276967
aF-0.06830374131423164
aF-0.15953736430221896
aF-0.022640695879631606
aF0.0
aF-0.0020139921904892
aF0.0
aF0.0
aF-0.19203021863831252
aF-0.06734061465079547
aF-0.15096695286507203
aF0.0
aF0.0
aF-0.04968969664282149
aF-0.13289284355659955
aF0.0
aF0.0
aF0.0
aF0.0
aF0.051521406329586884
aF0.0
aF0.0
aF-0.08545877758062853
aF0.0
aF0.0
aF-0.0697318033338476
aF-0.04145584125956828
aF-0.05660408608237985
aF0.0
aF0.0
aF-0.05
aF0.0
aF0.0
aF0.0
aF0.0
aF0.0
aF-0.02499679839440406
aF0.0
aF0.0
aF0.0
aF0.0
aF-0.0012797934591223577
aF0.0
aF-0.09214515437459049
aF0.050000376046620644
aF-0.027777955486732182
aF0.0
aF-0.039843245707790464
aF0.0
aF0.0
aF0.0
aF-0.04909163179502075
aF0.0
aF0.0
aF0.0
aF0.053546322002409386
aF0.006521915322501404
aF-0.048598807369415464
aF0.0
aF0.0
aF-0.04970021375155673
aF-0.03211387085942521
aF-0.11920147931201655
aF0.0
aF0.0
aF-0.3093814483830187
aF0.0
aF0.0
aF0.0
aF0.01803514381243963
aF0.0
aF0.0
aF0.0
aF-0.024208659572354484
aF0.0
aF0.10153042591677
aF0.0
aF0.0
aF0.0
aF0.0
aF0.0
aF0.0
aF-0.09309949822172921
aF0.0
aF-0.15952939363780827
aF0.0
aF-0.040150862752306865
aF0.0
aF0.0
aF-0.028992329054673218
aF-0.0006748999254919119
aF-0.051123134721793174
aF-0.1646481960105723
aF0.0
aF0.0
aF0.0
aF0.0
aF0.0
aF0.0
aF0.0
aF0.0
aF0.0
aF0.0
aF-0.04990631865289764
aF0.049999962204510855
aF0.0
aF0.0
aF0.0
aF0.0
aF0.0
aF0.0
aF0.0
aF0.0
aF0.0
aF0.0
aF0.0
aF0.0
aF-0.031406783084051586
aF0.0
aF-0.04078811320210997
aF-0.07277866678645199
aF0.0
aF0.0
aF-0.024663903104377785
aF0.0
aF0.05020650682952922
aF0.0
aF-0.03481347038749248
aF-0.0496545249066503
aF-0.0777546321061609
aF0.0
aF-0.05710027021784307
aF0.0
aF0.0
aF0.0
aF-0.049247487395972206
aF0.0
aF0.0
aF0.0
aF0.0
aF0.0
aF0.006474109046775589
aF-0.009713824116230011
aF0.0
aF0.0
aF0.0
aF0.0
aF0.0
aF-0.016511227589781654
aF-0.3017681674684593
aF0.0
aF0.0
aF0.0
aF0.0
aF-0.04976144019229187
aF-0.0493602925663261
aF-0.03943570908167729
aF0.0
aF0.0
aF-0.049998742671430646
aF-0.049999672503580346
aF-0.049861503540703234
aF0.0
aF0.0
aF0.0
aF0.0
aF0.0
aF-0.09479421344179675
aF-0.31443964584987727
aF0.0
aF0.0
aF0.0
aF-0.04306231123195656
aF-0.09582720932186975
aF0.0
aF0.0
aF0.0
aF0.0
aF0.0
aF0.0
aF-0.04861823532768109
aF0.0
aF-0.023757824651845897
aF0.0
aF0.0
aF0.0
aF-0.20232200075470774
aF0.0
aF0.0
aF-0.09289036113243918
aF0.0
aF-0.0485219641927941
aF-0.12270439676382648
aF0.0
aF0.0
aF0.0
aF0.0
aF0.0
aF0.0
aF-0.04016170206449254
aF0.0
aF-0.025
aF-0.04854813991670336
aF-0.05000000944998249
aF0.0
aF0.0
aF-0.04012564203137001
aF-0.09316968142826326
aF0.0
aF-0.20426040716946597
aF0.0
aF0.01841168747631942
aF-0.02423123120877667
aF-0.12957432685434994
aF-0.04243559941639586
aF-0.04934092425015069
aF-0.02993915846477652
aF0.0
aF0.0
aF0.0
aF0.0
aF0.0
aF0.0
aF0.0
aF-0.04206713089115028
aF-0.08190736388528802
aF0.0
aF0.0
aF0.0
aF0.0
aF0.0
aF0.0
aF-0.04874408696657325
aF0.0
aF0.0
aF0.0
aF0.0
aF0.0
aF-0.08076389221935025
aF0.0
aF0.0
aF0.0
aF0.0
aF0.0
aF0.0
aF0.0
aF0.0
aF-0.032903345168076414
aF-0.09374405143546644
aF0.0
aF0.0
aF0.0
aF-0.03327727114134818
aF0.0
aF0.0
aF-0.02492205950225293
aF-0.05153559491876572
aF0.0
aF-0.16187463175568328
aF0.0
aF0.0
aF-0.02130944994966855
aF-0.07707043282917313
aF0.0
aF0.0
aF0.0
aF0.0
aF0.0
aF0.0
aF-0.043631494528166934
aF-0.049997003180023925
aF0.0
aF0.0
aF0.0
aF0.0
aF0.0
aF-0.04999965229888604
aF0.0
aF0.0
aF-0.07476603733576256
aF0.0
aF0.0
aF0.0
aF0.0
aF0.0
aF0.0
aF0.0
aF0.0
aF0.0
aF0.0
aF0.0
aF0.0
aF0.0
aF0.0
aF0.0
aF0.0
aF-0.3263957228325586
aF0.0
aF0.0
aF0.0
aF0.0
aF-0.04999771253040111
aF0.0
aF0.0
aF0.0
aF0.0
aF0.0
aF0.0
aF-0.04013090074719111
aF0.0
aF0.0
aF0.0
aF0.0
aF0.0
aF0.0
aF0.0
aF-0.04997178926248577
aF-0.024577529239364085
aF0.0
aF0.0
aF0.0
aF0.0
aF-0.04843514452684745
aF-0.04999952557806441
aF0.0
aF0.0
aF0.0
aF0.0
aF0.0
aF0.0
aF0.0
aF0.0
aF0.050000684407712714
aF0.0
aF0.0
aF0.0
aF0.0
aF0.0
aF0.0
aF0.0
aF0.05
aF0.0
aF0.0
aF-0.04015448279991231
aF-0.03332894535048028
aF-0.004166382986678261
aF0.0
aF0.0
aF0.0
aF0.0
aF0.0
aF0.0
aF0.0
aF0.0
aF0.0
aF0.0
aF0.0
aF0.0
aF0.0
aF0.0
aF0.0
aF0.0
aF0.0
aF0.0
aF0.0
aF0.0
aF0.0
aF0.0
aF0.0
aF0.0
aF0.0
aF0.0
aF0.0
aF0.0
aF0.0
aF0.0
aF-0.049988295403495815
aF-0.04968756667763191
aF0.0
aF-0.09329625602357741
aF0.0
aF0.0
aF0.0
aF0.0
aF0.0
aF0.0
aF0.0
aF0.0
aF0.0
aF0.0
aF0.0
aF0.0
aF0.0
aF0.0
aF0.0
aF0.0
aF0.0
aF0.0
aF0.0
aF0.0
aF0.0
aF0.0
aF0.0
aF0.0
aF0.0
aF0.0
aF0.0
aF-0.049997496041059256
aF0.0
aF0.0
aF0.0
aF-0.04993406279742797
aF0.0
aF-0.04503619909128017
aF-0.0818962620562724
aF-0.02926381772121992
aF0.0
aF0.0
aF0.0
aF0.0
aF0.0
aF0.0
aF0.0
aF0.0
aF0.0
aF-0.040154185101517456
aF0.0
aF0.0
aF0.0
aF0.0
aF0.0
aF0.0
aF0.0
aF0.0
aF-0.02499874870696845
aF0.0
aF0.0
aF0.0
aF-0.04999747914646191
aF0.0
aF0.0
aF0.0
aF0.0
aF0.0
aF0.0
aF0.0
aF0.0
aF0.0
aF0.0
aF0.0
aF0.0
aF0.0
aF0.0
aF0.0
aF0.0
aF-0.05000233616269922
aF0.0
aF0.0
aF0.0
aF0.0
aF0.0
aF0.0
aF0.0
aF0.0
aF0.0
aF-0.04078792516371202
aF0.0
aF0.0
aF0.0
aF0.0
aF0.0
aF0.0
aF0.0
aF-0.04999977196017805
aF-0.016666458149127927
aF0.0
aF0.0
aF0.0
aF0.0
aF0.0
aF0.0
aF0.0
aF0.0
aF0.0
aF0.0
aF0.0
aF0.0
aF0.0
aF-0.049997332754727536
aF0.0
aF0.0
aF0.0
aF-0.04999739213622849
aF-0.39516902174120744
aF-0.36066182271887187
aF0.0
aF0.0
aF0.0
aF0.0
aF0.0
aF0.0
aF0.0
aF0.0
aF0.0
aF0.0
aF0.0
aF0.0
aF0.0
aF0.0
aF0.0
aF0.0
aF0.0
aF0.0
aF0.0
aF0.0
aF-0.04940432495305366
aF0.0
aF0.0
aF0.0
aF0.0
aF0.0
aF0.0
aF0.0
aF0.0
aF0.0
aF0.0
aF0.0
aF0.0
aF0.0
aF0.0
aF0.0
aF0.0
aF0.0
aF0.0
aF0.0
aF0.0
aF0.0
aF0.0
aF0.0
aF0.0
aF0.0
aF0.0
aF0.0
aF0.0
aF0.0
aF0.0
aF0.0
aF0.0
aF0.0
aF0.0
aF0.0
aF0.0
aF0.0
aF0.0
aF0.0
aF0.0
aF0.0
aF0.0
aF0.0
aF0.0
aF0.0
aF0.0
aF0.0
aF0.0
aF0.0
aF0.0
aF0.0
aF0.0
aF0.0
aF0.0
aF0.0
aF0.0
aF0.0
aF0.0
aF0.0
aF0.0
aF0.0
aF0.0
aF-0.04985864995760073
aF0.0
aF-0.09347675268398557
aF0.0
aF0.0
aF0.0
aF0.0
aF0.0
aF0.0
aF0.0
aF0.0
aF0.0
aF0.0
aF0.0
aF0.0
aF-0.04999939534355575
aF0.050000575553191776
aF0.0
aF0.0
aF0.0
aF0.0
aF0.0
aF0.0
aF0.0
aF0.0
aF0.0
aF0.0
aF0.0
aF0.0
aF0.0
aF-0.012500185841688043
aF0.0
aF0.0
aF0.0
aF0.0
aF0.0
aF0.0
aF0.0
aF0.0
aF0.0
aF0.0
aF0.0
aF0.0
aF0.0
aF0.0
aF0.0
aF0.0
aF0.0
aF0.0
aF0.0
aF0.0
aF0.0
aF-0.09374945273420476
aF0.0
aF0.0
aF0.0
aF0.0
aF0.0
aF0.0
aF0.0
aF0.0
aF0.0
aF0.0
aF0.0
aF0.0
aF0.0
aF0.0
aF0.0
aF0.0
aF0.0
aF0.0
aF0.0
aF0.0
aF0.0
aF0.0
aF0.0
aF0.0
aF0.0
aF0.0
aF0.0
aF0.0
aF0.0
aF0.0
aF0.0
aF0.0
aF0.0
aF0.0
aF0.0
aF0.0
aF0.0
aF0.0
aF0.0
aF0.0
aF0.0
aF0.0
aF0.0
aF-0.049990683590190134
aF0.0
aF0.0
aF0.0
aF0.0
aF0.0
aF0.0
aF0.0
aF0.0
aF0.0
aF0.0
aF0.0
aF0.0
aF0.0
aF0.0
aF0.0
aF0.0
aF0.0
aF0.0
aF0.0
aF0.0
aF0.0
aF0.0
aF0.0
aF0.0
aF0.0
aF0.0
aF0.0
aF0.0
aF0.0
aF0.0
aF0.0
aF0.0
aF0.0
aF0.0
aF0.0
aF0.0
aF0.0
aF0.0
aF0.0
aF0.0
aF0.0
aF0.0
aF0.0
aF0.0
aF0.0
aF0.0
aF0.0
aF0.0
aF0.0
aF0.0
aF0.0
aF0.0
aF-0.0248436085698446
aF0.0
aF0.0
aF0.0
aF0.0
aF0.0
aF0.0
aF0.0
aF0.0
aF0.0
aF0.0
aF0.0
aF0.0
aF0.0
aF0.0
aF0.0
aF0.0
aF0.0
aF0.0
aF0.0
aF0.0
aF0.0
aF0.0
aF0.0
aF-0.049998523784875015
aF0.0
aF0.0
aF0.0
aF0.0
aF0.0
aF0.0
aF0.0
aF0.0
aF0.0
aF0.0
aF0.0
aF0.0
aF0.0
aF0.0
aF0.0
aF0.0
aF0.0
aF0.0
aF0.0
aF0.0
aF-0.04734365407831237
aF0.0
aF0.0
aF0.0
aF0.0
aF0.0
aF-0.050000133221135515
aF0.0
aF0.0
aF-0.024840045592686266
aF0.0
aF0.0
aF0.0
aF0.0
aF0.0
aF0.0
aF0.0
aF0.0
aF0.0
aF0.0
aF0.0
aF0.0
aF0.0
aF0.0
aF0.0
aF0.0
aF0.0
aF0.0
aF0.0
aF0.0
aF0.0
aF0.0
aF0.0
aF0.0
aF0.0
aF0.0
aF0.0
aF0.0
aF0.0
aF0.0
aF0.0
aF0.0
aF0.0
aF0.0
aF0.0
aF0.0
aF0.0
aF0.0
aF0.0
aF0.0
aF0.0
aF0.0
aF0.0
aF0.0
aF0.0
aF0.0
aF0.0
aF0.0
aF0.0
aF0.0
aF0.0
aF0.0
aF0.0
aF0.0
aF0.0
aF-0.0851600501105281
aF0.0
aF0.0
aF0.0
aF0.0
aF0.0
aF0.0
aF0.0
aF0.0
aF0.0
aF0.0
aF0.0
aF0.0
aF0.0
aF0.0
aF0.009999937389383968
aF0.0
aF0.0
aF0.0
aF0.0
aF0.0
aF0.0
aF0.0
aF0.0
aF0.0
aF0.0
aF0.0
aF0.0
aF-0.049998666323350316
aF0.0
aF0.0
aF0.0
aF0.0
aF0.0
aF0.0
aF0.0
aF0.0
aF0.0
aF0.0
aF0.0
aF0.0
aF0.0
aF0.0
aF0.0
aF0.0
aF0.0
aF0.0
aF0.0
aF0.0
aF0.0
aF0.0
aF0.0
aF0.0
aF0.0
aF0.0
aF0.0
aF0.0
aF-0.024999935815414223
aF0.0
aF0.0
aF0.0
aF0.0
aF0.0
aF0.0
aF0.0
aF0.0
aF0.0
aF0.0
aF0.0
aF0.0
aF0.0
aF0.0
aF0.0
aF0.0
aF0.0
aF0.0
aF0.0
aF0.0
aF0.0
aF0.0
aF0.0
aF0.0
aF0.0
aF0.0
aF0.0
aF0.0
aF0.0
aF0.0
aF0.0
aF0.0
aF0.0
aF0.0
aF0.0
aF0.0
aF0.0
aF0.0
aF0.0
aF0.0
aF0.0
aF0.0
aF0.0
aF0.0
aF0.0
aF0.0
aF0.0
aF0.0
aF0.0
aF0.0
aF0.0
aF0.0
aF0.0
aF0.0
aF0.0
aF0.0
aF0.0
aF-0.049735498139471354
aF0.0
aF0.0
aF-0.04734208159507347
aF0.0
aF0.0
aF0.0
aF0.0
aF0.0
aF0.0
aF0.0
aF0.0
aF0.0
aF0.0
aF0.0
aF0.0
aF0.0
aF0.0
aF0.0
aF0.0
aF0.0
aF0.0
aF0.0
aF0.0
aF0.0
aF0.0
aF0.0
aF0.0
aF0.0
aF0.0
aF0.0
aF0.0
aF0.0
aF0.0
aF0.0
aF0.0
aF0.0
aF0.0
aF0.0
aF0.0
aF0.0
aF0.0
aF0.0
aF-0.03161991401032804
aF0.0
aF0.0
aF0.0
aF0.0
aF0.0
aF0.0
aF-0.049998119523332704
aF0.0
aF0.0
aF0.0
aF0.0
aF0.0
aF0.0
aF0.0
aF0.0
aF0.0
aF0.0
aF0.0
aF0.0
aF0.0
aF0.0
aF0.0
aF0.0
aF0.0
aF0.0
aF0.0
aF0.0
aF0.0
aF0.0
aF0.0
aF0.0
aF0.0
aF0.0
aF0.0
aF0.0
aF0.0
aF0.0
aF0.0
aF-0.01666524602541494
aF0.0
aF0.0
aF0.0
aF0.0
aF0.0
aF0.0
aF0.0
aF0.0
aF0.0
aF0.0
aF0.0
aF0.0
aF0.0
aF-0.16553354495637634
aF0.0
aF0.0
aF0.0
aF0.0
aF-0.049999167596809
aF0.0
aF0.0
aF0.0
aF0.0
aF0.0
aF0.0
aF0.0
aF0.0
aF0.0
aF0.0
aF0.0
aF0.0
aF0.0
aF0.0
aF0.0
aF0.0
aF0.0
aF0.0
aF0.0
aF0.0
aF0.0
aF0.0
aF-0.049998558926721705
aF0.0
aF0.0
aF0.0
aF0.0
aF0.0
aF0.0
aF0.0
aF0.0
aF0.0
aF0.0
aF0.0
aF0.0
aF0.0
aF0.0
aF0.0
aF0.0
aF0.0
aF0.0
aF0.0
aF0.0
aF0.0
aF0.0
aF0.0
aF0.0
aF0.0
aF0.0
aF0.0
aF0.0
aF0.0
aF0.0
aF0.0
aF0.0
aF0.0
aF0.0
aF0.0
aF0.0
aF0.0
aF-0.005555570550323592
aF0.0
aF0.0
aF0.0
aF0.0
aF0.0
aF0.0
aF0.0
aF0.0
aF0.0
aF0.0
aF0.0
aF0.0
aF0.0
aF0.0
aF0.0
aF0.0
aF0.0
aF0.0
aF0.0
aF0.0
aF0.0
aF0.0
aF0.0
aF0.0
aF0.0
aF0.0
aF0.0
aF0.0
aF0.0
aF0.0
aF0.0
aF0.0
aF0.0
aF0.0
aF0.0
aF0.0
aF0.0
aF0.0
aF0.0
aF0.0
aF0.0
aF0.0
aF0.0
aF-0.05
aF0.0
aF0.0
aF0.0
aF0.0
aF0.0
aF0.0
aF-0.049997360564456535
aF0.0
aF0.0
aF0.0
aF0.0
aF0.0
aF0.0
aF0.0
aF0.0
aF0.0
aF0.0
aF0.0
aF0.0
aF0.0
aF0.0
aF0.0
aF0.0
aF0.0
aF0.0
aF0.0
aF0.0
aF0.0
aF0.0
aF0.0
aF0.0
aF0.0
aF0.0
aF0.0
aF0.0
aF0.0
aF0.0
aF0.0
aF0.0
aF0.0
aF0.0
aF-0.01666664491243708
aF0.0
aF0.0
aF0.0
aF0.0
aF0.0
aF0.0
aF0.0
aF0.0
aF0.0
aF0.0
aF0.0
aF0.0
aF0.0
aF0.0
aF0.0
aF0.0
aF0.0
aF0.0
aF0.0
aF0.0
aF0.0
aF0.0
aF0.0
aF0.0
aF0.0
aF0.0
aF0.0
aF0.0
aF0.0
aF0.0
aF0.0
aF0.0
aF0.0
aF0.0
aF0.0
aF0.0
aF0.0
aF0.0
aF0.0
aF0.0
aF0.0
aF0.0
aF0.0
aF0.0
aF0.0
aF0.0
aF0.0
aF0.0
aF0.0
aF0.0
aF0.0
aF0.0
aF0.0
aF0.0
aF0.0
aF0.0
aF0.0
aF0.0
aF0.0
aF0.0
aF0.0
aF0.0
aF0.0
aF0.0
aF0.0
aF0.0
aF0.0
aF0.0
aF0.0
aF0.0
aF-0.050001434856519617
aF0.0
aF0.0
aF0.0
aF0.0
aF0.0
aF0.0
aF0.0
aF0.0
aF0.0
aF0.0
aF0.0
aF0.0
aF0.0
aF0.0
aF0.0
aF0.0
aF0.0
aF0.0
aF0.0
aF0.0
aF0.0
aF0.0
aF0.0
aF0.0
aF0.0
aF0.0
aF0.0
aF0.0
aF0.0
aF0.0
aF0.0
aF0.0
aF0.0
aF0.0
aF0.0
aF0.0
aF0.0
aF0.0
aF0.0
aF0.0
aF0.0
aF0.0
aF0.0
aF0.0
aF0.0
aF0.0
aF0.0
aF0.0
aF0.0
aF0.0
aF0.0
aF0.0
aF0.0
aF0.0
aF0.0
aF0.05000015175408348
aF0.0
aF0.0
aF0.0
aF0.0
aF0.0
aF0.0
aF0.0
aF0.0
aF0.0
aF0.0
aF0.0
aF0.0
aF0.0
aF0.0
aF0.0
aF0.0
aF0.0
aF0.0
aF0.0
aF0.0
aF0.0
aF0.0
aF0.0
aF0.0
aF0.0
aF0.0
aF0.0
aF-0.005555826531032101
aF0.0
aF0.0
aF0.0
aF0.0
aF0.0
aF0.0
aF0.0
aF0.0
aF0.0
aF0.0
aF0.0
aF0.0
aF0.0
aF0.0
aF0.0
aF0.0
aF0.0
aF0.0
aF0.0
aF0.0
aF0.0
aF0.0
aF0.0
aF0.0
aF0.0
aF0.0
aF0.0
aF0.0
aF0.0
aF0.0
aF0.0
aF0.0
aF0.0
aF0.0
aF0.0
aF0.0
aF0.0
aF0.0
aF0.0
aF0.0
aF0.0
aF0.0
aF-0.050000196809660974
aF0.0
aF0.0
aF0.0
aF0.0
aF0.0
aF0.0
aF0.0
aF0.0
aF0.0
aF0.0
aF0.0
aF0.0
aF0.0
aF0.0
aF0.0
aF0.0
aF0.0
aF0.0
aF0.0
aF0.0
aF0.0
aF0.0
aF0.0
aF0.0
aF0.0
aF0.0
aF0.0
aF0.0
aF0.0
aF0.0
aF0.0
aF0.0
aF0.0
aF0.0
aF0.0
aF0.0
aF0.0
aF0.0
aF0.0
aF0.0
aF0.0
aF0.0
aF0.0
aF0.0
aF0.0
aF0.0
aF0.0
aF0.0
aF0.0
aF0.0
aF0.0
aF0.0
aF0.0
aF0.0
aF0.0
aF0.0
aF0.0
aF0.0
aF0.0
aF0.0
aF0.0
aF0.0
aF0.0
aF0.0
aF0.0
aF0.0
aF0.0
aF0.0
aF0.0
aF0.0
aF0.0
aF0.0
aF0.0
aF0.0
aF0.0
aF0.0
aF0.0
aF0.0
aF0.0
aF0.0
aF0.0
aF0.0
aF0.0
aF0.0
aF0.0
aF0.0
aF0.0
aF0.0
aF0.0
aF0.0
aF0.0
aF0.0
aF0.0
aF0.0
aF0.0
aF0.0
aF0.0
aF0.0
aF0.0
aF0.0
aF0.0
aF0.0
aF0.0
aF0.0
aF0.0
aF0.0
aF0.0
aF0.0
aF0.0
aF0.0
aF0.0
aF0.0
aF0.0
aF0.0
aF0.0
aF0.0
aF0.0
aF0.0
aF0.0
aF0.0
aF0.0
aF0.0
aF0.0
aF0.0
aF0.0
aF0.0
aF0.0
aF0.0
aF0.0
aF0.0
aF0.0
aF0.0
aF0.0
aF0.0
aF0.0
aF0.0
aF0.0
aF0.0
aF0.0
aF0.0
aF0.0
aF0.0
aF0.0
aF0.0
aF0.0
aF0.0
aF0.0
aF0.0
aF0.0
aF0.0
aF0.0
aF0.0
aF0.0
aF0.0
aF0.0
aF0.0
aF0.0
aF0.0
aF0.0
aF0.0
aF0.0
aF0.0
aF0.0
aF0.0
aF0.0
aF0.0
aF0.0
aF0.0
aF0.0
aF0.0
aF0.0
aF0.0
aF0.0
aF0.0
aF0.0
aF0.0
aF0.0
aF0.0
aF0.0
aF0.0
aF0.0
aF0.0
aF0.0
aF0.0
aF0.0
aF0.0
aF0.0
aF0.0
aF0.0
aF0.0
aF0.0
aF0.0
aF0.0
aF0.0
aF0.0
aF0.0
aF0.0
aF0.0
aF0.0
aF0.0
aF0.0
aF0.0
aF0.0
aF0.0
aF0.0
aF0.0
aF0.0
aF0.0
aF0.0
aF0.0
aF0.0
aF0.0
aF0.0
aF0.0
aF0.0
aF0.0
aF0.0
aF0.0
aF0.0
aF0.0
aF0.0
aF0.0
aF0.0
aF0.0
aF0.0
aF0.0
aF0.0
aF0.0
aF0.0
aF0.0
aF0.0
aF0.0
aF0.0
aF0.0
aF0.0
aF0.0
aF0.0
aF0.0
aF0.0
aF0.0
aF0.0
aF0.0
aF0.0
aF0.0
aF0.0
aF0.0
aF0.0
aF0.0
aF0.0
aF0.0
aF0.0
aF0.0
aF0.0
aF0.0
aF0.0
aF0.0
aF0.0
aF0.0
aF0.0
aF0.0
aF0.0
aF0.0
aF0.0
aF0.0
aF0.0
aF0.0
aF0.0
aF0.0
aF0.0
aF0.0
aF0.0
aF0.0
aF0.0
aF0.0
aF0.0
aF0.0
aF0.0
aF0.0
aF0.0
aF0.0
aF0.0
aF0.0
aF0.0
aF0.0
aF0.0
aF0.0
aF0.0
aF0.0
aF0.0
aF0.0
aF0.0
aF0.0
aF0.0
aF0.0
aF0.0
aF0.0
aF0.0
aF0.0
aF0.0
aF0.0
aF0.0
aF0.0
aF0.0
aF0.0
aF0.0
aF0.0
aF0.0
aF0.0
aF0.0
aF0.0
aF0.0
aF0.0
aF0.0
aF0.0
aF0.0
aF0.0
aF0.0
aF0.0
aF0.0
aF0.0
aF0.0
aF0.0
aF0.0
aF0.0
aF0.0
aF0.0
aF0.0
aF0.0
aF0.0
aF0.0
aF0.0
aF0.0
aF0.0
aF0.0
aF0.0
aF0.0
aF0.0
aF0.0
aF0.0
aF0.0
aF0.0
aF0.0
aF0.0
aF0.0
aF0.0
aF0.0
aF0.0
aF0.0
aF0.0
aF0.0
aF0.0
aF0.0
aF0.0
aF0.0
aF0.0
aF0.0
aF0.0
aF0.0
aF0.0
aF0.0
aF0.0
aF0.0
aF0.0
aF0.0
aF0.0
aF0.0
aF0.0
aF0.0
aF0.0
aF0.0
aF0.0
aF0.0
aF0.0
aF0.0
aF0.0
aF0.0
aF0.0
aF0.0
aF0.0
aF0.0
aF0.0
aF0.0
aF0.0
aF0.0
aF0.0
aF0.0
aF0.0
aF0.0
aF0.0
aF0.0
aF0.0
aF0.0
aF0.0
aF0.0
aF0.0
aF0.0
aF0.0
aF0.0
aF0.0
aF0.0
aF0.0
aF0.0
aF0.0
aF0.0
aF0.0
aF0.0
aF0.0
aF0.0
aF0.0
aF0.0
aF0.0
aF0.0
aF0.0
aF0.0
aF0.0
aF0.0
aF0.0
aF0.0
aF0.0
aF0.0
aF0.0
aF0.0
aF0.0
aF0.0
aF0.0
aF0.0
aF0.0
aF0.0
aF0.0
aF0.0
aF0.0
aF0.0
aF0.0
aF0.0
aF0.0
aF0.0
aF0.0
aF0.0
aF0.0
aF0.0
aF0.0
aF0.0
aF0.0
aF0.0
aF0.0
aF0.0
aF0.0
aF0.0
aF0.0
aF0.0
aF0.0
aF0.0
aF0.0
aF0.0
aF0.0
aF0.0
aF0.0
aF0.0
aF0.0
aF0.0
aF0.0
aF0.0
aF0.0
aF0.0
aF0.0
aF0.0
aF0.0
aF0.0
aF0.0
aF0.0
aF0.0
aF0.0
aF0.0
aF0.0
aF0.0
aF0.0
aF0.0
aF0.0
aF0.0
aF0.0
aF0.0
aF0.0
aF0.0
aF0.0
aF0.0
aF0.0
aF0.0
aF0.0
aF0.0
aF0.0
aF0.0
aF0.0
aF0.0
aF0.0
aF0.0
aF0.0
aF0.0
aF0.0
aF0.0
aF0.0
aF0.0
aF0.0
aF0.0
aF0.0
aF0.0
aF0.0
aF0.0
aF0.0
aF0.0
aF0.0
aF0.0
aF0.0
aF0.0
aF0.0
aF0.0
aF0.0
aF0.0
aF0.0
aF0.0
aF0.0
aF0.0
aF0.0
aF0.0
aF0.0
aF0.0
aF0.0
aF0.0
aF0.0
aF0.0
aF0.0
aF0.0
aF0.0
aF0.0
aF0.0
aF0.0
aF0.0
aF0.0
aF0.0
aF0.0
aF0.0
aF0.0
aF0.0
aF0.0
aF0.0
aF0.0
aF0.0
aF0.0
aF0.0
aF0.0
aF0.0
aF0.0
aF0.0
aF0.0
aF0.0
aF0.0
aF0.0
aF0.0
aF0.0
aF0.0
aF0.0
aF0.0
aF0.0
aF0.0
aF0.0
aF0.0
aF0.0
aF0.0
aF0.0
aF0.0
aF0.0
aF0.0
aF0.0
aF0.0
aF0.0
aF0.0
aF0.0
aF0.0
aF0.0
aF0.0
aF0.0
aF0.0
aF0.0
aF0.0
aF0.0
aF0.0
aF0.0
aF0.0
aF0.0
aF0.0
aF0.0
aF0.0
aF0.0
aF0.0
aF0.0
aF0.0
aF0.0
aF0.0
aF0.0
aF0.0
aF0.0
aF0.0
aF0.0
aF0.0
aF0.0
aF0.0
aF0.0
aF0.0
aF0.0
aF0.0
aF0.0
aF0.0
aF0.0
aF0.0
aF0.0
aF0.0
aF0.0
aF0.0
aF0.0
aF0.0
aF0.0
aF0.0
aF0.0
aF0.0
aF0.0
aF0.0
aF0.0
aF0.0
aF0.0
aF0.0
aF0.0
aF0.0
aF0.0
aF0.0
aF0.0
aF0.0
aF0.0
aF0.0
aF0.0
aF0.0
aF0.0
aF0.0
aF0.0
aF0.0
aF0.0
aF0.0
aF0.0
aF0.0
aF0.0
aF0.0
aF0.0
aF0.0
aF0.0
aF0.0
aF0.0
aF0.0
aF0.0
aF0.0
aF0.0
aF0.0
aF0.0
aF0.0
aF0.0
aF0.0
aF0.0
aF0.0
aF0.0
aF0.0
aF0.0
aF0.0
aF0.0
aF0.0
aF0.0
aF0.0
aF0.0
aF0.0
aF0.0
aF0.0
aF0.0
aF0.0
aF0.0
aF0.0
aF0.0
aF0.0
aF0.0
aF0.0
aF0.0
aF0.0
aF0.0
aF0.0
aF0.0
aF0.0
aF0.0
aF0.0
aF0.0
aF0.0
aF0.0
aF0.0
aF0.0
aF0.0
aF0.0
aF0.0
aF0.0
aF0.0
aF0.0
aF0.0
aF0.0
aF0.0
aF0.0
aF0.0
aF0.0
aF0.0
aF0.0
aF0.0
aF0.0
aF0.0
aF0.0
aF0.0
aF0.0
aF0.0
aF0.0
aF0.0
aF0.0
aF0.0
aF0.0
aF0.0
aF0.0
aF0.0
aF0.0
aF0.0
aF0.0
aF0.0
aF0.0
aF0.0
aF0.0
aF0.0
aF0.0
aF0.0
aF0.0
aF0.0
aF0.0
aF0.0
aF0.0
aF0.0
aF0.0
aF0.0
aF0.0
aF0.0
aF0.0
aF0.0
aF0.0
aF0.0
aF0.0
aF0.0
aF0.0
aF0.0
aF0.0
aF0.0
aF0.0
aF0.0
aF0.0
aF0.0
aF0.0
aF0.0
aF0.0
aF0.0
aF0.0
aF0.0
aF0.0
aF0.0
aF0.0
aF0.0
aF0.0
aF0.0
aF0.0
aF0.0
aF0.0
aF0.0
aF0.0
aF0.0
aF0.0
aF0.0
aF0.0
aF0.0
aF0.0
aF0.0
aF0.0
aF0.0
aF0.0
aF0.0
aF0.0
aF0.0
aF0.0
aF0.0
aF0.0
aF0.0
aF0.0
aF0.0
aF0.0
aF0.0
aF0.0
aF0.0
aF0.0
aF0.0
aF0.0
aF0.0
aF0.0
aF0.0
aF0.0
aF0.0
aF0.0
aF0.0
aF0.0
aF0.0
aF0.0
aF0.0
aF0.0
aF0.0
aF0.0
aF0.0
aF0.0
aF0.0
aF0.0
aF0.0
aF0.0
aF0.0
aF0.0
aF0.0
aF0.0
aF0.0
aF0.0
aF0.0
aF0.0
aF0.0
aF0.0
aF0.0
aF0.0
aF0.0
aF0.0
aF0.0
aF0.0
aF0.0
aF0.0
aF0.0
aF0.0
aF0.0
aF0.0
aF0.0
aF0.0
aF0.0
aF0.0
aF0.0
aF0.0
aF0.0
aF0.0
aF0.0
aF0.0
aF0.0
aF0.0
aF0.0
aF0.0
aF0.0
aF0.0
aF0.0
aF0.0
aF0.0
aF0.0
aF0.0
aF0.0
aF0.0
aF0.0
aF0.0
aF0.0
aF0.0
aF0.0
aF0.0
aF0.0
aF0.0
aF0.0
aF0.0
aF0.0
aF0.0
aF0.0
aF0.0
aF0.0
aF0.0
aF0.0
aF0.0
aF0.0
aF0.0
aF0.0
aF0.0
aF0.0
aF0.0
aF0.0
aF0.0
aF0.0
aF0.0
aF0.0
aF0.0
aF0.0
aF0.0
aF0.0
aF0.0
aF0.0
aF0.0
aF0.0
aF0.0
aF0.0
aF0.0
aF0.0
aF0.0
aF0.0
aF0.0
aF0.0
aF0.0
aF0.0
aF0.0
aF0.0
aF0.0
aF0.0
aF0.0
aF0.0
aF0.0
aF0.0
aF0.0
aF0.0
aF0.0
aF0.0
aF0.0
aF0.0
aF0.0
aF0.0
aF0.0
aF0.0
aF0.0
aF0.0
aF0.0
aF0.0
aF0.0
aF0.0
aF0.0
aF0.0
aF0.0
aF0.0
aF0.0
aF0.0
aF0.0
aF0.0
aF0.0
aF0.0
aF0.0
aF0.0
aF0.0
aF0.0
aF0.0
aF0.0
aF0.0
aF0.0
aF0.0
aF0.0
aF0.0
aF0.0
aF0.0
aF0.0
aF0.0
aF0.0
aF0.0
aF0.0
aF0.0
aF0.0
aF0.0
aF0.0
aF0.0
aF0.0
aF0.0
aF0.0
aF0.0
aF0.0
aF0.0
aF0.0
aF0.0
aF0.0
aF0.0
aF0.0
aF0.0
aF0.0
aF0.0
aF0.0
aF0.0
aF0.0
aF0.0
aF0.0
aF0.0
aF0.0
aF0.0
aF0.0
aF0.0
aF0.0
aF0.0
aF0.0
aF0.0
aF0.0
aF0.0
aF0.0
aF0.0
aF0.0
aF0.0
aF0.0
aF0.0
aF0.0
aF0.0
aF0.0
aF0.0
aF0.0
aF0.0
aF0.0
aF0.0
aF0.0
aF0.0
aF0.0
aF0.0
aF0.0
aF0.0
aF0.0
aF0.0
aF0.0
aF0.0
aF0.0
aF0.0
aF0.0
aF0.0
aF0.0
aF0.0
aF0.0
aF0.0
aF0.0
aF0.0
aF0.0
aF0.0
aF0.0
aF0.0
aF0.0
aF0.0
aF0.0
aF0.0
aF0.0
aF0.0
aF0.0
aF0.0
aF0.0
aF0.0
aF0.0
aF0.0
aF0.0
aF0.0
aF0.0
aF0.0
aF0.0
aF0.0
aF0.0
aF0.0
aF0.0
aF0.0
aF0.0
aF0.0
aF0.0
aF0.0
aF0.0
aF0.0
aF0.0
aF0.0
aF0.0
aF0.0
aF0.0
aF0.0
aF0.0
aF0.0
aF0.0
aF0.0
aF0.0
aF0.0
aF0.0
aF0.0
aF0.0
aF0.0
aF0.0
aF0.0
aF0.0
aF0.0
aF0.0
aF0.0
aF0.0
aF0.0
aF0.0
aF0.0
aF0.0
aF0.0
aF0.0
aF0.0
aF0.0
aF0.0
aF0.0
aF0.0
aF0.0
aF0.0
aF0.0
aF0.0
aF0.0
aF0.0
aF0.0
aF0.0
aF0.0
aF0.0
aF0.0
aF0.0
aF0.0
aF0.0
aF0.0
aF0.0
aF0.0
aF0.0
aF0.0
aF0.0
aF0.0
aF0.0
aF0.0
aF0.0
aF0.0
aF0.0
aF0.0
aF0.0
aF0.0
aF0.0
aF0.0
aF0.0
aF0.0
aF0.0
aF0.0
aF0.0
aF0.0
aF0.0
aF0.0
aF0.0
aF0.0
aF0.0
aF0.0
aF0.0
aF0.0
aF0.0
aF0.0
aF0.0
aF0.0
aF0.0
aF0.0
aF0.0
aF0.0
aF0.0
aF0.0
aF0.0
aF0.0
aF0.0
aF0.0
aF0.0
aF0.0
aF0.0
aF0.0
aF0.0
aF0.0
aF0.0
aF0.0
aF0.0
aF0.0
aF0.0
aF0.0
aF0.0
aF0.0
aF0.0
aF0.0
aF0.0
aF0.0
aF0.0
aF0.0
aF0.0
aF0.0
aF0.0
aF0.0
aF0.0
aF0.0
aF0.0
aF0.0
aF0.0
aF0.0
aF0.0
aF0.0
aF0.0
aF0.0
aF0.0
aF0.0
aF0.0
aF0.0
aF0.0
aF0.0
aF0.0
aF0.0
aF0.0
aF0.0
aF0.0
aF0.0
aF0.0
aF0.0
aF0.0
aF0.0
aF0.0
aF0.0
aF0.0
aF0.0
aF0.0
aF0.0
aF0.0
aF0.0
aF0.0
aF0.0
aF0.0
aF0.0
aF0.0
aF0.0
aF0.0
aF0.0
aF0.0
aF0.0
aF0.0
aF0.0
aF0.0
aF0.0
aF0.0
aF0.0
aF0.0
aF0.0
aF0.0
aF0.0
aF0.0
aF0.0
aF0.0
aF0.0
aF0.0
aF0.0
aF0.0
aF0.0
aF0.0
aF0.0
aF0.0
aF0.0
aF0.0
aF0.0
aF0.0
aF0.0
aF0.0
aF0.0
aF0.0
aF-0.08538539724428959
aF0.0024692380419193377
aF0.0
aF-0.00508582403016454
aF0.0
aF0.0
aF0.0
aF0.0
aF0.0
aF0.0
aF0.000251985705298011
aF0.0
aF0.0
aF0.0
aF0.0
aF0.0
aF0.0
aF0.0
aF0.0
aF0.0
aF0.0
aF0.0
aF0.0
aF0.0
aF0.0
aF0.0
aF0.0
aF0.0
aF0.0
aF0.0
aF0.0
aF0.0
aF0.0
aF0.0
aF0.0
aF0.0
aF0.0
aF0.0
aF0.0
aF0.0
aF0.0
aF0.0
aF0.0
aF0.0
aF0.0
aF0.0
aF0.0
aF0.0
aF0.0
aF0.0
aF0.0
aF0.0
aF0.0
aF0.0
aF0.0
aF0.0
aF0.0
aF0.0
aF0.0
aF0.0
aF0.0
aF0.0
aF0.0
aF0.0
aF0.0
aF0.0
aF0.0
aF0.0
aF0.0
aF0.0
aF0.0
aF0.0
aF0.0
aF0.0
aF0.0
aF-0.00023676499582661728
aF0.0
aF0.0
aF0.0
aF0.0
aF0.0002618
aF0.0
aF0.0
aF0.0
aF0.0
aF0.0
aF0.0
aF0.0
aF0.0
aF0.0
aF0.0
aF0.0
aF0.0
aF0.0
aF0.0
aF0.0
aF0.0
aF0.0
aF0.0
aF0.0
aF0.0
aF0.0
aF0.0
aF0.0
aF0.0
aF0.0
aF0.0
aF0.0
aF0.0
aF0.0
aF0.0
aF0.0
aF0.0
aF0.0
aF0.0
aF0.0
aF0.0
aF0.0
aF0.0
aF0.0
aF0.0
aF0.0
aF0.0
aF0.0
aF0.0
aF0.0
aF0.0
aF0.0
aF0.0
aF0.0
aF0.0
aF0.0
aF0.0
aF0.0
aF0.0
aF0.0
aF0.0
aF0.0
aF0.0
aF0.0
aF0.0
aF0.0
aF0.0
aF0.0
aF0.0
aF0.0
aF0.0
aF0.0
aF0.0
aF0.0
aF0.0
aF0.0
aF0.0
aF0.0
aF0.0
aF0.0
aF0.0
aF0.0
aF0.0
aF0.0
aF0.0
aF0.0
aF0.0
aF0.0
aF0.0
aF0.0
aF0.0
aF0.0
aF0.0
aF0.0
aF0.0
aF0.0
aF0.0
aF0.0
aF0.005000000000000001
aF0.0
aF0.0
aF0.0
aF-0.00011545
aF0.0
aF0.0
aF0.0
aF0.0
aF0.0
aF0.0
aF0.0
aF0.0
aF0.0
aF0.0
aF0.0
aF0.0
aF0.0
aF0.0
aF0.0
aF0.0
aF0.0
aF0.0
aF0.0
aF0.0
aF0.0
aF0.0
aF0.0
aF0.0
aF0.0
aF0.0
aF0.0
aF0.0
aF0.0
aF0.0
aF0.0
aF0.0
aF0.0
aF0.0
aF0.0
aF0.0
aF0.0
aF0.0
aF0.0
aF0.0
aF0.0
aF0.0
aF0.0
aF0.0
aF0.0
aF0.0
aF0.0
aF0.0
aF0.0
aF0.0
aF0.0
aF0.0
aF0.0
aF0.0
aF0.0007576000000000001
aF0.0
aF0.0
aF0.0
aF0.0
aF0.0
aF0.0
aF0.0
aF0.0
aF0.0
aF0.0
aF0.0
aF0.0
aF0.0
aF0.0
aF0.0
aF0.0
aF0.0
aF0.0
aF0.0
aF0.0
aF0.0
aF0.0
aF0.0
aF0.0
aF0.0
aF0.0
aF0.0
aF0.0
aF0.0
aF0.0
aF0.0
aF0.0
aF0.0
aF0.0
aF0.0
aF0.0
aF0.0
aF0.0
aF0.0
aF0.0
aF0.0
aF0.0
aF0.0
aF0.0
aF0.0
aF0.0
aF0.0
aF0.0
aF0.0
aF0.0
aF0.0
aF0.0
aF0.0
aF0.0
aF0.0
aF0.0
aF0.0
aF0.0
aF0.0
aF0.0
aF0.0
aF0.0
aF0.0
aF0.0
aF0.0
aF0.0
aF0.0
aF0.0
aF0.0
aF0.0
aF0.0
aF0.0
aF0.0
aF0.0
aF0.0
aF0.0
aF0.0
aF0.0
aF0.0
aF0.0
aF0.0
aF0.0
aF0.0
aF0.0
aF0.0
aF0.0
aF0.0
aF0.0
aF0.0
aF0.0
aF0.0
aF0.0
aF0.0
aF0.0
aF0.0
aF0.0
aF0.0
aF0.0
aF0.0
aF0.0
aF0.0
aF0.0
aF0.0
aF0.0
aF0.0
aF0.0
aF0.0
aF0.0
aF0.0
aF0.0
aF0.0
aF0.0
aF0.0
aF0.0
aF0.0
aF0.0
aF0.0
aF0.0
aF0.0
aF0.0
aF0.0
aF0.0
asb.