(ilrsgd
LogisticRegressionSGD
p0
(dp1
S'mu'
p2
F0.07
sS'eta'
p3
F0.07
sS'weight'
p4
(lp5
F-0.033057233371392714
aF-0.03471667551887797
aF0.0
aF0.0
aF0.0
aF-0.0510779932574032
aF0.007276959923798655
aF-0.05584606863997157
aF-0.03443317439724422
aF0.0
aF-0.037323789490913035
aF-0.07752667375263735
aF0.0
aF-0.06390520470421081
aF0.03694699456103498
aF0.0
aF-0.03508511220055085
aF-0.03488496340867168
aF-0.012160616558127897
aF0.0
aF-0.0325987393486239
aF0.0
aF0.0
aF-0.034846809722904624
aF-0.10585317555436626
aF-0.0343605710903352
aF-0.0050438633919193746
aF-0.06404222788211256
aF-0.03009636276357819
aF-0.05538625929466243
aF0.09656339778699266
aF-0.01729983710543913
aF-0.03476947077420496
aF-0.07178442490319228
aF-0.060526805847561475
aF-0.062215461098678614
aF-0.031129510337388398
aF0.0
aF0.01871749404816071
aF-0.029934139770314536
aF-0.030978465773360126
aF-0.017731583216249285
aF-0.034164046352485454
aF-0.004989630735457315
aF0.0
aF-0.03233002862689362
aF-0.0347065773051359
aF-0.035150463809585766
aF-0.03216154900477079
aF0.03737602693711074
aF0.035037728697590795
aF-0.03468537447636351
aF-0.05747622479285888
aF-0.12315877360265971
aF-0.019813265098129827
aF-0.03484480811118586
aF-0.014954388364583442
aF-0.08908106569950497
aF0.0
aF0.06153622005079052
aF-0.014227658503726034
aF-0.0643893030652753
aF-0.043744474121883786
aF-0.08216390585787564
aF0.0
aF-0.03283366911866568
aF0.0
aF0.0
aF0.03878939274938839
aF0.03522051242156828
aF-0.06471632255029738
aF0.0
aF0.0
aF-0.013483890988398549
aF0.036820603007709084
aF0.0
aF0.037014180800806165
aF-0.02509346601920888
aF0.0
aF0.035184924697576204
aF0.0
aF0.0
aF-0.017434639918984446
aF0.0
aF0.0
aF-0.026963758873263396
aF-0.028306255806399852
aF-0.03384688372655459
aF0.0
aF-0.03499127062874495
aF-0.027294330371394747
aF-0.03449691680387267
aF0.0
aF-0.10351625568894471
aF-0.11696660689839986
aF-0.03499954038744279
aF-0.004889575571685158
aF-0.03434018224182324
aF-0.0050876479555006255
aF-0.005096009745720109
aF-0.06385418369310251
aF0.0
aF-0.08706816794893601
aF0.0
aF-0.03282063062574594
aF0.0
aF-0.025690667352078762
aF0.0
aF-0.14566664779367677
aF-0.03477748910676886
aF-0.03479994132836185
aF-0.03435711265486301
aF-0.06414744860152591
aF-0.07223468557689505
aF0.03548790756457326
aF-0.03374382267519359
aF-0.07031527747011099
aF-0.03448586307979673
aF-0.03286376871217472
aF-0.0881458849476437
aF-0.08422493076384627
aF-0.011295044074911664
aF-0.05092781471339145
aF0.0
aF-0.028990162724273252
aF0.0
aF0.038962990851745045
aF-0.03339763525447261
aF0.0
aF0.0
aF0.03508784904173502
aF0.0
aF-0.039131219126973524
aF0.0
aF0.0
aF-0.061479809139888486
aF-0.035020727226361244
aF0.0
aF-0.03112828403287968
aF-0.05794004237842645
aF-0.1895850617806361
aF-0.06100332949281341
aF-0.08895796402377687
aF0.0
aF0.0
aF-0.12497463901068862
aF-0.06448730592935498
aF-0.1643571459313257
aF0.0
aF0.03528289718307118
aF-0.06404702245232462
aF-0.03381992254593046
aF0.0
aF0.0
aF-0.12162051793380033
aF0.0
aF-0.03221205056152115
aF0.0
aF-0.0348179839162364
aF0.03506794693999294
aF0.006430694342080462
aF-0.03465241315285158
aF-0.021265149093705665
aF0.03544991759129784
aF-0.03499314204728271
aF-0.10830325683391193
aF0.0
aF-0.03492139687289664
aF0.0
aF-0.12470662890393619
aF0.0
aF0.0
aF-0.06426217860805064
aF-0.03389577952457593
aF-0.03459727458528064
aF-0.06326254629982875
aF0.0
aF-0.07073587373192228
aF-0.06445451840667868
aF0.0
aF0.0001661874483021783
aF-0.06430392577802718
aF0.0
aF-0.017298509167725358
aF-0.011348782636952997
aF-0.10813426285452014
aF-0.03420451511070149
aF0.0
aF-0.01698324148852809
aF-0.0203484934276671
aF-0.0338174945578944
aF-0.14377961162459035
aF-0.03499934649844158
aF-0.06986201986117771
aF0.0
aF-0.06358548137676232
aF0.0
aF0.0
aF-0.03982943904944297
aF-0.03304645559956467
aF-0.0846216426980472
aF0.0
aF-0.008173065751857896
aF0.0
aF-0.03399098337057728
aF-0.034985358253829195
aF-0.034011104950374044
aF-0.03498736845135824
aF0.0
aF-0.024242163831472516
aF-0.030588309339177326
aF0.0
aF0.0
aF-0.06370603603584428
aF0.00734798244590764
aF0.0
aF0.0
aF-0.03392097300935761
aF-0.087373624874678
aF-0.12332980238370604
aF-0.1260520165303485
aF-0.029756210457496705
aF-0.03433440370424642
aF-0.013976169124051863
aF-0.0348762071797561
aF0.0
aF-0.037528284875693894
aF-0.08710834163161067
aF-0.03451799218304453
aF-0.03492283437841391
aF-0.03473138338987865
aF0.0
aF0.0
aF-0.027986449954334223
aF0.0
aF0.0
aF-0.03444720695582657
aF-0.033790811018110815
aF-0.035
aF-0.0463650844295751
aF0.0
aF0.0
aF-0.03167319720277245
aF-0.0020290244784743096
aF-0.06424250575457321
aF0.0
aF0.04237325817702907
aF0.0
aF-0.016464622906670827
aF0.0
aF-0.06374515054809173
aF0.0
aF-0.021649788531135084
aF0.0
aF0.0
aF0.0
aF-0.08834242698515274
aF-0.030654467275986457
aF0.0
aF-0.03477594742614497
aF0.0
aF0.0
aF0.0
aF0.03508322048900714
aF0.012843011812359383
aF-0.03264804874026732
aF-0.03237184335858319
aF0.0
aF-0.034617192273114224
aF-0.03423423468677005
aF-0.013440462392392424
aF-0.033871858590536756
aF0.0
aF0.0
aF0.035118704475879337
aF-0.05673925423064402
aF0.0
aF0.0
aF-0.03302645306951463
aF-0.03561238609834744
aF0.0
aF-0.021444650669257687
aF-0.08703977558557843
aF0.0
aF-0.10830548478379912
aF-0.03499869957601379
aF-0.0311403955602341
aF0.0
aF0.0
aF-0.034263295865927475
aF-0.0348977979008096
aF0.03535551325501988
aF0.0
aF-0.06363587928618707
aF0.0
aF-0.0008134067578114412
aF0.0
aF-0.034667608784991255
aF-0.02988731888241749
aF-0.06254429985217455
aF0.0
aF0.0
aF-0.0343135314792557
aF0.03129514838067988
aF0.0
aF0.0
aF-0.031399706029763455
aF0.0
aF0.0
aF0.0
aF0.0
aF-0.04510175919581284
aF0.0
aF-0.03492958850523693
aF-0.05259850463451514
aF0.0017748545598754817
aF0.03493363844805043
aF-0.011534330118211734
aF-0.06286186697687576
aF0.0
aF0.0
aF0.0
aF-0.03377591580366108
aF0.0
aF-0.10818396731276488
aF0.0
aF-0.03498876726252844
aF0.0
aF0.0
aF-0.06440348784680638
aF0.0
aF0.0
aF-0.034848128754881774
aF0.0
aF-0.030106300060869107
aF-0.054578058144774684
aF-0.03499981615748469
aF0.0
aF0.0
aF0.0
aF-0.017266206966089957
aF0.0
aF-0.034866654605060075
aF0.03502661582055763
aF-0.03434874235756135
aF0.0
aF-0.018987680894451825
aF0.0
aF0.0
aF0.0
aF-0.14024762327774057
aF-0.03767919624770158
aF0.0
aF0.0
aF-0.03115816283673502
aF-0.051921101715494446
aF-0.08348272919885504
aF-0.08182105241038334
aF-0.035
aF0.0
aF-0.06308473871294903
aF0.036387159351151124
aF0.00618957080058799
aF0.0
aF0.0
aF-0.03499962063047657
aF0.0
aF-0.04467731550955842
aF0.0
aF0.0
aF-0.014754445241714743
aF-0.029378509017824392
aF0.0
aF-0.0443939300784979
aF0.0
aF0.0
aF0.0
aF0.0
aF0.0
aF-0.03087688637963626
aF-0.056991373831619445
aF0.0
aF0.0
aF-0.0634411992248162
aF-0.03499992852734531
aF0.0
aF-0.019231736106348693
aF0.0
aF0.0
aF-0.03490119103258931
aF0.0
aF0.0
aF0.0
aF-0.03484358590828779
aF-0.12339799910407995
aF-0.0048500276795249205
aF-0.03479687594993586
aF-0.06376748550703709
aF0.0
aF-0.0346538992410344
aF0.0
aF0.0
aF0.0
aF0.0
aF0.006504072695749173
aF0.0
aF-0.034715456492777325
aF0.0
aF0.0
aF0.0
aF0.0
aF-0.03383187542975551
aF0.0
aF-0.03445622678611502
aF0.0
aF0.0
aF0.0
aF-0.03499973451085844
aF0.04000810569431675
aF-0.06874261326687223
aF0.0
aF0.0
aF0.0
aF0.0
aF0.03697627845682538
aF0.0
aF0.0
aF-0.06261541900536095
aF-0.019935281356292203
aF-0.011733007700600217
aF0.0
aF0.0
aF0.0
aF0.0
aF0.0
aF0.0
aF0.0
aF0.0
aF0.0
aF-0.07386032476204324
aF-0.06233312210705869
aF0.0
aF0.0
aF-0.027710118288255918
aF-0.057246006302438306
aF-0.03499967054027058
aF0.0
aF0.0
aF0.0
aF-0.004049144946515461
aF-0.06413738267726429
aF0.0
aF-0.03951439921746825
aF-0.03374445787213195
aF0.0
aF0.0
aF0.0
aF-0.048415725252183184
aF0.0
aF-0.0021519081388311177
aF0.0
aF0.0
aF0.0
aF0.0
aF0.0
aF0.0
aF0.0
aF-0.01703626476999865
aF0.0
aF0.0
aF-0.03306246825820652
aF0.0
aF0.0
aF0.0
aF-0.03488242066424251
aF-0.017422932208260213
aF0.0
aF0.0
aF0.0
aF0.0
aF0.0
aF0.0
aF0.03548537491898778
aF-0.08566259694740011
aF-0.006977451511223048
aF0.0
aF-0.03476264032570389
aF0.0
aF-0.08141972067709145
aF-0.03113842997622711
aF0.0
aF0.0
aF0.0
aF-0.03484542034727203
aF0.0
aF-0.034719554934017356
aF-0.006773122032621237
aF0.0
aF0.0
aF-0.03484662444950346
aF0.0
aF-0.026593989292165027
aF-0.03739968095545628
aF0.0
aF0.03500056382643763
aF0.0
aF-0.03489171769543098
aF-0.002156222835632535
aF0.0
aF0.0
aF0.03552642172548302
aF0.0
aF0.0
aF0.0
aF-0.029346566066277658
aF0.0
aF0.0
aF0.0
aF0.0
aF0.0
aF-0.06953172065833962
aF-0.04037274606895878
aF-0.017423714455197498
aF-0.01748090639139392
aF-0.08533199534500752
aF-0.03477971263299759
aF0.0
aF0.0
aF-0.05337032955358824
aF0.0
aF0.0
aF-0.034999659938155854
aF0.0
aF0.0
aF-1.83707784297462e-05
aF0.0
aF-0.017712524198650093
aF0.0
aF0.0
aF0.017522438488832493
aF0.0
aF-0.06438196328091908
aF0.0
aF0.0
aF-0.03113366411901938
aF0.0
aF0.004504338443177748
aF0.0
aF0.0
aF0.0
aF0.0
aF0.0
aF0.0
aF0.0
aF0.0
aF-0.06468145488454115
aF0.0
aF0.0
aF0.0
aF0.0
aF0.0
aF0.0
aF-0.031612978729637115
aF-0.022882102719578693
aF0.0
aF0.0
aF0.0
aF0.0
aF-0.03499757318721802
aF-0.02979029238920347
aF0.0
aF-0.030110640640905958
aF-0.0850015328134784
aF0.0
aF0.0
aF0.0
aF0.0
aF-0.03114059224816029
aF0.0
aF-0.1784399503438621
aF0.0
aF0.0
aF-0.0643954206741361
aF0.0
aF0.0
aF0.0
aF-0.03448529780415442
aF-0.035027081443993954
aF0.0
aF-0.017508591441094436
aF-0.018182425411482364
aF0.0
aF-0.03491717601005472
aF0.0
aF0.011513140977843946
aF0.0
aF-0.07014967273426086
aF-0.005238542435599389
aF0.0
aF-0.034845469043207976
aF0.0
aF0.0
aF0.0
aF0.0
aF-0.032293283538533515
aF-0.04649786979455936
aF-0.10741787518108593
aF-0.014783843967275568
aF0.0
aF-0.003632407425335382
aF0.0
aF0.0
aF-0.12655999677439148
aF-0.04372857721545199
aF-0.09828129172241992
aF0.0
aF0.0
aF-0.034883783637288605
aF-0.10279466034396277
aF0.0
aF0.0
aF0.0
aF0.0
aF0.0355835895633074
aF0.0
aF0.0
aF-0.049436751561677025
aF0.0
aF0.0
aF-0.03298002963471071
aF-0.031430719985737425
aF-0.036212856626986596
aF0.0
aF0.0
aF-0.035
aF0.0
aF0.0
aF0.0
aF0.0
aF0.0
aF-0.017498505348232312
aF0.0
aF0.0
aF0.0
aF0.0
aF-0.0012084896294826536
aF0.0
aF-0.06388105774706378
aF0.03500014737671946
aF-0.024917302198357645
aF0.0
aF-0.030985076319211047
aF0.0
aF0.0
aF0.0
aF-0.03463606804047338
aF0.0
aF0.0
aF0.0
aF0.03666905675003231
aF0.0038804806172270598
aF-0.034315317001302026
aF0.0
aF0.0
aF-0.03487343155675033
aF-0.0274773808828447
aF-0.09067852282064912
aF0.0
aF0.0
aF-0.18904734250583502
aF0.0
aF0.0
aF0.0
aF0.012283511304541958
aF0.0
aF0.0
aF0.0
aF-0.0171988218408021
aF0.0
aF0.0678905956290447
aF0.0
aF0.0
aF0.0
aF0.0
aF0.0
aF0.0
aF-0.06421215525934647
aF0.0
aF-0.10777869973559301
aF0.0
aF-0.031139319259678024
aF0.0
aF0.0
aF-0.025659476270345313
aF-0.0016458427464895002
aF-0.030707893820211413
aF-0.1099532098843295
aF0.0
aF0.0
aF0.0
aF0.0
aF0.0
aF0.0
aF0.0
aF0.0
aF0.0
aF0.0
aF-0.03496143006164012
aF0.034999978694045
aF0.0
aF0.0
aF0.0
aF0.0
aF0.0
aF0.0
aF0.0
aF0.0
aF0.0
aF0.0
aF0.0
aF0.0
aF-0.021594098936951654
aF0.0
aF-0.031125649673015156
aF-0.04311436260873521
aF0.0
aF0.0
aF-0.01733822110839304
aF0.0
aF0.03508493376990788
aF0.0
aF-0.0313819642767504
aF-0.034849855938755156
aF-0.057801630870778775
aF0.0
aF-0.03386399735886332
aF0.0
aF0.0
aF0.0
aF-0.03472731222563393
aF0.0
aF0.0
aF0.0
aF0.0
aF0.0
aF0.005586826115121221
aF-0.0031400024196354143
aF0.0
aF0.0
aF0.0
aF0.0
aF0.0
aF-0.011606102042888507
aF-0.18939349283241808
aF0.0
aF0.0
aF0.0
aF0.0
aF-0.03490393389392965
aF-0.03473798876491502
aF-0.02277428857889782
aF0.0
aF0.0
aF-0.034999436173562375
aF-0.03499986310422666
aF-0.034932513571148335
aF0.0
aF0.0
aF0.0
aF0.0
aF0.0
aF-0.0741507531478608
aF-0.1941470383332232
aF0.0
aF0.0
aF0.0
aF-0.030642192421854775
aF-0.057353099716229164
aF0.0
aF0.0
aF0.0
aF0.0
aF0.0
aF0.0
aF-0.034325095156394966
aF0.0
aF-0.016961365631725876
aF0.0
aF0.0
aF0.0
aF-0.12442244900067806
aF0.0
aF0.0
aF-0.06416503963624597
aF0.0
aF-0.034404293071807035
aF-0.08573580588303198
aF0.0
aF0.0
aF0.0
aF0.0
aF0.0
aF0.0
aF-0.031130295541338605
aF0.0
aF-0.0175
aF-0.03442348775086046
aF-0.035000005327114586
aF0.0
aF0.0
aF-0.03112694843635505
aF-0.06423850061885782
aF0.0
aF-0.14052948005920898
aF0.0
aF0.010709207210505816
aF-0.017192248703691064
aF-0.07691663957059648
aF-0.02886009170531268
aF-0.03472676280166653
aF-0.017611613919045938
aF0.0
aF0.0
aF0.0
aF0.0
aF0.0
aF0.0
aF0.0
aF-0.03156329063797704
aF-0.03600172046351317
aF0.0
aF0.0
aF0.0
aF0.0
aF0.0
aF0.0
aF-0.03438504437082336
aF0.0
aF0.0
aF0.0
aF0.0
aF0.0
aF-0.059090529794320015
aF0.0
aF0.0
aF0.0
aF0.0
aF0.0
aF0.0
aF0.0
aF0.0
aF-0.02233230814255504
aF-0.06448498445621392
aF0.0
aF0.0
aF0.0
aF-0.02248475588031173
aF0.0
aF0.0
aF-0.017461807667009492
aF-0.032333661594017495
aF0.0
aF-0.09885697944842985
aF0.0
aF0.0
aF-0.014351096170209575
aF-0.04914720742511667
aF0.0
aF0.0
aF0.0
aF0.0
aF0.0
aF0.0
aF-0.017686218177165286
aF-0.03499881259739297
aF0.0
aF0.0
aF0.0
aF0.0
aF0.0
aF-0.03499986860212095
aF0.0
aF0.0
aF-0.057100935615547146
aF0.0
aF0.0
aF0.0
aF0.0
aF0.0
aF0.0
aF0.0
aF0.0
aF0.0
aF0.0
aF0.0
aF0.0
aF0.0
aF0.0
aF0.0
aF0.0
aF-0.19839985177403135
aF0.0
aF0.0
aF0.0
aF0.0
aF-0.034999072309305865
aF0.0
aF0.0
aF0.0
aF0.0
aF0.0
aF0.0
aF-0.031133337553568386
aF0.0
aF0.0
aF0.0
aF0.0
aF0.0
aF0.0
aF0.0
aF-0.03498685930066535
aF-0.017301136560241633
aF0.0
aF0.0
aF0.0
aF0.0
aF-0.03423322039897493
aF-0.03499977050821587
aF0.0
aF0.0
aF0.0
aF0.0
aF0.0
aF0.0
aF0.0
aF0.0
aF0.035000140654420454
aF0.0
aF0.0
aF0.0
aF0.0
aF0.0
aF0.0
aF0.0
aF0.035
aF0.0
aF0.0
aF-0.031139196986042714
aF-0.023331814878587424
aF-0.0029165347876338597
aF0.0
aF0.0
aF0.0
aF0.0
aF0.0
aF0.0
aF0.0
aF0.0
aF0.0
aF0.0
aF0.0
aF0.0
aF0.0
aF0.0
aF0.0
aF0.0
aF0.0
aF0.0
aF0.0
aF0.0
aF0.0
aF0.0
aF0.0
aF0.0
aF0.0
aF0.0
aF0.0
aF0.0
aF0.0
aF0.0
aF-0.034994800059425284
aF-0.03484714166860756
aF0.0
aF-0.06426576350997422
aF0.0
aF0.0
aF0.0
aF0.0
aF0.0
aF0.0
aF0.0
aF0.0
aF0.0
aF0.0
aF0.0
aF0.0
aF0.0
aF0.0
aF0.0
aF0.0
aF0.0
aF0.0
aF0.0
aF0.0
aF0.0
aF0.0
aF0.0
aF0.0
aF0.0
aF0.0
aF0.0
aF-0.0349989780177531
aF0.0
aF0.0
aF0.0
aF-0.03497264521721822
aF0.0
aF-0.030266577089419412
aF-0.0596889993195141
aF-0.017523173791272453
aF0.0
aF0.0
aF0.0
aF0.0
aF0.0
aF0.0
aF0.0
aF0.0
aF0.0
aF-0.03113874471817928
aF0.0
aF0.0
aF0.0
aF0.0
aF0.0
aF0.0
aF0.0
aF0.0
aF-0.017500267480942883
aF0.0
aF0.0
aF0.0
aF-0.03499896908556061
aF0.0
aF0.0
aF0.0
aF0.0
aF0.0
aF0.0
aF0.0
aF0.0
aF0.0
aF0.0
aF0.0
aF0.0
aF0.0
aF0.0
aF0.0
aF0.0
aF-0.03500134337322422
aF0.0
aF0.0
aF0.0
aF0.0
aF0.0
aF0.0
aF0.0
aF0.0
aF0.0
aF-0.03112556953733469
aF0.0
aF0.0
aF0.0
aF0.0
aF0.0
aF0.0
aF0.0
aF-0.03499990397941773
aF-0.011666566503707978
aF0.0
aF0.0
aF0.0
aF0.0
aF0.0
aF0.0
aF0.0
aF0.0
aF0.0
aF0.0
aF0.0
aF0.0
aF0.0
aF-0.034998693049815864
aF0.0
aF0.0
aF0.0
aF-0.0349987504742755
aF-0.22004724685986823
aF-0.210539185402185
aF0.0
aF0.0
aF0.0
aF0.0
aF0.0
aF0.0
aF0.0
aF0.0
aF0.0
aF0.0
aF0.0
aF0.0
aF0.0
aF0.0
aF0.0
aF0.0
aF0.0
aF0.0
aF0.0
aF0.0
aF-0.03471417402406605
aF0.0
aF0.0
aF0.0
aF0.0
aF0.0
aF0.0
aF0.0
aF0.0
aF0.0
aF0.0
aF0.0
aF0.0
aF0.0
aF0.0
aF0.0
aF0.0
aF0.0
aF0.0
aF0.0
aF0.0
aF0.0
aF0.0
aF0.0
aF0.0
aF0.0
aF0.0
aF0.0
aF0.0
aF0.0
aF0.0
aF0.0
aF0.0
aF0.0
aF0.0
aF0.0
aF0.0
aF0.0
aF0.0
aF0.0
aF0.0
aF0.0
aF0.0
aF0.0
aF0.0
aF0.0
aF0.0
aF0.0
aF0.0
aF0.0
aF0.0
aF0.0
aF0.0
aF0.0
aF0.0
aF0.0
aF0.0
aF0.0
aF0.0
aF0.0
aF0.0
aF0.0
aF0.0
aF-0.034931001364436776
aF0.0
aF-0.06435852258807678
aF0.0
aF0.0
aF0.0
aF0.0
aF0.0
aF0.0
aF0.0
aF0.0
aF0.0
aF0.0
aF0.0
aF0.0
aF-0.034999720250264724
aF0.035000265489141556
aF0.0
aF0.0
aF0.0
aF0.0
aF0.0
aF0.0
aF0.0
aF0.0
aF0.0
aF0.0
aF0.0
aF0.0
aF0.0
aF-0.008750099575047215
aF0.0
aF0.0
aF0.0
aF0.0
aF0.0
aF0.0
aF0.0
aF0.0
aF0.0
aF0.0
aF0.0
aF0.0
aF0.0
aF0.0
aF0.0
aF0.0
aF0.0
aF0.0
aF0.0
aF0.0
aF0.0
aF-0.06448720843000129
aF0.0
aF0.0
aF0.0
aF0.0
aF0.0
aF0.0
aF0.0
aF0.0
aF0.0
aF0.0
aF0.0
aF0.0
aF0.0
aF0.0
aF0.0
aF0.0
aF0.0
aF0.0
aF0.0
aF0.0
aF0.0
aF0.0
aF0.0
aF0.0
aF0.0
aF0.0
aF0.0
aF0.0
aF0.0
aF0.0
aF0.0
aF0.0
aF0.0
aF0.0
aF0.0
aF0.0
aF0.0
aF0.0
aF0.0
aF0.0
aF0.0
aF0.0
aF0.0
aF-0.03499734510303555
aF0.0
aF0.0
aF0.0
aF0.0
aF0.0
aF0.0
aF0.0
aF0.0
aF0.0
aF0.0
aF0.0
aF0.0
aF0.0
aF0.0
aF0.0
aF0.0
aF0.0
aF0.0
aF0.0
aF0.0
aF0.0
aF0.0
aF0.0
aF0.0
aF0.0
aF0.0
aF0.0
aF0.0
aF0.0
aF0.0
aF0.0
aF0.0
aF0.0
aF0.0
aF0.0
aF0.0
aF0.0
aF0.0
aF0.0
aF0.0
aF0.0
aF0.0
aF0.0
aF0.0
aF0.0
aF0.0
aF0.0
aF0.0
aF0.0
aF0.0
aF0.0
aF0.0
aF-0.017423371680808375
aF0.0
aF0.0
aF0.0
aF0.0
aF0.0
aF0.0
aF0.0
aF0.0
aF0.0
aF0.0
aF0.0
aF0.0
aF0.0
aF0.0
aF0.0
aF0.0
aF0.0
aF0.0
aF0.0
aF0.0
aF0.0
aF0.0
aF0.0
aF-0.03499929952808926
aF0.0
aF0.0
aF0.0
aF0.0
aF0.0
aF0.0
aF0.0
aF0.0
aF0.0
aF0.0
aF0.0
aF0.0
aF0.0
aF0.0
aF0.0
aF0.0
aF0.0
aF0.0
aF0.0
aF0.0
aF-0.03247339259954274
aF0.0
aF0.0
aF0.0
aF0.0
aF0.0
aF-0.035000104497321986
aF0.0
aF0.0
aF-0.017421851062668105
aF0.0
aF0.0
aF0.0
aF0.0
aF0.0
aF0.0
aF0.0
aF0.0
aF0.0
aF0.0
aF0.0
aF0.0
aF0.0
aF0.0
aF0.0
aF0.0
aF0.0
aF0.0
aF0.0
aF0.0
aF0.0
aF0.0
aF0.0
aF0.0
aF0.0
aF0.0
aF0.0
aF0.0
aF0.0
aF0.0
aF0.0
aF0.0
aF0.0
aF0.0
aF0.0
aF0.0
aF0.0
aF0.0
aF0.0
aF0.0
aF0.0
aF0.0
aF0.0
aF0.0
aF0.0
aF0.0
aF0.0
aF0.0
aF0.0
aF0.0
aF0.0
aF0.0
aF0.0
aF0.0
aF0.0
aF-0.05624669087229173
aF0.0
aF0.0
aF0.0
aF0.0
aF0.0
aF0.0
aF0.0
aF0.0
aF0.0
aF0.0
aF0.0
aF0.0
aF0.0
aF0.0
aF0.006999964094130327
aF0.0
aF0.0
aF0.0
aF0.0
aF0.0
aF0.0
aF0.0
aF0.0
aF0.0
aF0.0
aF0.0
aF0.0
aF-0.03499934649844158
aF0.0
aF0.0
aF0.0
aF0.0
aF0.0
aF0.0
aF0.0
aF0.0
aF0.0
aF0.0
aF0.0
aF0.0
aF0.0
aF0.0
aF0.0
aF0.0
aF0.0
aF0.0
aF0.0
aF0.0
aF0.0
aF0.0
aF0.0
aF0.0
aF0.0
aF0.0
aF0.0
aF0.0
aF-0.017499987304202796
aF0.0
aF0.0
aF0.0
aF0.0
aF0.0
aF0.0
aF0.0
aF0.0
aF0.0
aF0.0
aF0.0
aF0.0
aF0.0
aF0.0
aF0.0
aF0.0
aF0.0
aF0.0
aF0.0
aF0.0
aF0.0
aF0.0
aF0.0
aF0.0
aF0.0
aF0.0
aF0.0
aF0.0
aF0.0
aF0.0
aF0.0
aF0.0
aF0.0
aF0.0
aF0.0
aF0.0
aF0.0
aF0.0
aF0.0
aF0.0
aF0.0
aF0.0
aF0.0
aF0.0
aF0.0
aF0.0
aF0.0
aF0.0
aF0.0
aF0.0
aF0.0
aF0.0
aF0.0
aF0.0
aF0.0
aF0.0
aF0.0
aF-0.034873109209923835
aF0.0
aF0.0
aF-0.03247265923319444
aF0.0
aF0.0
aF0.0
aF0.0
aF0.0
aF0.0
aF0.0
aF0.0
aF0.0
aF0.0
aF0.0
aF0.0
aF0.0
aF0.0
aF0.0
aF0.0
aF0.0
aF0.0
aF0.0
aF0.0
aF0.0
aF0.0
aF0.0
aF0.0
aF0.0
aF0.0
aF0.0
aF0.0
aF0.0
aF0.0
aF0.0
aF0.0
aF0.0
aF0.0
aF0.0
aF0.0
aF0.0
aF0.0
aF0.0
aF-0.021677112228495946
aF0.0
aF0.0
aF0.0
aF0.0
aF0.0
aF0.0
aF-0.03499910193532724
aF0.0
aF0.0
aF0.0
aF0.0
aF0.0
aF0.0
aF0.0
aF0.0
aF0.0
aF0.0
aF0.0
aF0.0
aF0.0
aF0.0
aF0.0
aF0.0
aF0.0
aF0.0
aF0.0
aF0.0
aF0.0
aF0.0
aF0.0
aF0.0
aF0.0
aF0.0
aF0.0
aF0.0
aF0.0
aF0.0
aF0.0
aF-0.011665970356575893
aF0.0
aF0.0
aF0.0
aF0.0
aF0.0
aF0.0
aF0.0
aF0.0
aF0.0
aF0.0
aF0.0
aF0.0
aF0.0
aF-0.1102624215915714
aF0.0
aF0.0
aF0.0
aF0.0
aF-0.03499961825577548
aF0.0
aF0.0
aF0.0
aF0.0
aF0.0
aF0.0
aF0.0
aF0.0
aF0.0
aF0.0
aF0.0
aF0.0
aF0.0
aF0.0
aF0.0
aF0.0
aF0.0
aF0.0
aF0.0
aF0.0
aF0.0
aF0.0
aF-0.034999298831422596
aF0.0
aF0.0
aF0.0
aF0.0
aF0.0
aF0.0
aF0.0
aF0.0
aF0.0
aF0.0
aF0.0
aF0.0
aF0.0
aF0.0
aF0.0
aF0.0
aF0.0
aF0.0
aF0.0
aF0.0
aF0.0
aF0.0
aF0.0
aF0.0
aF0.0
aF0.0
aF0.0
aF0.0
aF0.0
aF0.0
aF0.0
aF0.0
aF0.0
aF0.0
aF0.0
aF0.0
aF0.0
aF-0.003888899142435898
aF0.0
aF0.0
aF0.0
aF0.0
aF0.0
aF0.0
aF0.0
aF0.0
aF0.0
aF0.0
aF0.0
aF0.0
aF0.0
aF0.0
aF0.0
aF0.0
aF0.0
aF0.0
aF0.0
aF0.0
aF0.0
aF0.0
aF0.0
aF0.0
aF0.0
aF0.0
aF0.0
aF0.0
aF0.0
aF0.0
aF0.0
aF0.0
aF0.0
aF0.0
aF0.0
aF0.0
aF0.0
aF0.0
aF0.0
aF0.0
aF0.0
aF0.0
aF0.0
aF-0.035
aF0.0
aF0.0
aF0.0
aF0.0
aF0.0
aF0.0
aF-0.0349991994969695
aF0.0
aF0.0
aF0.0
aF0.0
aF0.0
aF0.0
aF0.0
aF0.0
aF0.0
aF0.0
aF0.0
aF0.0
aF0.0
aF0.0
aF0.0
aF0.0
aF0.0
aF0.0
aF0.0
aF0.0
aF0.0
aF0.0
aF0.0
aF0.0
aF0.0
aF0.0
aF0.0
aF0.0
aF0.0
aF0.0
aF0.0
aF0.0
aF0.0
aF0.0
aF-0.011666653993390952
aF0.0
aF0.0
aF0.0
aF0.0
aF0.0
aF0.0
aF0.0
aF0.0
aF0.0
aF0.0
aF0.0
aF0.0
aF0.0
aF0.0
aF0.0
aF0.0
aF0.0
aF0.0
aF0.0
aF0.0
aF0.0
aF0.0
aF0.0
aF0.0
aF0.0
aF0.0
aF0.0
aF0.0
aF0.0
aF0.0
aF0.0
aF0.0
aF0.0
aF0.0
aF0.0
aF0.0
aF0.0
aF0.0
aF0.0
aF0.0
aF0.0
aF0.0
aF0.0
aF0.0
aF0.0
aF0.0
aF0.0
aF0.0
aF0.0
aF0.0
aF0.0
aF0.0
aF0.0
aF0.0
aF0.0
aF0.0
aF0.0
aF0.0
aF0.0
aF0.0
aF0.0
aF0.0
aF0.0
aF0.0
aF0.0
aF0.0
aF0.0
aF0.0
aF0.0
aF0.0
aF-0.03500070307969471
aF0.0
aF0.0
aF0.0
aF0.0
aF0.0
aF0.0
aF0.0
aF0.0
aF0.0
aF0.0
aF0.0
aF0.0
aF0.0
aF0.0
aF0.0
aF0.0
aF0.0
aF0.0
aF0.0
aF0.0
aF0.0
aF0.0
aF0.0
aF0.0
aF0.0
aF0.0
aF0.0
aF0.0
aF0.0
aF0.0
aF0.0
aF0.0
aF0.0
aF0.0
aF0.0
aF0.0
aF0.0
aF0.0
aF0.0
aF0.0
aF0.0
aF0.0
aF0.0
aF0.0
aF0.0
aF0.0
aF0.0
aF0.0
aF0.0
aF0.0
aF0.0
aF0.0
aF0.0
aF0.0
aF0.0
aF0.03500000157451942
aF0.0
aF0.0
aF0.0
aF0.0
aF0.0
aF0.0
aF0.0
aF0.0
aF0.0
aF0.0
aF0.0
aF0.0
aF0.0
aF0.0
aF0.0
aF0.0
aF0.0
aF0.0
aF0.0
aF0.0
aF0.0
aF0.0
aF0.0
aF0.0
aF0.0
aF0.0
aF0.0
aF-0.0038891605868892924
aF0.0
aF0.0
aF0.0
aF0.0
aF0.0
aF0.0
aF0.0
aF0.0
aF0.0
aF0.0
aF0.0
aF0.0
aF0.0
aF0.0
aF0.0
aF0.0
aF0.0
aF0.0
aF0.0
aF0.0
aF0.0
aF0.0
aF0.0
aF0.0
aF0.0
aF0.0
aF0.0
aF0.0
aF0.0
aF0.0
aF0.0
aF0.0
aF0.0
aF0.0
aF0.0
aF0.0
aF0.0
aF0.0
aF0.0
aF0.0
aF0.0
aF0.0
aF-0.03500013394654476
aF0.0
aF0.0
aF0.0
aF0.0
aF0.0
aF0.0
aF0.0
aF0.0
aF0.0
aF0.0
aF0.0
aF0.0
aF0.0
aF0.0
aF0.0
aF0.0
aF0.0
aF0.0
aF0.0
aF0.0
aF0.0
aF0.0
aF0.0
aF0.0
aF0.0
aF0.0
aF0.0
aF0.0
aF0.0
aF0.0
aF0.0
aF0.0
aF0.0
aF0.0
aF0.0
aF0.0
aF0.0
aF0.0
aF0.0
aF0.0
aF0.0
aF0.0
aF0.0
aF0.0
aF0.0
aF0.0
aF0.0
aF0.0
aF0.0
aF0.0
aF0.0
aF0.0
aF0.0
aF0.0
aF0.0
aF0.0
aF0.0
aF0.0
aF0.0
aF0.0
aF0.0
aF0.0
aF0.0
aF0.0
aF0.0
aF0.0
aF0.0
aF0.0
aF0.0
aF0.0
aF0.0
aF0.0
aF0.0
aF0.0
aF0.0
aF0.0
aF0.0
aF0.0
aF0.0
aF0.0
aF0.0
aF0.0
aF0.0
aF0.0
aF0.0
aF0.0
aF0.0
aF0.0
aF0.0
aF0.0
aF0.0
aF0.0
aF0.0
aF0.0
aF0.0
aF0.0
aF0.0
aF0.0
aF0.0
aF0.0
aF0.0
aF0.0
aF0.0
aF0.0
aF0.0
aF0.0
aF0.0
aF0.0
aF0.0
aF0.0
aF0.0
aF0.0
aF0.0
aF0.0
aF0.0
aF0.0
aF0.0
aF0.0
aF0.0
aF0.0
aF0.0
aF0.0
aF0.0
aF0.0
aF0.0
aF0.0
aF0.0
aF0.0
aF0.0
aF0.0
aF0.0
aF0.0
aF0.0
aF0.0
aF0.0
aF0.0
aF0.0
aF0.0
aF0.0
aF0.0
aF0.0
aF0.0
aF0.0
aF0.0
aF0.0
aF0.0
aF0.0
aF0.0
aF0.0
aF0.0
aF0.0
aF0.0
aF0.0
aF0.0
aF0.0
aF0.0
aF0.0
aF0.0
aF0.0
aF0.0
aF0.0
aF0.0
aF0.0
aF0.0
aF0.0
aF0.0
aF0.0
aF0.0
aF0.0
aF0.0
aF0.0
aF0.0
aF0.0
aF0.0
aF0.0
aF0.0
aF0.0
aF0.0
aF0.0
aF0.0
aF0.0
aF0.0
aF0.0
aF0.0
aF0.0
aF0.0
aF0.0
aF0.0
aF0.0
aF0.0
aF0.0
aF0.0
aF0.0
aF0.0
aF0.0
aF0.0
aF0.0
aF0.0
aF0.0
aF0.0
aF0.0
aF0.0
aF0.0
aF0.0
aF0.0
aF0.0
aF0.0
aF0.0
aF0.0
aF0.0
aF0.0
aF0.0
aF0.0
aF0.0
aF0.0
aF0.0
aF0.0
aF0.0
aF0.0
aF0.0
aF0.0
aF0.0
aF0.0
aF0.0
aF0.0
aF0.0
aF0.0
aF0.0
aF0.0
aF0.0
aF0.0
aF0.0
aF0.0
aF0.0
aF0.0
aF0.0
aF0.0
aF0.0
aF0.0
aF0.0
aF0.0
aF0.0
aF0.0
aF0.0
aF0.0
aF0.0
aF0.0
aF0.0
aF0.0
aF0.0
aF0.0
aF0.0
aF0.0
aF0.0
aF0.0
aF0.0
aF0.0
aF0.0
aF0.0
aF0.0
aF0.0
aF0.0
aF0.0
aF0.0
aF0.0
aF0.0
aF0.0
aF0.0
aF0.0
aF0.0
aF0.0
aF0.0
aF0.0
aF0.0
aF0.0
aF0.0
aF0.0
aF0.0
aF0.0
aF0.0
aF0.0
aF0.0
aF0.0
aF0.0
aF0.0
aF0.0
aF0.0
aF0.0
aF0.0
aF0.0
aF0.0
aF0.0
aF0.0
aF0.0
aF0.0
aF0.0
aF0.0
aF0.0
aF0.0
aF0.0
aF0.0
aF0.0
aF0.0
aF0.0
aF0.0
aF0.0
aF0.0
aF0.0
aF0.0
aF0.0
aF0.0
aF0.0
aF0.0
aF0.0
aF0.0
aF0.0
aF0.0
aF0.0
aF0.0
aF0.0
aF0.0
aF0.0
aF0.0
aF0.0
aF0.0
aF0.0
aF0.0
aF0.0
aF0.0
aF0.0
aF0.0
aF0.0
aF0.0
aF0.0
aF0.0
aF0.0
aF0.0
aF0.0
aF0.0
aF0.0
aF0.0
aF0.0
aF0.0
aF0.0
aF0.0
aF0.0
aF0.0
aF0.0
aF0.0
aF0.0
aF0.0
aF0.0
aF0.0
aF0.0
aF0.0
aF0.0
aF0.0
aF0.0
aF0.0
aF0.0
aF0.0
aF0.0
aF0.0
aF0.0
aF0.0
aF0.0
aF0.0
aF0.0
aF0.0
aF0.0
aF0.0
aF0.0
aF0.0
aF0.0
aF0.0
aF0.0
aF0.0
aF0.0
aF0.0
aF0.0
aF0.0
aF0.0
aF0.0
aF0.0
aF0.0
aF0.0
aF0.0
aF0.0
aF0.0
aF0.0
aF0.0
aF0.0
aF0.0
aF0.0
aF0.0
aF0.0
aF0.0
aF0.0
aF0.0
aF0.0
aF0.0
aF0.0
aF0.0
aF0.0
aF0.0
aF0.0
aF0.0
aF0.0
aF0.0
aF0.0
aF0.0
aF0.0
aF0.0
aF0.0
aF0.0
aF0.0
aF0.0
aF0.0
aF0.0
aF0.0
aF0.0
aF0.0
aF0.0
aF0.0
aF0.0
aF0.0
aF0.0
aF0.0
aF0.0
aF0.0
aF0.0
aF0.0
aF0.0
aF0.0
aF0.0
aF0.0
aF0.0
aF0.0
aF0.0
aF0.0
aF0.0
aF0.0
aF0.0
aF0.0
aF0.0
aF0.0
aF0.0
aF0.0
aF0.0
aF0.0
aF0.0
aF0.0
aF0.0
aF0.0
aF0.0
aF0.0
aF0.0
aF0.0
aF0.0
aF0.0
aF0.0
aF0.0
aF0.0
aF0.0
aF0.0
aF0.0
aF0.0
aF0.0
aF0.0
aF0.0
aF0.0
aF0.0
aF0.0
aF0.0
aF0.0
aF0.0
aF0.0
aF0.0
aF0.0
aF0.0
aF0.0
aF0.0
aF0.0
aF0.0
aF0.0
aF0.0
aF0.0
aF0.0
aF0.0
aF0.0
aF0.0
aF0.0
aF0.0
aF0.0
aF0.0
aF0.0
aF0.0
aF0.0
aF0.0
aF0.0
aF0.0
aF0.0
aF0.0
aF0.0
aF0.0
aF0.0
aF0.0
aF0.0
aF0.0
aF0.0
aF0.0
aF0.0
aF0.0
aF0.0
aF0.0
aF0.0
aF0.0
aF0.0
aF0.0
aF0.0
aF0.0
aF0.0
aF0.0
aF0.0
aF0.0
aF0.0
aF0.0
aF0.0
aF0.0
aF0.0
aF0.0
aF0.0
aF0.0
aF0.0
aF0.0
aF0.0
aF0.0
aF0.0
aF0.0
aF0.0
aF0.0
aF0.0
aF0.0
aF0.0
aF0.0
aF0.0
aF0.0
aF0.0
aF0.0
aF0.0
aF0.0
aF0.0
aF0.0
aF0.0
aF0.0
aF0.0
aF0.0
aF0.0
aF0.0
aF0.0
aF0.0
aF0.0
aF0.0
aF0.0
aF0.0
aF0.0
aF0.0
aF0.0
aF0.0
aF0.0
aF0.0
aF0.0
aF0.0
aF0.0
aF0.0
aF0.0
aF0.0
aF0.0
aF0.0
aF0.0
aF0.0
aF0.0
aF0.0
aF0.0
aF0.0
aF0.0
aF0.0
aF0.0
aF0.0
aF0.0
aF0.0
aF0.0
aF0.0
aF0.0
aF0.0
aF0.0
aF0.0
aF0.0
aF0.0
aF0.0
aF0.0
aF0.0
aF0.0
aF0.0
aF0.0
aF0.0
aF0.0
aF0.0
aF0.0
aF0.0
aF0.0
aF0.0
aF0.0
aF0.0
aF0.0
aF0.0
aF0.0
aF0.0
aF0.0
aF0.0
aF0.0
aF0.0
aF0.0
aF0.0
aF0.0
aF0.0
aF0.0
aF0.0
aF0.0
aF0.0
aF0.0
aF0.0
aF0.0
aF0.0
aF0.0
aF0.0
aF0.0
aF0.0
aF0.0
aF0.0
aF0.0
aF0.0
aF0.0
aF0.0
aF0.0
aF0.0
aF0.0
aF0.0
aF0.0
aF0.0
aF0.0
aF0.0
aF0.0
aF0.0
aF0.0
aF0.0
aF0.0
aF0.0
aF0.0
aF0.0
aF0.0
aF0.0
aF0.0
aF0.0
aF0.0
aF0.0
aF0.0
aF0.0
aF0.0
aF0.0
aF0.0
aF0.0
aF0.0
aF0.0
aF0.0
aF0.0
aF0.0
aF0.0
aF0.0
aF0.0
aF0.0
aF0.0
aF0.0
aF0.0
aF0.0
aF0.0
aF0.0
aF0.0
aF0.0
aF0.0
aF0.0
aF0.0
aF0.0
aF0.0
aF0.0
aF0.0
aF0.0
aF0.0
aF0.0
aF0.0
aF0.0
aF0.0
aF0.0
aF0.0
aF0.0
aF0.0
aF0.0
aF0.0
aF0.0
aF0.0
aF0.0
aF0.0
aF0.0
aF0.0
aF0.0
aF0.0
aF0.0
aF0.0
aF0.0
aF0.0
aF0.0
aF0.0
aF0.0
aF0.0
aF0.0
aF0.0
aF0.0
aF0.0
aF0.0
aF0.0
aF0.0
aF0.0
aF0.0
aF0.0
aF0.0
aF0.0
aF0.0
aF0.0
aF0.0
aF0.0
aF0.0
aF0.0
aF0.0
aF0.0
aF0.0
aF0.0
aF0.0
aF0.0
aF0.0
aF0.0
aF0.0
aF0.0
aF0.0
aF0.0
aF0.0
aF0.0
aF0.0
aF0.0
aF0.0
aF0.0
aF0.0
aF0.0
aF0.0
aF0.0
aF0.0
aF0.0
aF0.0
aF0.0
aF0.0
aF0.0
aF0.0
aF0.0
aF0.0
aF0.0
aF0.0
aF0.0
aF0.0
aF0.0
aF0.0
aF0.0
aF0.0
aF0.0
aF0.0
aF0.0
aF0.0
aF0.0
aF0.0
aF0.0
aF0.0
aF0.0
aF0.0
aF0.0
aF0.0
aF0.0
aF0.0
aF0.0
aF0.0
aF0.0
aF0.0
aF0.0
aF0.0
aF0.0
aF0.0
aF0.0
aF0.0
aF0.0
aF0.0
aF0.0
aF0.0
aF0.0
aF0.0
aF0.0
aF0.0
aF0.0
aF0.0
aF0.0
aF0.0
aF0.0
aF0.0
aF0.0
aF0.0
aF0.0
aF0.0
aF0.0
aF0.0
aF0.0
aF0.0
aF0.0
aF0.0
aF0.0
aF0.0
aF0.0
aF0.0
aF0.0
aF0.0
aF0.0
aF0.0
aF0.0
aF0.0
aF0.0
aF0.0
aF0.0
aF0.0
aF0.0
aF0.0
aF0.0
aF0.0
aF0.0
aF0.0
aF0.0
aF0.0
aF0.0
aF0.0
aF0.0
aF0.0
aF0.0
aF0.0
aF0.0
aF0.0
aF0.0
aF0.0
aF0.0
aF0.0
aF0.0
aF0.0
aF0.0
aF0.0
aF0.0
aF0.0
aF0.0
aF0.0
aF0.0
aF0.0
aF0.0
aF0.0
aF0.0
aF0.0
aF0.0
aF0.0
aF0.0
aF0.0
aF0.0
aF0.0
aF0.0
aF0.0
aF0.0
aF0.0
aF0.0
aF0.0
aF0.0
aF0.0
aF0.0
aF0.0
aF0.0
aF0.0
aF0.0
aF0.0
aF0.0
aF0.0
aF0.0
aF0.0
aF0.0
aF0.0
aF0.0
aF0.0
aF0.0
aF0.0
aF0.0
aF0.0
aF0.0
aF0.0
aF0.0
aF0.0
aF0.0
aF0.0
aF0.0
aF0.0
aF0.0
aF0.0
aF0.0
aF0.0
aF0.0
aF0.0
aF0.0
aF0.0
aF0.0
aF0.0
aF0.0
aF0.0
aF0.0
aF0.0
aF0.0
aF0.0
aF0.0
aF0.0
aF0.0
aF0.0
aF0.0
aF0.0
aF0.0
aF0.0
aF0.0
aF0.0
aF0.0
aF0.0
aF0.0
aF0.0
aF0.0
aF0.0
aF0.0
aF0.0
aF0.0
aF0.0
aF0.0
aF0.0
aF0.0
aF0.0
aF0.0
aF0.0
aF0.0
aF0.0
aF0.0
aF0.0
aF0.0
aF0.0
aF0.0
aF0.0
aF0.0
aF0.0
aF0.0
aF0.0
aF0.0
aF0.0
aF0.0
aF0.0
aF0.0
aF0.0
aF0.0
aF0.0
aF0.0
aF0.0
aF0.0
aF0.0
aF0.0
aF0.0
aF0.0
aF0.0
aF0.0
aF0.0
aF0.0
aF0.0
aF0.0
aF0.0
aF0.0
aF0.0
aF0.0
aF0.0
aF0.0
aF0.0
aF0.0
aF0.0
aF0.0
aF0.0
aF0.0
aF0.0
aF0.0
aF0.0
aF0.0
aF0.0
aF0.0
aF0.0
aF0.0
aF0.0
aF0.0
aF0.0
aF0.0
aF0.0
aF0.0
aF0.0
aF0.0
aF0.0
aF0.0
aF0.0
aF0.0
aF0.0
aF0.0
aF0.0
aF0.0
aF0.0
aF0.0
aF0.0
aF0.0
aF0.0
aF0.0
aF0.0
aF0.0
aF0.0
aF0.0
aF0.0
aF0.0
aF0.0
aF0.0
aF0.0
aF0.0
aF0.0
aF0.0
aF0.0
aF0.0
aF0.0
aF0.0
aF0.0
aF0.0
aF0.0
aF0.0
aF0.0
aF0.0
aF0.0
aF0.0
aF0.0
aF0.0
aF0.0
aF0.0
aF0.0
aF0.0
aF0.0
aF0.0
aF0.0
aF0.0
aF0.0
aF0.0
aF0.0
aF0.0
aF0.0
aF0.0
aF0.0
aF0.0
aF0.0
aF0.0
aF0.0
aF0.0
aF0.0
aF0.0
aF0.0
aF0.0
aF0.0
aF0.0
aF0.0
aF0.0
aF0.0
aF0.0
aF0.0
aF0.0
aF0.0
aF0.0
aF0.0
aF0.0
aF0.0
aF0.0
aF0.0
aF0.0
aF0.0
aF0.0
aF0.0
aF0.0
aF0.0
aF0.0
aF0.0
aF0.0
aF0.0
aF0.0
aF0.0
aF0.0
aF0.0
aF0.0
aF0.0
aF0.0
aF0.0
aF0.0
aF0.0
aF0.0
aF0.0
aF0.0
aF0.0
aF0.0
aF0.0
aF0.0
aF0.0
aF0.0
aF0.0
aF0.0
aF0.0
aF0.0
aF0.0
aF0.0
aF0.0
aF0.0
aF0.0
aF0.0
aF0.0
aF0.0
aF0.0
aF0.0
aF0.0
aF0.0
aF0.0
aF0.0
aF0.0
aF0.0
aF0.0
aF0.0
aF0.0
aF0.0
aF0.0
aF0.0
aF0.0
aF0.0
aF0.0
aF0.0
aF0.0
aF0.0
aF0.0
aF0.0
aF0.0
aF0.0
aF0.0
aF0.0
aF0.0
aF0.0
aF0.0
aF0.0
aF0.0
aF0.0
aF0.0
aF0.0
aF0.0
aF0.0
aF0.0
aF0.0
aF0.0
aF0.0
aF0.0
aF0.0
aF0.0
aF0.0
aF0.0
aF0.0
aF0.0
aF0.0
aF0.0
aF0.0
aF0.0
aF0.0
aF0.0
aF0.0
aF0.0
aF0.0
aF0.0
aF0.0
aF0.0
aF0.0
aF0.0
aF0.0
aF0.0
aF0.0
aF0.0
aF0.0
aF0.0
aF0.0
aF0.0
aF0.0
aF0.0
aF0.0
aF0.0
aF0.0
aF0.0
aF0.0
aF0.0
aF0.0
aF0.0
aF0.0
aF0.0
aF0.0
aF0.0
aF0.0
aF0.0
aF0.0
aF0.0
aF0.0
aF0.0
aF0.0
aF0.0
aF0.0
aF0.0
aF0.0
aF0.0
aF0.0
aF0.0
aF0.0
aF0.0
aF0.0
aF0.0
aF0.0
aF0.0
aF0.0
aF0.0
aF0.0
aF0.0
aF0.0
aF0.0
aF0.0
aF0.0
aF0.0
aF0.0
aF0.0
aF0.0
aF0.0
aF0.0
aF0.0
aF0.0
aF-0.05144155315124837
aF0.0017301139794240858
aF0.0
aF-0.0023931074350820544
aF0.0
aF0.0
aF0.0
aF0.0
aF0.0
aF0.0
aF0.0004390504936795783
aF0.0
aF0.0
aF0.0
aF0.0
aF0.0
aF0.0
aF0.0
aF0.0
aF0.0
aF0.0
aF0.0
aF0.0
aF0.0
aF0.0
aF0.0
aF0.0
aF0.0
aF0.0
aF0.0
aF0.0
aF0.0
aF0.0
aF0.0
aF0.0
aF0.0
aF0.0
aF0.0
aF0.0
aF0.0
aF0.0
aF0.0
aF0.0
aF0.0
aF0.0
aF0.0
aF0.0
aF0.0
aF0.0
aF0.0
aF0.0
aF0.0
aF0.0
aF0.0
aF0.0
aF0.0
aF0.0
aF0.0
aF0.0
aF0.0
aF0.0
aF0.0
aF0.0
aF0.0
aF0.0
aF0.0
aF0.0
aF0.0
aF0.0
aF0.0
aF0.0
aF0.0
aF0.0
aF0.0
aF0.0
aF-0.00015403569795504246
aF0.0
aF0.0
aF0.0
aF0.0
aF0.00018326000000000003
aF0.0
aF0.0
aF0.0
aF0.0
aF0.0
aF0.0
aF0.0
aF0.0
aF0.0
aF0.0
aF0.0
aF0.0
aF0.0
aF0.0
aF0.0
aF0.0
aF0.0
aF0.0
aF0.0
aF0.0
aF0.0
aF0.0
aF0.0
aF0.0
aF0.0
aF0.0
aF0.0
aF0.0
aF0.0
aF0.0
aF0.0
aF0.0
aF0.0
aF0.0
aF0.0
aF0.0
aF0.0
aF0.0
aF0.0
aF0.0
aF0.0
aF0.0
aF0.0
aF0.0
aF0.0
aF0.0
aF0.0
aF0.0
aF0.0
aF0.0
aF0.0
aF0.0
aF0.0
aF0.0
aF0.0
aF0.0
aF0.0
aF0.0
aF0.0
aF0.0
aF0.0
aF0.0
aF0.0
aF0.0
aF0.0
aF0.0
aF0.0
aF0.0
aF0.0
aF0.0
aF0.0
aF0.0
aF0.0
aF0.0
aF0.0
aF0.0
aF0.0
aF0.0
aF0.0
aF0.0
aF0.0
aF0.0
aF0.0
aF0.0
aF0.0
aF0.0
aF0.0
aF0.0
aF0.0
aF0.0
aF0.0
aF0.0
aF0.0
aF0.0035000000000000005
aF0.0
aF0.0
aF0.0
aF-8.0815e-05
aF0.0
aF0.0
aF0.0
aF0.0
aF0.0
aF0.0
aF0.0
aF0.0
aF0.0
aF0.0
aF0.0
aF0.0
aF0.0
aF0.0
aF0.0
aF0.0
aF0.0
aF0.0
aF0.0
aF0.0
aF0.0
aF0.0
aF0.0
aF0.0
aF0.0
aF0.0
aF0.0
aF0.0
aF0.0
aF0.0
aF0.0
aF0.0
aF0.0
aF0.0
aF0.0
aF0.0
aF0.0
aF0.0
aF0.0
aF0.0
aF0.0
aF0.0
aF0.0
aF0.0
aF0.0
aF0.0
aF0.0
aF0.0
aF0.0
aF0.0
aF0.0
aF0.0
aF0.0
aF0.0
aF0.00053032
aF0.0
aF0.0
aF0.0
aF0.0
aF0.0
aF0.0
aF0.0
aF0.0
aF0.0
aF0.0
aF0.0
aF0.0
aF0.0
aF0.0
aF0.0
aF0.0
aF0.0
aF0.0
aF0.0
aF0.0
aF0.0
aF0.0
aF0.0
aF0.0
aF0.0
aF0.0
aF0.0
aF0.0
aF0.0
aF0.0
aF0.0
aF0.0
aF0.0
aF0.0
aF0.0
aF0.0
aF0.0
aF0.0
aF0.0
aF0.0
aF0.0
aF0.0
aF0.0
aF0.0
aF0.0
aF0.0
aF0.0
aF0.0
aF0.0
aF0.0
aF0.0
aF0.0
aF0.0
aF0.0
aF0.0
aF0.0
aF0.0
aF0.0
aF0.0
aF0.0
aF0.0
aF0.0
aF0.0
aF0.0
aF0.0
aF0.0
aF0.0
aF0.0
aF0.0
aF0.0
aF0.0
aF0.0
aF0.0
aF0.0
aF0.0
aF0.0
aF0.0
aF0.0
aF0.0
aF0.0
aF0.0
aF0.0
aF0.0
aF0.0
aF0.0
aF0.0
aF0.0
aF0.0
aF0.0
aF0.0
aF0.0
aF0.0
aF0.0
aF0.0
aF0.0
aF0.0
aF0.0
aF0.0
aF0.0
aF0.0
aF0.0
aF0.0
aF0.0
aF0.0
aF0.0
aF0.0
aF0.0
aF0.0
aF0.0
aF0.0
aF0.0
aF0.0
aF0.0
aF0.0
aF0.0
aF0.0
aF0.0
aF0.0
aF0.0
aF0.0
aF0.0
aF0.0
asb.