(ilrsgd
LogisticRegressionSGD
p0
(dp1
S'mu'
p2
F0.1
sS'eta'
p3
F0.06
sS'weight'
p4
(lp5
F-0.02879468444357201
aF-0.029882691348727196
aF0.0
aF0.0
aF0.0
aF-0.0380609256757224
aF0.0074833196606341155
aF-0.03554385411030368
aF-0.029635768981277923
aF0.0
aF-0.033666840363746474
aF-0.06553675352421076
aF0.0
aF-0.05322839236516086
aF0.03136153535114795
aF0.0
aF-0.030062519869245845
aF-0.029949117408745268
aF-0.008728607407320284
aF0.0
aF-0.028323217091323318
aF0.0
aF0.0
aF-0.029887454606258086
aF-0.08558771403920847
aF-0.029564045606196916
aF-0.006209008199862479
aF-0.053327689156837894
aF-0.026841747746166815
aF-0.03648399703138431
aF0.07626456730017339
aF-0.014877531233930203
aF-0.029858202870544078
aF-0.04673852396756745
aF-0.05105566271962228
aF-0.05209464824832978
aF-0.02791027232219181
aF0.0
aF0.015824529788110664
aF-0.026796022009066618
aF-0.027290472542662224
aF-0.011167589860709051
aF-0.029474683485890787
aF-0.0061272412166530794
aF0.0
aF-0.028136528391596253
aF-0.029803581501119177
aF-0.030111050646145797
aF-0.02683887027055866
aF0.03162335093655144
aF0.030027276497135158
aF-0.02978697308787205
aF-0.04090614861086542
aF-0.09669807101953602
aF-0.007959943006296467
aF-0.0298840849896037
aF-0.005896490055173807
aF-0.07189855306320825
aF0.0
aF0.04920243435974994
aF-0.01267411893068958
aF-0.053529067544187854
aF-0.02604466609684928
aF-0.0713674231837789
aF0.0
aF-0.028558107286024342
aF0.0
aF0.0
aF0.032528972235156946
aF0.03016151057104891
aF-0.0537494984282821
aF0.0
aF0.0
aF-0.010667392655762824
aF0.03121358977241378
aF0.0
aF0.03138555849006336
aF-0.018373104235344585
aF0.0
aF0.030115473059504575
aF0.0
aF0.0
aF-0.014954938349590646
aF0.0
aF0.0
aF-0.022624777127013784
aF-0.023707522351764838
aF-0.029262365652639358
aF0.0
aF-0.030013517193977563
aF-0.020597286927051296
aF-0.029706382652906673
aF0.0
aF-0.08189765706267121
aF-0.09262757175886824
aF-0.02999970458418539
aF-0.00611156542897227
aF-0.02957267915606403
aF-0.0051155408512217945
aF-0.0061995374484033194
aF-0.053130580453850065
aF0.0
aF-0.0613530515264664
aF0.0
aF-0.028557506983088583
aF0.0
aF-0.022298361247572833
aF0.0
aF-0.11015330296314839
aF-0.029837522463194613
aF-0.029883518129095857
aF-0.02955552191566958
aF-0.05334863348463098
aF-0.05572661647504528
aF0.030273790341135406
aF-0.029280367738293102
aF-0.05032977839910263
aF-0.02970132701027509
aF-0.02847431811097168
aF-0.0721843198553207
aF-0.06787622343698657
aF-0.003630037724083983
aF-0.0371884367572959
aF0.0
aF-0.024011243181670992
aF0.0
aF0.03253692206828101
aF-0.02888099086529634
aF0.0
aF0.0
aF0.030037634615295336
aF0.0
aF-0.013339817920811535
aF0.0
aF0.0
aF-0.044147152129679935
aF-0.03003575039991841
aF0.0
aF-0.027910216283528567
aF-0.04919501093848537
aF-0.12973674565668786
aF-0.05155454996078129
aF-0.0629733664820167
aF0.0
aF0.0
aF-0.09618289292726985
aF-0.053549883705794596
aF-0.11862069939865794
aF0.0
aF0.030181662133532364
aF-0.05330321251142288
aF-0.02922949160281075
aF0.0
aF0.0
aF-0.09449144049038012
aF0.0
aF-0.026746475017359758
aF0.0
aF-0.029880000989167693
aF0.030043202449880048
aF0.006855304782712478
aF-0.029796278872913043
aF-0.015189089486185204
aF0.03025784233619003
aF-0.029997566286276107
aF-0.07031377169966173
aF0.0
aF-0.0299547701963271
aF0.0
aF-0.0980527092156888
aF0.0
aF0.0
aF-0.05340136880079201
aF-0.02928923218953382
aF-0.02971506565211971
aF-0.05277174638806012
aF0.0
aF-0.04515869345042027
aF-0.041419492996716774
aF0.0
aF-0.0005868507247538367
aF-0.05347175697928394
aF0.0
aF-0.015457822365567022
aF-0.008490244384703994
aF-0.08529100421997975
aF-0.02952538393724427
aF0.0
aF-0.004839735065106546
aF-0.01345749385609054
aF-0.029227543554104462
aF-0.10226057779296055
aF-0.029999519876406037
aF-0.04524513986342055
aF0.0
aF-0.05305511581974137
aF0.0
aF0.0
aF-0.027283461301404834
aF-0.02861547681868209
aF-0.07233066255766134
aF0.0
aF-0.005582042552088542
aF0.0
aF-0.02927601327993685
aF-0.029993743181586617
aF-0.02936815171796862
aF-0.029993393784941924
aF0.0
aF-0.018912925614007262
aF-0.02749401751771561
aF0.0
aF0.0
aF-0.05306854524177583
aF0.007695689686230956
aF0.0
aF0.0
aF-0.029251021669504572
aF-0.070799913121396
aF-0.09563082929338099
aF-0.09701380847068922
aF-0.02044911152182617
aF-0.029575888420143213
aF-0.010275763273296276
aF-0.02992961463938961
aF0.0
aF-0.028604863699207835
aF-0.07063576751621778
aF-0.02966177740304354
aF-0.029934845357889785
aF-0.02985922336444953
aF0.0
aF0.0
aF-0.025936703030887423
aF0.0
aF0.0
aF-0.02967071091441975
aF-0.029110272455238506
aF-0.03
aF-0.03142625886332229
aF0.0
aF0.0
aF-0.0231183477837342
aF-0.002761793959888667
aF-0.0533833265383169
aF0.0
aF0.03272312623267652
aF0.0
aF-0.012347505854478663
aF0.0
aF-0.05308285463237839
aF0.0
aF-0.01796793915479339
aF0.0
aF0.0
aF0.0
aF-0.07253263318180561
aF-0.027538713379463554
aF0.0
aF-0.029835823034507263
aF0.0
aF0.0
aF0.0
aF0.030050576826702688
aF0.013237350773630939
aF-0.02859976736541756
aF-0.028228162342033764
aF0.0
aF-0.02973536492126821
aF-0.029437372516404343
aF-0.007274814855820211
aF-0.029196941389272923
aF0.0
aF0.0
aF0.030063497733703773
aF-0.04717423702001426
aF0.0
aF0.0
aF-0.028616112829105783
aF-0.03044993326381795
aF0.0
aF-0.017826720135582612
aF-0.07069002164401378
aF0.0
aF-0.08529639865634911
aF-0.029999075845270798
aF-0.027917238263756035
aF0.0
aF0.0
aF-0.029473792122254122
aF-0.029944940449317493
aF0.030220288906780555
aF0.0
aF-0.05294794915065679
aF0.0
aF-0.002260156401468927
aF0.0
aF-0.029817692410487838
aF-0.027120508586167553
aF-0.052281197144832973
aF0.0
aF0.0
aF-0.02967215829253916
aF0.025538719568884885
aF0.0
aF0.0
aF-0.026207202913060106
aF0.0
aF0.0
aF0.0
aF0.0
aF-0.036355298047317325
aF0.0
aF-0.02994824421912716
aF-0.041526152707032624
aF0.0011120734800782262
aF0.0299416043617457
aF-0.009922909044112865
aF-0.052404132732526046
aF0.0
aF0.0
aF0.0
aF-0.02910016106665114
aF0.0
aF-0.085233279720228
aF0.0
aF-0.029991922868396782
aF0.0
aF0.0
aF-0.053567100614150896
aF0.0
aF0.0
aF-0.029888331735840816
aF0.0
aF-0.027157497107037777
aF-0.04297118030478585
aF-0.029999865626964835
aF0.0
aF0.0
aF0.0
aF-0.014850536117290924
aF0.0
aF-0.02990590852453171
aF0.0300193528837733
aF-0.029653678803462872
aF0.0
aF-0.011956224365904072
aF0.0
aF0.0
aF0.0
aF-0.10541319399331073
aF-0.02427816630502981
aF0.0
aF0.0
aF-0.02791275373893346
aF-0.0463839726132135
aF-0.0682143076348467
aF-0.06775335061019613
aF-0.03
aF0.0
aF-0.052623915291924034
aF0.03091891277885557
aF0.006869831238384867
aF0.0
aF0.0
aF-0.029999750085302923
aF0.0
aF-0.03604177953435879
aF0.0
aF0.0
aF-0.009522643192000375
aF-0.02538688779585738
aF0.0
aF-0.04210243251980895
aF0.0
aF0.0
aF0.0
aF0.0
aF0.0
aF-0.02772460093554294
aF-0.04955149376817385
aF0.0
aF0.0
aF-0.05294669379728906
aF-0.030000005098683235
aF0.0
aF-0.013631810568402253
aF0.0
aF0.0
aF-0.029923592622313987
aF0.0
aF0.0
aF0.0
aF-0.029918132773618905
aF-0.09531921554940831
aF-0.003039150058991077
aF-0.02988205285265875
aF-0.053142438608856105
aF0.0
aF-0.029802349445650224
aF0.0
aF0.0
aF0.0
aF0.0
aF0.0071006999111141895
aF0.0
aF-0.02979748127480638
aF0.0
aF0.0
aF0.0
aF0.0
aF-0.029177006613817336
aF0.0
aF-0.029715063409194106
aF0.0
aF0.0
aF0.0
aF-0.029999816020443056
aF0.03525521355720694
aF-0.060771641322169466
aF0.0
aF0.0
aF0.0
aF0.0
aF0.03128772292495249
aF0.0
aF0.0
aF-0.03976678075296532
aF-0.016985354664572773
aF-0.010753224870393218
aF0.0
aF0.0
aF0.0
aF0.0
aF0.0
aF0.0
aF0.0
aF0.0
aF0.0
aF-0.06341925290428437
aF-0.05208785664121157
aF0.0
aF0.0
aF-0.02593128830924775
aF-0.03169604096998991
aF-0.02999978675372302
aF0.0
aF0.0
aF0.0
aF-0.0005808609246284579
aF-0.05335695123887729
aF0.0
aF-0.026663336395038716
aF-0.029126572146779845
aF0.0
aF0.0
aF0.0
aF-0.03605565871786194
aF0.0
aF-0.0028344049232889666
aF0.0
aF0.0
aF0.0
aF0.0
aF0.0
aF0.0
aF0.0
aF-0.014696683497626017
aF0.0
aF0.0
aF-0.028657021344739915
aF0.0
aF0.0
aF0.0
aF-0.029926138872568404
aF-0.01494342359878218
aF0.0
aF0.0
aF0.0
aF0.0
aF0.0
aF0.0
aF0.030260217737287425
aF-0.06953108561118373
aF-0.005986185639017966
aF0.0
aF-0.02985151857840494
aF0.0
aF-0.06752467895266329
aF-0.02791606292254599
aF0.0
aF0.0
aF0.0
aF-0.02988658931352808
aF0.0
aF-0.02984935490535704
aF-0.004267437403754218
aF0.0
aF0.0
aF-0.02988747170487308
aF0.0
aF-0.024999701274832132
aF-0.029297573815274564
aF0.0
aF0.030000356630626696
aF0.0
aF-0.0299215183790159
aF-0.001856067099058569
aF0.0
aF0.0
aF0.030289089419928583
aF0.0
aF0.0
aF0.0
aF-0.02665346738162576
aF0.0
aF0.0
aF0.0
aF0.0
aF0.0
aF-0.054938748140495444
aF-0.023099722127453926
aF-0.014945914463105503
aF-0.014985965261294287
aF-0.06967065873449646
aF-0.029861192652366482
aF0.0
aF0.0
aF-0.047486504021431356
aF0.0
aF0.0
aF-0.02999976148391444
aF0.0
aF0.0
aF6.245944274324957e-06
aF0.0
aF-0.01516287321899675
aF0.0
aF0.0
aF0.015015985704714303
aF0.0
aF-0.05348082030054923
aF0.0
aF0.0
aF-0.027910506824938442
aF0.0
aF0.005714353439546183
aF0.0
aF0.0
aF0.0
aF0.0
aF0.0
aF0.0
aF0.0
aF0.0
aF-0.0494417575060444
aF0.0
aF0.0
aF0.0
aF0.0
aF0.0
aF0.0
aF-0.027737927795872593
aF-0.013244006856736892
aF0.0
aF0.0
aF0.0
aF0.0
aF-0.029998479306123968
aF-0.024047045617850725
aF0.0
aF-0.027155549203278402
aF-0.06951224894878015
aF0.0
aF0.0
aF0.0
aF0.0
aF-0.027917375578019245
aF0.0
aF-0.12350703033445551
aF0.0
aF0.0
aF-0.05349475368089704
aF0.0
aF0.0
aF0.0
aF-0.029711667469934634
aF-0.030022730751869186
aF0.0
aF-0.015007879125277094
aF-0.011341937695968793
aF0.0
aF-0.02995674995717117
aF0.0
aF0.011599207159296375
aF0.0
aF-0.05517181797205088
aF-0.0023813308894708373
aF0.0
aF-0.029890388957651372
aF0.0
aF0.0
aF0.0
aF0.0
aF-0.026858252758047513
aF-0.03779461701521225
aF-0.08460218633417757
aF-0.011232184617563111
aF0.0
aF-0.005252662193276334
aF0.0
aF0.0
aF-0.09701874601465742
aF-0.03336457558216944
aF-0.07454918136066935
aF0.0
aF0.0
aF-0.02994098298465162
aF-0.08492749808570405
aF0.0
aF0.0
aF0.0
aF0.0
aF0.030332539028091646
aF0.0
aF0.0
aF-0.033144050050565886
aF0.0
aF0.0
aF-0.014261816363077096
aF-0.027972054018613083
aF-0.02700020341921479
aF0.0
aF0.0
aF-0.03
aF0.0
aF0.0
aF0.0
aF0.0
aF0.0
aF-0.014998972009083693
aF0.0
aF0.0
aF0.0
aF0.0
aF-0.000713529089523662
aF0.0
aF-0.05322688601762475
aF0.030000070611794098
aF-0.023848064228495475
aF0.0
aF-0.027803331679757515
aF0.0
aF0.0
aF0.0
aF-0.02979123326277805
aF0.0
aF0.0
aF0.0
aF0.03115799471513265
aF0.003969561080724701
aF-0.02949894650451235
aF0.0
aF0.0
aF-0.029926678159081916
aF-0.025780046723276676
aF-0.07569852522707787
aF0.0
aF0.0
aF-0.12435489225838622
aF0.0
aF0.0
aF0.0
aF0.010409501215284719
aF0.0
aF0.0
aF0.0
aF-0.01483698784096843
aF0.0
aF0.05564350131453455
aF0.0
aF0.0
aF0.0
aF0.0
aF0.0
aF0.0
aF-0.05338847253921266
aF0.0
aF-0.08515573185252442
aF0.0
aF-0.027917331339556636
aF0.0
aF0.0
aF-0.024464958287820186
aF-0.0025002030181782084
aF-0.02016685985387167
aF-0.08640853155925812
aF0.0
aF0.0
aF0.0
aF0.0
aF0.0
aF0.0
aF0.0
aF0.0
aF0.0
aF0.0
aF-0.029977857600226202
aF0.02999998142278235
aF0.0
aF0.0
aF0.0
aF0.0
aF0.0
aF0.0
aF0.0
aF0.0
aF0.0
aF0.0
aF0.0
aF0.0
aF-0.017939445678882587
aF0.0
aF-0.02777085669112875
aF-0.027260950133405418
aF0.0
aF0.0
aF-0.01488448501634651
aF0.0
aF0.030046706032176983
aF0.0
aF-0.030493623567873204
aF-0.029907779690235805
aF-0.049679492239261575
aF0.0
aF-0.023678065508971363
aF0.0
aF0.0
aF0.0
aF-0.02985783451442166
aF0.0
aF0.0
aF0.0
aF0.0
aF0.0
aF0.006478565268471834
aF-0.0011347617705404333
aF0.0
aF0.0
aF0.0
aF0.0
aF0.0
aF-0.009967472324022864
aF-0.1265028158182659
aF0.0
aF0.0
aF0.0
aF0.0
aF-0.02994721076044716
aF-0.02984661457131708
aF-0.014662695680847831
aF0.0
aF0.0
aF-0.0299996433693733
aF-0.02999992000719388
aF-0.02995067031639107
aF0.0
aF0.0
aF0.0
aF0.0
aF0.0
aF-0.06382124300942948
aF-0.12870916286680043
aF0.0
aF0.0
aF0.0
aF-0.0258451591225153
aF-0.039431245981261784
aF0.0
aF0.0
aF0.0
aF0.0
aF0.0
aF0.0
aF-0.02950645256657763
aF0.0
aF-0.014647457553258062
aF0.0
aF0.0
aF0.0
aF-0.08537520083073957
aF0.0
aF0.0
aF-0.05336951782053807
aF0.0
aF-0.029649988300544633
aF-0.07017779870430946
aF0.0
aF0.0
aF0.0
aF0.0
aF0.0
aF0.0
aF-0.02791030851733605
aF0.0
aF-0.015
aF-0.029661599947969672
aF-0.03000000464485009
aF0.0
aF0.0
aF-0.027910580566552243
aF-0.053392802342354884
aF0.0
aF-0.10659896579584394
aF0.0
aF0.006686027850726646
aF-0.014816015113920456
aF-0.05221122522940565
aF-0.023567902377654347
aF-0.029833117122384987
aF-0.011798000651709575
aF0.0
aF0.0
aF0.0
aF0.0
aF0.0
aF0.0
aF0.0
aF-0.027945744855333538
aF-0.017311087050393425
aF0.0
aF0.0
aF0.0
aF0.0
aF0.0
aF0.0
aF-0.029548549803541796
aF0.0
aF0.0
aF0.0
aF0.0
aF0.0
aF-0.050408645812601266
aF0.0
aF0.0
aF0.0
aF0.0
aF0.0
aF0.0
aF0.0
aF0.0
aF-0.018043081393898177
aF-0.053548518118375625
aF0.0
aF0.0
aF0.0
aF-0.01812922404225637
aF0.0
aF0.0
aF-0.01497193348573359
aF-0.023544640930839356
aF0.0
aF-0.0662081199169448
aF0.0
aF0.0
aF-0.011499495313991848
aF-0.036575135971083084
aF0.0
aF0.0
aF0.0
aF0.0
aF0.0
aF0.0
aF-0.006618695736365003
aF-0.029999304390506756
aF0.0
aF0.0
aF0.0
aF0.0
aF0.0
aF-0.029999943320573458
aF0.0
aF0.0
aF-0.04963221776476636
aF0.0
aF0.0
aF0.0
aF0.0
aF0.0
aF0.0
aF0.0
aF0.0
aF0.0
aF0.0
aF0.0
aF0.0
aF0.0
aF0.0
aF0.0
aF0.0
aF-0.12987593278754467
aF0.0
aF0.0
aF0.0
aF0.0
aF-0.029999477160782155
aF0.0
aF0.0
aF0.0
aF0.0
aF0.0
aF0.0
aF-0.027914779731795143
aF0.0
aF0.0
aF0.0
aF0.0
aF0.0
aF0.0
aF0.0
aF-0.029991030450785675
aF-0.01486284598201055
aF0.0
aF0.0
aF0.0
aF0.0
aF-0.029436753861877347
aF-0.029999832905219473
aF0.0
aF0.0
aF0.0
aF0.0
aF0.0
aF0.0
aF0.0
aF0.0
aF0.03000001650378811
aF0.0
aF0.0
aF0.0
aF0.0
aF0.0
aF0.0
aF0.0
aF0.03
aF0.0
aF0.0
aF-0.027916713888631685
aF-0.019999360113332303
aF-0.002499911924702262
aF0.0
aF0.0
aF0.0
aF0.0
aF0.0
aF0.0
aF0.0
aF0.0
aF0.0
aF0.0
aF0.0
aF0.0
aF0.0
aF0.0
aF0.0
aF0.0
aF0.0
aF0.0
aF0.0
aF0.0
aF0.0
aF0.0
aF0.0
aF0.0
aF0.0
aF0.0
aF0.0
aF0.0
aF0.0
aF0.0
aF-0.02999669265429916
aF-0.029887826081530015
aF0.0
aF-0.05338752023929344
aF0.0
aF0.0
aF0.0
aF0.0
aF0.0
aF0.0
aF0.0
aF0.0
aF0.0
aF0.0
aF0.0
aF0.0
aF0.0
aF0.0
aF0.0
aF0.0
aF0.0
aF0.0
aF0.0
aF0.0
aF0.0
aF0.0
aF0.0
aF0.0
aF0.0
aF0.0
aF0.0
aF-0.029999418176952744
aF0.0
aF0.0
aF0.0
aF-0.029984074701378337
aF0.0
aF-0.0243564208351518
aF-0.050841835260115126
aF-0.012069962269273999
aF0.0
aF0.0
aF0.0
aF0.0
aF0.0
aF0.0
aF0.0
aF0.0
aF0.0
aF-0.02791607779075968
aF0.0
aF0.0
aF0.0
aF0.0
aF0.0
aF0.0
aF0.0
aF0.0
aF-0.015000600119377568
aF0.0
aF0.0
aF0.0
aF-0.029999405326735413
aF0.0
aF0.0
aF0.0
aF0.0
aF0.0
aF0.0
aF0.0
aF0.0
aF0.0
aF0.0
aF0.0
aF0.0
aF0.0
aF0.0
aF0.0
aF0.0
aF-0.03000115716397141
aF0.0
aF0.0
aF0.0
aF0.0
aF0.0
aF0.0
aF0.0
aF0.0
aF0.0
aF-0.027770808785300662
aF0.0
aF0.0
aF0.0
aF0.0
aF0.0
aF0.0
aF0.0
aF-0.02999994317725716
aF-0.009999928673542345
aF0.0
aF0.0
aF0.0
aF0.0
aF0.0
aF0.0
aF0.0
aF0.0
aF0.0
aF0.0
aF0.0
aF0.0
aF0.0
aF-0.029999039791701328
aF0.0
aF0.0
aF0.0
aF-0.02999910075989321
aF-0.13840568908964904
aF-0.1368408839837031
aF0.0
aF0.0
aF0.0
aF0.0
aF0.0
aF0.0
aF0.0
aF0.0
aF0.0
aF0.0
aF0.0
aF0.0
aF0.0
aF0.0
aF0.0
aF0.0
aF0.0
aF0.0
aF0.0
aF0.0
aF-0.029796864398193165
aF0.0
aF0.0
aF0.0
aF0.0
aF0.0
aF0.0
aF0.0
aF0.0
aF0.0
aF0.0
aF0.0
aF0.0
aF0.0
aF0.0
aF0.0
aF0.0
aF0.0
aF0.0
aF0.0
aF0.0
aF0.0
aF0.0
aF0.0
aF0.0
aF0.0
aF0.0
aF0.0
aF0.0
aF0.0
aF0.0
aF0.0
aF0.0
aF0.0
aF0.0
aF0.0
aF0.0
aF0.0
aF0.0
aF0.0
aF0.0
aF0.0
aF0.0
aF0.0
aF0.0
aF0.0
aF0.0
aF0.0
aF0.0
aF0.0
aF0.0
aF0.0
aF0.0
aF0.0
aF0.0
aF0.0
aF0.0
aF0.0
aF0.0
aF0.0
aF0.0
aF0.0
aF0.0
aF-0.029949451782118386
aF0.0
aF-0.05346169947961297
aF0.0
aF0.0
aF0.0
aF0.0
aF0.0
aF0.0
aF0.0
aF0.0
aF0.0
aF0.0
aF0.0
aF0.0
aF-0.029999805543272154
aF0.030000183979556942
aF0.0
aF0.0
aF0.0
aF0.0
aF0.0
aF0.0
aF0.0
aF0.0
aF0.0
aF0.0
aF0.0
aF0.0
aF0.0
aF-0.007500080590703022
aF0.0
aF0.0
aF0.0
aF0.0
aF0.0
aF0.0
aF0.0
aF0.0
aF0.0
aF0.0
aF0.0
aF0.0
aF0.0
aF0.0
aF0.0
aF0.0
aF0.0
aF0.0
aF0.0
aF0.0
aF0.0
aF-0.05354980765745959
aF0.0
aF0.0
aF0.0
aF0.0
aF0.0
aF0.0
aF0.0
aF0.0
aF0.0
aF0.0
aF0.0
aF0.0
aF0.0
aF0.0
aF0.0
aF0.0
aF0.0
aF0.0
aF0.0
aF0.0
aF0.0
aF0.0
aF0.0
aF0.0
aF0.0
aF0.0
aF0.0
aF0.0
aF0.0
aF0.0
aF0.0
aF0.0
aF0.0
aF0.0
aF0.0
aF0.0
aF0.0
aF0.0
aF0.0
aF0.0
aF0.0
aF0.0
aF0.0
aF-0.029999348368872702
aF0.0
aF0.0
aF0.0
aF0.0
aF0.0
aF0.0
aF0.0
aF0.0
aF0.0
aF0.0
aF0.0
aF0.0
aF0.0
aF0.0
aF0.0
aF0.0
aF0.0
aF0.0
aF0.0
aF0.0
aF0.0
aF0.0
aF0.0
aF0.0
aF0.0
aF0.0
aF0.0
aF0.0
aF0.0
aF0.0
aF0.0
aF0.0
aF0.0
aF0.0
aF0.0
aF0.0
aF0.0
aF0.0
aF0.0
aF0.0
aF0.0
aF0.0
aF0.0
aF0.0
aF0.0
aF0.0
aF0.0
aF0.0
aF0.0
aF0.0
aF0.0
aF0.0
aF-0.01494370424994186
aF0.0
aF0.0
aF0.0
aF0.0
aF0.0
aF0.0
aF0.0
aF0.0
aF0.0
aF0.0
aF0.0
aF0.0
aF0.0
aF0.0
aF0.0
aF0.0
aF0.0
aF0.0
aF0.0
aF0.0
aF0.0
aF0.0
aF0.0
aF-0.029999501375456435
aF0.0
aF0.0
aF0.0
aF0.0
aF0.0
aF0.0
aF0.0
aF0.0
aF0.0
aF0.0
aF0.0
aF0.0
aF0.0
aF0.0
aF0.0
aF0.0
aF0.0
aF0.0
aF0.0
aF0.0
aF-0.026943718922896584
aF0.0
aF0.0
aF0.0
aF0.0
aF0.0
aF-0.030000110326755855
aF0.0
aF0.0
aF-0.01494266528777819
aF0.0
aF0.0
aF0.0
aF0.0
aF0.0
aF0.0
aF0.0
aF0.0
aF0.0
aF0.0
aF0.0
aF0.0
aF0.0
aF0.0
aF0.0
aF0.0
aF0.0
aF0.0
aF0.0
aF0.0
aF0.0
aF0.0
aF0.0
aF0.0
aF0.0
aF0.0
aF0.0
aF0.0
aF0.0
aF0.0
aF0.0
aF0.0
aF0.0
aF0.0
aF0.0
aF0.0
aF0.0
aF0.0
aF0.0
aF0.0
aF0.0
aF0.0
aF0.0
aF0.0
aF0.0
aF0.0
aF0.0
aF0.0
aF0.0
aF0.0
aF0.0
aF0.0
aF0.0
aF0.0
aF0.0
aF-0.04402643646072943
aF0.0
aF0.0
aF0.0
aF0.0
aF0.0
aF0.0
aF0.0
aF0.0
aF0.0
aF0.0
aF0.0
aF0.0
aF0.0
aF0.0
aF0.005999967859023557
aF0.0
aF0.0
aF0.0
aF0.0
aF0.0
aF0.0
aF0.0
aF0.0
aF0.0
aF0.0
aF0.0
aF0.0
aF-0.029999519876406037
aF0.0
aF0.0
aF0.0
aF0.0
aF0.0
aF0.0
aF0.0
aF0.0
aF0.0
aF0.0
aF0.0
aF0.0
aF0.0
aF0.0
aF0.0
aF0.0
aF0.0
aF0.0
aF0.0
aF0.0
aF0.0
aF0.0
aF0.0
aF0.0
aF0.0
aF0.0
aF0.0
aF0.0
aF-0.015000006637617662
aF0.0
aF0.0
aF0.0
aF0.0
aF0.0
aF0.0
aF0.0
aF0.0
aF0.0
aF0.0
aF0.0
aF0.0
aF0.0
aF0.0
aF0.0
aF0.0
aF0.0
aF0.0
aF0.0
aF0.0
aF0.0
aF0.0
aF0.0
aF0.0
aF0.0
aF0.0
aF0.0
aF0.0
aF0.0
aF0.0
aF0.0
aF0.0
aF0.0
aF0.0
aF0.0
aF0.0
aF0.0
aF0.0
aF0.0
aF0.0
aF0.0
aF0.0
aF0.0
aF0.0
aF0.0
aF0.0
aF0.0
aF0.0
aF0.0
aF0.0
aF0.0
aF0.0
aF0.0
aF0.0
aF0.0
aF0.0
aF0.0
aF-0.02990980063102638
aF0.0
aF0.0
aF-0.026943209587100683
aF0.0
aF0.0
aF0.0
aF0.0
aF0.0
aF0.0
aF0.0
aF0.0
aF0.0
aF0.0
aF0.0
aF0.0
aF0.0
aF0.0
aF0.0
aF0.0
aF0.0
aF0.0
aF0.0
aF0.0
aF0.0
aF0.0
aF0.0
aF0.0
aF0.0
aF0.0
aF0.0
aF0.0
aF0.0
aF0.0
aF0.0
aF0.0
aF0.0
aF0.0
aF0.0
aF0.0
aF0.0
aF0.0
aF0.0
aF-0.01798320334152534
aF0.0
aF0.0
aF0.0
aF0.0
aF0.0
aF0.0
aF-0.029999356456965023
aF0.0
aF0.0
aF0.0
aF0.0
aF0.0
aF0.0
aF0.0
aF0.0
aF0.0
aF0.0
aF0.0
aF0.0
aF0.0
aF0.0
aF0.0
aF0.0
aF0.0
aF0.0
aF0.0
aF0.0
aF0.0
aF0.0
aF0.0
aF0.0
aF0.0
aF0.0
aF0.0
aF0.0
aF0.0
aF0.0
aF0.0
aF-0.009999488675369561
aF0.0
aF0.0
aF0.0
aF0.0
aF0.0
aF0.0
aF0.0
aF0.0
aF0.0
aF0.0
aF0.0
aF0.0
aF0.0
aF-0.08654941435845805
aF0.0
aF0.0
aF0.0
aF0.0
aF-0.029999748340624566
aF0.0
aF0.0
aF0.0
aF0.0
aF0.0
aF0.0
aF0.0
aF0.0
aF0.0
aF0.0
aF0.0
aF0.0
aF0.0
aF0.0
aF0.0
aF0.0
aF0.0
aF0.0
aF0.0
aF0.0
aF0.0
aF0.0
aF-0.029999487374339433
aF0.0
aF0.0
aF0.0
aF0.0
aF0.0
aF0.0
aF0.0
aF0.0
aF0.0
aF0.0
aF0.0
aF0.0
aF0.0
aF0.0
aF0.0
aF0.0
aF0.0
aF0.0
aF0.0
aF0.0
aF0.0
aF0.0
aF0.0
aF0.0
aF0.0
aF0.0
aF0.0
aF0.0
aF0.0
aF0.0
aF0.0
aF0.0
aF0.0
aF0.0
aF0.0
aF0.0
aF0.0
aF-0.0033333438480235796
aF0.0
aF0.0
aF0.0
aF0.0
aF0.0
aF0.0
aF0.0
aF0.0
aF0.0
aF0.0
aF0.0
aF0.0
aF0.0
aF0.0
aF0.0
aF0.0
aF0.0
aF0.0
aF0.0
aF0.0
aF0.0
aF0.0
aF0.0
aF0.0
aF0.0
aF0.0
aF0.0
aF0.0
aF0.0
aF0.0
aF0.0
aF0.0
aF0.0
aF0.0
aF0.0
aF0.0
aF0.0
aF0.0
aF0.0
aF0.0
aF0.0
aF0.0
aF0.0
aF-0.03
aF0.0
aF0.0
aF0.0
aF0.0
aF0.0
aF0.0
aF-0.02999970382048684
aF0.0
aF0.0
aF0.0
aF0.0
aF0.0
aF0.0
aF0.0
aF0.0
aF0.0
aF0.0
aF0.0
aF0.0
aF0.0
aF0.0
aF0.0
aF0.0
aF0.0
aF0.0
aF0.0
aF0.0
aF0.0
aF0.0
aF0.0
aF0.0
aF0.0
aF0.0
aF0.0
aF0.0
aF0.0
aF0.0
aF0.0
aF0.0
aF0.0
aF0.0
aF-0.009999990358684006
aF0.0
aF0.0
aF0.0
aF0.0
aF0.0
aF0.0
aF0.0
aF0.0
aF0.0
aF0.0
aF0.0
aF0.0
aF0.0
aF0.0
aF0.0
aF0.0
aF0.0
aF0.0
aF0.0
aF0.0
aF0.0
aF0.0
aF0.0
aF0.0
aF0.0
aF0.0
aF0.0
aF0.0
aF0.0
aF0.0
aF0.0
aF0.0
aF0.0
aF0.0
aF0.0
aF0.0
aF0.0
aF0.0
aF0.0
aF0.0
aF0.0
aF0.0
aF0.0
aF0.0
aF0.0
aF0.0
aF0.0
aF0.0
aF0.0
aF0.0
aF0.0
aF0.0
aF0.0
aF0.0
aF0.0
aF0.0
aF0.0
aF0.0
aF0.0
aF0.0
aF0.0
aF0.0
aF0.0
aF0.0
aF0.0
aF0.0
aF0.0
aF0.0
aF0.0
aF0.0
aF-0.030000516548347147
aF0.0
aF0.0
aF0.0
aF0.0
aF0.0
aF0.0
aF0.0
aF0.0
aF0.0
aF0.0
aF0.0
aF0.0
aF0.0
aF0.0
aF0.0
aF0.0
aF0.0
aF0.0
aF0.0
aF0.0
aF0.0
aF0.0
aF0.0
aF0.0
aF0.0
aF0.0
aF0.0
aF0.0
aF0.0
aF0.0
aF0.0
aF0.0
aF0.0
aF0.0
aF0.0
aF0.0
aF0.0
aF0.0
aF0.0
aF0.0
aF0.0
aF0.0
aF0.0
aF0.0
aF0.0
aF0.0
aF0.0
aF0.0
aF0.0
aF0.0
aF0.0
aF0.0
aF0.0
aF0.0
aF0.0
aF0.029999939717092552
aF0.0
aF0.0
aF0.0
aF0.0
aF0.0
aF0.0
aF0.0
aF0.0
aF0.0
aF0.0
aF0.0
aF0.0
aF0.0
aF0.0
aF0.0
aF0.0
aF0.0
aF0.0
aF0.0
aF0.0
aF0.0
aF0.0
aF0.0
aF0.0
aF0.0
aF0.0
aF0.0
aF-0.00333359357644803
aF0.0
aF0.0
aF0.0
aF0.0
aF0.0
aF0.0
aF0.0
aF0.0
aF0.0
aF0.0
aF0.0
aF0.0
aF0.0
aF0.0
aF0.0
aF0.0
aF0.0
aF0.0
aF0.0
aF0.0
aF0.0
aF0.0
aF0.0
aF0.0
aF0.0
aF0.0
aF0.0
aF0.0
aF0.0
aF0.0
aF0.0
aF0.0
aF0.0
aF0.0
aF0.0
aF0.0
aF0.0
aF0.0
aF0.0
aF0.0
aF0.0
aF0.0
aF-0.030000130340233685
aF0.0
aF0.0
aF0.0
aF0.0
aF0.0
aF0.0
aF0.0
aF0.0
aF0.0
aF0.0
aF0.0
aF0.0
aF0.0
aF0.0
aF0.0
aF0.0
aF0.0
aF0.0
aF0.0
aF0.0
aF0.0
aF0.0
aF0.0
aF0.0
aF0.0
aF0.0
aF0.0
aF0.0
aF0.0
aF0.0
aF0.0
aF0.0
aF0.0
aF0.0
aF0.0
aF0.0
aF0.0
aF0.0
aF0.0
aF0.0
aF0.0
aF0.0
aF0.0
aF0.0
aF0.0
aF0.0
aF0.0
aF0.0
aF0.0
aF0.0
aF0.0
aF0.0
aF0.0
aF0.0
aF0.0
aF0.0
aF0.0
aF0.0
aF0.0
aF0.0
aF0.0
aF0.0
aF0.0
aF0.0
aF0.0
aF0.0
aF0.0
aF0.0
aF0.0
aF0.0
aF0.0
aF0.0
aF0.0
aF0.0
aF0.0
aF0.0
aF0.0
aF0.0
aF0.0
aF0.0
aF0.0
aF0.0
aF0.0
aF0.0
aF0.0
aF0.0
aF0.0
aF0.0
aF0.0
aF0.0
aF0.0
aF0.0
aF0.0
aF0.0
aF0.0
aF0.0
aF0.0
aF0.0
aF0.0
aF0.0
aF0.0
aF0.0
aF0.0
aF0.0
aF0.0
aF0.0
aF0.0
aF0.0
aF0.0
aF0.0
aF0.0
aF0.0
aF0.0
aF0.0
aF0.0
aF0.0
aF0.0
aF0.0
aF0.0
aF0.0
aF0.0
aF0.0
aF0.0
aF0.0
aF0.0
aF0.0
aF0.0
aF0.0
aF0.0
aF0.0
aF0.0
aF0.0
aF0.0
aF0.0
aF0.0
aF0.0
aF0.0
aF0.0
aF0.0
aF0.0
aF0.0
aF0.0
aF0.0
aF0.0
aF0.0
aF0.0
aF0.0
aF0.0
aF0.0
aF0.0
aF0.0
aF0.0
aF0.0
aF0.0
aF0.0
aF0.0
aF0.0
aF0.0
aF0.0
aF0.0
aF0.0
aF0.0
aF0.0
aF0.0
aF0.0
aF0.0
aF0.0
aF0.0
aF0.0
aF0.0
aF0.0
aF0.0
aF0.0
aF0.0
aF0.0
aF0.0
aF0.0
aF0.0
aF0.0
aF0.0
aF0.0
aF0.0
aF0.0
aF0.0
aF0.0
aF0.0
aF0.0
aF0.0
aF0.0
aF0.0
aF0.0
aF0.0
aF0.0
aF0.0
aF0.0
aF0.0
aF0.0
aF0.0
aF0.0
aF0.0
aF0.0
aF0.0
aF0.0
aF0.0
aF0.0
aF0.0
aF0.0
aF0.0
aF0.0
aF0.0
aF0.0
aF0.0
aF0.0
aF0.0
aF0.0
aF0.0
aF0.0
aF0.0
aF0.0
aF0.0
aF0.0
aF0.0
aF0.0
aF0.0
aF0.0
aF0.0
aF0.0
aF0.0
aF0.0
aF0.0
aF0.0
aF0.0
aF0.0
aF0.0
aF0.0
aF0.0
aF0.0
aF0.0
aF0.0
aF0.0
aF0.0
aF0.0
aF0.0
aF0.0
aF0.0
aF0.0
aF0.0
aF0.0
aF0.0
aF0.0
aF0.0
aF0.0
aF0.0
aF0.0
aF0.0
aF0.0
aF0.0
aF0.0
aF0.0
aF0.0
aF0.0
aF0.0
aF0.0
aF0.0
aF0.0
aF0.0
aF0.0
aF0.0
aF0.0
aF0.0
aF0.0
aF0.0
aF0.0
aF0.0
aF0.0
aF0.0
aF0.0
aF0.0
aF0.0
aF0.0
aF0.0
aF0.0
aF0.0
aF0.0
aF0.0
aF0.0
aF0.0
aF0.0
aF0.0
aF0.0
aF0.0
aF0.0
aF0.0
aF0.0
aF0.0
aF0.0
aF0.0
aF0.0
aF0.0
aF0.0
aF0.0
aF0.0
aF0.0
aF0.0
aF0.0
aF0.0
aF0.0
aF0.0
aF0.0
aF0.0
aF0.0
aF0.0
aF0.0
aF0.0
aF0.0
aF0.0
aF0.0
aF0.0
aF0.0
aF0.0
aF0.0
aF0.0
aF0.0
aF0.0
aF0.0
aF0.0
aF0.0
aF0.0
aF0.0
aF0.0
aF0.0
aF0.0
aF0.0
aF0.0
aF0.0
aF0.0
aF0.0
aF0.0
aF0.0
aF0.0
aF0.0
aF0.0
aF0.0
aF0.0
aF0.0
aF0.0
aF0.0
aF0.0
aF0.0
aF0.0
aF0.0
aF0.0
aF0.0
aF0.0
aF0.0
aF0.0
aF0.0
aF0.0
aF0.0
aF0.0
aF0.0
aF0.0
aF0.0
aF0.0
aF0.0
aF0.0
aF0.0
aF0.0
aF0.0
aF0.0
aF0.0
aF0.0
aF0.0
aF0.0
aF0.0
aF0.0
aF0.0
aF0.0
aF0.0
aF0.0
aF0.0
aF0.0
aF0.0
aF0.0
aF0.0
aF0.0
aF0.0
aF0.0
aF0.0
aF0.0
aF0.0
aF0.0
aF0.0
aF0.0
aF0.0
aF0.0
aF0.0
aF0.0
aF0.0
aF0.0
aF0.0
aF0.0
aF0.0
aF0.0
aF0.0
aF0.0
aF0.0
aF0.0
aF0.0
aF0.0
aF0.0
aF0.0
aF0.0
aF0.0
aF0.0
aF0.0
aF0.0
aF0.0
aF0.0
aF0.0
aF0.0
aF0.0
aF0.0
aF0.0
aF0.0
aF0.0
aF0.0
aF0.0
aF0.0
aF0.0
aF0.0
aF0.0
aF0.0
aF0.0
aF0.0
aF0.0
aF0.0
aF0.0
aF0.0
aF0.0
aF0.0
aF0.0
aF0.0
aF0.0
aF0.0
aF0.0
aF0.0
aF0.0
aF0.0
aF0.0
aF0.0
aF0.0
aF0.0
aF0.0
aF0.0
aF0.0
aF0.0
aF0.0
aF0.0
aF0.0
aF0.0
aF0.0
aF0.0
aF0.0
aF0.0
aF0.0
aF0.0
aF0.0
aF0.0
aF0.0
aF0.0
aF0.0
aF0.0
aF0.0
aF0.0
aF0.0
aF0.0
aF0.0
aF0.0
aF0.0
aF0.0
aF0.0
aF0.0
aF0.0
aF0.0
aF0.0
aF0.0
aF0.0
aF0.0
aF0.0
aF0.0
aF0.0
aF0.0
aF0.0
aF0.0
aF0.0
aF0.0
aF0.0
aF0.0
aF0.0
aF0.0
aF0.0
aF0.0
aF0.0
aF0.0
aF0.0
aF0.0
aF0.0
aF0.0
aF0.0
aF0.0
aF0.0
aF0.0
aF0.0
aF0.0
aF0.0
aF0.0
aF0.0
aF0.0
aF0.0
aF0.0
aF0.0
aF0.0
aF0.0
aF0.0
aF0.0
aF0.0
aF0.0
aF0.0
aF0.0
aF0.0
aF0.0
aF0.0
aF0.0
aF0.0
aF0.0
aF0.0
aF0.0
aF0.0
aF0.0
aF0.0
aF0.0
aF0.0
aF0.0
aF0.0
aF0.0
aF0.0
aF0.0
aF0.0
aF0.0
aF0.0
aF0.0
aF0.0
aF0.0
aF0.0
aF0.0
aF0.0
aF0.0
aF0.0
aF0.0
aF0.0
aF0.0
aF0.0
aF0.0
aF0.0
aF0.0
aF0.0
aF0.0
aF0.0
aF0.0
aF0.0
aF0.0
aF0.0
aF0.0
aF0.0
aF0.0
aF0.0
aF0.0
aF0.0
aF0.0
aF0.0
aF0.0
aF0.0
aF0.0
aF0.0
aF0.0
aF0.0
aF0.0
aF0.0
aF0.0
aF0.0
aF0.0
aF0.0
aF0.0
aF0.0
aF0.0
aF0.0
aF0.0
aF0.0
aF0.0
aF0.0
aF0.0
aF0.0
aF0.0
aF0.0
aF0.0
aF0.0
aF0.0
aF0.0
aF0.0
aF0.0
aF0.0
aF0.0
aF0.0
aF0.0
aF0.0
aF0.0
aF0.0
aF0.0
aF0.0
aF0.0
aF0.0
aF0.0
aF0.0
aF0.0
aF0.0
aF0.0
aF0.0
aF0.0
aF0.0
aF0.0
aF0.0
aF0.0
aF0.0
aF0.0
aF0.0
aF0.0
aF0.0
aF0.0
aF0.0
aF0.0
aF0.0
aF0.0
aF0.0
aF0.0
aF0.0
aF0.0
aF0.0
aF0.0
aF0.0
aF0.0
aF0.0
aF0.0
aF0.0
aF0.0
aF0.0
aF0.0
aF0.0
aF0.0
aF0.0
aF0.0
aF0.0
aF0.0
aF0.0
aF0.0
aF0.0
aF0.0
aF0.0
aF0.0
aF0.0
aF0.0
aF0.0
aF0.0
aF0.0
aF0.0
aF0.0
aF0.0
aF0.0
aF0.0
aF0.0
aF0.0
aF0.0
aF0.0
aF0.0
aF0.0
aF0.0
aF0.0
aF0.0
aF0.0
aF0.0
aF0.0
aF0.0
aF0.0
aF0.0
aF0.0
aF0.0
aF0.0
aF0.0
aF0.0
aF0.0
aF0.0
aF0.0
aF0.0
aF0.0
aF0.0
aF0.0
aF0.0
aF0.0
aF0.0
aF0.0
aF0.0
aF0.0
aF0.0
aF0.0
aF0.0
aF0.0
aF0.0
aF0.0
aF0.0
aF0.0
aF0.0
aF0.0
aF0.0
aF0.0
aF0.0
aF0.0
aF0.0
aF0.0
aF0.0
aF0.0
aF0.0
aF0.0
aF0.0
aF0.0
aF0.0
aF0.0
aF0.0
aF0.0
aF0.0
aF0.0
aF0.0
aF0.0
aF0.0
aF0.0
aF0.0
aF0.0
aF0.0
aF0.0
aF0.0
aF0.0
aF0.0
aF0.0
aF0.0
aF0.0
aF0.0
aF0.0
aF0.0
aF0.0
aF0.0
aF0.0
aF0.0
aF0.0
aF0.0
aF0.0
aF0.0
aF0.0
aF0.0
aF0.0
aF0.0
aF0.0
aF0.0
aF0.0
aF0.0
aF0.0
aF0.0
aF0.0
aF0.0
aF0.0
aF0.0
aF0.0
aF0.0
aF0.0
aF0.0
aF0.0
aF0.0
aF0.0
aF0.0
aF0.0
aF0.0
aF0.0
aF0.0
aF0.0
aF0.0
aF0.0
aF0.0
aF0.0
aF0.0
aF0.0
aF0.0
aF0.0
aF0.0
aF0.0
aF0.0
aF0.0
aF0.0
aF0.0
aF0.0
aF0.0
aF0.0
aF0.0
aF0.0
aF0.0
aF0.0
aF0.0
aF0.0
aF0.0
aF0.0
aF0.0
aF0.0
aF0.0
aF0.0
aF0.0
aF0.0
aF0.0
aF0.0
aF0.0
aF0.0
aF0.0
aF0.0
aF0.0
aF0.0
aF0.0
aF0.0
aF0.0
aF0.0
aF0.0
aF0.0
aF0.0
aF0.0
aF0.0
aF0.0
aF0.0
aF0.0
aF0.0
aF0.0
aF0.0
aF0.0
aF0.0
aF0.0
aF0.0
aF0.0
aF0.0
aF0.0
aF0.0
aF0.0
aF0.0
aF0.0
aF0.0
aF0.0
aF0.0
aF0.0
aF0.0
aF0.0
aF0.0
aF0.0
aF0.0
aF0.0
aF0.0
aF0.0
aF0.0
aF0.0
aF0.0
aF0.0
aF0.0
aF0.0
aF0.0
aF0.0
aF0.0
aF0.0
aF0.0
aF0.0
aF0.0
aF0.0
aF0.0
aF0.0
aF0.0
aF0.0
aF0.0
aF0.0
aF0.0
aF0.0
aF0.0
aF0.0
aF0.0
aF0.0
aF0.0
aF0.0
aF0.0
aF0.0
aF0.0
aF0.0
aF0.0
aF0.0
aF0.0
aF0.0
aF0.0
aF0.0
aF0.0
aF0.0
aF0.0
aF0.0
aF0.0
aF0.0
aF0.0
aF0.0
aF0.0
aF0.0
aF0.0
aF0.0
aF0.0
aF0.0
aF0.0
aF0.0
aF0.0
aF0.0
aF0.0
aF0.0
aF0.0
aF0.0
aF0.0
aF0.0
aF0.0
aF0.0
aF0.0
aF0.0
aF0.0
aF0.0
aF0.0
aF0.0
aF0.0
aF0.0
aF0.0
aF0.0
aF0.0
aF0.0
aF0.0
aF0.0
aF0.0
aF0.0
aF0.0
aF0.0
aF0.0
aF0.0
aF0.0
aF0.0
aF0.0
aF0.0
aF0.0
aF0.0
aF0.0
aF0.0
aF0.0
aF0.0
aF0.0
aF0.0
aF0.0
aF0.0
aF0.0
aF0.0
aF0.0
aF0.0
aF0.0
aF0.0
aF0.0
aF0.0
aF0.0
aF0.0
aF0.0
aF0.0
aF0.0
aF0.0
aF0.0
aF0.0
aF0.0
aF0.0
aF0.0
aF0.0
aF0.0
aF0.0
aF0.0
aF0.0
aF0.0
aF0.0
aF0.0
aF0.0
aF0.0
aF0.0
aF0.0
aF0.0
aF0.0
aF0.0
aF0.0
aF0.0
aF0.0
aF0.0
aF0.0
aF0.0
aF0.0
aF0.0
aF0.0
aF0.0
aF0.0
aF0.0
aF0.0
aF0.0
aF0.0
aF0.0
aF0.0
aF0.0
aF0.0
aF0.0
aF0.0
aF0.0
aF0.0
aF0.0
aF0.0
aF0.0
aF0.0
aF0.0
aF0.0
aF0.0
aF0.0
aF0.0
aF0.0
aF0.0
aF0.0
aF0.0
aF0.0
aF0.0
aF0.0
aF0.0
aF0.0
aF0.0
aF0.0
aF0.0
aF0.0
aF0.0
aF0.0
aF0.0
aF0.0
aF0.0
aF0.0
aF0.0
aF0.0
aF0.0
aF0.0
aF0.0
aF0.0
aF0.0
aF0.0
aF0.0
aF0.0
aF0.0
aF0.0
aF0.0
aF0.0
aF0.0
aF0.0
aF0.0
aF0.0
aF0.0
aF0.0
aF0.0
aF0.0
aF0.0
aF0.0
aF0.0
aF0.0
aF0.0
aF0.0
aF0.0
aF0.0
aF0.0
aF0.0
aF0.0
aF0.0
aF0.0
aF0.0
aF0.0
aF0.0
aF0.0
aF0.0
aF0.0
aF0.0
aF0.0
aF0.0
aF0.0
aF0.0
aF0.0
aF0.0
aF0.0
aF0.0
aF0.0
aF0.0
aF0.0
aF0.0
aF0.0
aF0.0
aF0.0
aF0.0
aF0.0
aF0.0
aF0.0
aF0.0
aF0.0
aF0.0
aF0.0
aF0.0
aF0.0
aF0.0
aF0.0
aF0.0
aF0.0
aF0.0
aF0.0
aF0.0
aF0.0
aF0.0
aF0.0
aF0.0
aF0.0
aF0.0
aF0.0
aF0.0
aF0.0
aF0.0
aF0.0
aF0.0
aF0.0
aF0.0
aF0.0
aF0.0
aF0.0
aF0.0
aF0.0
aF0.0
aF0.0
aF0.0
aF0.0
aF0.0
aF0.0
aF0.0
aF0.0
aF0.0
aF0.0
aF0.0
aF0.0
aF0.0
aF0.0
aF0.0
aF0.0
aF0.0
aF0.0
aF0.0
aF0.0
aF0.0
aF0.0
aF0.0
aF0.0
aF0.0
aF0.0
aF0.0
aF0.0
aF0.0
aF0.0
aF0.0
aF0.0
aF0.0
aF0.0
aF0.0
aF0.0
aF0.0
aF0.0
aF0.0
aF0.0
aF0.0
aF0.0
aF0.0
aF0.0
aF0.0
aF0.0
aF0.0
aF0.0
aF0.0
aF0.0
aF0.0
aF0.0
aF0.0
aF0.0
aF0.0
aF0.0
aF0.0
aF0.0
aF0.0
aF0.0
aF0.0
aF0.0
aF0.0
aF0.0
aF0.0
aF0.0
aF0.0
aF0.0
aF0.0
aF0.0
aF0.0
aF0.0
aF0.0
aF0.0
aF0.0
aF0.0
aF0.0
aF0.0
aF0.0
aF0.0
aF0.0
aF0.0
aF0.0
aF0.0
aF0.0
aF0.0
aF0.0
aF0.0
aF0.0
aF0.0
aF0.0
aF0.0
aF0.0
aF0.0
aF0.0
aF0.0
aF0.0
aF0.0
aF0.0
aF0.0
aF0.0
aF0.0
aF0.0
aF0.0
aF0.0
aF0.0
aF0.0
aF0.0
aF0.0
aF0.0
aF0.0
aF0.0
aF0.0
aF0.0
aF-0.03497858544579191
aF0.001474955169423382
aF0.0
aF-0.0011594852260556256
aF0.0
aF0.0
aF0.0
aF0.0
aF0.0
aF0.0
aF0.0005014195632557235
aF0.0
aF0.0
aF0.0
aF0.0
aF0.0
aF0.0
aF0.0
aF0.0
aF0.0
aF0.0
aF0.0
aF0.0
aF0.0
aF0.0
aF0.0
aF0.0
aF0.0
aF0.0
aF0.0
aF0.0
aF0.0
aF0.0
aF0.0
aF0.0
aF0.0
aF0.0
aF0.0
aF0.0
aF0.0
aF0.0
aF0.0
aF0.0
aF0.0
aF0.0
aF0.0
aF0.0
aF0.0
aF0.0
aF0.0
aF0.0
aF0.0
aF0.0
aF0.0
aF0.0
aF0.0
aF0.0
aF0.0
aF0.0
aF0.0
aF0.0
aF0.0
aF0.0
aF0.0
aF0.0
aF0.0
aF0.0
aF0.0
aF0.0
aF0.0
aF0.0
aF0.0
aF0.0
aF0.0
aF0.0
aF-0.0001169879984975822
aF0.0
aF0.0
aF0.0
aF0.0
aF0.00015708
aF0.0
aF0.0
aF0.0
aF0.0
aF0.0
aF0.0
aF0.0
aF0.0
aF0.0
aF0.0
aF0.0
aF0.0
aF0.0
aF0.0
aF0.0
aF0.0
aF0.0
aF0.0
aF0.0
aF0.0
aF0.0
aF0.0
aF0.0
aF0.0
aF0.0
aF0.0
aF0.0
aF0.0
aF0.0
aF0.0
aF0.0
aF0.0
aF0.0
aF0.0
aF0.0
aF0.0
aF0.0
aF0.0
aF0.0
aF0.0
aF0.0
aF0.0
aF0.0
aF0.0
aF0.0
aF0.0
aF0.0
aF0.0
aF0.0
aF0.0
aF0.0
aF0.0
aF0.0
aF0.0
aF0.0
aF0.0
aF0.0
aF0.0
aF0.0
aF0.0
aF0.0
aF0.0
aF0.0
aF0.0
aF0.0
aF0.0
aF0.0
aF0.0
aF0.0
aF0.0
aF0.0
aF0.0
aF0.0
aF0.0
aF0.0
aF0.0
aF0.0
aF0.0
aF0.0
aF0.0
aF0.0
aF0.0
aF0.0
aF0.0
aF0.0
aF0.0
aF0.0
aF0.0
aF0.0
aF0.0
aF0.0
aF0.0
aF0.0
aF0.003
aF0.0
aF0.0
aF0.0
aF-6.926999999999999e-05
aF0.0
aF0.0
aF0.0
aF0.0
aF0.0
aF0.0
aF0.0
aF0.0
aF0.0
aF0.0
aF0.0
aF0.0
aF0.0
aF0.0
aF0.0
aF0.0
aF0.0
aF0.0
aF0.0
aF0.0
aF0.0
aF0.0
aF0.0
aF0.0
aF0.0
aF0.0
aF0.0
aF0.0
aF0.0
aF0.0
aF0.0
aF0.0
aF0.0
aF0.0
aF0.0
aF0.0
aF0.0
aF0.0
aF0.0
aF0.0
aF0.0
aF0.0
aF0.0
aF0.0
aF0.0
aF0.0
aF0.0
aF0.0
aF0.0
aF0.0
aF0.0
aF0.0
aF0.0
aF0.0
aF0.00045456
aF0.0
aF0.0
aF0.0
aF0.0
aF0.0
aF0.0
aF0.0
aF0.0
aF0.0
aF0.0
aF0.0
aF0.0
aF0.0
aF0.0
aF0.0
aF0.0
aF0.0
aF0.0
aF0.0
aF0.0
aF0.0
aF0.0
aF0.0
aF0.0
aF0.0
aF0.0
aF0.0
aF0.0
aF0.0
aF0.0
aF0.0
aF0.0
aF0.0
aF0.0
aF0.0
aF0.0
aF0.0
aF0.0
aF0.0
aF0.0
aF0.0
aF0.0
aF0.0
aF0.0
aF0.0
aF0.0
aF0.0
aF0.0
aF0.0
aF0.0
aF0.0
aF0.0
aF0.0
aF0.0
aF0.0
aF0.0
aF0.0
aF0.0
aF0.0
aF0.0
aF0.0
aF0.0
aF0.0
aF0.0
aF0.0
aF0.0
aF0.0
aF0.0
aF0.0
aF0.0
aF0.0
aF0.0
aF0.0
aF0.0
aF0.0
aF0.0
aF0.0
aF0.0
aF0.0
aF0.0
aF0.0
aF0.0
aF0.0
aF0.0
aF0.0
aF0.0
aF0.0
aF0.0
aF0.0
aF0.0
aF0.0
aF0.0
aF0.0
aF0.0
aF0.0
aF0.0
aF0.0
aF0.0
aF0.0
aF0.0
aF0.0
aF0.0
aF0.0
aF0.0
aF0.0
aF0.0
aF0.0
aF0.0
aF0.0
aF0.0
aF0.0
aF0.0
aF0.0
aF0.0
aF0.0
aF0.0
aF0.0
aF0.0
aF0.0
aF0.0
aF0.0
aF0.0
asb.