(ilrsgd
LogisticRegressionSGD
p0
(dp1
S'mu'
p2
F0.08
sS'eta'
p3
F0.01
sS'weight'
p4
(lp5
F-0.0049611389700449085
aF-0.004994737646042046
aF0.0
aF0.0
aF0.0
aF-0.007615096921391728
aF0.0008487274339764083
aF-0.007659465979615776
aF-0.0049889330662616265
aF0.0
aF-0.0056348819287149925
aF-0.012449030212831195
aF0.0
aF-0.009176245566190696
aF0.005040183049218699
aF0.0
aF-0.005001727657567598
aF-0.004997909196873366
aF-0.0016914899954699118
aF0.0
aF-0.004950931818155224
aF0.0
aF0.0
aF-0.004996873677200126
aF-0.017619587273048208
aF-0.004987186880057982
aF-0.0008039776771969244
aF-0.009179300156258823
aF-0.0048970763527264325
aF-0.008041730920521784
aF0.012837334768049326
aF-0.0024961053725695375
aF-0.004995530700634755
aF-0.009911074770411848
aF-0.009106555980433013
aF-0.009142567108740136
aF-0.004923147002693468
aF0.0
aF0.002524685196560056
aF-0.004897676861324205
aF-0.004918356450131057
aF-0.0026634023182222043
aF-0.0049833843414009175
aF-0.000802260722985889
aF0.0
aF-0.004944051705085301
aF-0.004993537674033354
aF-0.005003048384751216
aF-0.004593042271459983
aF0.005048781918479088
aF0.005000769769183677
aF-0.004993744376318574
aF-0.008143262319421193
aF-0.019747523469185055
aF-0.0030729807804770323
aF-0.004996754583473241
aF-0.002411253153452952
aF-0.012689854574265497
aF0.0
aF0.008291555164254838
aF-0.002224639246769039
aF-0.009185903107973986
aF-0.006791525065695922
aF-0.015021858117225801
aF0.0
aF-0.0049567544300356745
aF0.0
aF0.0
aF0.005078054899676538
aF0.005004538737997533
aF-0.00918988325565687
aF0.0
aF0.0
aF-0.0019482174397610808
aF0.005036510926077382
aF0.0
aF0.005040464811403312
aF-0.003869868829456462
aF0.0
aF0.005003600296302673
aF0.0
aF0.0
aF-0.00249869197805246
aF0.0
aF0.0
aF-0.004250691410781005
aF-0.0042786502992171885
aF-0.004977252162610193
aF0.0
aF-0.004999994164857252
aF-0.003980590912709009
aF-0.004990481056367295
aF0.0
aF-0.015153797354299383
aF-0.01692573034325692
aF-0.004999991034670465
aF-0.000800502357685872
aF-0.004987038191578092
aF-0.0008556518547667893
aF-0.0008044964369293087
aF-0.009174538049042722
aF0.0
aF-0.014138988587651415
aF0.0
aF-0.0049545729796166265
aF0.0
aF-0.004226380083360397
aF0.0
aF-0.02291953728305903
aF-0.004995456975999991
aF-0.004996182207295736
aF-0.0049870615928056155
aF-0.009180674086563652
aF-0.010901391757400314
aF0.005009073199960103
aF-0.00497587038484775
aF-0.01052280707949814
aF-0.004990294782415737
aF-0.004956525550004824
aF-0.013080147099645702
aF-0.012181993383432945
aF-0.003014337620671722
aF-0.007094840637806339
aF0.0
aF-0.004283752580289395
aF0.0
aF0.005079504960133226
aF-0.004967535801282854
aF0.0
aF0.0
aF0.005001517710959327
aF0.0
aF-0.006167992166411674
aF0.0
aF0.0
aF-0.008669972192456209
aF-0.005000626299004598
aF0.0
aF-0.004923127818283187
aF-0.009054109927458727
aF-0.02693822733104899
aF-0.009114938937419005
aF-0.012300305705120269
aF0.0
aF0.0
aF-0.01803219736821367
aF-0.009187495066545308
aF-0.023293560841732393
aF0.0
aF0.005005638730255066
aF-0.009178825090673113
aF-0.004976571907042893
aF0.0
aF0.0
aF-0.017965243358895443
aF0.0
aF-0.0045925451332991685
aF0.0
aF-0.0049963648732418995
aF0.005001321339425662
aF0.0008293209710040503
aF-0.004993221964889188
aF-0.003074078998892143
aF0.005008513467060686
aF-0.004999888853249186
aF-0.014595487276296226
aF0.0
aF-0.004998507170865758
aF0.0
aF-0.01979063545339753
aF0.0
aF0.0
aF-0.009183004013235333
aF-0.004978455784355733
aF-0.004991719845493805
aF-0.009162681123789323
aF0.0
aF-0.009453840952862117
aF-0.008639905644689493
aF0.0
aF-0.00010205683053643574
aF-0.009184207065706943
aF0.0
aF-0.002584829011690113
aF-0.001712155488337616
aF-0.015589406126375412
aF-0.0049846181367129575
aF0.0
aF-0.002216908078331786
aF-0.002820633546457551
aF-0.004976370757176383
aF-0.02088234239268237
aF-0.0049999866632335
aF-0.010094562988823545
aF0.0
aF-0.009170395977894218
aF0.0
aF0.0
aF-0.005420787677277019
aF-0.0049601380323820695
aF-0.015069564107936017
aF0.0
aF-0.0012346820095592136
aF0.0
aF-0.0049795104402185104
aF-0.004999741234208818
aF-0.004980424561383289
aF-0.004999769208394658
aF0.0
aF-0.003601337526077502
aF-0.004910743366368337
aF0.0
aF0.0
aF-0.00917209520547229
aF0.0008496628986684246
aF0.0
aF0.0
aF-0.004978029655938565
aF-0.012655312320166597
aF-0.01800238799529086
aF-0.01805445861484995
aF-0.005416337703431525
aF-0.0049869918765207116
aF-0.0019471165199983667
aF-0.004997680494961888
aF0.0
aF-0.00537071158786893
aF-0.01265074273041338
aF-0.004990231109480305
aF-0.004998150354396086
aF-0.004995124052456115
aF0.0
aF0.0
aF-0.004849695410715549
aF0.0
aF0.0
aF-0.00498938249168336
aF-0.004975077297034087
aF-0.005
aF-0.006311915999157239
aF0.0
aF0.0
aF-0.004387412073765121
aF-0.0003919503890217786
aF-0.009182498641455986
aF0.0
aF0.005707247429554721
aF0.0
aF-0.002647890088348431
aF0.0
aF-0.009172856403811906
aF0.0
aF-0.0030656454533557844
aF0.0
aF0.0
aF0.0
aF-0.013085400902685621
aF-0.004911423390786456
aF0.0
aF-0.004995432172669479
aF0.0
aF0.0
aF0.0
aF0.005001746530288908
aF0.0017947501738827037
aF-0.004954427197820902
aF-0.004946892292007944
aF0.0
aF-0.004992289729838182
aF-0.004984369500529797
aF-0.0021651791111617306
aF-0.004977031411499848
aF0.0
aF0.0
aF0.005002203814712313
aF-0.00854096637772156
aF0.0
aF0.0
aF-0.004959536378511241
aF-0.005012498935334402
aF0.0
aF-0.003061561634202973
aF-0.012649693044275032
aF0.0
aF-0.015592129328797806
aF-0.00499997379989544
aF-0.004923123240439607
aF0.0
aF0.0
aF-0.004985082520052148
aF-0.004998094345203637
aF0.005006897787325804
aF0.0
aF-0.009170267383793992
aF0.0
aF-0.00022762025923645825
aF0.0
aF-0.00499379552497474
aF-0.004897829659401008
aF-0.00914791902988115
aF0.0
aF0.0
aF-0.004987135753703097
aF0.004338302729363583
aF0.0
aF0.0
aF-0.004575828391684355
aF0.0
aF0.0
aF0.0
aF0.0
aF-0.006356416378767049
aF0.0
aF-0.004998562815704049
aF-0.007595873292773834
aF0.00022778879379424608
aF0.004998715777309112
aF-0.0016641661370200612
aF-0.009153653372872394
aF0.0
aF0.0
aF0.0
aF-0.004974974900175662
aF0.0
aF-0.015590151162758279
aF0.0
aF-0.0049997732337929346
aF0.0
aF0.0
aF-0.00918625060842473
aF0.0
aF0.0
aF-0.004996891455237298
aF0.0
aF-0.004901750524718898
aF-0.007805300231919157
aF-0.004999996258551129
aF0.0
aF0.0
aF0.0
aF-0.002495442853969886
aF0.0
aF-0.004997274498475773
aF0.005000541318409539
aF-0.004987953606389858
aF0.0
aF-0.002688545373962606
aF0.0
aF0.0
aF0.0
aF-0.020101960528042355
aF-0.0051020514289813294
aF0.0
aF0.0
aF-0.004923620578374498
aF-0.00892407707786583
aF-0.012576902655387284
aF-0.012543765598361773
aF-0.005
aF0.0
aF-0.009159750046739855
aF0.005027328589448466
aF0.0008258177877128684
aF0.0
aF0.0
aF-0.004999992524225739
aF0.0
aF-0.006347663569047158
aF0.0
aF0.0
aF-0.0019981723549285
aF-0.004710982001668713
aF0.0
aF-0.008747019054710963
aF0.0
aF0.0
aF0.0
aF0.0
aF0.0
aF-0.004917428481850081
aF-0.00903792617643792
aF0.0
aF0.0
aF-0.009167222371721018
aF-0.004999999074274634
aF0.0
aF-0.0026639383275153567
aF0.0
aF0.0
aF-0.0049978728373525514
aF0.0
aF0.0
aF0.0
aF-0.004997139744387328
aF-0.017996844916052104
aF-0.0006742070552276597
aF-0.004996166417115026
aF-0.009173567542816187
aF0.0
aF-0.0049934100074073276
aF0.0
aF0.0
aF0.0
aF0.0
aF0.0008323360425645347
aF0.0
aF-0.00499423481184139
aF0.0
aF0.0
aF0.0
aF0.0
aF-0.00497618420662586
aF0.0
aF-0.004989784051394628
aF0.0
aF0.0
aF0.0
aF-0.004999994706337907
aF0.005687362729784246
aF-0.012252477761876976
aF0.0
aF0.0
aF0.0
aF0.0
aF0.005039291109514683
aF0.0
aF0.0
aF-0.008527798514905078
aF-0.0029633649299269094
aF-0.001864139811604453
aF0.0
aF0.0
aF0.0
aF0.0
aF0.0
aF0.0
aF0.0
aF0.0
aF0.0
aF-0.012375483814534495
aF-0.009143933847738216
aF0.0
aF0.0
aF-0.0048446781733784815
aF-0.007623469199786725
aF-0.004999993542792964
aF0.0
aF0.0
aF0.0
aF-0.0005110093752300911
aF-0.009180923834504872
aF0.0
aF-0.0055129967775388354
aF-0.004974482244697112
aF0.0
aF0.0
aF0.0
aF-0.0066533816725672735
aF0.0
aF-0.0003944132799281641
aF0.0
aF0.0
aF0.0
aF0.0
aF0.0
aF0.0
aF0.0
aF-0.0024908060219824544
aF0.0
aF0.0
aF-0.004960371655235064
aF0.0
aF0.0
aF0.0
aF-0.004997712462186165
aF-0.0024984160622730676
aF0.0
aF0.0
aF0.0
aF0.0
aF0.0
aF0.0
aF0.005009293489867399
aF-0.012619532868998756
aF-0.0009995635356673705
aF0.0
aF-0.004995396083009271
aF0.0
aF-0.012527125590335681
aF-0.004923120759173071
aF0.0
aF0.0
aF0.0
aF-0.004996846839428841
aF0.0
aF-0.004994856605659859
aF-0.0009050639469259923
aF0.0
aF0.0
aF-0.0049968717149538305
aF0.0
aF-0.004821578807664308
aF-0.00522363743928827
aF0.0
aF0.005000010973761753
aF0.0
aF-0.004997798950142174
aF-0.00031189572941356245
aF0.0
aF0.0
aF0.005009769291276147
aF0.0
aF0.0
aF0.0
aF-0.0048857094874740084
aF0.0
aF0.0
aF0.0
aF0.0
aF0.0
aF-0.009904013465122423
aF-0.005943183164368365
aF-0.0024984595085263237
aF-0.002499609509312739
aF-0.012614433930397148
aF-0.004995712979349139
aF0.0
aF0.0
aF-0.008954230978259228
aF0.0
aF0.0
aF-0.0049999931699407345
aF0.0
aF0.0
aF-6.617501436218822e-06
aF0.0
aF-0.0025043094844694504
aF0.0
aF0.0
aF0.0025004636980850946
aF0.0
aF-0.009185385882113865
aF0.0
aF0.0
aF-0.0049232132529137525
aF0.0
aF0.000792684038683703
aF0.0
aF0.0
aF0.0
aF0.0
aF0.0
aF0.0
aF0.0
aF0.0
aF-0.009060560050503442
aF0.0
aF0.0
aF0.0
aF0.0
aF0.0
aF0.0
aF-0.0049311987357536545
aF-0.0029924406245884815
aF0.0
aF0.0
aF0.0
aF0.0
aF-0.004999953440050124
aF-0.004232023702874588
aF0.0
aF-0.004900583229992188
aF-0.012608476891166669
aF0.0
aF0.0
aF0.0
aF0.0
aF-0.004923127209592194
aF0.0
aF-0.028605228297492135
aF0.0
aF0.0
aF-0.009185709090854356
aF0.0
aF0.0
aF0.0
aF-0.004990395194357575
aF-0.005000573068404372
aF0.0
aF-0.002500183320185494
aF-0.0026721956335720226
aF0.0
aF-0.004998469871450957
aF0.0
aF0.0014137326899672422
aF0.0
aF-0.010035822698020686
aF-0.0006279421463818084
aF0.0
aF-0.004996879009443058
aF0.0
aF0.0
aF0.0
aF0.0
aF-0.0045951324492660315
aF-0.006590228103922267
aF-0.015573391431087501
aF-0.0021393951560073894
aF0.0
aF-0.0007752203603405465
aF0.0
aF0.0
aF-0.018064136920441197
aF-0.006052458425864303
aF-0.013817716682630168
aF0.0
aF0.0
aF-0.004997894905805485
aF-0.017561018370751486
aF0.0
aF0.0
aF0.0
aF0.0
aF0.005010940443574893
aF0.0
aF0.0
aF-0.006658339125600157
aF0.0
aF0.0
aF-0.004170310328514076
aF-0.004928493572458488
aF-0.004988334695907214
aF0.0
aF0.0
aF-0.005
aF0.0
aF0.0
aF0.0
aF0.0
aF0.0
aF-0.0024999701775338303
aF0.0
aF0.0
aF0.0
aF0.0
aF-0.00021554870141377632
aF0.0
aF-0.009176292614902578
aF0.005000002648093178
aF-0.004781505873475298
aF0.0
aF-0.004919989926360366
aF0.0
aF0.0
aF0.0
aF-0.00499312256308499
aF0.0
aF0.0
aF0.0
aF0.0050337547429963915
aF0.00028819879804998193
aF-0.004986040061724587
aF0.0
aF0.0
aF-0.004997593166015264
aF-0.004842022080013076
aF-0.015216673219137701
aF0.0
aF0.0
aF-0.030078109327617942
aF0.0
aF0.0
aF0.0
aF0.001679015854137902
aF0.0
aF0.0
aF0.0
aF-0.002494395759161194
aF0.0
aF0.009256153826925666
aF0.0
aF0.0
aF0.0
aF0.0
aF0.0
aF0.0
aF-0.009182091997373519
aF0.0
aF-0.015582155904402685
aF0.0
aF-0.004923124134649378
aF0.0
aF0.0
aF-0.004798398358130503
aF-0.0003841170805118873
aF-0.004081348118915768
aF-0.015626033775887567
aF0.0
aF0.0
aF0.0
aF0.0
aF0.0
aF0.0
aF0.0
aF0.0
aF0.0
aF0.0
aF-0.004999269094302303
aF0.004999999537571776
aF0.0
aF0.0
aF0.0
aF0.0
aF0.0
aF0.0
aF0.0
aF0.0
aF0.0
aF0.0
aF0.0
aF0.0
aF-0.003064671071717733
aF0.0
aF-0.004921936937888336
aF-0.005848676473501467
aF0.0
aF0.0
aF-0.0024967230709204745
aF0.0
aF0.005001593970358858
aF0.0
aF-0.005513828700461099
aF-0.004997082758658753
aF-0.00905262919011757
aF0.0
aF-0.004602524168333307
aF0.0
aF0.0
aF0.0
aF-0.004995066170293876
aF0.0
aF0.0
aF0.0
aF0.0
aF0.0
aF0.0008137516778880362
aF-0.00040537350865615257
aF0.0
aF0.0
aF0.0
aF0.0
aF0.0
aF-0.0016655482805419928
aF-0.02974129943729685
aF0.0
aF0.0
aF0.0
aF0.0
aF-0.004998207495647948
aF-0.0049950403252149965
aF-0.003047786503578221
aF0.0
aF0.0
aF-0.004999989026238247
aF-0.004999997414304967
aF-0.004998625482261835
aF0.0
aF0.0
aF0.0
aF0.0
aF0.0
aF-0.012380010884606
aF-0.02984075340750995
aF0.0
aF0.0
aF0.0
aF-0.004562008390513775
aF-0.0077134216197747366
aF0.0
aF0.0
aF0.0
aF0.0
aF0.0
aF0.0
aF-0.004986238249440281
aF0.0
aF-0.002489447072598453
aF0.0
aF0.0
aF0.0
aF-0.017719076158052384
aF0.0
aF0.0
aF-0.009181504294027623
aF0.0
aF-0.004988715191819486
aF-0.012623090087553097
aF0.0
aF0.0
aF0.0
aF0.0
aF0.0
aF0.0
aF-0.004923159373285469
aF0.0
aF-0.0025
aF-0.004989112646151839
aF-0.005000000115620639
aF0.0
aF0.0
aF-0.004923110842072219
aF-0.00918265396802984
aF0.0
aF-0.02158313826340344
aF0.0
aF0.0013676721061964417
aF-0.002494158029028052
aF-0.01032935858160952
aF-0.004108604605853394
aF-0.0049947597934260025
aF-0.0023363803421293265
aF0.0
aF0.0
aF0.0
aF0.0
aF0.0
aF0.0
aF0.0
aF-0.004930905358353738
aF-0.004253650821365243
aF0.0
aF0.0
aF0.0
aF0.0
aF0.0
aF0.0
aF-0.004987452342893347
aF0.0
aF0.0
aF0.0
aF0.0
aF0.0
aF-0.009078002324234617
aF0.0
aF0.0
aF0.0
aF0.0
aF0.0
aF0.0
aF0.0
aF0.0
aF-0.003173989507432271
aF-0.009187450753179597
aF0.0
aF0.0
aF0.0
aF-0.003176879504211817
aF0.0
aF0.0
aF-0.002499220486438736
aF-0.004400511968867393
aF0.0
aF-0.014236232909736666
aF0.0
aF0.0
aF-0.002036565597956854
aF-0.006747913406856545
aF0.0
aF0.0
aF0.0
aF0.0
aF0.0
aF0.0
aF-0.001988162343108649
aF-0.004999977726196727
aF0.0
aF0.0
aF0.0
aF0.0
aF0.0
aF-0.004999997698714407
aF0.0
aF0.0
aF-0.009040491138162295
aF0.0
aF0.0
aF0.0
aF0.0
aF0.0
aF0.0
aF0.0
aF0.0
aF0.0
aF0.0
aF0.0
aF0.0
aF0.0
aF0.0
aF0.0
aF0.0
aF-0.03023384704847218
aF0.0
aF0.0
aF0.0
aF0.0
aF-0.0049999827117096106
aF0.0
aF0.0
aF0.0
aF0.0
aF0.0
aF0.0
aF-0.004923107338817019
aF0.0
aF0.0
aF0.0
aF0.0
aF0.0
aF0.0
aF0.0
aF-0.004999737734368535
aF-0.002496010813344202
aF0.0
aF0.0
aF0.0
aF0.0
aF-0.004984350005212289
aF-0.004999995335919122
aF0.0
aF0.0
aF0.0
aF0.0
aF0.0
aF0.0
aF0.0
aF0.0
aF0.005000001746814599
aF0.0
aF0.0
aF0.0
aF0.0
aF0.0
aF0.0
aF0.0
aF0.005
aF0.0
aF0.0
aF-0.004923123147495859
aF-0.003333308836150298
aF-0.0004166626459090214
aF0.0
aF0.0
aF0.0
aF0.0
aF0.0
aF0.0
aF0.0
aF0.0
aF0.0
aF0.0
aF0.0
aF0.0
aF0.0
aF0.0
aF0.0
aF0.0
aF0.0
aF0.0
aF0.0
aF0.0
aF0.0
aF0.0
aF0.0
aF0.0
aF0.0
aF0.0
aF0.0
aF0.0
aF0.0
aF0.0
aF-0.004999898861033279
aF-0.004996881965531311
aF0.0
aF-0.00918297689056417
aF0.0
aF0.0
aF0.0
aF0.0
aF0.0
aF0.0
aF0.0
aF0.0
aF0.0
aF0.0
aF0.0
aF0.0
aF0.0
aF0.0
aF0.0
aF0.0
aF0.0
aF0.0
aF0.0
aF0.0
aF0.0
aF0.0
aF0.0
aF0.0
aF0.0
aF0.0
aF0.0
aF-0.004999980891432092
aF0.0
aF0.0
aF0.0
aF-0.004999482812853052
aF0.0
aF-0.0042414140895046925
aF-0.009091422680148745
aF-0.0023298806131630836
aF0.0
aF0.0
aF0.0
aF0.0
aF0.0
aF0.0
aF0.0
aF0.0
aF0.0
aF-0.004923120516864922
aF0.0
aF0.0
aF0.0
aF0.0
aF0.0
aF0.0
aF0.0
aF0.0
aF-0.0025000106091184987
aF0.0
aF0.0
aF0.0
aF-0.004999980665361051
aF0.0
aF0.0
aF0.0
aF0.0
aF0.0
aF0.0
aF0.0
aF0.0
aF0.0
aF0.0
aF0.0
aF0.0
aF0.0
aF0.0
aF0.0
aF0.0
aF-0.005000029160953651
aF0.0
aF0.0
aF0.0
aF0.0
aF0.0
aF0.0
aF0.0
aF0.0
aF0.0
aF-0.004921935401363178
aF0.0
aF0.0
aF0.0
aF0.0
aF0.0
aF0.0
aF0.0
aF-0.004999998179132554
aF-0.0016666632354477334
aF0.0
aF0.0
aF0.0
aF0.0
aF0.0
aF0.0
aF0.0
aF0.0
aF0.0
aF0.0
aF0.0
aF0.0
aF0.0
aF-0.00499997332754725
aF0.0
aF0.0
aF0.0
aF-0.0049999747095299885
aF-0.03072402114417014
aF-0.029473076432423778
aF0.0
aF0.0
aF0.0
aF0.0
aF0.0
aF0.0
aF0.0
aF0.0
aF0.0
aF0.0
aF0.0
aF0.0
aF0.0
aF0.0
aF0.0
aF0.0
aF0.0
aF0.0
aF0.0
aF0.0
aF-0.004994219254415379
aF0.0
aF0.0
aF0.0
aF0.0
aF0.0
aF0.0
aF0.0
aF0.0
aF0.0
aF0.0
aF0.0
aF0.0
aF0.0
aF0.0
aF0.0
aF0.0
aF0.0
aF0.0
aF0.0
aF0.0
aF0.0
aF0.0
aF0.0
aF0.0
aF0.0
aF0.0
aF0.0
aF0.0
aF0.0
aF0.0
aF0.0
aF0.0
aF0.0
aF0.0
aF0.0
aF0.0
aF0.0
aF0.0
aF0.0
aF0.0
aF0.0
aF0.0
aF0.0
aF0.0
aF0.0
aF0.0
aF0.0
aF0.0
aF0.0
aF0.0
aF0.0
aF0.0
aF0.0
aF0.0
aF0.0
aF0.0
aF0.0
aF0.0
aF0.0
aF0.0
aF0.0
aF0.0
aF-0.004998593597960172
aF0.0
aF-0.009184882188008496
aF0.0
aF0.0
aF0.0
aF0.0
aF0.0
aF0.0
aF0.0
aF0.0
aF0.0
aF0.0
aF0.0
aF0.0
aF-0.004999994415305383
aF0.005000005293662093
aF0.0
aF0.0
aF0.0
aF0.0
aF0.0
aF0.0
aF0.0
aF0.0
aF0.0
aF0.0
aF0.0
aF0.0
aF0.0
aF-0.0012500021067946155
aF0.0
aF0.0
aF0.0
aF0.0
aF0.0
aF0.0
aF0.0
aF0.0
aF0.0
aF0.0
aF0.0
aF0.0
aF0.0
aF0.0
aF0.0
aF0.0
aF0.0
aF0.0
aF0.0
aF0.0
aF0.0
aF-0.009187493106457834
aF0.0
aF0.0
aF0.0
aF0.0
aF0.0
aF0.0
aF0.0
aF0.0
aF0.0
aF0.0
aF0.0
aF0.0
aF0.0
aF0.0
aF0.0
aF0.0
aF0.0
aF0.0
aF0.0
aF0.0
aF0.0
aF0.0
aF0.0
aF0.0
aF0.0
aF0.0
aF0.0
aF0.0
aF0.0
aF0.0
aF0.0
aF0.0
aF0.0
aF0.0
aF0.0
aF0.0
aF0.0
aF0.0
aF0.0
aF0.0
aF0.0
aF0.0
aF0.0
aF-0.0049999601870757415
aF0.0
aF0.0
aF0.0
aF0.0
aF0.0
aF0.0
aF0.0
aF0.0
aF0.0
aF0.0
aF0.0
aF0.0
aF0.0
aF0.0
aF0.0
aF0.0
aF0.0
aF0.0
aF0.0
aF0.0
aF0.0
aF0.0
aF0.0
aF0.0
aF0.0
aF0.0
aF0.0
aF0.0
aF0.0
aF0.0
aF0.0
aF0.0
aF0.0
aF0.0
aF0.0
aF0.0
aF0.0
aF0.0
aF0.0
aF0.0
aF0.0
aF0.0
aF0.0
aF0.0
aF0.0
aF0.0
aF0.0
aF0.0
aF0.0
aF0.0
aF0.0
aF0.0
aF-0.002498436177003273
aF0.0
aF0.0
aF0.0
aF0.0
aF0.0
aF0.0
aF0.0
aF0.0
aF0.0
aF0.0
aF0.0
aF0.0
aF0.0
aF0.0
aF0.0
aF0.0
aF0.0
aF0.0
aF0.0
aF0.0
aF0.0
aF0.0
aF0.0
aF-0.004999985879098022
aF0.0
aF0.0
aF0.0
aF0.0
aF0.0
aF0.0
aF0.0
aF0.0
aF0.0
aF0.0
aF0.0
aF0.0
aF0.0
aF0.0
aF0.0
aF0.0
aF0.0
aF0.0
aF0.0
aF0.0
aF-0.004598436594176617
aF0.0
aF0.0
aF0.0
aF0.0
aF0.0
aF-0.0050000024768635095
aF0.0
aF0.0
aF-0.002498406272256321
aF0.0
aF0.0
aF0.0
aF0.0
aF0.0
aF0.0
aF0.0
aF0.0
aF0.0
aF0.0
aF0.0
aF0.0
aF0.0
aF0.0
aF0.0
aF0.0
aF0.0
aF0.0
aF0.0
aF0.0
aF0.0
aF0.0
aF0.0
aF0.0
aF0.0
aF0.0
aF0.0
aF0.0
aF0.0
aF0.0
aF0.0
aF0.0
aF0.0
aF0.0
aF0.0
aF0.0
aF0.0
aF0.0
aF0.0
aF0.0
aF0.0
aF0.0
aF0.0
aF0.0
aF0.0
aF0.0
aF0.0
aF0.0
aF0.0
aF0.0
aF0.0
aF0.0
aF0.0
aF0.0
aF0.0
aF-0.00783826333524021
aF0.0
aF0.0
aF0.0
aF0.0
aF0.0
aF0.0
aF0.0
aF0.0
aF0.0
aF0.0
aF0.0
aF0.0
aF0.0
aF0.0
aF0.0009999992139349673
aF0.0
aF0.0
aF0.0
aF0.0
aF0.0
aF0.0
aF0.0
aF0.0
aF0.0
aF0.0
aF0.0
aF0.0
aF-0.0049999866632335
aF0.0
aF0.0
aF0.0
aF0.0
aF0.0
aF0.0
aF0.0
aF0.0
aF0.0
aF0.0
aF0.0
aF0.0
aF0.0
aF0.0
aF0.0
aF0.0
aF0.0
aF0.0
aF0.0
aF0.0
aF0.0
aF0.0
aF0.0
aF0.0
aF0.0
aF0.0
aF0.0
aF0.0
aF-0.0024999999050666125
aF0.0
aF0.0
aF0.0
aF0.0
aF0.0
aF0.0
aF0.0
aF0.0
aF0.0
aF0.0
aF0.0
aF0.0
aF0.0
aF0.0
aF0.0
aF0.0
aF0.0
aF0.0
aF0.0
aF0.0
aF0.0
aF0.0
aF0.0
aF0.0
aF0.0
aF0.0
aF0.0
aF0.0
aF0.0
aF0.0
aF0.0
aF0.0
aF0.0
aF0.0
aF0.0
aF0.0
aF0.0
aF0.0
aF0.0
aF0.0
aF0.0
aF0.0
aF0.0
aF0.0
aF0.0
aF0.0
aF0.0
aF0.0
aF0.0
aF0.0
aF0.0
aF0.0
aF0.0
aF0.0
aF0.0
aF0.0
aF0.0
aF-0.004997436249068154
aF0.0
aF0.0
aF-0.004598421928174109
aF0.0
aF0.0
aF0.0
aF0.0
aF0.0
aF0.0
aF0.0
aF0.0
aF0.0
aF0.0
aF0.0
aF0.0
aF0.0
aF0.0
aF0.0
aF0.0
aF0.0
aF0.0
aF0.0
aF0.0
aF0.0
aF0.0
aF0.0
aF0.0
aF0.0
aF0.0
aF0.0
aF0.0
aF0.0
aF0.0
aF0.0
aF0.0
aF0.0
aF0.0
aF0.0
aF0.0
aF0.0
aF0.0
aF0.0
aF-0.003066197166134106
aF0.0
aF0.0
aF0.0
aF0.0
aF0.0
aF0.0
aF-0.004999981849822425
aF0.0
aF0.0
aF0.0
aF0.0
aF0.0
aF0.0
aF0.0
aF0.0
aF0.0
aF0.0
aF0.0
aF0.0
aF0.0
aF0.0
aF0.0
aF0.0
aF0.0
aF0.0
aF0.0
aF0.0
aF0.0
aF0.0
aF0.0
aF0.0
aF0.0
aF0.0
aF0.0
aF0.0
aF0.0
aF0.0
aF0.0
aF-0.0016666510492462827
aF0.0
aF0.0
aF0.0
aF0.0
aF0.0
aF0.0
aF0.0
aF0.0
aF0.0
aF0.0
aF0.0
aF0.0
aF0.0
aF-0.015631668134318703
aF0.0
aF0.0
aF0.0
aF0.0
aF-0.004999992475762452
aF0.0
aF0.0
aF0.0
aF0.0
aF0.0
aF0.0
aF0.0
aF0.0
aF0.0
aF0.0
aF0.0
aF0.0
aF0.0
aF0.0
aF0.0
aF0.0
aF0.0
aF0.0
aF0.0
aF0.0
aF0.0
aF0.0
aF-0.004999985722796086
aF0.0
aF0.0
aF0.0
aF0.0
aF0.0
aF0.0
aF0.0
aF0.0
aF0.0
aF0.0
aF0.0
aF0.0
aF0.0
aF0.0
aF0.0
aF0.0
aF0.0
aF0.0
aF0.0
aF0.0
aF0.0
aF0.0
aF0.0
aF0.0
aF0.0
aF0.0
aF0.0
aF0.0
aF0.0
aF0.0
aF0.0
aF0.0
aF0.0
aF0.0
aF0.0
aF0.0
aF0.0
aF-0.0005555553242179368
aF0.0
aF0.0
aF0.0
aF0.0
aF0.0
aF0.0
aF0.0
aF0.0
aF0.0
aF0.0
aF0.0
aF0.0
aF0.0
aF0.0
aF0.0
aF0.0
aF0.0
aF0.0
aF0.0
aF0.0
aF0.0
aF0.0
aF0.0
aF0.0
aF0.0
aF0.0
aF0.0
aF0.0
aF0.0
aF0.0
aF0.0
aF0.0
aF0.0
aF0.0
aF0.0
aF0.0
aF0.0
aF0.0
aF0.0
aF0.0
aF0.0
aF0.0
aF0.0
aF-0.005
aF0.0
aF0.0
aF0.0
aF0.0
aF0.0
aF0.0
aF-0.004999987071049615
aF0.0
aF0.0
aF0.0
aF0.0
aF0.0
aF0.0
aF0.0
aF0.0
aF0.0
aF0.0
aF0.0
aF0.0
aF0.0
aF0.0
aF0.0
aF0.0
aF0.0
aF0.0
aF0.0
aF0.0
aF0.0
aF0.0
aF0.0
aF0.0
aF0.0
aF0.0
aF0.0
aF0.0
aF0.0
aF0.0
aF0.0
aF0.0
aF0.0
aF0.0
aF-0.0016666649913199892
aF0.0
aF0.0
aF0.0
aF0.0
aF0.0
aF0.0
aF0.0
aF0.0
aF0.0
aF0.0
aF0.0
aF0.0
aF0.0
aF0.0
aF0.0
aF0.0
aF0.0
aF0.0
aF0.0
aF0.0
aF0.0
aF0.0
aF0.0
aF0.0
aF0.0
aF0.0
aF0.0
aF0.0
aF0.0
aF0.0
aF0.0
aF0.0
aF0.0
aF0.0
aF0.0
aF0.0
aF0.0
aF0.0
aF0.0
aF0.0
aF0.0
aF0.0
aF0.0
aF0.0
aF0.0
aF0.0
aF0.0
aF0.0
aF0.0
aF0.0
aF0.0
aF0.0
aF0.0
aF0.0
aF0.0
aF0.0
aF0.0
aF0.0
aF0.0
aF0.0
aF0.0
aF0.0
aF0.0
aF0.0
aF0.0
aF0.0
aF0.0
aF0.0
aF0.0
aF0.0
aF-0.005000014348565201
aF0.0
aF0.0
aF0.0
aF0.0
aF0.0
aF0.0
aF0.0
aF0.0
aF0.0
aF0.0
aF0.0
aF0.0
aF0.0
aF0.0
aF0.0
aF0.0
aF0.0
aF0.0
aF0.0
aF0.0
aF0.0
aF0.0
aF0.0
aF0.0
aF0.0
aF0.0
aF0.0
aF0.0
aF0.0
aF0.0
aF0.0
aF0.0
aF0.0
aF0.0
aF0.0
aF0.0
aF0.0
aF0.0
aF0.0
aF0.0
aF0.0
aF0.0
aF0.0
aF0.0
aF0.0
aF0.0
aF0.0
aF0.0
aF0.0
aF0.0
aF0.0
aF0.0
aF0.0
aF0.0
aF0.0
aF0.004999999397913226
aF0.0
aF0.0
aF0.0
aF0.0
aF0.0
aF0.0
aF0.0
aF0.0
aF0.0
aF0.0
aF0.0
aF0.0
aF0.0
aF0.0
aF0.0
aF0.0
aF0.0
aF0.0
aF0.0
aF0.0
aF0.0
aF0.0
aF0.0
aF0.0
aF0.0
aF0.0
aF0.0
aF-0.000555561419866088
aF0.0
aF0.0
aF0.0
aF0.0
aF0.0
aF0.0
aF0.0
aF0.0
aF0.0
aF0.0
aF0.0
aF0.0
aF0.0
aF0.0
aF0.0
aF0.0
aF0.0
aF0.0
aF0.0
aF0.0
aF0.0
aF0.0
aF0.0
aF0.0
aF0.0
aF0.0
aF0.0
aF0.0
aF0.0
aF0.0
aF0.0
aF0.0
aF0.0
aF0.0
aF0.0
aF0.0
aF0.0
aF0.0
aF0.0
aF0.0
aF0.0
aF0.0
aF-0.005000003061940226
aF0.0
aF0.0
aF0.0
aF0.0
aF0.0
aF0.0
aF0.0
aF0.0
aF0.0
aF0.0
aF0.0
aF0.0
aF0.0
aF0.0
aF0.0
aF0.0
aF0.0
aF0.0
aF0.0
aF0.0
aF0.0
aF0.0
aF0.0
aF0.0
aF0.0
aF0.0
aF0.0
aF0.0
aF0.0
aF0.0
aF0.0
aF0.0
aF0.0
aF0.0
aF0.0
aF0.0
aF0.0
aF0.0
aF0.0
aF0.0
aF0.0
aF0.0
aF0.0
aF0.0
aF0.0
aF0.0
aF0.0
aF0.0
aF0.0
aF0.0
aF0.0
aF0.0
aF0.0
aF0.0
aF0.0
aF0.0
aF0.0
aF0.0
aF0.0
aF0.0
aF0.0
aF0.0
aF0.0
aF0.0
aF0.0
aF0.0
aF0.0
aF0.0
aF0.0
aF0.0
aF0.0
aF0.0
aF0.0
aF0.0
aF0.0
aF0.0
aF0.0
aF0.0
aF0.0
aF0.0
aF0.0
aF0.0
aF0.0
aF0.0
aF0.0
aF0.0
aF0.0
aF0.0
aF0.0
aF0.0
aF0.0
aF0.0
aF0.0
aF0.0
aF0.0
aF0.0
aF0.0
aF0.0
aF0.0
aF0.0
aF0.0
aF0.0
aF0.0
aF0.0
aF0.0
aF0.0
aF0.0
aF0.0
aF0.0
aF0.0
aF0.0
aF0.0
aF0.0
aF0.0
aF0.0
aF0.0
aF0.0
aF0.0
aF0.0
aF0.0
aF0.0
aF0.0
aF0.0
aF0.0
aF0.0
aF0.0
aF0.0
aF0.0
aF0.0
aF0.0
aF0.0
aF0.0
aF0.0
aF0.0
aF0.0
aF0.0
aF0.0
aF0.0
aF0.0
aF0.0
aF0.0
aF0.0
aF0.0
aF0.0
aF0.0
aF0.0
aF0.0
aF0.0
aF0.0
aF0.0
aF0.0
aF0.0
aF0.0
aF0.0
aF0.0
aF0.0
aF0.0
aF0.0
aF0.0
aF0.0
aF0.0
aF0.0
aF0.0
aF0.0
aF0.0
aF0.0
aF0.0
aF0.0
aF0.0
aF0.0
aF0.0
aF0.0
aF0.0
aF0.0
aF0.0
aF0.0
aF0.0
aF0.0
aF0.0
aF0.0
aF0.0
aF0.0
aF0.0
aF0.0
aF0.0
aF0.0
aF0.0
aF0.0
aF0.0
aF0.0
aF0.0
aF0.0
aF0.0
aF0.0
aF0.0
aF0.0
aF0.0
aF0.0
aF0.0
aF0.0
aF0.0
aF0.0
aF0.0
aF0.0
aF0.0
aF0.0
aF0.0
aF0.0
aF0.0
aF0.0
aF0.0
aF0.0
aF0.0
aF0.0
aF0.0
aF0.0
aF0.0
aF0.0
aF0.0
aF0.0
aF0.0
aF0.0
aF0.0
aF0.0
aF0.0
aF0.0
aF0.0
aF0.0
aF0.0
aF0.0
aF0.0
aF0.0
aF0.0
aF0.0
aF0.0
aF0.0
aF0.0
aF0.0
aF0.0
aF0.0
aF0.0
aF0.0
aF0.0
aF0.0
aF0.0
aF0.0
aF0.0
aF0.0
aF0.0
aF0.0
aF0.0
aF0.0
aF0.0
aF0.0
aF0.0
aF0.0
aF0.0
aF0.0
aF0.0
aF0.0
aF0.0
aF0.0
aF0.0
aF0.0
aF0.0
aF0.0
aF0.0
aF0.0
aF0.0
aF0.0
aF0.0
aF0.0
aF0.0
aF0.0
aF0.0
aF0.0
aF0.0
aF0.0
aF0.0
aF0.0
aF0.0
aF0.0
aF0.0
aF0.0
aF0.0
aF0.0
aF0.0
aF0.0
aF0.0
aF0.0
aF0.0
aF0.0
aF0.0
aF0.0
aF0.0
aF0.0
aF0.0
aF0.0
aF0.0
aF0.0
aF0.0
aF0.0
aF0.0
aF0.0
aF0.0
aF0.0
aF0.0
aF0.0
aF0.0
aF0.0
aF0.0
aF0.0
aF0.0
aF0.0
aF0.0
aF0.0
aF0.0
aF0.0
aF0.0
aF0.0
aF0.0
aF0.0
aF0.0
aF0.0
aF0.0
aF0.0
aF0.0
aF0.0
aF0.0
aF0.0
aF0.0
aF0.0
aF0.0
aF0.0
aF0.0
aF0.0
aF0.0
aF0.0
aF0.0
aF0.0
aF0.0
aF0.0
aF0.0
aF0.0
aF0.0
aF0.0
aF0.0
aF0.0
aF0.0
aF0.0
aF0.0
aF0.0
aF0.0
aF0.0
aF0.0
aF0.0
aF0.0
aF0.0
aF0.0
aF0.0
aF0.0
aF0.0
aF0.0
aF0.0
aF0.0
aF0.0
aF0.0
aF0.0
aF0.0
aF0.0
aF0.0
aF0.0
aF0.0
aF0.0
aF0.0
aF0.0
aF0.0
aF0.0
aF0.0
aF0.0
aF0.0
aF0.0
aF0.0
aF0.0
aF0.0
aF0.0
aF0.0
aF0.0
aF0.0
aF0.0
aF0.0
aF0.0
aF0.0
aF0.0
aF0.0
aF0.0
aF0.0
aF0.0
aF0.0
aF0.0
aF0.0
aF0.0
aF0.0
aF0.0
aF0.0
aF0.0
aF0.0
aF0.0
aF0.0
aF0.0
aF0.0
aF0.0
aF0.0
aF0.0
aF0.0
aF0.0
aF0.0
aF0.0
aF0.0
aF0.0
aF0.0
aF0.0
aF0.0
aF0.0
aF0.0
aF0.0
aF0.0
aF0.0
aF0.0
aF0.0
aF0.0
aF0.0
aF0.0
aF0.0
aF0.0
aF0.0
aF0.0
aF0.0
aF0.0
aF0.0
aF0.0
aF0.0
aF0.0
aF0.0
aF0.0
aF0.0
aF0.0
aF0.0
aF0.0
aF0.0
aF0.0
aF0.0
aF0.0
aF0.0
aF0.0
aF0.0
aF0.0
aF0.0
aF0.0
aF0.0
aF0.0
aF0.0
aF0.0
aF0.0
aF0.0
aF0.0
aF0.0
aF0.0
aF0.0
aF0.0
aF0.0
aF0.0
aF0.0
aF0.0
aF0.0
aF0.0
aF0.0
aF0.0
aF0.0
aF0.0
aF0.0
aF0.0
aF0.0
aF0.0
aF0.0
aF0.0
aF0.0
aF0.0
aF0.0
aF0.0
aF0.0
aF0.0
aF0.0
aF0.0
aF0.0
aF0.0
aF0.0
aF0.0
aF0.0
aF0.0
aF0.0
aF0.0
aF0.0
aF0.0
aF0.0
aF0.0
aF0.0
aF0.0
aF0.0
aF0.0
aF0.0
aF0.0
aF0.0
aF0.0
aF0.0
aF0.0
aF0.0
aF0.0
aF0.0
aF0.0
aF0.0
aF0.0
aF0.0
aF0.0
aF0.0
aF0.0
aF0.0
aF0.0
aF0.0
aF0.0
aF0.0
aF0.0
aF0.0
aF0.0
aF0.0
aF0.0
aF0.0
aF0.0
aF0.0
aF0.0
aF0.0
aF0.0
aF0.0
aF0.0
aF0.0
aF0.0
aF0.0
aF0.0
aF0.0
aF0.0
aF0.0
aF0.0
aF0.0
aF0.0
aF0.0
aF0.0
aF0.0
aF0.0
aF0.0
aF0.0
aF0.0
aF0.0
aF0.0
aF0.0
aF0.0
aF0.0
aF0.0
aF0.0
aF0.0
aF0.0
aF0.0
aF0.0
aF0.0
aF0.0
aF0.0
aF0.0
aF0.0
aF0.0
aF0.0
aF0.0
aF0.0
aF0.0
aF0.0
aF0.0
aF0.0
aF0.0
aF0.0
aF0.0
aF0.0
aF0.0
aF0.0
aF0.0
aF0.0
aF0.0
aF0.0
aF0.0
aF0.0
aF0.0
aF0.0
aF0.0
aF0.0
aF0.0
aF0.0
aF0.0
aF0.0
aF0.0
aF0.0
aF0.0
aF0.0
aF0.0
aF0.0
aF0.0
aF0.0
aF0.0
aF0.0
aF0.0
aF0.0
aF0.0
aF0.0
aF0.0
aF0.0
aF0.0
aF0.0
aF0.0
aF0.0
aF0.0
aF0.0
aF0.0
aF0.0
aF0.0
aF0.0
aF0.0
aF0.0
aF0.0
aF0.0
aF0.0
aF0.0
aF0.0
aF0.0
aF0.0
aF0.0
aF0.0
aF0.0
aF0.0
aF0.0
aF0.0
aF0.0
aF0.0
aF0.0
aF0.0
aF0.0
aF0.0
aF0.0
aF0.0
aF0.0
aF0.0
aF0.0
aF0.0
aF0.0
aF0.0
aF0.0
aF0.0
aF0.0
aF0.0
aF0.0
aF0.0
aF0.0
aF0.0
aF0.0
aF0.0
aF0.0
aF0.0
aF0.0
aF0.0
aF0.0
aF0.0
aF0.0
aF0.0
aF0.0
aF0.0
aF0.0
aF0.0
aF0.0
aF0.0
aF0.0
aF0.0
aF0.0
aF0.0
aF0.0
aF0.0
aF0.0
aF0.0
aF0.0
aF0.0
aF0.0
aF0.0
aF0.0
aF0.0
aF0.0
aF0.0
aF0.0
aF0.0
aF0.0
aF0.0
aF0.0
aF0.0
aF0.0
aF0.0
aF0.0
aF0.0
aF0.0
aF0.0
aF0.0
aF0.0
aF0.0
aF0.0
aF0.0
aF0.0
aF0.0
aF0.0
aF0.0
aF0.0
aF0.0
aF0.0
aF0.0
aF0.0
aF0.0
aF0.0
aF0.0
aF0.0
aF0.0
aF0.0
aF0.0
aF0.0
aF0.0
aF0.0
aF0.0
aF0.0
aF0.0
aF0.0
aF0.0
aF0.0
aF0.0
aF0.0
aF0.0
aF0.0
aF0.0
aF0.0
aF0.0
aF0.0
aF0.0
aF0.0
aF0.0
aF0.0
aF0.0
aF0.0
aF0.0
aF0.0
aF0.0
aF0.0
aF0.0
aF0.0
aF0.0
aF0.0
aF0.0
aF0.0
aF0.0
aF0.0
aF0.0
aF0.0
aF0.0
aF0.0
aF0.0
aF0.0
aF0.0
aF0.0
aF0.0
aF0.0
aF0.0
aF0.0
aF0.0
aF0.0
aF0.0
aF0.0
aF0.0
aF0.0
aF0.0
aF0.0
aF0.0
aF0.0
aF0.0
aF0.0
aF0.0
aF0.0
aF0.0
aF0.0
aF0.0
aF0.0
aF0.0
aF0.0
aF0.0
aF0.0
aF0.0
aF0.0
aF0.0
aF0.0
aF0.0
aF0.0
aF0.0
aF0.0
aF0.0
aF0.0
aF0.0
aF0.0
aF0.0
aF0.0
aF0.0
aF0.0
aF0.0
aF0.0
aF0.0
aF0.0
aF0.0
aF0.0
aF0.0
aF0.0
aF0.0
aF0.0
aF0.0
aF0.0
aF0.0
aF0.0
aF0.0
aF0.0
aF0.0
aF0.0
aF0.0
aF0.0
aF0.0
aF0.0
aF0.0
aF0.0
aF0.0
aF0.0
aF0.0
aF0.0
aF0.0
aF0.0
aF0.0
aF0.0
aF0.0
aF0.0
aF0.0
aF0.0
aF0.0
aF0.0
aF0.0
aF0.0
aF0.0
aF0.0
aF0.0
aF0.0
aF0.0
aF0.0
aF0.0
aF0.0
aF0.0
aF0.0
aF0.0
aF0.0
aF0.0
aF0.0
aF0.0
aF0.0
aF0.0
aF0.0
aF0.0
aF0.0
aF0.0
aF0.0
aF0.0
aF0.0
aF0.0
aF0.0
aF0.0
aF0.0
aF0.0
aF0.0
aF0.0
aF0.0
aF0.0
aF0.0
aF0.0
aF0.0
aF0.0
aF0.0
aF0.0
aF0.0
aF0.0
aF0.0
aF0.0
aF0.0
aF0.0
aF0.0
aF0.0
aF0.0
aF0.0
aF0.0
aF0.0
aF0.0
aF0.0
aF0.0
aF0.0
aF0.0
aF0.0
aF0.0
aF0.0
aF0.0
aF0.0
aF0.0
aF0.0
aF0.0
aF0.0
aF0.0
aF0.0
aF0.0
aF0.0
aF0.0
aF0.0
aF0.0
aF0.0
aF0.0
aF0.0
aF0.0
aF0.0
aF0.0
aF0.0
aF0.0
aF0.0
aF0.0
aF0.0
aF0.0
aF0.0
aF0.0
aF0.0
aF0.0
aF0.0
aF0.0
aF0.0
aF0.0
aF0.0
aF0.0
aF0.0
aF0.0
aF0.0
aF0.0
aF0.0
aF0.0
aF0.0
aF0.0
aF0.0
aF0.0
aF0.0
aF0.0
aF0.0
aF0.0
aF0.0
aF0.0
aF0.0
aF0.0
aF0.0
aF0.0
aF0.0
aF0.0
aF0.0
aF0.0
aF0.0
aF0.0
aF0.0
aF0.0
aF0.0
aF0.0
aF0.0
aF0.0
aF0.0
aF0.0
aF0.0
aF0.0
aF0.0
aF0.0
aF0.0
aF0.0
aF0.0
aF0.0
aF0.0
aF0.0
aF0.0
aF0.0
aF0.0
aF0.0
aF0.0
aF0.0
aF0.0
aF0.0
aF0.0
aF0.0
aF0.0
aF0.0
aF0.0
aF0.0
aF0.0
aF0.0
aF0.0
aF0.0
aF0.0
aF0.0
aF0.0
aF0.0
aF0.0
aF0.0
aF0.0
aF0.0
aF0.0
aF0.0
aF0.0
aF0.0
aF0.0
aF0.0
aF0.0
aF0.0
aF0.0
aF0.0
aF0.0
aF0.0
aF0.0
aF0.0
aF0.0
aF0.0
aF0.0
aF0.0
aF0.0
aF0.0
aF0.0
aF0.0
aF0.0
aF0.0
aF0.0
aF0.0
aF0.0
aF0.0
aF0.0
aF0.0
aF0.0
aF0.0
aF0.0
aF0.0
aF0.0
aF0.0
aF0.0
aF0.0
aF0.0
aF0.0
aF0.0
aF0.0
aF0.0
aF0.0
aF0.0
aF0.0
aF0.0
aF0.0
aF0.0
aF0.0
aF0.0
aF0.0
aF0.0
aF0.0
aF0.0
aF0.0
aF0.0
aF0.0
aF0.0
aF0.0
aF0.0
aF0.0
aF0.0
aF0.0
aF0.0
aF0.0
aF0.0
aF0.0
aF0.0
aF0.0
aF0.0
aF0.0
aF0.0
aF0.0
aF0.0
aF0.0
aF0.0
aF0.0
aF0.0
aF0.0
aF0.0
aF0.0
aF0.0
aF0.0
aF0.0
aF0.0
aF0.0
aF0.0
aF0.0
aF0.0
aF0.0
aF0.0
aF0.0
aF0.0
aF0.0
aF0.0
aF0.0
aF0.0
aF0.0
aF0.0
aF0.0
aF0.0
aF0.0
aF0.0
aF0.0
aF0.0
aF0.0
aF0.0
aF0.0
aF0.0
aF0.0
aF0.0
aF0.0
aF0.0
aF0.0
aF0.0
aF0.0
aF0.0
aF0.0
aF0.0
aF0.0
aF0.0
aF0.0
aF0.0
aF0.0
aF0.0
aF0.0
aF0.0
aF0.0
aF0.0
aF0.0
aF0.0
aF0.0
aF0.0
aF0.0
aF0.0
aF0.0
aF0.0
aF0.0
aF0.0
aF0.0
aF0.0
aF0.0
aF0.0
aF0.0
aF0.0
aF0.0
aF0.0
aF0.0
aF0.0
aF0.0
aF0.0
aF0.0
aF0.0
aF0.0
aF0.0
aF0.0
aF0.0
aF0.0
aF0.0
aF0.0
aF0.0
aF0.0
aF0.0
aF0.0
aF0.0
aF0.0
aF0.0
aF0.0
aF0.0
aF0.0
aF0.0
aF0.0
aF0.0
aF0.0
aF0.0
aF0.0
aF0.0
aF0.0
aF0.0
aF0.0
aF0.0
aF0.0
aF0.0
aF0.0
aF0.0
aF0.0
aF0.0
aF0.0
aF0.0
aF0.0
aF0.0
aF0.0
aF0.0
aF0.0
aF0.0
aF0.0
aF0.0
aF0.0
aF0.0
aF0.0
aF0.0
aF0.0
aF0.0
aF0.0
aF0.0
aF0.0
aF0.0
aF0.0
aF0.0
aF0.0
aF0.0
aF0.0
aF0.0
aF0.0
aF0.0
aF0.0
aF0.0
aF0.0
aF0.0
aF0.0
aF0.0
aF0.0
aF0.0
aF0.0
aF0.0
aF0.0
aF0.0
aF0.0
aF0.0
aF0.0
aF0.0
aF0.0
aF0.0
aF0.0
aF0.0
aF0.0
aF-0.006862855722161214
aF0.000246914802894674
aF0.0
aF-0.0002834692707553545
aF0.0
aF0.0
aF0.0
aF0.0
aF0.0
aF0.0
aF7.309301339197558e-05
aF0.0
aF0.0
aF0.0
aF0.0
aF0.0
aF0.0
aF0.0
aF0.0
aF0.0
aF0.0
aF0.0
aF0.0
aF0.0
aF0.0
aF0.0
aF0.0
aF0.0
aF0.0
aF0.0
aF0.0
aF0.0
aF0.0
aF0.0
aF0.0
aF0.0
aF0.0
aF0.0
aF0.0
aF0.0
aF0.0
aF0.0
aF0.0
aF0.0
aF0.0
aF0.0
aF0.0
aF0.0
aF0.0
aF0.0
aF0.0
aF0.0
aF0.0
aF0.0
aF0.0
aF0.0
aF0.0
aF0.0
aF0.0
aF0.0
aF0.0
aF0.0
aF0.0
aF0.0
aF0.0
aF0.0
aF0.0
aF0.0
aF0.0
aF0.0
aF0.0
aF0.0
aF0.0
aF0.0
aF0.0
aF-2.1169399958266173e-05
aF0.0
aF0.0
aF0.0
aF0.0
aF2.618e-05
aF0.0
aF0.0
aF0.0
aF0.0
aF0.0
aF0.0
aF0.0
aF0.0
aF0.0
aF0.0
aF0.0
aF0.0
aF0.0
aF0.0
aF0.0
aF0.0
aF0.0
aF0.0
aF0.0
aF0.0
aF0.0
aF0.0
aF0.0
aF0.0
aF0.0
aF0.0
aF0.0
aF0.0
aF0.0
aF0.0
aF0.0
aF0.0
aF0.0
aF0.0
aF0.0
aF0.0
aF0.0
aF0.0
aF0.0
aF0.0
aF0.0
aF0.0
aF0.0
aF0.0
aF0.0
aF0.0
aF0.0
aF0.0
aF0.0
aF0.0
aF0.0
aF0.0
aF0.0
aF0.0
aF0.0
aF0.0
aF0.0
aF0.0
aF0.0
aF0.0
aF0.0
aF0.0
aF0.0
aF0.0
aF0.0
aF0.0
aF0.0
aF0.0
aF0.0
aF0.0
aF0.0
aF0.0
aF0.0
aF0.0
aF0.0
aF0.0
aF0.0
aF0.0
aF0.0
aF0.0
aF0.0
aF0.0
aF0.0
aF0.0
aF0.0
aF0.0
aF0.0
aF0.0
aF0.0
aF0.0
aF0.0
aF0.0
aF0.0
aF0.0005
aF0.0
aF0.0
aF0.0
aF-1.1544999999999999e-05
aF0.0
aF0.0
aF0.0
aF0.0
aF0.0
aF0.0
aF0.0
aF0.0
aF0.0
aF0.0
aF0.0
aF0.0
aF0.0
aF0.0
aF0.0
aF0.0
aF0.0
aF0.0
aF0.0
aF0.0
aF0.0
aF0.0
aF0.0
aF0.0
aF0.0
aF0.0
aF0.0
aF0.0
aF0.0
aF0.0
aF0.0
aF0.0
aF0.0
aF0.0
aF0.0
aF0.0
aF0.0
aF0.0
aF0.0
aF0.0
aF0.0
aF0.0
aF0.0
aF0.0
aF0.0
aF0.0
aF0.0
aF0.0
aF0.0
aF0.0
aF0.0
aF0.0
aF0.0
aF0.0
aF7.576e-05
aF0.0
aF0.0
aF0.0
aF0.0
aF0.0
aF0.0
aF0.0
aF0.0
aF0.0
aF0.0
aF0.0
aF0.0
aF0.0
aF0.0
aF0.0
aF0.0
aF0.0
aF0.0
aF0.0
aF0.0
aF0.0
aF0.0
aF0.0
aF0.0
aF0.0
aF0.0
aF0.0
aF0.0
aF0.0
aF0.0
aF0.0
aF0.0
aF0.0
aF0.0
aF0.0
aF0.0
aF0.0
aF0.0
aF0.0
aF0.0
aF0.0
aF0.0
aF0.0
aF0.0
aF0.0
aF0.0
aF0.0
aF0.0
aF0.0
aF0.0
aF0.0
aF0.0
aF0.0
aF0.0
aF0.0
aF0.0
aF0.0
aF0.0
aF0.0
aF0.0
aF0.0
aF0.0
aF0.0
aF0.0
aF0.0
aF0.0
aF0.0
aF0.0
aF0.0
aF0.0
aF0.0
aF0.0
aF0.0
aF0.0
aF0.0
aF0.0
aF0.0
aF0.0
aF0.0
aF0.0
aF0.0
aF0.0
aF0.0
aF0.0
aF0.0
aF0.0
aF0.0
aF0.0
aF0.0
aF0.0
aF0.0
aF0.0
aF0.0
aF0.0
aF0.0
aF0.0
aF0.0
aF0.0
aF0.0
aF0.0
aF0.0
aF0.0
aF0.0
aF0.0
aF0.0
aF0.0
aF0.0
aF0.0
aF0.0
aF0.0
aF0.0
aF0.0
aF0.0
aF0.0
aF0.0
aF0.0
aF0.0
aF0.0
aF0.0
aF0.0
aF0.0
aF0.0
asb.