(ilrsgd
LogisticRegressionSGD
p0
(dp1
S'mu'
p2
F0.08
sS'eta'
p3
F0.05
sS'weight'
p4
(lp5
F-0.024055020948618912
aF-0.02487721770646974
aF0.0
aF0.0
aF0.0
aF-0.03575011787176692
aF0.005167234371859026
aF-0.03646121257035384
aF-0.024724483315840567
aF0.0
aF-0.02745384015242728
aF-0.057179841359299474
aF0.0
aF-0.04541514484085945
aF0.02598284571551899
aF0.0
aF-0.025043354403289583
aF-0.02494978971640298
aF-0.008288327879264895
aF0.0
aF-0.02378934579362023
aF0.0
aF0.0
aF-0.024921842210874838
aF-0.07800549983138179
aF-0.024681165767931834
aF-0.0041020747016837465
aF-0.0454874604241493
aF-0.02255507351941596
aF-0.03749520879906547
aF0.06625867873021976
aF-0.012403843193503596
aF-0.024889029414326316
aF-0.0473797327261394
aF-0.043735882815010035
aF-0.04457902242032501
aF-0.02319230095027921
aF0.0
aF0.013107791753808058
aF-0.02251767529743982
aF-0.022993753120260373
aF-0.012060282458939094
aF-0.024592554012785525
aF-0.004060141232707058
aF0.0
aF-0.02364333956699841
aF-0.024850393841624942
aF-0.02507670662918257
aF-0.022832716741034473
aF0.026194008081372063
aF0.025019183057314355
aF-0.024843859614597095
aF-0.03914997601983887
aF-0.08920476784017516
aF-0.012591038248657954
aF-0.02492018385459937
aF-0.009495842743160385
aF-0.0626905652948174
aF0.0
aF0.042473067341548446
aF-0.01062013722784799
aF-0.04565103849111339
aF-0.02964215163143833
aF-0.06343733919017017
aF0.0
aF-0.0239287422922989
aF0.0
aF0.0
aF0.02689192421361333
aF0.02511274476359403
aF-0.04579284673144031
aF0.0
aF0.0
aF-0.009484420858982118
aF0.025901186816958733
aF0.0
aF0.02600577549646408
aF-0.01767792826713993
aF0.0
aF0.025089540605572835
aF0.0
aF0.0
aF-0.012467332372835559
aF0.0
aF0.0
aF-0.01973507574336194
aF-0.020442843165472912
aF-0.024437106381607773
aF0.0
aF-0.025000679475743498
aF-0.019024404406077666
aF-0.024763428837760434
aF0.0
aF-0.0730810691658658
aF-0.0823851813977027
aF-0.02499977587069041
aF-0.004021810284737276
aF-0.024677540259346098
aF-0.004026178823107745
aF-0.004114302002012633
aF-0.04537201715382906
aF0.0
aF-0.06149184109289365
aF0.0
aF-0.02390854740739812
aF0.0
aF-0.01921736761950791
aF0.0
aF-0.10398341325026203
aF-0.02488662249543949
aF-0.02490570730561618
aF-0.02467818834724235
aF-0.045525385967991674
aF-0.05116514900310331
aF0.025225424702386853
aF-0.02440837355318892
aF-0.04874968093554733
aF-0.02475892924900064
aF-0.02391798734817672
aF-0.06301695709424154
aF-0.059505596011588696
aF-0.008566230200310089
aF-0.03474241507779289
aF0.0
aF-0.020748682209089632
aF0.0
aF0.026943018205196425
aF-0.02419434217470177
aF0.0
aF0.0
aF0.02503767746554371
aF0.0
aF-0.024352170067812123
aF0.0
aF0.0
aF-0.041818939444932465
aF-0.025015926262083765
aF0.0
aF-0.023191997638040807
aF-0.04242364239775635
aF-0.12790305528197213
aF-0.04400216954083989
aF-0.060107298795432855
aF0.0
aF0.0
aF-0.08727417592018155
aF-0.045687393873808164
aF-0.1123817388838654
aF0.0
aF0.025138821278847364
aF-0.04548057982086644
aF-0.02441931871191914
aF0.0
aF0.0
aF-0.08573099062071741
aF0.0
aF-0.022820705395876155
aF0.0
aF-0.02491009819798388
aF0.025032941830168215
aF0.00471627963898015
aF-0.024836829913386718
aF-0.014421519066610038
aF0.025210764872561443
aF-0.02499722166921777
aF-0.0709450997428844
aF0.0
aF-0.024962884215114466
aF0.0
aF-0.09013452438538927
aF0.0
aF0.0
aF-0.0455761923729778
aF-0.02446352148425002
aF-0.024796117196673503
aF-0.04508557614730124
aF0.0
aF-0.045840173275189786
aF-0.042169846773836464
aF0.0
aF-0.00020158970428403762
aF-0.04560797274449173
aF0.0
aF-0.012647725168041784
aF-0.007981206476708209
aF-0.07595125207169358
aF-0.024620800297231987
aF0.0
aF-0.00971158227840506
aF-0.013604960617647262
aF-0.024418387485101632
aF-0.09838118617711487
aF-0.02499966658083752
aF-0.047023251099860296
aF0.0
aF-0.04526967599702294
aF0.0
aF0.0
aF-0.026518466281152765
aF-0.024012282897541287
aF-0.06450290051910218
aF0.0
aF-0.00552121991409454
aF0.0
aF-0.024488793860401772
aF-0.02499368579936688
aF-0.024516935784386847
aF-0.02499423064541194
aF0.0
aF-0.017136532501549985
aF-0.022903016174625188
aF0.0
aF0.0
aF-0.0453086177432254
aF0.005229581623806923
aF0.0
aF0.0
aF-0.024458058923420276
aF-0.06184846188274078
aF-0.08660543625736043
aF-0.08783570022645346
aF-0.021899842609200547
aF-0.024676979659383223
aF-0.009556098273041085
aF-0.02494222456960356
aF0.0
aF-0.026089351975833855
aF-0.061728137593380104
aF-0.024757292708215455
aF-0.024957554469017512
aF-0.024878700735062542
aF0.0
aF0.0
aF-0.021583141315776
aF0.0
aF0.0
aF-0.02473745794964868
aF-0.024381010631426905
aF-0.025
aF-0.03076816893122774
aF0.0
aF0.0
aF-0.02157639810238239
aF-0.0018021147341904051
aF-0.045564683080330695
aF0.0
aF0.0288340262297478
aF0.0
aF-0.011776750514168856
aF0.0
aF-0.04532584786586791
aF0.0
aF-0.015308575448921042
aF0.0
aF0.0
aF0.0
aF-0.06316346553870247
aF-0.022931622473187425
aF0.0
aF-0.024885805213792696
aF0.0
aF0.0
aF0.0
aF0.025041044475081688
aF0.009590484165702282
aF-0.02388265631158462
aF-0.02369099420268027
aF0.0
aF-0.0248083994630664
aF-0.024609271405708986
aF-0.009091296026925391
aF-0.024429005365203857
aF0.0
aF0.0
aF0.02505472132815957
aF-0.04086939838584547
aF0.0
aF0.0
aF-0.02400274302740123
aF-0.025312458425256586
aF0.0
aF-0.015206665433477672
aF-0.06171386600633494
aF0.0
aF-0.07600937996141056
aF-0.024999344953675503
aF-0.02319642027999669
aF0.0
aF0.0
aF-0.02462762885289735
aF-0.024952733154291196
aF0.025170583554839168
aF0.0
aF-0.0452584591063267
aF0.0
aF-0.0010377923264973006
aF0.0
aF-0.02484669649071823
aF-0.022580293352420178
aF-0.044723352591031024
aF0.0
aF0.0
aF-0.024692510354945713
aF0.021892016809548824
aF0.0
aF0.0
aF-0.02241712995722485
aF0.0
aF0.0
aF0.0
aF0.0
aF-0.031631342233269265
aF0.0
aF-0.024964071526213993
aF-0.036977203812968734
aF0.0011480047084843881
aF0.024965014090868362
aF-0.008271081946716037
aF-0.044861112746329784
aF0.0
aF0.0
aF0.0
aF-0.024375013812647554
aF0.0
aF-0.07595623674606118
aF0.0
aF-0.02499433085774399
aF0.0
aF0.0
aF-0.0456620966590794
aF0.0
aF0.0
aF-0.024922432002534176
aF0.0
aF-0.02266566557031977
aF-0.03822857723465726
aF-0.02499990646395182
aF0.0
aF0.0
aF0.0
aF-0.012386578402181596
aF0.0
aF-0.02493261582064276
aF0.025013532872086065
aF-0.024702844850038572
aF0.0
aF-0.01266963777007405
aF0.0
aF0.0
aF0.0
aF-0.0971947776425092
aF-0.024840009601324944
aF0.0
aF0.0
aF-0.02320062289743967
aF-0.039630326204487455
aF-0.05991864983963169
aF-0.05922697041437076
aF-0.025
aF0.0
aF-0.044998972174845386
aF0.025681416298569983
aF0.00464007019587772
aF0.0
aF0.0
aF-0.02499981311021712
aF0.0
aF-0.03141355924334984
aF0.0
aF0.0
aF-0.009406245071365501
aF-0.02178672735820327
aF0.0
aF-0.0358436743935823
aF0.0
aF0.0
aF0.0
aF0.0
aF0.0
aF-0.023059594585257123
aF-0.04219108619362326
aF0.0
aF0.0
aF-0.045193619243978925
aF-0.02499997686601277
aF0.0
aF-0.012984411306625889
aF0.0
aF0.0
aF-0.02494814789444215
aF0.0
aF0.0
aF0.0
aF-0.024929103330237703
aF-0.0865008536354867
aF-0.003215672985919635
aF-0.024904486460172525
aF-0.0453485106763545
aF0.0
aF-0.024837481876016865
aF0.0
aF0.0
aF0.0
aF0.0
aF0.004801173325735677
aF0.0
aF-0.02485619621358206
aF0.0
aF0.0
aF0.0
aF0.0
aF-0.024410019178911904
aF0.0
aF-0.024751220253196832
aF0.0
aF0.0
aF0.0
aF-0.02499986765864616
aF0.028735278206446196
aF-0.05289831512617643
aF0.0
aF0.0
aF0.0
aF0.0
aF0.025971267913205982
aF0.0
aF0.0
aF-0.040778631234082624
aF-0.014389870115018629
aF-0.008800129326095474
aF0.0
aF0.0
aF0.0
aF0.0
aF0.0
aF0.0
aF0.0
aF0.0
aF0.0
aF-0.055405242114648916
aF-0.04461193610144988
aF0.0
aF0.0
aF-0.021494094070210308
aF-0.036119577759063375
aF-0.02499983857439774
aF0.0
aF0.0
aF0.0
aF-0.0021542092756519932
aF-0.04552529142865665
aF0.0
aF-0.026628617918355683
aF-0.024368885919741314
aF0.0
aF0.0
aF0.0
aF-0.03306355937480487
aF0.0
aF-0.00186201689711654
aF0.0
aF0.0
aF0.0
aF0.0
aF0.0
aF0.0
aF0.0
aF-0.012271794476974797
aF0.0
aF0.0
aF-0.02402404413230234
aF0.0
aF0.0
aF0.0
aF-0.024943004384857127
aF-0.012460606177955077
aF0.0
aF0.0
aF0.0
aF0.0
aF0.0
aF0.0
aF0.025225943955134784
aF-0.06096486928850828
aF-0.004989158450300116
aF0.0
aF-0.024885721510218724
aF0.0
aF-0.05898277018152662
aF-0.02319572475914536
aF0.0
aF0.0
aF0.0
aF-0.024921171282571035
aF0.0
aF-0.024872145682305044
aF-0.004441168316487472
aF0.0
aF0.0
aF-0.024921793152591718
aF0.0
aF-0.020882134032665433
aF-0.025982231686057053
aF0.0
aF0.025000274334896905
aF0.0
aF-0.024944993838755078
aF-0.001547532496397839
aF0.0
aF0.0
aF0.025242213835700408
aF0.0
aF0.0
aF0.0
aF-0.02228186644435384
aF0.0
aF0.0
aF0.0
aF0.0
aF0.0
aF-0.048692748465782365
aF-0.026643421645044227
aF-0.012461522949585998
aF-0.012490251153551438
aF-0.06088415863494377
aF-0.024893619823880997
aF0.0
aF0.0
aF-0.04038708494796774
aF0.0
aF0.0
aF-0.024999829248837632
aF0.0
aF0.0
aF-1.763927826795475e-05
aF0.0
aF-0.012609378029048863
aF0.0
aF0.0
aF0.012511395165229961
aF0.0
aF-0.045635338915446966
aF0.0
aF0.0
aF-0.023193388044402657
aF0.0
aF0.0038030617967242143
aF0.0
aF0.0
aF0.0
aF0.0
aF0.0
aF0.0
aF0.0
aF0.0
aF-0.04470983558688558
aF0.0
aF0.0
aF0.0
aF0.0
aF0.0
aF0.0
aF-0.02331522780735345
aF-0.01436605305511797
aF0.0
aF0.0
aF0.0
aF0.0
aF-0.024998836073006528
aF-0.020949255170504714
aF0.0
aF-0.022656409185157097
aF-0.06073571912200197
aF0.0
aF0.0
aF0.0
aF0.0
aF-0.023196519015581427
aF0.0
aF-0.12488196769390972
aF0.0
aF0.0
aF-0.045643317432822676
aF0.0
aF0.0
aF0.0
aF-0.024762008439505875
aF-0.02501457390690942
aF0.0
aF-0.012504834113148084
aF-0.01225644800973539
aF0.0
aF-0.024962051025468904
aF0.0
aF0.00823999884141302
aF0.0
aF-0.0491010807211563
aF-0.00300480644229065
aF0.0
aF-0.02492204587757332
aF0.0
aF0.0
aF0.0
aF0.0
aF-0.022880066523177013
aF-0.03273782059074598
aF-0.07554250473036561
aF-0.010276524293168332
aF0.0
aF-0.003394487975949576
aF0.0
aF0.0
aF-0.08802197148864263
aF-0.03010650784365907
aF-0.06785875223219674
aF0.0
aF0.0
aF-0.024947693895856552
aF-0.07682472383171039
aF0.0
aF0.0
aF0.0
aF0.0
aF0.025271124838959453
aF0.0
aF0.0
aF-0.032599498404719054
aF0.0
aF0.0
aF-0.019473389249797222
aF-0.023300611751614637
aF-0.024755450354914808
aF0.0
aF0.0
aF-0.025
aF0.0
aF0.0
aF0.0
aF0.0
aF0.0
aF-0.012499254472176091
aF0.0
aF0.0
aF0.0
aF0.0
aF-0.0008752635089759615
aF0.0
aF-0.045410647113112976
aF0.025000066198253207
aF-0.01999393543142702
aF0.0
aF-0.02311735662678599
aF0.0
aF0.0
aF0.0
aF-0.024829505538804177
aF0.0
aF0.0
aF0.0
aF0.025837412835734742
aF0.002483502614556852
aF-0.02465110247009804
aF0.0
aF0.0
aF-0.024940132350156588
aF-0.021388729022506624
aF-0.06755221048517152
aF0.0
aF0.0
aF-0.12984371458207244
aF0.0
aF0.0
aF0.0
aF0.008638242584060221
aF0.0
aF0.0
aF0.0
aF-0.012361669686138367
aF0.0
aF0.047342811461763765
aF0.0
aF0.0
aF0.0
aF0.0
aF0.0
aF0.0
aF-0.0455559253285585
aF0.0
aF-0.07579434279028097
aF0.0
aF-0.0231962246882812
aF0.0
aF0.0
aF-0.02040600276837695
aF-0.0016094020578211864
aF-0.02022807437394056
aF-0.07683689840511239
aF0.0
aF0.0
aF0.0
aF0.0
aF0.0
aF0.0
aF0.0
aF0.0
aF0.0
aF0.0
aF-0.024981872275136815
aF0.024999988439237154
aF0.0
aF0.0
aF0.0
aF0.0
aF0.0
aF0.0
aF0.0
aF0.0
aF0.0
aF0.0
aF0.0
aF0.0
aF-0.015283731667657865
aF0.0
aF-0.023147456889721085
aF-0.028307030459796788
aF0.0
aF0.0
aF-0.012418187395109432
aF0.0
aF0.025039581469666807
aF0.0
aF-0.02466934962624288
aF-0.02492767652017771
aF-0.04248778167347454
aF0.0
aF-0.02258245275723214
aF0.0
aF0.0
aF0.0
aF-0.02487722947215859
aF0.0
aF0.0
aF0.0
aF0.0
aF0.0
aF0.004343505774671689
aF-0.0017054374220133498
aF0.0
aF0.0
aF0.0
aF0.0
aF0.0
aF-0.008305552185013143
aF-0.13036449632991154
aF0.0
aF0.0
aF0.0
aF0.0
aF-0.02495545808791181
aF-0.024876548333933955
aF-0.014878369809089095
aF0.0
aF0.0
aF-0.024999725665103098
aF-0.02499993535792694
aF-0.024965637179134713
aF0.0
aF0.0
aF0.0
aF0.0
aF0.0
aF-0.05560618842495245
aF-0.13254441806630116
aF0.0
aF0.0
aF0.0
aF-0.022079368679527926
aF-0.0381042945150808
aF0.0
aF0.0
aF0.0
aF0.0
aF0.0
aF0.0
aF-0.024656142954697636
aF0.0
aF-0.012237023183378222
aF0.0
aF0.0
aF0.0
aF-0.08403356290840046
aF0.0
aF0.0
aF-0.045538809437495886
aF0.0
aF-0.0247193745140698
aF-0.06114253124085178
aF0.0
aF0.0
aF0.0
aF0.0
aF0.0
aF0.0
aF-0.023192499088788947
aF0.0
aF-0.0125
aF-0.024729231653643796
aF-0.025000002890530296
aF0.0
aF0.0
aF-0.023191831072599034
aF-0.045567159023355966
aF0.0
aF-0.09964961675218519
aF0.0
aF0.006910685516315903
aF-0.012354632060118977
aF-0.05092546108822865
aF-0.020346993625181657
aF-0.02486961144535843
aF-0.0115891565569304
aF0.0
aF0.0
aF0.0
aF0.0
aF0.0
aF0.0
aF0.0
aF-0.02333983497416627
aF-0.021035587773684434
aF0.0
aF0.0
aF0.0
aF0.0
aF0.0
aF0.0
aF-0.024686329207531044
aF0.0
aF0.0
aF0.0
aF0.0
aF0.0
aF-0.04310133215815508
aF0.0
aF0.0
aF0.0
aF0.0
aF0.0
aF0.0
aF0.0
aF0.0
aF-0.015710717632097655
aF-0.0456862957213116
aF0.0
aF0.0
aF0.0
aF-0.015782256757322758
aF0.0
aF0.0
aF-0.012480512739542255
aF-0.021899380364582208
aF0.0
aF-0.06657454913739748
aF0.0
aF0.0
aF-0.01006848212962638
aF-0.033552435352575925
aF0.0
aF0.0
aF0.0
aF0.0
aF0.0
aF0.0
aF-0.009716997520113345
aF-0.024999443173740817
aF0.0
aF0.0
aF0.0
aF0.0
aF0.0
aF-0.024999942471979345
aF0.0
aF0.0
aF-0.04224960200494642
aF0.0
aF0.0
aF0.0
aF0.0
aF0.0
aF0.0
aF0.0
aF0.0
aF0.0
aF0.0
aF0.0
aF0.0
aF0.0
aF0.0
aF0.0
aF0.0
aF-0.13456503651830742
aF0.0
aF0.0
aF0.0
aF0.0
aF-0.024999567822427342
aF0.0
aF0.0
aF0.0
aF0.0
aF0.0
aF0.0
aF-0.02319423217645821
aF0.0
aF0.0
aF0.0
aF0.0
aF0.0
aF0.0
aF0.0
aF-0.024993455972076434
aF-0.012400534530337523
aF0.0
aF0.0
aF0.0
aF0.0
aF-0.02460878440566139
aF-0.02499988339822906
aF0.0
aF0.0
aF0.0
aF0.0
aF0.0
aF0.0
aF0.0
aF0.0
aF0.025000043657633548
aF0.0
aF0.0
aF0.0
aF0.0
aF0.0
aF0.0
aF0.0
aF0.025
aF0.0
aF0.0
aF-0.023196040857347257
aF-0.016666020978139247
aF-0.0020832661505292057
aF0.0
aF0.0
aF0.0
aF0.0
aF0.0
aF0.0
aF0.0
aF0.0
aF0.0
aF0.0
aF0.0
aF0.0
aF0.0
aF0.0
aF0.0
aF0.0
aF0.0
aF0.0
aF0.0
aF0.0
aF0.0
aF0.0
aF0.0
aF0.0
aF0.0
aF0.0
aF0.0
aF0.0
aF0.0
aF0.0
aF-0.024997471660484855
aF-0.024922049430280778
aF0.0
aF-0.04557446263315795
aF0.0
aF0.0
aF0.0
aF0.0
aF0.0
aF0.0
aF0.0
aF0.0
aF0.0
aF0.0
aF0.0
aF0.0
aF0.0
aF0.0
aF0.0
aF0.0
aF0.0
aF0.0
aF0.0
aF0.0
aF0.0
aF0.0
aF0.0
aF0.0
aF0.0
aF0.0
aF0.0
aF-0.02499952231574198
aF0.0
aF0.0
aF0.0
aF-0.02498710278100801
aF0.0
aF-0.02118211695420397
aF-0.0434153017051289
aF-0.0116208688580404
aF0.0
aF0.0
aF0.0
aF0.0
aF0.0
aF0.0
aF0.0
aF0.0
aF0.0
aF-0.02319581078450444
aF0.0
aF0.0
aF0.0
aF0.0
aF0.0
aF0.0
aF0.0
aF0.0
aF-0.012500265327100569
aF0.0
aF0.0
aF0.0
aF-0.02499951667199642
aF0.0
aF0.0
aF0.0
aF0.0
aF0.0
aF0.0
aF0.0
aF0.0
aF0.0
aF0.0
aF0.0
aF0.0
aF0.0
aF0.0
aF0.0
aF0.0
aF-0.02500072904017403
aF0.0
aF0.0
aF0.0
aF0.0
aF0.0
aF0.0
aF0.0
aF0.0
aF0.0
aF-0.023147418678481524
aF0.0
aF0.0
aF0.0
aF0.0
aF0.0
aF0.0
aF0.0
aF-0.024999954478515697
aF-0.0083332808862595
aF0.0
aF0.0
aF0.0
aF0.0
aF0.0
aF0.0
aF0.0
aF0.0
aF0.0
aF0.0
aF0.0
aF0.0
aF0.0
aF-0.024999333188681413
aF0.0
aF0.0
aF0.0
aF-0.024999367716916528
aF-0.14389692017514832
aF-0.13938122346503587
aF0.0
aF0.0
aF0.0
aF0.0
aF0.0
aF0.0
aF0.0
aF0.0
aF0.0
aF0.0
aF0.0
aF0.0
aF0.0
aF0.0
aF0.0
aF0.0
aF0.0
aF0.0
aF0.0
aF0.0
aF-0.024855680194678334
aF0.0
aF0.0
aF0.0
aF0.0
aF0.0
aF0.0
aF0.0
aF0.0
aF0.0
aF0.0
aF0.0
aF0.0
aF0.0
aF0.0
aF0.0
aF0.0
aF0.0
aF0.0
aF0.0
aF0.0
aF0.0
aF0.0
aF0.0
aF0.0
aF0.0
aF0.0
aF0.0
aF0.0
aF0.0
aF0.0
aF0.0
aF0.0
aF0.0
aF0.0
aF0.0
aF0.0
aF0.0
aF0.0
aF0.0
aF0.0
aF0.0
aF0.0
aF0.0
aF0.0
aF0.0
aF0.0
aF0.0
aF0.0
aF0.0
aF0.0
aF0.0
aF0.0
aF0.0
aF0.0
aF0.0
aF0.0
aF0.0
aF0.0
aF0.0
aF0.0
aF0.0
aF0.0
aF-0.024964839993760004
aF0.0
aF-0.04562285184976751
aF0.0
aF0.0
aF0.0
aF0.0
aF0.0
aF0.0
aF0.0
aF0.0
aF0.0
aF0.0
aF0.0
aF0.0
aF-0.02499986038283304
aF0.025000132341353842
aF0.0
aF0.0
aF0.0
aF0.0
aF0.0
aF0.0
aF0.0
aF0.0
aF0.0
aF0.0
aF0.0
aF0.0
aF0.0
aF-0.0062500526752836795
aF0.0
aF0.0
aF0.0
aF0.0
aF0.0
aF0.0
aF0.0
aF0.0
aF0.0
aF0.0
aF0.0
aF0.0
aF0.0
aF0.0
aF0.0
aF0.0
aF0.0
aF0.0
aF0.0
aF0.0
aF0.0
aF-0.045687344122393864
aF0.0
aF0.0
aF0.0
aF0.0
aF0.0
aF0.0
aF0.0
aF0.0
aF0.0
aF0.0
aF0.0
aF0.0
aF0.0
aF0.0
aF0.0
aF0.0
aF0.0
aF0.0
aF0.0
aF0.0
aF0.0
aF0.0
aF0.0
aF0.0
aF0.0
aF0.0
aF0.0
aF0.0
aF0.0
aF0.0
aF0.0
aF0.0
aF0.0
aF0.0
aF0.0
aF0.0
aF0.0
aF0.0
aF0.0
aF0.0
aF0.0
aF0.0
aF0.0
aF-0.024999004907403168
aF0.0
aF0.0
aF0.0
aF0.0
aF0.0
aF0.0
aF0.0
aF0.0
aF0.0
aF0.0
aF0.0
aF0.0
aF0.0
aF0.0
aF0.0
aF0.0
aF0.0
aF0.0
aF0.0
aF0.0
aF0.0
aF0.0
aF0.0
aF0.0
aF0.0
aF0.0
aF0.0
aF0.0
aF0.0
aF0.0
aF0.0
aF0.0
aF0.0
aF0.0
aF0.0
aF0.0
aF0.0
aF0.0
aF0.0
aF0.0
aF0.0
aF0.0
aF0.0
aF0.0
aF0.0
aF0.0
aF0.0
aF0.0
aF0.0
aF0.0
aF0.0
aF0.0
aF-0.012460904553439744
aF0.0
aF0.0
aF0.0
aF0.0
aF0.0
aF0.0
aF0.0
aF0.0
aF0.0
aF0.0
aF0.0
aF0.0
aF0.0
aF0.0
aF0.0
aF0.0
aF0.0
aF0.0
aF0.0
aF0.0
aF0.0
aF0.0
aF0.0
aF-0.024999646955657095
aF0.0
aF0.0
aF0.0
aF0.0
aF0.0
aF0.0
aF0.0
aF0.0
aF0.0
aF0.0
aF0.0
aF0.0
aF0.0
aF0.0
aF0.0
aF0.0
aF0.0
aF0.0
aF0.0
aF0.0
aF-0.022960914994851252
aF0.0
aF0.0
aF0.0
aF0.0
aF0.0
aF-0.025000061924840434
aF0.0
aF0.0
aF-0.012460156963337
aF0.0
aF0.0
aF0.0
aF0.0
aF0.0
aF0.0
aF0.0
aF0.0
aF0.0
aF0.0
aF0.0
aF0.0
aF0.0
aF0.0
aF0.0
aF0.0
aF0.0
aF0.0
aF0.0
aF0.0
aF0.0
aF0.0
aF0.0
aF0.0
aF0.0
aF0.0
aF0.0
aF0.0
aF0.0
aF0.0
aF0.0
aF0.0
aF0.0
aF0.0
aF0.0
aF0.0
aF0.0
aF0.0
aF0.0
aF0.0
aF0.0
aF0.0
aF0.0
aF0.0
aF0.0
aF0.0
aF0.0
aF0.0
aF0.0
aF0.0
aF0.0
aF0.0
aF0.0
aF0.0
aF0.0
aF-0.03904173096358098
aF0.0
aF0.0
aF0.0
aF0.0
aF0.0
aF0.0
aF0.0
aF0.0
aF0.0
aF0.0
aF0.0
aF0.0
aF0.0
aF0.0
aF0.004999980347459454
aF0.0
aF0.0
aF0.0
aF0.0
aF0.0
aF0.0
aF0.0
aF0.0
aF0.0
aF0.0
aF0.0
aF0.0
aF-0.02499966658083752
aF0.0
aF0.0
aF0.0
aF0.0
aF0.0
aF0.0
aF0.0
aF0.0
aF0.0
aF0.0
aF0.0
aF0.0
aF0.0
aF0.0
aF0.0
aF0.0
aF0.0
aF0.0
aF0.0
aF0.0
aF0.0
aF0.0
aF0.0
aF0.0
aF0.0
aF0.0
aF0.0
aF0.0
aF-0.012499997628318904
aF0.0
aF0.0
aF0.0
aF0.0
aF0.0
aF0.0
aF0.0
aF0.0
aF0.0
aF0.0
aF0.0
aF0.0
aF0.0
aF0.0
aF0.0
aF0.0
aF0.0
aF0.0
aF0.0
aF0.0
aF0.0
aF0.0
aF0.0
aF0.0
aF0.0
aF0.0
aF0.0
aF0.0
aF0.0
aF0.0
aF0.0
aF0.0
aF0.0
aF0.0
aF0.0
aF0.0
aF0.0
aF0.0
aF0.0
aF0.0
aF0.0
aF0.0
aF0.0
aF0.0
aF0.0
aF0.0
aF0.0
aF0.0
aF0.0
aF0.0
aF0.0
aF0.0
aF0.0
aF0.0
aF0.0
aF0.0
aF0.0
aF-0.02493594523250313
aF0.0
aF0.0
aF-0.022960548498647176
aF0.0
aF0.0
aF0.0
aF0.0
aF0.0
aF0.0
aF0.0
aF0.0
aF0.0
aF0.0
aF0.0
aF0.0
aF0.0
aF0.0
aF0.0
aF0.0
aF0.0
aF0.0
aF0.0
aF0.0
aF0.0
aF0.0
aF0.0
aF0.0
aF0.0
aF0.0
aF0.0
aF0.0
aF0.0
aF0.0
aF0.0
aF0.0
aF0.0
aF0.0
aF0.0
aF0.0
aF0.0
aF0.0
aF0.0
aF-0.015321657162640749
aF0.0
aF0.0
aF0.0
aF0.0
aF0.0
aF0.0
aF-0.02499954622391019
aF0.0
aF0.0
aF0.0
aF0.0
aF0.0
aF0.0
aF0.0
aF0.0
aF0.0
aF0.0
aF0.0
aF0.0
aF0.0
aF0.0
aF0.0
aF0.0
aF0.0
aF0.0
aF0.0
aF0.0
aF0.0
aF0.0
aF0.0
aF0.0
aF0.0
aF0.0
aF0.0
aF0.0
aF0.0
aF0.0
aF0.0
aF-0.008332976231705922
aF0.0
aF0.0
aF0.0
aF0.0
aF0.0
aF0.0
aF0.0
aF0.0
aF0.0
aF0.0
aF0.0
aF0.0
aF0.0
aF-0.07697259429187184
aF0.0
aF0.0
aF0.0
aF0.0
aF-0.024999811898634934
aF0.0
aF0.0
aF0.0
aF0.0
aF0.0
aF0.0
aF0.0
aF0.0
aF0.0
aF0.0
aF0.0
aF0.0
aF0.0
aF0.0
aF0.0
aF0.0
aF0.0
aF0.0
aF0.0
aF0.0
aF0.0
aF0.0
aF-0.024999643070522833
aF0.0
aF0.0
aF0.0
aF0.0
aF0.0
aF0.0
aF0.0
aF0.0
aF0.0
aF0.0
aF0.0
aF0.0
aF0.0
aF0.0
aF0.0
aF0.0
aF0.0
aF0.0
aF0.0
aF0.0
aF0.0
aF0.0
aF0.0
aF0.0
aF0.0
aF0.0
aF0.0
aF0.0
aF0.0
aF0.0
aF0.0
aF0.0
aF0.0
aF0.0
aF0.0
aF0.0
aF0.0
aF-0.00277778310580205
aF0.0
aF0.0
aF0.0
aF0.0
aF0.0
aF0.0
aF0.0
aF0.0
aF0.0
aF0.0
aF0.0
aF0.0
aF0.0
aF0.0
aF0.0
aF0.0
aF0.0
aF0.0
aF0.0
aF0.0
aF0.0
aF0.0
aF0.0
aF0.0
aF0.0
aF0.0
aF0.0
aF0.0
aF0.0
aF0.0
aF0.0
aF0.0
aF0.0
aF0.0
aF0.0
aF0.0
aF0.0
aF0.0
aF0.0
aF0.0
aF0.0
aF0.0
aF0.0
aF-0.025
aF0.0
aF0.0
aF0.0
aF0.0
aF0.0
aF0.0
aF-0.024999676825590726
aF0.0
aF0.0
aF0.0
aF0.0
aF0.0
aF0.0
aF0.0
aF0.0
aF0.0
aF0.0
aF0.0
aF0.0
aF0.0
aF0.0
aF0.0
aF0.0
aF0.0
aF0.0
aF0.0
aF0.0
aF0.0
aF0.0
aF0.0
aF0.0
aF0.0
aF0.0
aF0.0
aF0.0
aF0.0
aF0.0
aF0.0
aF0.0
aF0.0
aF0.0
aF-0.008333324783010227
aF0.0
aF0.0
aF0.0
aF0.0
aF0.0
aF0.0
aF0.0
aF0.0
aF0.0
aF0.0
aF0.0
aF0.0
aF0.0
aF0.0
aF0.0
aF0.0
aF0.0
aF0.0
aF0.0
aF0.0
aF0.0
aF0.0
aF0.0
aF0.0
aF0.0
aF0.0
aF0.0
aF0.0
aF0.0
aF0.0
aF0.0
aF0.0
aF0.0
aF0.0
aF0.0
aF0.0
aF0.0
aF0.0
aF0.0
aF0.0
aF0.0
aF0.0
aF0.0
aF0.0
aF0.0
aF0.0
aF0.0
aF0.0
aF0.0
aF0.0
aF0.0
aF0.0
aF0.0
aF0.0
aF0.0
aF0.0
aF0.0
aF0.0
aF0.0
aF0.0
aF0.0
aF0.0
aF0.0
aF0.0
aF0.0
aF0.0
aF0.0
aF0.0
aF0.0
aF0.0
aF-0.025000358714129978
aF0.0
aF0.0
aF0.0
aF0.0
aF0.0
aF0.0
aF0.0
aF0.0
aF0.0
aF0.0
aF0.0
aF0.0
aF0.0
aF0.0
aF0.0
aF0.0
aF0.0
aF0.0
aF0.0
aF0.0
aF0.0
aF0.0
aF0.0
aF0.0
aF0.0
aF0.0
aF0.0
aF0.0
aF0.0
aF0.0
aF0.0
aF0.0
aF0.0
aF0.0
aF0.0
aF0.0
aF0.0
aF0.0
aF0.0
aF0.0
aF0.0
aF0.0
aF0.0
aF0.0
aF0.0
aF0.0
aF0.0
aF0.0
aF0.0
aF0.0
aF0.0
aF0.0
aF0.0
aF0.0
aF0.0
aF0.024999984941268257
aF0.0
aF0.0
aF0.0
aF0.0
aF0.0
aF0.0
aF0.0
aF0.0
aF0.0
aF0.0
aF0.0
aF0.0
aF0.0
aF0.0
aF0.0
aF0.0
aF0.0
aF0.0
aF0.0
aF0.0
aF0.0
aF0.0
aF0.0
aF0.0
aF0.0
aF0.0
aF0.0
aF-0.002777935517414446
aF0.0
aF0.0
aF0.0
aF0.0
aF0.0
aF0.0
aF0.0
aF0.0
aF0.0
aF0.0
aF0.0
aF0.0
aF0.0
aF0.0
aF0.0
aF0.0
aF0.0
aF0.0
aF0.0
aF0.0
aF0.0
aF0.0
aF0.0
aF0.0
aF0.0
aF0.0
aF0.0
aF0.0
aF0.0
aF0.0
aF0.0
aF0.0
aF0.0
aF0.0
aF0.0
aF0.0
aF0.0
aF0.0
aF0.0
aF0.0
aF0.0
aF0.0
aF-0.025000076551711665
aF0.0
aF0.0
aF0.0
aF0.0
aF0.0
aF0.0
aF0.0
aF0.0
aF0.0
aF0.0
aF0.0
aF0.0
aF0.0
aF0.0
aF0.0
aF0.0
aF0.0
aF0.0
aF0.0
aF0.0
aF0.0
aF0.0
aF0.0
aF0.0
aF0.0
aF0.0
aF0.0
aF0.0
aF0.0
aF0.0
aF0.0
aF0.0
aF0.0
aF0.0
aF0.0
aF0.0
aF0.0
aF0.0
aF0.0
aF0.0
aF0.0
aF0.0
aF0.0
aF0.0
aF0.0
aF0.0
aF0.0
aF0.0
aF0.0
aF0.0
aF0.0
aF0.0
aF0.0
aF0.0
aF0.0
aF0.0
aF0.0
aF0.0
aF0.0
aF0.0
aF0.0
aF0.0
aF0.0
aF0.0
aF0.0
aF0.0
aF0.0
aF0.0
aF0.0
aF0.0
aF0.0
aF0.0
aF0.0
aF0.0
aF0.0
aF0.0
aF0.0
aF0.0
aF0.0
aF0.0
aF0.0
aF0.0
aF0.0
aF0.0
aF0.0
aF0.0
aF0.0
aF0.0
aF0.0
aF0.0
aF0.0
aF0.0
aF0.0
aF0.0
aF0.0
aF0.0
aF0.0
aF0.0
aF0.0
aF0.0
aF0.0
aF0.0
aF0.0
aF0.0
aF0.0
aF0.0
aF0.0
aF0.0
aF0.0
aF0.0
aF0.0
aF0.0
aF0.0
aF0.0
aF0.0
aF0.0
aF0.0
aF0.0
aF0.0
aF0.0
aF0.0
aF0.0
aF0.0
aF0.0
aF0.0
aF0.0
aF0.0
aF0.0
aF0.0
aF0.0
aF0.0
aF0.0
aF0.0
aF0.0
aF0.0
aF0.0
aF0.0
aF0.0
aF0.0
aF0.0
aF0.0
aF0.0
aF0.0
aF0.0
aF0.0
aF0.0
aF0.0
aF0.0
aF0.0
aF0.0
aF0.0
aF0.0
aF0.0
aF0.0
aF0.0
aF0.0
aF0.0
aF0.0
aF0.0
aF0.0
aF0.0
aF0.0
aF0.0
aF0.0
aF0.0
aF0.0
aF0.0
aF0.0
aF0.0
aF0.0
aF0.0
aF0.0
aF0.0
aF0.0
aF0.0
aF0.0
aF0.0
aF0.0
aF0.0
aF0.0
aF0.0
aF0.0
aF0.0
aF0.0
aF0.0
aF0.0
aF0.0
aF0.0
aF0.0
aF0.0
aF0.0
aF0.0
aF0.0
aF0.0
aF0.0
aF0.0
aF0.0
aF0.0
aF0.0
aF0.0
aF0.0
aF0.0
aF0.0
aF0.0
aF0.0
aF0.0
aF0.0
aF0.0
aF0.0
aF0.0
aF0.0
aF0.0
aF0.0
aF0.0
aF0.0
aF0.0
aF0.0
aF0.0
aF0.0
aF0.0
aF0.0
aF0.0
aF0.0
aF0.0
aF0.0
aF0.0
aF0.0
aF0.0
aF0.0
aF0.0
aF0.0
aF0.0
aF0.0
aF0.0
aF0.0
aF0.0
aF0.0
aF0.0
aF0.0
aF0.0
aF0.0
aF0.0
aF0.0
aF0.0
aF0.0
aF0.0
aF0.0
aF0.0
aF0.0
aF0.0
aF0.0
aF0.0
aF0.0
aF0.0
aF0.0
aF0.0
aF0.0
aF0.0
aF0.0
aF0.0
aF0.0
aF0.0
aF0.0
aF0.0
aF0.0
aF0.0
aF0.0
aF0.0
aF0.0
aF0.0
aF0.0
aF0.0
aF0.0
aF0.0
aF0.0
aF0.0
aF0.0
aF0.0
aF0.0
aF0.0
aF0.0
aF0.0
aF0.0
aF0.0
aF0.0
aF0.0
aF0.0
aF0.0
aF0.0
aF0.0
aF0.0
aF0.0
aF0.0
aF0.0
aF0.0
aF0.0
aF0.0
aF0.0
aF0.0
aF0.0
aF0.0
aF0.0
aF0.0
aF0.0
aF0.0
aF0.0
aF0.0
aF0.0
aF0.0
aF0.0
aF0.0
aF0.0
aF0.0
aF0.0
aF0.0
aF0.0
aF0.0
aF0.0
aF0.0
aF0.0
aF0.0
aF0.0
aF0.0
aF0.0
aF0.0
aF0.0
aF0.0
aF0.0
aF0.0
aF0.0
aF0.0
aF0.0
aF0.0
aF0.0
aF0.0
aF0.0
aF0.0
aF0.0
aF0.0
aF0.0
aF0.0
aF0.0
aF0.0
aF0.0
aF0.0
aF0.0
aF0.0
aF0.0
aF0.0
aF0.0
aF0.0
aF0.0
aF0.0
aF0.0
aF0.0
aF0.0
aF0.0
aF0.0
aF0.0
aF0.0
aF0.0
aF0.0
aF0.0
aF0.0
aF0.0
aF0.0
aF0.0
aF0.0
aF0.0
aF0.0
aF0.0
aF0.0
aF0.0
aF0.0
aF0.0
aF0.0
aF0.0
aF0.0
aF0.0
aF0.0
aF0.0
aF0.0
aF0.0
aF0.0
aF0.0
aF0.0
aF0.0
aF0.0
aF0.0
aF0.0
aF0.0
aF0.0
aF0.0
aF0.0
aF0.0
aF0.0
aF0.0
aF0.0
aF0.0
aF0.0
aF0.0
aF0.0
aF0.0
aF0.0
aF0.0
aF0.0
aF0.0
aF0.0
aF0.0
aF0.0
aF0.0
aF0.0
aF0.0
aF0.0
aF0.0
aF0.0
aF0.0
aF0.0
aF0.0
aF0.0
aF0.0
aF0.0
aF0.0
aF0.0
aF0.0
aF0.0
aF0.0
aF0.0
aF0.0
aF0.0
aF0.0
aF0.0
aF0.0
aF0.0
aF0.0
aF0.0
aF0.0
aF0.0
aF0.0
aF0.0
aF0.0
aF0.0
aF0.0
aF0.0
aF0.0
aF0.0
aF0.0
aF0.0
aF0.0
aF0.0
aF0.0
aF0.0
aF0.0
aF0.0
aF0.0
aF0.0
aF0.0
aF0.0
aF0.0
aF0.0
aF0.0
aF0.0
aF0.0
aF0.0
aF0.0
aF0.0
aF0.0
aF0.0
aF0.0
aF0.0
aF0.0
aF0.0
aF0.0
aF0.0
aF0.0
aF0.0
aF0.0
aF0.0
aF0.0
aF0.0
aF0.0
aF0.0
aF0.0
aF0.0
aF0.0
aF0.0
aF0.0
aF0.0
aF0.0
aF0.0
aF0.0
aF0.0
aF0.0
aF0.0
aF0.0
aF0.0
aF0.0
aF0.0
aF0.0
aF0.0
aF0.0
aF0.0
aF0.0
aF0.0
aF0.0
aF0.0
aF0.0
aF0.0
aF0.0
aF0.0
aF0.0
aF0.0
aF0.0
aF0.0
aF0.0
aF0.0
aF0.0
aF0.0
aF0.0
aF0.0
aF0.0
aF0.0
aF0.0
aF0.0
aF0.0
aF0.0
aF0.0
aF0.0
aF0.0
aF0.0
aF0.0
aF0.0
aF0.0
aF0.0
aF0.0
aF0.0
aF0.0
aF0.0
aF0.0
aF0.0
aF0.0
aF0.0
aF0.0
aF0.0
aF0.0
aF0.0
aF0.0
aF0.0
aF0.0
aF0.0
aF0.0
aF0.0
aF0.0
aF0.0
aF0.0
aF0.0
aF0.0
aF0.0
aF0.0
aF0.0
aF0.0
aF0.0
aF0.0
aF0.0
aF0.0
aF0.0
aF0.0
aF0.0
aF0.0
aF0.0
aF0.0
aF0.0
aF0.0
aF0.0
aF0.0
aF0.0
aF0.0
aF0.0
aF0.0
aF0.0
aF0.0
aF0.0
aF0.0
aF0.0
aF0.0
aF0.0
aF0.0
aF0.0
aF0.0
aF0.0
aF0.0
aF0.0
aF0.0
aF0.0
aF0.0
aF0.0
aF0.0
aF0.0
aF0.0
aF0.0
aF0.0
aF0.0
aF0.0
aF0.0
aF0.0
aF0.0
aF0.0
aF0.0
aF0.0
aF0.0
aF0.0
aF0.0
aF0.0
aF0.0
aF0.0
aF0.0
aF0.0
aF0.0
aF0.0
aF0.0
aF0.0
aF0.0
aF0.0
aF0.0
aF0.0
aF0.0
aF0.0
aF0.0
aF0.0
aF0.0
aF0.0
aF0.0
aF0.0
aF0.0
aF0.0
aF0.0
aF0.0
aF0.0
aF0.0
aF0.0
aF0.0
aF0.0
aF0.0
aF0.0
aF0.0
aF0.0
aF0.0
aF0.0
aF0.0
aF0.0
aF0.0
aF0.0
aF0.0
aF0.0
aF0.0
aF0.0
aF0.0
aF0.0
aF0.0
aF0.0
aF0.0
aF0.0
aF0.0
aF0.0
aF0.0
aF0.0
aF0.0
aF0.0
aF0.0
aF0.0
aF0.0
aF0.0
aF0.0
aF0.0
aF0.0
aF0.0
aF0.0
aF0.0
aF0.0
aF0.0
aF0.0
aF0.0
aF0.0
aF0.0
aF0.0
aF0.0
aF0.0
aF0.0
aF0.0
aF0.0
aF0.0
aF0.0
aF0.0
aF0.0
aF0.0
aF0.0
aF0.0
aF0.0
aF0.0
aF0.0
aF0.0
aF0.0
aF0.0
aF0.0
aF0.0
aF0.0
aF0.0
aF0.0
aF0.0
aF0.0
aF0.0
aF0.0
aF0.0
aF0.0
aF0.0
aF0.0
aF0.0
aF0.0
aF0.0
aF0.0
aF0.0
aF0.0
aF0.0
aF0.0
aF0.0
aF0.0
aF0.0
aF0.0
aF0.0
aF0.0
aF0.0
aF0.0
aF0.0
aF0.0
aF0.0
aF0.0
aF0.0
aF0.0
aF0.0
aF0.0
aF0.0
aF0.0
aF0.0
aF0.0
aF0.0
aF0.0
aF0.0
aF0.0
aF0.0
aF0.0
aF0.0
aF0.0
aF0.0
aF0.0
aF0.0
aF0.0
aF0.0
aF0.0
aF0.0
aF0.0
aF0.0
aF0.0
aF0.0
aF0.0
aF0.0
aF0.0
aF0.0
aF0.0
aF0.0
aF0.0
aF0.0
aF0.0
aF0.0
aF0.0
aF0.0
aF0.0
aF0.0
aF0.0
aF0.0
aF0.0
aF0.0
aF0.0
aF0.0
aF0.0
aF0.0
aF0.0
aF0.0
aF0.0
aF0.0
aF0.0
aF0.0
aF0.0
aF0.0
aF0.0
aF0.0
aF0.0
aF0.0
aF0.0
aF0.0
aF0.0
aF0.0
aF0.0
aF0.0
aF0.0
aF0.0
aF0.0
aF0.0
aF0.0
aF0.0
aF0.0
aF0.0
aF0.0
aF0.0
aF0.0
aF0.0
aF0.0
aF0.0
aF0.0
aF0.0
aF0.0
aF0.0
aF0.0
aF0.0
aF0.0
aF0.0
aF0.0
aF0.0
aF0.0
aF0.0
aF0.0
aF0.0
aF0.0
aF0.0
aF0.0
aF0.0
aF0.0
aF0.0
aF0.0
aF0.0
aF0.0
aF0.0
aF0.0
aF0.0
aF0.0
aF0.0
aF0.0
aF0.0
aF0.0
aF0.0
aF0.0
aF0.0
aF0.0
aF0.0
aF0.0
aF0.0
aF0.0
aF0.0
aF0.0
aF0.0
aF0.0
aF0.0
aF0.0
aF0.0
aF0.0
aF0.0
aF0.0
aF0.0
aF0.0
aF0.0
aF0.0
aF0.0
aF0.0
aF0.0
aF0.0
aF0.0
aF0.0
aF0.0
aF0.0
aF0.0
aF0.0
aF0.0
aF0.0
aF0.0
aF0.0
aF0.0
aF0.0
aF0.0
aF0.0
aF0.0
aF0.0
aF0.0
aF0.0
aF0.0
aF0.0
aF0.0
aF0.0
aF0.0
aF0.0
aF0.0
aF0.0
aF0.0
aF0.0
aF0.0
aF0.0
aF0.0
aF0.0
aF0.0
aF0.0
aF0.0
aF0.0
aF0.0
aF0.0
aF0.0
aF0.0
aF0.0
aF0.0
aF0.0
aF0.0
aF0.0
aF0.0
aF0.0
aF0.0
aF0.0
aF0.0
aF0.0
aF0.0
aF0.0
aF0.0
aF0.0
aF0.0
aF0.0
aF0.0
aF0.0
aF0.0
aF0.0
aF0.0
aF0.0
aF0.0
aF0.0
aF0.0
aF0.0
aF0.0
aF0.0
aF0.0
aF0.0
aF0.0
aF0.0
aF0.0
aF0.0
aF0.0
aF0.0
aF0.0
aF0.0
aF0.0
aF0.0
aF0.0
aF0.0
aF0.0
aF0.0
aF0.0
aF0.0
aF0.0
aF0.0
aF0.0
aF0.0
aF0.0
aF0.0
aF0.0
aF0.0
aF0.0
aF0.0
aF0.0
aF0.0
aF0.0
aF0.0
aF0.0
aF0.0
aF0.0
aF0.0
aF0.0
aF0.0
aF0.0
aF0.0
aF0.0
aF0.0
aF0.0
aF0.0
aF0.0
aF0.0
aF0.0
aF0.0
aF0.0
aF0.0
aF0.0
aF0.0
aF0.0
aF0.0
aF0.0
aF0.0
aF0.0
aF0.0
aF0.0
aF0.0
aF0.0
aF0.0
aF0.0
aF0.0
aF0.0
aF0.0
aF0.0
aF0.0
aF0.0
aF0.0
aF0.0
aF0.0
aF0.0
aF0.0
aF0.0
aF0.0
aF0.0
aF0.0
aF0.0
aF0.0
aF0.0
aF0.0
aF0.0
aF0.0
aF0.0
aF0.0
aF0.0
aF0.0
aF0.0
aF0.0
aF0.0
aF0.0
aF0.0
aF0.0
aF0.0
aF0.0
aF0.0
aF0.0
aF0.0
aF0.0
aF0.0
aF0.0
aF0.0
aF0.0
aF0.0
aF0.0
aF0.0
aF0.0
aF0.0
aF0.0
aF0.0
aF0.0
aF0.0
aF0.0
aF0.0
aF0.0
aF0.0
aF0.0
aF0.0
aF0.0
aF0.0
aF0.0
aF0.0
aF0.0
aF0.0
aF0.0
aF0.0
aF0.0
aF0.0
aF0.0
aF0.0
aF0.0
aF0.0
aF0.0
aF0.0
aF0.0
aF0.0
aF0.0
aF0.0
aF0.0
aF0.0
aF0.0
aF0.0
aF0.0
aF0.0
aF0.0
aF0.0
aF0.0
aF0.0
aF0.0
aF0.0
aF0.0
aF0.0
aF0.0
aF0.0
aF0.0
aF0.0
aF0.0
aF0.0
aF0.0
aF0.0
aF0.0
aF0.0
aF0.0
aF0.0
aF0.0
aF0.0
aF0.0
aF0.0
aF0.0
aF0.0
aF0.0
aF0.0
aF0.0
aF0.0
aF0.0
aF0.0
aF0.0
aF0.0
aF0.0
aF0.0
aF0.0
aF0.0
aF0.0
aF0.0
aF0.0
aF0.0
aF0.0
aF0.0
aF0.0
aF0.0
aF0.0
aF0.0
aF0.0
aF0.0
aF0.0
aF0.0
aF0.0
aF0.0
aF0.0
aF0.0
aF0.0
aF0.0
aF0.0
aF0.0
aF0.0
aF0.0
aF0.0
aF0.0
aF0.0
aF0.0
aF0.0
aF0.0
aF0.0
aF0.0
aF0.0
aF0.0
aF0.0
aF0.0
aF0.0
aF0.0
aF0.0
aF0.0
aF0.0
aF0.0
aF0.0
aF0.0
aF0.0
aF0.0
aF0.0
aF0.0
aF0.0
aF0.0
aF0.0
aF0.0
aF0.0
aF0.0
aF0.0
aF0.0
aF0.0
aF0.0
aF0.0
aF0.0
aF0.0
aF0.0
aF0.0
aF0.0
aF0.0
aF0.0
aF0.0
aF0.0
aF0.0
aF0.0
aF0.0
aF0.0
aF0.0
aF0.0
aF0.0
aF0.0
aF0.0
aF0.0
aF0.0
aF0.0
aF0.0
aF0.0
aF0.0
aF0.0
aF0.0
aF0.0
aF0.0
aF0.0
aF0.0
aF0.0
aF0.0
aF0.0
aF0.0
aF0.0
aF0.0
aF0.0
aF0.0
aF0.0
aF0.0
aF0.0
aF0.0
aF0.0
aF0.0
aF0.0
aF0.0
aF0.0
aF0.0
aF0.0
aF0.0
aF0.0
aF0.0
aF0.0
aF0.0
aF0.0
aF0.0
aF0.0
aF0.0
aF0.0
aF0.0
aF0.0
aF0.0
aF0.0
aF0.0
aF0.0
aF0.0
aF0.0
aF0.0
aF0.0
aF0.0
aF0.0
aF0.0
aF0.0
aF0.0
aF-0.034104512662996
aF0.0012346605846931618
aF0.0
aF-0.001417209226836903
aF0.0
aF0.0
aF0.0
aF0.0
aF0.0
aF0.0
aF0.0003654687097473124
aF0.0
aF0.0
aF0.0
aF0.0
aF0.0
aF0.0
aF0.0
aF0.0
aF0.0
aF0.0
aF0.0
aF0.0
aF0.0
aF0.0
aF0.0
aF0.0
aF0.0
aF0.0
aF0.0
aF0.0
aF0.0
aF0.0
aF0.0
aF0.0
aF0.0
aF0.0
aF0.0
aF0.0
aF0.0
aF0.0
aF0.0
aF0.0
aF0.0
aF0.0
aF0.0
aF0.0
aF0.0
aF0.0
aF0.0
aF0.0
aF0.0
aF0.0
aF0.0
aF0.0
aF0.0
aF0.0
aF0.0
aF0.0
aF0.0
aF0.0
aF0.0
aF0.0
aF0.0
aF0.0
aF0.0
aF0.0
aF0.0
aF0.0
aF0.0
aF0.0
aF0.0
aF0.0
aF0.0
aF0.0
aF-0.00010584699895665431
aF0.0
aF0.0
aF0.0
aF0.0
aF0.0001309
aF0.0
aF0.0
aF0.0
aF0.0
aF0.0
aF0.0
aF0.0
aF0.0
aF0.0
aF0.0
aF0.0
aF0.0
aF0.0
aF0.0
aF0.0
aF0.0
aF0.0
aF0.0
aF0.0
aF0.0
aF0.0
aF0.0
aF0.0
aF0.0
aF0.0
aF0.0
aF0.0
aF0.0
aF0.0
aF0.0
aF0.0
aF0.0
aF0.0
aF0.0
aF0.0
aF0.0
aF0.0
aF0.0
aF0.0
aF0.0
aF0.0
aF0.0
aF0.0
aF0.0
aF0.0
aF0.0
aF0.0
aF0.0
aF0.0
aF0.0
aF0.0
aF0.0
aF0.0
aF0.0
aF0.0
aF0.0
aF0.0
aF0.0
aF0.0
aF0.0
aF0.0
aF0.0
aF0.0
aF0.0
aF0.0
aF0.0
aF0.0
aF0.0
aF0.0
aF0.0
aF0.0
aF0.0
aF0.0
aF0.0
aF0.0
aF0.0
aF0.0
aF0.0
aF0.0
aF0.0
aF0.0
aF0.0
aF0.0
aF0.0
aF0.0
aF0.0
aF0.0
aF0.0
aF0.0
aF0.0
aF0.0
aF0.0
aF0.0
aF0.0025000000000000005
aF0.0
aF0.0
aF0.0
aF-5.7725e-05
aF0.0
aF0.0
aF0.0
aF0.0
aF0.0
aF0.0
aF0.0
aF0.0
aF0.0
aF0.0
aF0.0
aF0.0
aF0.0
aF0.0
aF0.0
aF0.0
aF0.0
aF0.0
aF0.0
aF0.0
aF0.0
aF0.0
aF0.0
aF0.0
aF0.0
aF0.0
aF0.0
aF0.0
aF0.0
aF0.0
aF0.0
aF0.0
aF0.0
aF0.0
aF0.0
aF0.0
aF0.0
aF0.0
aF0.0
aF0.0
aF0.0
aF0.0
aF0.0
aF0.0
aF0.0
aF0.0
aF0.0
aF0.0
aF0.0
aF0.0
aF0.0
aF0.0
aF0.0
aF0.0
aF0.00037880000000000005
aF0.0
aF0.0
aF0.0
aF0.0
aF0.0
aF0.0
aF0.0
aF0.0
aF0.0
aF0.0
aF0.0
aF0.0
aF0.0
aF0.0
aF0.0
aF0.0
aF0.0
aF0.0
aF0.0
aF0.0
aF0.0
aF0.0
aF0.0
aF0.0
aF0.0
aF0.0
aF0.0
aF0.0
aF0.0
aF0.0
aF0.0
aF0.0
aF0.0
aF0.0
aF0.0
aF0.0
aF0.0
aF0.0
aF0.0
aF0.0
aF0.0
aF0.0
aF0.0
aF0.0
aF0.0
aF0.0
aF0.0
aF0.0
aF0.0
aF0.0
aF0.0
aF0.0
aF0.0
aF0.0
aF0.0
aF0.0
aF0.0
aF0.0
aF0.0
aF0.0
aF0.0
aF0.0
aF0.0
aF0.0
aF0.0
aF0.0
aF0.0
aF0.0
aF0.0
aF0.0
aF0.0
aF0.0
aF0.0
aF0.0
aF0.0
aF0.0
aF0.0
aF0.0
aF0.0
aF0.0
aF0.0
aF0.0
aF0.0
aF0.0
aF0.0
aF0.0
aF0.0
aF0.0
aF0.0
aF0.0
aF0.0
aF0.0
aF0.0
aF0.0
aF0.0
aF0.0
aF0.0
aF0.0
aF0.0
aF0.0
aF0.0
aF0.0
aF0.0
aF0.0
aF0.0
aF0.0
aF0.0
aF0.0
aF0.0
aF0.0
aF0.0
aF0.0
aF0.0
aF0.0
aF0.0
aF0.0
aF0.0
aF0.0
aF0.0
aF0.0
aF0.0
aF0.0
asb.