(ilrsgd
LogisticRegressionSGD
p0
(dp1
S'mu'
p2
F0.1
sS'eta'
p3
F0.08
sS'weight'
p4
(lp5
F-0.0378851255480283
aF-0.03979888906751723
aF0.0
aF0.0
aF0.0
aF-0.04952508898901034
aF0.010582790912184177
aF-0.04635193547050754
aF-0.03935366943373408
aF0.0
aF-0.044408056414531466
aF-0.08439851935377005
aF0.0
aF-0.070637051725008
aF0.042396384482259374
aF0.0
aF-0.04011132198994995
aF-0.03991172701705998
aF-0.011518737092940393
aF0.0
aF-0.037038765202900954
aF0.0
aF0.0
aF-0.03979992007662784
aF-0.10835513787045997
aF-0.03922671524131358
aF-0.008374129507417345
aF-0.07080959261827999
aF-0.034518226721400085
aF-0.04678446144305226
aF0.10292983447503344
aF-0.019783527982252764
aF-0.039748800041124896
aF-0.06115981133496364
aF-0.06685131826753615
aF-0.06863115123319863
aF-0.03637291956308424
aF0.0
aF0.021455124849952562
aF-0.03438689722625536
aF-0.03522636351864236
aF-0.014024334479461872
aF-0.03907447193578084
aF-0.00822945647230492
aF0.0
aF-0.03673614055519555
aF-0.039663826202754535
aF-0.04019802913759252
aF-0.03572012356332688
aF0.042855418668643036
aF0.04004841651262539
aF-0.03962157791052435
aF-0.05355974265264021
aF-0.12350785687989742
aF-0.008784760080412297
aF-0.039795377255566054
aF-0.006250196800302844
aF-0.09529164140610616
aF0.0
aF0.06620579667801402
aF-0.016611383376421728
aF-0.07116626223912863
aF-0.03210919620199466
aF-0.08891873786032725
aF0.0
aF-0.037448097745541885
aF0.0
aF0.0
aF0.0444256768029366
aF0.040286251211671883
aF-0.07160283326756103
aF0.0
aF0.0
aF-0.014052241784286294
aF0.04214468769924862
aF0.0
aF0.0424562317921669
aF-0.023454425687576178
aF0.0
aF0.04020472193218245
aF0.0
aF0.0
aF-0.01991993109345564
aF0.0
aF0.0
aF-0.029054924154220563
aF-0.030985581692820424
aF-0.038694882127179274
aF0.0
aF-0.040024949392488754
aF-0.026876947703511032
aF-0.03947937695604158
aF0.0
aF-0.10743180679826832
aF-0.12182936472471759
aF-0.03999947482067768
aF-0.008208118537232328
aF-0.039241998136116736
aF-0.006668444774261539
aF-0.008356741375950216
aF-0.07046431908502876
aF0.0
aF-0.07757040178704125
aF0.0
aF-0.0374820698564223
aF0.0
aF-0.028547664284254454
aF0.0
aF-0.14117160478914048
aF-0.039711402377781195
aF-0.03979388822093967
aF-0.03921158808430364
aF-0.07084954782388886
aF-0.0720897535014762
aF0.040485419845766056
aF-0.03873166785872283
aF-0.06466500211225103
aF-0.03947062980391563
aF-0.037294688602537096
aF-0.09449494541882007
aF-0.08953543744497983
aF-0.0011883625729480554
aF-0.049101347225747057
aF0.0
aF-0.03155065350066928
aF0.0
aF0.04446112702829476
aF-0.03801817973254112
aF0.0
aF0.0
aF0.04006665414406268
aF0.0
aF-0.01399365850794438
aF0.0
aF0.0
aF-0.057895846141282695
aF-0.040063832982616114
aF0.0
aF-0.03637283846903983
aF-0.06355152660039282
aF-0.16906475762020473
aF-0.0677810613572438
aF-0.08312313073824609
aF0.0
aF0.0
aF-0.12627105357683988
aF-0.07119984176501803
aF-0.15552891751971526
aF0.0
aF0.04032081656318891
aF-0.07077123254037901
aF-0.038636090652359505
aF0.0
aF0.0
aF-0.12336358041827586
aF0.0
aF-0.03556034214293233
aF0.0
aF-0.03978777422294009
aF0.04007670889762987
aF0.009502478256466489
aF-0.03964272334642641
aF-0.019773311444915936
aF0.040456483115205874
aF-0.03999567366507267
aF-0.09259600538678493
aF0.0
aF-0.039919843142780895
aF0.0
aF-0.1257737998691455
aF0.0
aF0.0
aF-0.07093711355198111
aF-0.03873868832403102
aF-0.039496669400778034
aF-0.06983767490439237
aF0.0
aF-0.05949918519638155
aF-0.05456280663381158
aF0.0
aF-0.0005689323238217518
aF-0.07106388879781678
aF0.0
aF-0.02043507364746734
aF-0.01098564201092455
aF-0.11232064834879255
aF-0.03916123482013828
aF0.0
aF-0.005528445914482861
aF-0.017582090812344256
aF-0.038635470000675076
aF-0.13280046253096178
aF-0.039999146446944134
aF-0.058018958157675396
aF0.0
aF-0.07033003990204048
aF0.0
aF0.0
aF-0.03606172651033412
aF-0.03754975814328246
aF-0.0905509962467514
aF0.0
aF-0.007059649629374781
aF0.0
aF-0.038714194863797444
aF-0.03998903712380936
aF-0.03888341839922769
aF-0.039988256096379335
aF0.0
aF-0.024628644890561633
aF-0.03565360776110562
aF0.0
aF0.0
aF-0.07035149486498932
aF0.010999237408550577
aF0.0
aF0.0
aF-0.03867713711801715
aF-0.09336396585689927
aF-0.12532987653024397
aF-0.12774607620119544
aF-0.023986249601029894
aF-0.03924841341861735
aF-0.013572209718146579
aF-0.039875078478514174
aF0.0
aF-0.03759179529239713
aF-0.09306493170163349
aF-0.03940049229784111
aF-0.03988773304971043
aF-0.03975023365706731
aF0.0
aF0.0
aF-0.03305316773256674
aF0.0
aF0.0
aF-0.039417540110409884
aF-0.038423632411203765
aF-0.04
aF-0.04142853064189933
aF0.0
aF0.0
aF-0.03056781722452697
aF-0.0035799279955057266
aF-0.07090643996988902
aF0.0
aF0.04378299731891202
aF0.0
aF-0.01561045979009
aF0.0
aF-0.07037448952837985
aF0.0
aF-0.023943778862104956
aF0.0
aF0.0
aF0.0
aF-0.09512774947475075
aF-0.03574239433525355
aF0.0
aF-0.03970813218639299
aF0.0
aF0.0
aF0.0
aF0.040086904252192905
aF0.018046403118645922
aF-0.03753349433625826
aF-0.03687282470493707
aF0.0
aF-0.039530857412542864
aF-0.0389998688025479
aF-0.008475706903820476
aF-0.03857659913844787
aF0.0
aF0.0
aF0.04011245500491967
aF-0.06163290587532494
aF0.0
aF0.0
aF-0.03755684440056205
aF-0.04079983534059422
aF0.0
aF-0.02369288773221265
aF-0.0931720624091234
aF0.0
aF-0.1123208560228556
aF-0.03999835700361375
aF-0.03638916760027921
aF0.0
aF0.0
aF-0.0390652556544164
aF-0.03990255208071862
aF0.040389682143859906
aF0.0
aF-0.07013192188096942
aF0.0
aF-0.003114573835038402
aF0.0
aF-0.039677544402999615
aF-0.034991564000608134
aF-0.06897452473341865
aF0.0
aF0.0
aF-0.039430170854193605
aF0.03419666048358543
aF0.0
aF0.0
aF-0.03461513977498107
aF0.0
aF0.0
aF0.0
aF0.0
aF-0.04836591722036556
aF0.0
aF-0.03990799120981721
aF-0.0547032245815709
aF0.0014880746044714337
aF0.039892790773156696
aF-0.013196509809153054
aF-0.06918606133738656
aF0.0
aF0.0
aF0.0
aF-0.038401168677473785
aF0.0
aF-0.11220477679647488
aF0.0
aF-0.03998564062335615
aF0.0
aF0.0
aF-0.07123646379881372
aF0.0
aF0.0
aF-0.03980162893952632
aF0.0
aF-0.03504516245953828
aF-0.05672564037045383
aF-0.0399997611147327
aF0.0
aF0.0
aF0.0
aF-0.019734794097684253
aF0.0
aF-0.039833543333190405
aF0.04003440501861841
aF-0.03938788381516794
aF0.0
aF-0.015406236930497384
aF0.0
aF0.0
aF0.0
aF-0.1383070516044193
aF-0.03190793394835109
aF0.0
aF0.0
aF-0.036376721867128974
aF-0.05890977424779013
aF-0.088817953945889
aF-0.08809487646895978
aF-0.04
aF0.0
aF-0.06955979482795684
aF0.04163164806691363
aF0.009540615140679214
aF0.0
aF0.0
aF-0.039999555713059465
aF0.0
aF-0.04780963479531526
aF0.0
aF0.0
aF-0.012480662368183154
aF-0.03263064283090546
aF0.0
aF-0.05183166955366525
aF0.0
aF0.0
aF0.0
aF0.0
aF0.0
aF-0.036052603884197884
aF-0.06428234175126021
aF0.0
aF0.0
aF-0.07014150343623574
aF-0.0400000090760338
aF0.0
aF-0.01799618174376106
aF0.0
aF0.0
aF-0.039865691374868936
aF0.0
aF0.0
aF0.0
aF-0.03985507200416175
aF-0.12483590712205618
aF-0.003936838390563364
aF-0.03979062571115698
aF-0.07048506733740131
aF0.0
aF-0.03965076634655284
aF0.0
aF0.0
aF0.0
aF0.0
aF0.009949180559721472
aF0.0
aF-0.03964034861313185
aF0.0
aF0.0
aF0.0
aF0.0
aF-0.03854345831583552
aF0.0
aF-0.039500938316421035
aF0.0
aF0.0
aF0.0
aF-0.03999967292526903
aF0.04719995287272476
aF-0.07643928884404241
aF0.0
aF0.0
aF0.0
aF0.0
aF0.042276942008405385
aF0.0
aF0.0
aF-0.05204548899901616
aF-0.022383818816682124
aF-0.01397291192832627
aF0.0
aF0.0
aF0.0
aF0.0
aF0.0
aF0.0
aF0.0
aF0.0
aF0.0
aF-0.08075365609856214
aF-0.0686180639225098
aF0.0
aF0.0
aF-0.03305548003437504
aF-0.0410598186835688
aF-0.03999962090136187
aF0.0
aF0.0
aF0.0
aF-0.0005204408554731685
aF-0.07085913394949384
aF0.0
aF-0.03498146554859376
aF-0.03845512032359581
aF0.0
aF0.0
aF0.0
aF-0.04793661272087861
aF0.0
aF-0.0037074357862915616
aF0.0
aF0.0
aF0.0
aF0.0
aF0.0
aF0.0
aF0.0
aF-0.01946259186532672
aF0.0
aF0.0
aF-0.03763015870375684
aF0.0
aF0.0
aF0.0
aF-0.0398689276160207
aF-0.019899676120252712
aF0.0
aF0.0
aF0.0
aF0.0
aF0.0
aF0.0
aF0.04045549790635912
aF-0.09112746854343676
aF-0.007975517572778017
aF0.0
aF-0.039736870811516924
aF0.0
aF-0.08781076665990421
aF-0.03638634335306896
aF0.0
aF0.0
aF0.0
aF-0.03979838176082573
aF0.0
aF-0.03973285045315943
aF-0.0056320693178544545
aF0.0
aF0.0
aF-0.039799950414721834
aF0.0
aF-0.03140787331054044
aF-0.03896600078843568
aF0.0
aF0.04000063399829495
aF0.0
aF-0.039860502965444196
aF-0.0024664649624574282
aF0.0
aF0.0
aF0.040512087345060496
aF0.0
aF0.0
aF0.0
aF-0.03417020979440443
aF0.0
aF0.0
aF0.0
aF0.0
aF0.0
aF-0.0726639245627818
aF-0.028798537304838605
aF-0.01990389217644867
aF-0.019975065783716016
aF-0.09140937181827143
aF-0.039754110208689665
aF0.0
aF0.0
aF-0.06084309123815497
aF0.0
aF0.0
aF-0.0399995759716992
aF0.0
aF0.0
aF1.695557491256496e-05
aF0.0
aF-0.02029130107288148
aF0.0
aF0.0
aF0.02002821006122884
aF0.0
aF-0.07107789585025076
aF0.0
aF0.0
aF-0.036373264581765374
aF0.0
aF0.007478088924891831
aF0.0
aF0.0
aF0.0
aF0.0
aF0.0
aF0.0
aF0.0
aF0.0
aF-0.06549103749597478
aF0.0
aF0.0
aF0.0
aF0.0
aF0.0
aF0.0
aF-0.0360202578203972
aF-0.017294027911263016
aF0.0
aF0.0
aF0.0
aF0.0
aF-0.039997296608295464
aF-0.03190811580381808
aF0.0
aF-0.03506452864974869
aF-0.09112985248184835
aF0.0
aF0.0
aF0.0
aF0.0
aF-0.03638941089797838
aF0.0
aF-0.15615628232437825
aF0.0
aF0.0
aF-0.07110249981776094
aF0.0
aF0.0
aF0.0
aF-0.03948949304181268
aF-0.04004067070157623
aF0.0
aF-0.020014225462031413
aF-0.014310169228820613
aF0.0
aF-0.03992347012382685
aF0.0
aF0.016279717573566308
aF0.0
aF-0.07281740864467479
aF-0.0031009902570900546
aF0.0
aF-0.03980522463902857
aF0.0
aF0.0
aF0.0
aF0.0
aF-0.035749840570136034
aF-0.05024514252063311
aF-0.11109539952282635
aF-0.014711556403080745
aF0.0
aF-0.006686445510360128
aF0.0
aF0.0
aF-0.12770161358769594
aF-0.04437518979025395
aF-0.09857262488110752
aF0.0
aF0.0
aF-0.039895395930127635
aF-0.10731259426062176
aF0.0
aF0.0
aF0.0
aF0.0
aF0.04058886704934204
aF0.0
aF0.0
aF-0.04380102817987783
aF0.0
aF0.0
aF-0.018187203817154662
aF-0.03647548763463948
aF-0.035879017383728486
aF0.0
aF0.0
aF-0.04
aF0.0
aF0.0
aF0.0
aF0.0
aF0.0
aF-0.019998172503789626
aF0.0
aF0.0
aF0.0
aF0.0
aF-0.0008389292346591797
aF0.0
aF-0.07062882732745696
aF0.040000125527124446
aF-0.029505209608356908
aF0.0
aF-0.03618624024210495
aF0.0
aF0.0
aF0.0
aF-0.03963031972802555
aF0.0
aF0.0
aF0.0
aF0.0420507123768992
aF0.006083265066830754
aF-0.03910938618569516
aF0.0
aF0.0
aF-0.03986997803021976
aF-0.03276168644527226
aF-0.09603287280114589
aF0.0
aF0.0
aF-0.15632407805034723
aF0.0
aF0.0
aF0.0
aF0.014056753981681918
aF0.0
aF0.0
aF0.0
aF-0.019711902784765336
aF0.0
aF0.0748627023708591
aF0.0
aF0.0
aF0.0
aF0.0
aF0.0
aF0.0
aF-0.07091657806067084
aF0.0
aF-0.11210072537093226
aF0.0
aF-0.03638937646638482
aF0.0
aF0.0
aF-0.03055398194038997
aF-0.003119159544826503
aF-0.02677837964549938
aF-0.11427423980605786
aF0.0
aF0.0
aF0.0
aF0.0
aF0.0
aF0.0
aF0.0
aF0.0
aF0.0
aF0.0
aF-0.03996078865327902
aF0.039999966973763124
aF0.0
aF0.0
aF0.0
aF0.0
aF0.0
aF0.0
aF0.0
aF0.0
aF0.0
aF0.0
aF0.0
aF0.0
aF-0.023892588151708565
aF0.0
aF-0.036127628896176524
aF-0.03574755471068774
aF0.0
aF0.0
aF-0.019794783285356127
aF0.0
aF0.04008274451177645
aF0.0
aF-0.03895548062763073
aF-0.03983671085908437
aF-0.06447175081378302
aF0.0
aF-0.03132867010984944
aF0.0
aF0.0
aF0.0
aF-0.03974773892687527
aF0.0
aF0.0
aF0.0
aF0.0
aF0.0
aF0.008850474869919925
aF-0.001338496277982602
aF0.0
aF0.0
aF0.0
aF0.0
aF0.0
aF-0.013275653322669927
aF-0.16013895373495296
aF0.0
aF0.0
aF0.0
aF0.0
aF-0.03990645481878099
aF-0.03972785843929958
aF-0.01933637463377702
aF0.0
aF0.0
aF-0.03999936600170505
aF-0.039999857790878314
aF-0.03991230293777386
aF0.0
aF0.0
aF0.0
aF0.0
aF0.0
aF-0.08147483821747414
aF-0.16383856065931288
aF0.0
aF0.0
aF0.0
aF-0.03397515973497895
aF-0.052326558950022334
aF0.0
aF0.0
aF0.0
aF0.0
aF0.0
aF0.0
aF-0.03912281603098514
aF0.0
aF-0.01937414908849959
aF0.0
aF0.0
aF0.0
aF-0.11123715496529024
aF0.0
aF0.0
aF-0.07088038373979391
aF0.0
aF-0.039379323490000964
aF-0.09232848147887142
aF0.0
aF0.0
aF0.0
aF0.0
aF0.0
aF0.0
aF-0.03637297119263499
aF0.0
aF-0.02
aF-0.03939981845222046
aF-0.04000000825752932
aF0.0
aF0.0
aF-0.036373506049660845
aF-0.07092138135014257
aF0.0
aF-0.13736531062328278
aF0.0
aF0.008951859101969786
aF-0.019673574546539573
aF-0.06918549097297429
aF-0.0313019254692913
aF-0.03970393009385059
aF-0.015669501968862826
aF0.0
aF0.0
aF0.0
aF0.0
aF0.0
aF0.0
aF0.0
aF-0.03641428241439644
aF-0.022961879561255494
aF0.0
aF0.0
aF0.0
aF0.0
aF0.0
aF0.0
aF-0.039197474209832106
aF0.0
aF0.0
aF0.0
aF0.0
aF0.0
aF-0.0657442097927949
aF0.0
aF0.0
aF0.0
aF0.0
aF0.0
aF0.0
aF0.0
aF0.0
aF-0.02394435923870775
aF-0.07119742484091568
aF0.0
aF0.0
aF0.0
aF-0.024096667423499515
aF0.0
aF0.0
aF-0.01995010473826599
aF-0.031320316394877236
aF0.0
aF-0.08578009160275106
aF0.0
aF0.0
aF-0.015249539298617805
aF-0.04862657007922292
aF0.0
aF0.0
aF0.0
aF0.0
aF0.0
aF0.0
aF-0.008690824816617839
aF-0.0399987633724469
aF0.0
aF0.0
aF0.0
aF0.0
aF0.0
aF-0.0399998992415831
aF0.0
aF0.0
aF-0.06442082594733921
aF0.0
aF0.0
aF0.0
aF0.0
aF0.0
aF0.0
aF0.0
aF0.0
aF0.0
aF0.0
aF0.0
aF0.0
aF0.0
aF0.0
aF0.0
aF0.0
aF-0.16556670423545217
aF0.0
aF0.0
aF0.0
aF0.0
aF-0.03999907053856261
aF0.0
aF0.0
aF0.0
aF0.0
aF0.0
aF0.0
aF-0.03638357663616418
aF0.0
aF0.0
aF0.0
aF0.0
aF0.0
aF0.0
aF0.0
aF-0.039984069826313674
aF-0.019756500636165224
aF0.0
aF0.0
aF0.0
aF0.0
aF-0.03899876960279844
aF-0.039999702942903816
aF0.0
aF0.0
aF0.0
aF0.0
aF0.0
aF0.0
aF0.0
aF0.0
aF0.04000002933130569
aF0.0
aF0.0
aF0.0
aF0.0
aF0.0
aF0.0
aF0.0
aF0.04
aF0.0
aF0.0
aF-0.03638789403521425
aF-0.026665524714868587
aF-0.0033331812028705335
aF0.0
aF0.0
aF0.0
aF0.0
aF0.0
aF0.0
aF0.0
aF0.0
aF0.0
aF0.0
aF0.0
aF0.0
aF0.0
aF0.0
aF0.0
aF0.0
aF0.0
aF0.0
aF0.0
aF0.0
aF0.0
aF0.0
aF0.0
aF0.0
aF0.0
aF0.0
aF0.0
aF0.0
aF0.0
aF0.0
aF-0.039994120437805245
aF-0.03980058042774958
aF0.0
aF-0.07091126579845786
aF0.0
aF0.0
aF0.0
aF0.0
aF0.0
aF0.0
aF0.0
aF0.0
aF0.0
aF0.0
aF0.0
aF0.0
aF0.0
aF0.0
aF0.0
aF0.0
aF0.0
aF0.0
aF0.0
aF0.0
aF0.0
aF0.0
aF0.0
aF0.0
aF0.0
aF0.0
aF0.0
aF-0.039998965678630545
aF0.0
aF0.0
aF0.0
aF-0.039971723608511874
aF0.0
aF-0.03245588704146804
aF-0.06649054317996309
aF-0.016073912543817404
aF0.0
aF0.0
aF0.0
aF0.0
aF0.0
aF0.0
aF0.0
aF0.0
aF0.0
aF-0.036386359400163035
aF0.0
aF0.0
aF0.0
aF0.0
aF0.0
aF0.0
aF0.0
aF0.0
aF-0.020001066961894107
aF0.0
aF0.0
aF0.0
aF-0.03999894284164305
aF0.0
aF0.0
aF0.0
aF0.0
aF0.0
aF0.0
aF0.0
aF0.0
aF0.0
aF0.0
aF0.0
aF0.0
aF0.0
aF0.0
aF0.0
aF0.0
aF-0.040002057197905394
aF0.0
aF0.0
aF0.0
aF0.0
aF0.0
aF0.0
aF0.0
aF0.0
aF0.0
aF-0.03612754406031232
aF0.0
aF0.0
aF0.0
aF0.0
aF0.0
aF0.0
aF0.0
aF-0.03999989898199812
aF-0.0133332109751987
aF0.0
aF0.0
aF0.0
aF0.0
aF0.0
aF0.0
aF0.0
aF0.0
aF0.0
aF0.0
aF0.0
aF0.0
aF0.0
aF-0.03999829296302503
aF0.0
aF0.0
aF0.0
aF-0.03999840132420471
aF-0.17989486634744462
aF-0.17818399673235366
aF0.0
aF0.0
aF0.0
aF0.0
aF0.0
aF0.0
aF0.0
aF0.0
aF0.0
aF0.0
aF0.0
aF0.0
aF0.0
aF0.0
aF0.0
aF0.0
aF0.0
aF0.0
aF0.0
aF0.0
aF-0.03963912674837137
aF0.0
aF0.0
aF0.0
aF0.0
aF0.0
aF0.0
aF0.0
aF0.0
aF0.0
aF0.0
aF0.0
aF0.0
aF0.0
aF0.0
aF0.0
aF0.0
aF0.0
aF0.0
aF0.0
aF0.0
aF0.0
aF0.0
aF0.0
aF0.0
aF0.0
aF0.0
aF0.0
aF0.0
aF0.0
aF0.0
aF0.0
aF0.0
aF0.0
aF0.0
aF0.0
aF0.0
aF0.0
aF0.0
aF0.0
aF0.0
aF0.0
aF0.0
aF0.0
aF0.0
aF0.0
aF0.0
aF0.0
aF0.0
aF0.0
aF0.0
aF0.0
aF0.0
aF0.0
aF0.0
aF0.0
aF0.0
aF0.0
aF0.0
aF0.0
aF0.0
aF0.0
aF0.0
aF-0.03991013657629129
aF0.0
aF-0.07104406788036834
aF0.0
aF0.0
aF0.0
aF0.0
aF0.0
aF0.0
aF0.0
aF0.0
aF0.0
aF0.0
aF0.0
aF0.0
aF-0.03999965429918742
aF0.04000032707473098
aF0.0
aF0.0
aF0.0
aF0.0
aF0.0
aF0.0
aF0.0
aF0.0
aF0.0
aF0.0
aF0.0
aF0.0
aF0.0
aF-0.010000143277964566
aF0.0
aF0.0
aF0.0
aF0.0
aF0.0
aF0.0
aF0.0
aF0.0
aF0.0
aF0.0
aF0.0
aF0.0
aF0.0
aF0.0
aF0.0
aF0.0
aF0.0
aF0.0
aF0.0
aF0.0
aF0.0
aF-0.07119970576168405
aF0.0
aF0.0
aF0.0
aF0.0
aF0.0
aF0.0
aF0.0
aF0.0
aF0.0
aF0.0
aF0.0
aF0.0
aF0.0
aF0.0
aF0.0
aF0.0
aF0.0
aF0.0
aF0.0
aF0.0
aF0.0
aF0.0
aF0.0
aF0.0
aF0.0
aF0.0
aF0.0
aF0.0
aF0.0
aF0.0
aF0.0
aF0.0
aF0.0
aF0.0
aF0.0
aF0.0
aF0.0
aF0.0
aF0.0
aF0.0
aF0.0
aF0.0
aF0.0
aF-0.03999884175224384
aF0.0
aF0.0
aF0.0
aF0.0
aF0.0
aF0.0
aF0.0
aF0.0
aF0.0
aF0.0
aF0.0
aF0.0
aF0.0
aF0.0
aF0.0
aF0.0
aF0.0
aF0.0
aF0.0
aF0.0
aF0.0
aF0.0
aF0.0
aF0.0
aF0.0
aF0.0
aF0.0
aF0.0
aF0.0
aF0.0
aF0.0
aF0.0
aF0.0
aF0.0
aF0.0
aF0.0
aF0.0
aF0.0
aF0.0
aF0.0
aF0.0
aF0.0
aF0.0
aF0.0
aF0.0
aF0.0
aF0.0
aF0.0
aF0.0
aF0.0
aF0.0
aF0.0
aF-0.019899919017286997
aF0.0
aF0.0
aF0.0
aF0.0
aF0.0
aF0.0
aF0.0
aF0.0
aF0.0
aF0.0
aF0.0
aF0.0
aF0.0
aF0.0
aF0.0
aF0.0
aF0.0
aF0.0
aF0.0
aF0.0
aF0.0
aF0.0
aF0.0
aF-0.039999113529115886
aF0.0
aF0.0
aF0.0
aF0.0
aF0.0
aF0.0
aF0.0
aF0.0
aF0.0
aF0.0
aF0.0
aF0.0
aF0.0
aF0.0
aF0.0
aF0.0
aF0.0
aF0.0
aF0.0
aF0.0
aF-0.03589994514012288
aF0.0
aF0.0
aF0.0
aF0.0
aF0.0
aF-0.04000019613994118
aF0.0
aF0.0
aF-0.019898071995997985
aF0.0
aF0.0
aF0.0
aF0.0
aF0.0
aF0.0
aF0.0
aF0.0
aF0.0
aF0.0
aF0.0
aF0.0
aF0.0
aF0.0
aF0.0
aF0.0
aF0.0
aF0.0
aF0.0
aF0.0
aF0.0
aF0.0
aF0.0
aF0.0
aF0.0
aF0.0
aF0.0
aF0.0
aF0.0
aF0.0
aF0.0
aF0.0
aF0.0
aF0.0
aF0.0
aF0.0
aF0.0
aF0.0
aF0.0
aF0.0
aF0.0
aF0.0
aF0.0
aF0.0
aF0.0
aF0.0
aF0.0
aF0.0
aF0.0
aF0.0
aF0.0
aF0.0
aF0.0
aF0.0
aF0.0
aF-0.0585896529344965
aF0.0
aF0.0
aF0.0
aF0.0
aF0.0
aF0.0
aF0.0
aF0.0
aF0.0
aF0.0
aF0.0
aF0.0
aF0.0
aF0.0
aF0.007999942859315472
aF0.0
aF0.0
aF0.0
aF0.0
aF0.0
aF0.0
aF0.0
aF0.0
aF0.0
aF0.0
aF0.0
aF0.0
aF-0.039999146446944134
aF0.0
aF0.0
aF0.0
aF0.0
aF0.0
aF0.0
aF0.0
aF0.0
aF0.0
aF0.0
aF0.0
aF0.0
aF0.0
aF0.0
aF0.0
aF0.0
aF0.0
aF0.0
aF0.0
aF0.0
aF0.0
aF0.0
aF0.0
aF0.0
aF0.0
aF0.0
aF0.0
aF0.0
aF-0.02000001180195186
aF0.0
aF0.0
aF0.0
aF0.0
aF0.0
aF0.0
aF0.0
aF0.0
aF0.0
aF0.0
aF0.0
aF0.0
aF0.0
aF0.0
aF0.0
aF0.0
aF0.0
aF0.0
aF0.0
aF0.0
aF0.0
aF0.0
aF0.0
aF0.0
aF0.0
aF0.0
aF0.0
aF0.0
aF0.0
aF0.0
aF0.0
aF0.0
aF0.0
aF0.0
aF0.0
aF0.0
aF0.0
aF0.0
aF0.0
aF0.0
aF0.0
aF0.0
aF0.0
aF0.0
aF0.0
aF0.0
aF0.0
aF0.0
aF0.0
aF0.0
aF0.0
aF0.0
aF0.0
aF0.0
aF0.0
aF0.0
aF0.0
aF-0.03983969565761535
aF0.0
aF0.0
aF-0.03589903982762856
aF0.0
aF0.0
aF0.0
aF0.0
aF0.0
aF0.0
aF0.0
aF0.0
aF0.0
aF0.0
aF0.0
aF0.0
aF0.0
aF0.0
aF0.0
aF0.0
aF0.0
aF0.0
aF0.0
aF0.0
aF0.0
aF0.0
aF0.0
aF0.0
aF0.0
aF0.0
aF0.0
aF0.0
aF0.0
aF0.0
aF0.0
aF0.0
aF0.0
aF0.0
aF0.0
aF0.0
aF0.0
aF0.0
aF0.0
aF-0.023970147294654243
aF0.0
aF0.0
aF0.0
aF0.0
aF0.0
aF0.0
aF-0.03999885589634427
aF0.0
aF0.0
aF0.0
aF0.0
aF0.0
aF0.0
aF0.0
aF0.0
aF0.0
aF0.0
aF0.0
aF0.0
aF0.0
aF0.0
aF0.0
aF0.0
aF0.0
aF0.0
aF0.0
aF0.0
aF0.0
aF0.0
aF0.0
aF0.0
aF0.0
aF0.0
aF0.0
aF0.0
aF0.0
aF0.0
aF0.0
aF-0.01333242875667922
aF0.0
aF0.0
aF0.0
aF0.0
aF0.0
aF0.0
aF0.0
aF0.0
aF0.0
aF0.0
aF0.0
aF0.0
aF0.0
aF-0.11451993752408668
aF0.0
aF0.0
aF0.0
aF0.0
aF-0.03999955261140907
aF0.0
aF0.0
aF0.0
aF0.0
aF0.0
aF0.0
aF0.0
aF0.0
aF0.0
aF0.0
aF0.0
aF0.0
aF0.0
aF0.0
aF0.0
aF0.0
aF0.0
aF0.0
aF0.0
aF0.0
aF0.0
aF0.0
aF-0.03999908866608481
aF0.0
aF0.0
aF0.0
aF0.0
aF0.0
aF0.0
aF0.0
aF0.0
aF0.0
aF0.0
aF0.0
aF0.0
aF0.0
aF0.0
aF0.0
aF0.0
aF0.0
aF0.0
aF0.0
aF0.0
aF0.0
aF0.0
aF0.0
aF0.0
aF0.0
aF0.0
aF0.0
aF0.0
aF0.0
aF0.0
aF0.0
aF0.0
aF0.0
aF0.0
aF0.0
aF0.0
aF0.0
aF-0.004444464619086902
aF0.0
aF0.0
aF0.0
aF0.0
aF0.0
aF0.0
aF0.0
aF0.0
aF0.0
aF0.0
aF0.0
aF0.0
aF0.0
aF0.0
aF0.0
aF0.0
aF0.0
aF0.0
aF0.0
aF0.0
aF0.0
aF0.0
aF0.0
aF0.0
aF0.0
aF0.0
aF0.0
aF0.0
aF0.0
aF0.0
aF0.0
aF0.0
aF0.0
aF0.0
aF0.0
aF0.0
aF0.0
aF0.0
aF0.0
aF0.0
aF0.0
aF0.0
aF0.0
aF-0.04
aF0.0
aF0.0
aF0.0
aF0.0
aF0.0
aF0.0
aF-0.03999947349880656
aF0.0
aF0.0
aF0.0
aF0.0
aF0.0
aF0.0
aF0.0
aF0.0
aF0.0
aF0.0
aF0.0
aF0.0
aF0.0
aF0.0
aF0.0
aF0.0
aF0.0
aF0.0
aF0.0
aF0.0
aF0.0
aF0.0
aF0.0
aF0.0
aF0.0
aF0.0
aF0.0
aF0.0
aF0.0
aF0.0
aF0.0
aF0.0
aF0.0
aF0.0
aF-0.013333320637669809
aF0.0
aF0.0
aF0.0
aF0.0
aF0.0
aF0.0
aF0.0
aF0.0
aF0.0
aF0.0
aF0.0
aF0.0
aF0.0
aF0.0
aF0.0
aF0.0
aF0.0
aF0.0
aF0.0
aF0.0
aF0.0
aF0.0
aF0.0
aF0.0
aF0.0
aF0.0
aF0.0
aF0.0
aF0.0
aF0.0
aF0.0
aF0.0
aF0.0
aF0.0
aF0.0
aF0.0
aF0.0
aF0.0
aF0.0
aF0.0
aF0.0
aF0.0
aF0.0
aF0.0
aF0.0
aF0.0
aF0.0
aF0.0
aF0.0
aF0.0
aF0.0
aF0.0
aF0.0
aF0.0
aF0.0
aF0.0
aF0.0
aF0.0
aF0.0
aF0.0
aF0.0
aF0.0
aF0.0
aF0.0
aF0.0
aF0.0
aF0.0
aF0.0
aF0.0
aF0.0
aF-0.040000918308172644
aF0.0
aF0.0
aF0.0
aF0.0
aF0.0
aF0.0
aF0.0
aF0.0
aF0.0
aF0.0
aF0.0
aF0.0
aF0.0
aF0.0
aF0.0
aF0.0
aF0.0
aF0.0
aF0.0
aF0.0
aF0.0
aF0.0
aF0.0
aF0.0
aF0.0
aF0.0
aF0.0
aF0.0
aF0.0
aF0.0
aF0.0
aF0.0
aF0.0
aF0.0
aF0.0
aF0.0
aF0.0
aF0.0
aF0.0
aF0.0
aF0.0
aF0.0
aF0.0
aF0.0
aF0.0
aF0.0
aF0.0
aF0.0
aF0.0
aF0.0
aF0.0
aF0.0
aF0.0
aF0.0
aF0.0
aF0.039999892823401655
aF0.0
aF0.0
aF0.0
aF0.0
aF0.0
aF0.0
aF0.0
aF0.0
aF0.0
aF0.0
aF0.0
aF0.0
aF0.0
aF0.0
aF0.0
aF0.0
aF0.0
aF0.0
aF0.0
aF0.0
aF0.0
aF0.0
aF0.0
aF0.0
aF0.0
aF0.0
aF0.0
aF-0.0044449085983873675
aF0.0
aF0.0
aF0.0
aF0.0
aF0.0
aF0.0
aF0.0
aF0.0
aF0.0
aF0.0
aF0.0
aF0.0
aF0.0
aF0.0
aF0.0
aF0.0
aF0.0
aF0.0
aF0.0
aF0.0
aF0.0
aF0.0
aF0.0
aF0.0
aF0.0
aF0.0
aF0.0
aF0.0
aF0.0
aF0.0
aF0.0
aF0.0
aF0.0
aF0.0
aF0.0
aF0.0
aF0.0
aF0.0
aF0.0
aF0.0
aF0.0
aF0.0
aF-0.040000231719403
aF0.0
aF0.0
aF0.0
aF0.0
aF0.0
aF0.0
aF0.0
aF0.0
aF0.0
aF0.0
aF0.0
aF0.0
aF0.0
aF0.0
aF0.0
aF0.0
aF0.0
aF0.0
aF0.0
aF0.0
aF0.0
aF0.0
aF0.0
aF0.0
aF0.0
aF0.0
aF0.0
aF0.0
aF0.0
aF0.0
aF0.0
aF0.0
aF0.0
aF0.0
aF0.0
aF0.0
aF0.0
aF0.0
aF0.0
aF0.0
aF0.0
aF0.0
aF0.0
aF0.0
aF0.0
aF0.0
aF0.0
aF0.0
aF0.0
aF0.0
aF0.0
aF0.0
aF0.0
aF0.0
aF0.0
aF0.0
aF0.0
aF0.0
aF0.0
aF0.0
aF0.0
aF0.0
aF0.0
aF0.0
aF0.0
aF0.0
aF0.0
aF0.0
aF0.0
aF0.0
aF0.0
aF0.0
aF0.0
aF0.0
aF0.0
aF0.0
aF0.0
aF0.0
aF0.0
aF0.0
aF0.0
aF0.0
aF0.0
aF0.0
aF0.0
aF0.0
aF0.0
aF0.0
aF0.0
aF0.0
aF0.0
aF0.0
aF0.0
aF0.0
aF0.0
aF0.0
aF0.0
aF0.0
aF0.0
aF0.0
aF0.0
aF0.0
aF0.0
aF0.0
aF0.0
aF0.0
aF0.0
aF0.0
aF0.0
aF0.0
aF0.0
aF0.0
aF0.0
aF0.0
aF0.0
aF0.0
aF0.0
aF0.0
aF0.0
aF0.0
aF0.0
aF0.0
aF0.0
aF0.0
aF0.0
aF0.0
aF0.0
aF0.0
aF0.0
aF0.0
aF0.0
aF0.0
aF0.0
aF0.0
aF0.0
aF0.0
aF0.0
aF0.0
aF0.0
aF0.0
aF0.0
aF0.0
aF0.0
aF0.0
aF0.0
aF0.0
aF0.0
aF0.0
aF0.0
aF0.0
aF0.0
aF0.0
aF0.0
aF0.0
aF0.0
aF0.0
aF0.0
aF0.0
aF0.0
aF0.0
aF0.0
aF0.0
aF0.0
aF0.0
aF0.0
aF0.0
aF0.0
aF0.0
aF0.0
aF0.0
aF0.0
aF0.0
aF0.0
aF0.0
aF0.0
aF0.0
aF0.0
aF0.0
aF0.0
aF0.0
aF0.0
aF0.0
aF0.0
aF0.0
aF0.0
aF0.0
aF0.0
aF0.0
aF0.0
aF0.0
aF0.0
aF0.0
aF0.0
aF0.0
aF0.0
aF0.0
aF0.0
aF0.0
aF0.0
aF0.0
aF0.0
aF0.0
aF0.0
aF0.0
aF0.0
aF0.0
aF0.0
aF0.0
aF0.0
aF0.0
aF0.0
aF0.0
aF0.0
aF0.0
aF0.0
aF0.0
aF0.0
aF0.0
aF0.0
aF0.0
aF0.0
aF0.0
aF0.0
aF0.0
aF0.0
aF0.0
aF0.0
aF0.0
aF0.0
aF0.0
aF0.0
aF0.0
aF0.0
aF0.0
aF0.0
aF0.0
aF0.0
aF0.0
aF0.0
aF0.0
aF0.0
aF0.0
aF0.0
aF0.0
aF0.0
aF0.0
aF0.0
aF0.0
aF0.0
aF0.0
aF0.0
aF0.0
aF0.0
aF0.0
aF0.0
aF0.0
aF0.0
aF0.0
aF0.0
aF0.0
aF0.0
aF0.0
aF0.0
aF0.0
aF0.0
aF0.0
aF0.0
aF0.0
aF0.0
aF0.0
aF0.0
aF0.0
aF0.0
aF0.0
aF0.0
aF0.0
aF0.0
aF0.0
aF0.0
aF0.0
aF0.0
aF0.0
aF0.0
aF0.0
aF0.0
aF0.0
aF0.0
aF0.0
aF0.0
aF0.0
aF0.0
aF0.0
aF0.0
aF0.0
aF0.0
aF0.0
aF0.0
aF0.0
aF0.0
aF0.0
aF0.0
aF0.0
aF0.0
aF0.0
aF0.0
aF0.0
aF0.0
aF0.0
aF0.0
aF0.0
aF0.0
aF0.0
aF0.0
aF0.0
aF0.0
aF0.0
aF0.0
aF0.0
aF0.0
aF0.0
aF0.0
aF0.0
aF0.0
aF0.0
aF0.0
aF0.0
aF0.0
aF0.0
aF0.0
aF0.0
aF0.0
aF0.0
aF0.0
aF0.0
aF0.0
aF0.0
aF0.0
aF0.0
aF0.0
aF0.0
aF0.0
aF0.0
aF0.0
aF0.0
aF0.0
aF0.0
aF0.0
aF0.0
aF0.0
aF0.0
aF0.0
aF0.0
aF0.0
aF0.0
aF0.0
aF0.0
aF0.0
aF0.0
aF0.0
aF0.0
aF0.0
aF0.0
aF0.0
aF0.0
aF0.0
aF0.0
aF0.0
aF0.0
aF0.0
aF0.0
aF0.0
aF0.0
aF0.0
aF0.0
aF0.0
aF0.0
aF0.0
aF0.0
aF0.0
aF0.0
aF0.0
aF0.0
aF0.0
aF0.0
aF0.0
aF0.0
aF0.0
aF0.0
aF0.0
aF0.0
aF0.0
aF0.0
aF0.0
aF0.0
aF0.0
aF0.0
aF0.0
aF0.0
aF0.0
aF0.0
aF0.0
aF0.0
aF0.0
aF0.0
aF0.0
aF0.0
aF0.0
aF0.0
aF0.0
aF0.0
aF0.0
aF0.0
aF0.0
aF0.0
aF0.0
aF0.0
aF0.0
aF0.0
aF0.0
aF0.0
aF0.0
aF0.0
aF0.0
aF0.0
aF0.0
aF0.0
aF0.0
aF0.0
aF0.0
aF0.0
aF0.0
aF0.0
aF0.0
aF0.0
aF0.0
aF0.0
aF0.0
aF0.0
aF0.0
aF0.0
aF0.0
aF0.0
aF0.0
aF0.0
aF0.0
aF0.0
aF0.0
aF0.0
aF0.0
aF0.0
aF0.0
aF0.0
aF0.0
aF0.0
aF0.0
aF0.0
aF0.0
aF0.0
aF0.0
aF0.0
aF0.0
aF0.0
aF0.0
aF0.0
aF0.0
aF0.0
aF0.0
aF0.0
aF0.0
aF0.0
aF0.0
aF0.0
aF0.0
aF0.0
aF0.0
aF0.0
aF0.0
aF0.0
aF0.0
aF0.0
aF0.0
aF0.0
aF0.0
aF0.0
aF0.0
aF0.0
aF0.0
aF0.0
aF0.0
aF0.0
aF0.0
aF0.0
aF0.0
aF0.0
aF0.0
aF0.0
aF0.0
aF0.0
aF0.0
aF0.0
aF0.0
aF0.0
aF0.0
aF0.0
aF0.0
aF0.0
aF0.0
aF0.0
aF0.0
aF0.0
aF0.0
aF0.0
aF0.0
aF0.0
aF0.0
aF0.0
aF0.0
aF0.0
aF0.0
aF0.0
aF0.0
aF0.0
aF0.0
aF0.0
aF0.0
aF0.0
aF0.0
aF0.0
aF0.0
aF0.0
aF0.0
aF0.0
aF0.0
aF0.0
aF0.0
aF0.0
aF0.0
aF0.0
aF0.0
aF0.0
aF0.0
aF0.0
aF0.0
aF0.0
aF0.0
aF0.0
aF0.0
aF0.0
aF0.0
aF0.0
aF0.0
aF0.0
aF0.0
aF0.0
aF0.0
aF0.0
aF0.0
aF0.0
aF0.0
aF0.0
aF0.0
aF0.0
aF0.0
aF0.0
aF0.0
aF0.0
aF0.0
aF0.0
aF0.0
aF0.0
aF0.0
aF0.0
aF0.0
aF0.0
aF0.0
aF0.0
aF0.0
aF0.0
aF0.0
aF0.0
aF0.0
aF0.0
aF0.0
aF0.0
aF0.0
aF0.0
aF0.0
aF0.0
aF0.0
aF0.0
aF0.0
aF0.0
aF0.0
aF0.0
aF0.0
aF0.0
aF0.0
aF0.0
aF0.0
aF0.0
aF0.0
aF0.0
aF0.0
aF0.0
aF0.0
aF0.0
aF0.0
aF0.0
aF0.0
aF0.0
aF0.0
aF0.0
aF0.0
aF0.0
aF0.0
aF0.0
aF0.0
aF0.0
aF0.0
aF0.0
aF0.0
aF0.0
aF0.0
aF0.0
aF0.0
aF0.0
aF0.0
aF0.0
aF0.0
aF0.0
aF0.0
aF0.0
aF0.0
aF0.0
aF0.0
aF0.0
aF0.0
aF0.0
aF0.0
aF0.0
aF0.0
aF0.0
aF0.0
aF0.0
aF0.0
aF0.0
aF0.0
aF0.0
aF0.0
aF0.0
aF0.0
aF0.0
aF0.0
aF0.0
aF0.0
aF0.0
aF0.0
aF0.0
aF0.0
aF0.0
aF0.0
aF0.0
aF0.0
aF0.0
aF0.0
aF0.0
aF0.0
aF0.0
aF0.0
aF0.0
aF0.0
aF0.0
aF0.0
aF0.0
aF0.0
aF0.0
aF0.0
aF0.0
aF0.0
aF0.0
aF0.0
aF0.0
aF0.0
aF0.0
aF0.0
aF0.0
aF0.0
aF0.0
aF0.0
aF0.0
aF0.0
aF0.0
aF0.0
aF0.0
aF0.0
aF0.0
aF0.0
aF0.0
aF0.0
aF0.0
aF0.0
aF0.0
aF0.0
aF0.0
aF0.0
aF0.0
aF0.0
aF0.0
aF0.0
aF0.0
aF0.0
aF0.0
aF0.0
aF0.0
aF0.0
aF0.0
aF0.0
aF0.0
aF0.0
aF0.0
aF0.0
aF0.0
aF0.0
aF0.0
aF0.0
aF0.0
aF0.0
aF0.0
aF0.0
aF0.0
aF0.0
aF0.0
aF0.0
aF0.0
aF0.0
aF0.0
aF0.0
aF0.0
aF0.0
aF0.0
aF0.0
aF0.0
aF0.0
aF0.0
aF0.0
aF0.0
aF0.0
aF0.0
aF0.0
aF0.0
aF0.0
aF0.0
aF0.0
aF0.0
aF0.0
aF0.0
aF0.0
aF0.0
aF0.0
aF0.0
aF0.0
aF0.0
aF0.0
aF0.0
aF0.0
aF0.0
aF0.0
aF0.0
aF0.0
aF0.0
aF0.0
aF0.0
aF0.0
aF0.0
aF0.0
aF0.0
aF0.0
aF0.0
aF0.0
aF0.0
aF0.0
aF0.0
aF0.0
aF0.0
aF0.0
aF0.0
aF0.0
aF0.0
aF0.0
aF0.0
aF0.0
aF0.0
aF0.0
aF0.0
aF0.0
aF0.0
aF0.0
aF0.0
aF0.0
aF0.0
aF0.0
aF0.0
aF0.0
aF0.0
aF0.0
aF0.0
aF0.0
aF0.0
aF0.0
aF0.0
aF0.0
aF0.0
aF0.0
aF0.0
aF0.0
aF0.0
aF0.0
aF0.0
aF0.0
aF0.0
aF0.0
aF0.0
aF0.0
aF0.0
aF0.0
aF0.0
aF0.0
aF0.0
aF0.0
aF0.0
aF0.0
aF0.0
aF0.0
aF0.0
aF0.0
aF0.0
aF0.0
aF0.0
aF0.0
aF0.0
aF0.0
aF0.0
aF0.0
aF0.0
aF0.0
aF0.0
aF0.0
aF0.0
aF0.0
aF0.0
aF0.0
aF0.0
aF0.0
aF0.0
aF0.0
aF0.0
aF0.0
aF0.0
aF0.0
aF0.0
aF0.0
aF0.0
aF0.0
aF0.0
aF0.0
aF0.0
aF0.0
aF0.0
aF0.0
aF0.0
aF0.0
aF0.0
aF0.0
aF0.0
aF0.0
aF0.0
aF0.0
aF0.0
aF0.0
aF0.0
aF0.0
aF0.0
aF0.0
aF0.0
aF0.0
aF0.0
aF0.0
aF0.0
aF0.0
aF0.0
aF0.0
aF0.0
aF0.0
aF0.0
aF0.0
aF0.0
aF0.0
aF0.0
aF0.0
aF0.0
aF0.0
aF0.0
aF0.0
aF0.0
aF0.0
aF0.0
aF0.0
aF0.0
aF0.0
aF0.0
aF0.0
aF0.0
aF0.0
aF0.0
aF0.0
aF0.0
aF0.0
aF0.0
aF0.0
aF0.0
aF0.0
aF0.0
aF0.0
aF0.0
aF0.0
aF0.0
aF0.0
aF0.0
aF0.0
aF0.0
aF0.0
aF0.0
aF0.0
aF0.0
aF0.0
aF0.0
aF0.0
aF0.0
aF0.0
aF0.0
aF0.0
aF0.0
aF0.0
aF0.0
aF0.0
aF0.0
aF0.0
aF0.0
aF0.0
aF0.0
aF0.0
aF0.0
aF0.0
aF0.0
aF0.0
aF0.0
aF0.0
aF0.0
aF0.0
aF0.0
aF0.0
aF0.0
aF0.0
aF0.0
aF0.0
aF0.0
aF0.0
aF0.0
aF0.0
aF0.0
aF0.0
aF0.0
aF0.0
aF0.0
aF0.0
aF0.0
aF0.0
aF0.0
aF0.0
aF0.0
aF0.0
aF0.0
aF0.0
aF0.0
aF0.0
aF0.0
aF0.0
aF0.0
aF0.0
aF0.0
aF0.0
aF0.0
aF0.0
aF0.0
aF0.0
aF0.0
aF0.0
aF0.0
aF0.0
aF0.0
aF0.0
aF0.0
aF0.0
aF0.0
aF0.0
aF0.0
aF0.0
aF0.0
aF0.0
aF0.0
aF0.0
aF0.0
aF0.0
aF0.0
aF0.0
aF0.0
aF0.0
aF0.0
aF0.0
aF0.0
aF0.0
aF0.0
aF0.0
aF0.0
aF0.0
aF0.0
aF0.0
aF0.0
aF0.0
aF0.0
aF0.0
aF0.0
aF0.0
aF0.0
aF0.0
aF0.0
aF0.0
aF0.0
aF0.0
aF0.0
aF0.0
aF0.0
aF0.0
aF0.0
aF0.0
aF0.0
aF0.0
aF0.0
aF0.0
aF0.0
aF0.0
aF0.0
aF0.0
aF0.0
aF0.0
aF0.0
aF0.0
aF0.0
aF0.0
aF0.0
aF0.0
aF0.0
aF0.0
aF0.0
aF0.0
aF0.0
aF0.0
aF0.0
aF0.0
aF0.0
aF0.0
aF0.0
aF0.0
aF0.0
aF0.0
aF0.0
aF0.0
aF0.0
aF0.0
aF0.0
aF0.0
aF0.0
aF0.0
aF0.0
aF0.0
aF0.0
aF0.0
aF0.0
aF0.0
aF0.0
aF0.0
aF0.0
aF0.0
aF0.0
aF0.0
aF0.0
aF0.0
aF0.0
aF0.0
aF0.0
aF0.0
aF0.0
aF0.0
aF0.0
aF0.0
aF0.0
aF0.0
aF0.0
aF0.0
aF0.0
aF0.0
aF0.0
aF0.0
aF0.0
aF0.0
aF0.0
aF0.0
aF0.0
aF0.0
aF0.0
aF0.0
aF0.0
aF0.0
aF0.0
aF0.0
aF0.0
aF0.0
aF0.0
aF0.0
aF0.0
aF0.0
aF0.0
aF0.0
aF0.0
aF0.0
aF0.0
aF0.0
aF0.0
aF0.0
aF0.0
aF0.0
aF0.0
aF0.0
aF0.0
aF0.0
aF0.0
aF0.0
aF0.0
aF0.0
aF0.0
aF0.0
aF0.0
aF0.0
aF0.0
aF0.0
aF0.0
aF0.0
aF0.0
aF0.0
aF0.0
aF0.0
aF0.0
aF0.0
aF0.0
aF0.0
aF0.0
aF0.0
aF0.0
aF0.0
aF0.0
aF0.0
aF0.0
aF0.0
aF0.0
aF0.0
aF0.0
aF0.0
aF0.0
aF0.0
aF0.0
aF0.0
aF0.0
aF0.0
aF0.0
aF0.0
aF0.0
aF0.0
aF0.0
aF0.0
aF0.0
aF0.0
aF0.0
aF0.0
aF0.0
aF0.0
aF0.0
aF0.0
aF0.0
aF0.0
aF0.0
aF0.0
aF0.0
aF0.0
aF0.0
aF0.0
aF0.0
aF0.0
aF0.0
aF0.0
aF0.0
aF0.0
aF0.0
aF0.0
aF0.0
aF0.0
aF0.0
aF0.0
aF0.0
aF0.0
aF0.0
aF0.0
aF0.0
aF0.0
aF0.0
aF0.0
aF0.0
aF0.0
aF0.0
aF0.0
aF0.0
aF0.0
aF0.0
aF0.0
aF0.0
aF0.0
aF0.0
aF0.0
aF0.0
aF0.0
aF0.0
aF0.0
aF0.0
aF0.0
aF0.0
aF0.0
aF0.0
aF0.0
aF0.0
aF0.0
aF0.0
aF0.0
aF0.0
aF0.0
aF0.0
aF0.0
aF0.0
aF0.0
aF0.0
aF0.0
aF-0.04650158059186963
aF0.001966659955501873
aF0.0
aF-0.0015459133140667302
aF0.0
aF0.0
aF0.0
aF0.0
aF0.0
aF0.0
aF0.0006685609032675293
aF0.0
aF0.0
aF0.0
aF0.0
aF0.0
aF0.0
aF0.0
aF0.0
aF0.0
aF0.0
aF0.0
aF0.0
aF0.0
aF0.0
aF0.0
aF0.0
aF0.0
aF0.0
aF0.0
aF0.0
aF0.0
aF0.0
aF0.0
aF0.0
aF0.0
aF0.0
aF0.0
aF0.0
aF0.0
aF0.0
aF0.0
aF0.0
aF0.0
aF0.0
aF0.0
aF0.0
aF0.0
aF0.0
aF0.0
aF0.0
aF0.0
aF0.0
aF0.0
aF0.0
aF0.0
aF0.0
aF0.0
aF0.0
aF0.0
aF0.0
aF0.0
aF0.0
aF0.0
aF0.0
aF0.0
aF0.0
aF0.0
aF0.0
aF0.0
aF0.0
aF0.0
aF0.0
aF0.0
aF0.0
aF-0.00015598399732903503
aF0.0
aF0.0
aF0.0
aF0.0
aF0.00020944
aF0.0
aF0.0
aF0.0
aF0.0
aF0.0
aF0.0
aF0.0
aF0.0
aF0.0
aF0.0
aF0.0
aF0.0
aF0.0
aF0.0
aF0.0
aF0.0
aF0.0
aF0.0
aF0.0
aF0.0
aF0.0
aF0.0
aF0.0
aF0.0
aF0.0
aF0.0
aF0.0
aF0.0
aF0.0
aF0.0
aF0.0
aF0.0
aF0.0
aF0.0
aF0.0
aF0.0
aF0.0
aF0.0
aF0.0
aF0.0
aF0.0
aF0.0
aF0.0
aF0.0
aF0.0
aF0.0
aF0.0
aF0.0
aF0.0
aF0.0
aF0.0
aF0.0
aF0.0
aF0.0
aF0.0
aF0.0
aF0.0
aF0.0
aF0.0
aF0.0
aF0.0
aF0.0
aF0.0
aF0.0
aF0.0
aF0.0
aF0.0
aF0.0
aF0.0
aF0.0
aF0.0
aF0.0
aF0.0
aF0.0
aF0.0
aF0.0
aF0.0
aF0.0
aF0.0
aF0.0
aF0.0
aF0.0
aF0.0
aF0.0
aF0.0
aF0.0
aF0.0
aF0.0
aF0.0
aF0.0
aF0.0
aF0.0
aF0.0
aF0.004
aF0.0
aF0.0
aF0.0
aF-9.235999999999999e-05
aF0.0
aF0.0
aF0.0
aF0.0
aF0.0
aF0.0
aF0.0
aF0.0
aF0.0
aF0.0
aF0.0
aF0.0
aF0.0
aF0.0
aF0.0
aF0.0
aF0.0
aF0.0
aF0.0
aF0.0
aF0.0
aF0.0
aF0.0
aF0.0
aF0.0
aF0.0
aF0.0
aF0.0
aF0.0
aF0.0
aF0.0
aF0.0
aF0.0
aF0.0
aF0.0
aF0.0
aF0.0
aF0.0
aF0.0
aF0.0
aF0.0
aF0.0
aF0.0
aF0.0
aF0.0
aF0.0
aF0.0
aF0.0
aF0.0
aF0.0
aF0.0
aF0.0
aF0.0
aF0.0
aF0.00060608
aF0.0
aF0.0
aF0.0
aF0.0
aF0.0
aF0.0
aF0.0
aF0.0
aF0.0
aF0.0
aF0.0
aF0.0
aF0.0
aF0.0
aF0.0
aF0.0
aF0.0
aF0.0
aF0.0
aF0.0
aF0.0
aF0.0
aF0.0
aF0.0
aF0.0
aF0.0
aF0.0
aF0.0
aF0.0
aF0.0
aF0.0
aF0.0
aF0.0
aF0.0
aF0.0
aF0.0
aF0.0
aF0.0
aF0.0
aF0.0
aF0.0
aF0.0
aF0.0
aF0.0
aF0.0
aF0.0
aF0.0
aF0.0
aF0.0
aF0.0
aF0.0
aF0.0
aF0.0
aF0.0
aF0.0
aF0.0
aF0.0
aF0.0
aF0.0
aF0.0
aF0.0
aF0.0
aF0.0
aF0.0
aF0.0
aF0.0
aF0.0
aF0.0
aF0.0
aF0.0
aF0.0
aF0.0
aF0.0
aF0.0
aF0.0
aF0.0
aF0.0
aF0.0
aF0.0
aF0.0
aF0.0
aF0.0
aF0.0
aF0.0
aF0.0
aF0.0
aF0.0
aF0.0
aF0.0
aF0.0
aF0.0
aF0.0
aF0.0
aF0.0
aF0.0
aF0.0
aF0.0
aF0.0
aF0.0
aF0.0
aF0.0
aF0.0
aF0.0
aF0.0
aF0.0
aF0.0
aF0.0
aF0.0
aF0.0
aF0.0
aF0.0
aF0.0
aF0.0
aF0.0
aF0.0
aF0.0
aF0.0
aF0.0
aF0.0
aF0.0
aF0.0
aF0.0
asb.