(ilrsgd
LogisticRegressionSGD
p0
(dp1
S'mu'
p2
F0.06
sS'eta'
p3
F0.05
sS'weight'
p4
(lp5
F-0.023925948062365275
aF-0.024816828908215526
aF0.0
aF0.0
aF0.0
aF-0.04014138376423612
aF0.004319333292854121
aF-0.04656826129728829
aF-0.02469285796409598
aF0.0
aF-0.026582353212422232
aF-0.05830333811770885
aF0.0
aF-0.046350699782312786
aF0.026032698312380767
aF0.0
aF-0.025043317457569266
aF-0.024928117954050824
aF-0.009260976429350563
aF0.0
aF-0.023740882517337518
aF0.0
aF0.0
aF-0.024921840481553378
aF-0.08271972367262326
aF-0.024664555161344817
aF-0.0030320880627416093
aF-0.04641989847038773
aF-0.022294467883488347
aF-0.04455294766545239
aF0.06960993797066639
aF-0.012389589971943393
aF-0.024874279816473773
aF-0.05848561821661051
aF-0.0445127035246196
aF-0.04544776122623322
aF-0.022655907376144577
aF0.0
aF0.013146527525748561
aF-0.022197863954280667
aF-0.02285465250839905
aF-0.014562426993952646
aF-0.024543742703951956
aF-0.0030250668702863637
aF0.0
aF-0.02358697209571869
aF-0.024836265805588262
aF-0.025076283191723333
aF-0.02325614564102081
aF0.02625816785024985
aF0.02501936697293311
aF-0.024834509426214863
aF-0.0449024924057676
aF-0.09600546430801207
aF-0.018810770841676816
aF-0.024919524797343943
aF-0.014929363916847373
aF-0.06535876106104127
aF0.0
aF0.04449805488082664
aF-0.01012767595003516
aF-0.04661497768453109
aF-0.03750303317338776
aF-0.06424864919477466
aF0.0
aF-0.023844770109555154
aF0.0
aF0.0
aF0.02705096290654459
aF0.025112951387042504
aF-0.046768814858661446
aF0.0
aF0.0
aF-0.010049627548265503
aF0.02597374458171029
aF0.0
aF0.02606028311149849
aF-0.01996069669586128
aF0.0
aF0.025099953263590186
aF0.0
aF0.0
aF-0.012465931640735416
aF0.0
aF0.0
aF-0.02033051616361221
aF-0.02097815734132863
aF-0.024376355879957463
aF0.0
aF-0.024988443787104388
aF-0.020968665661534533
aF-0.024717229250522194
aF0.0
aF-0.0776343716553759
aF-0.08686178223221638
aF-0.024999754524892677
aF-0.002953099211710934
aF-0.024645382615408815
aF-0.00342527824104797
aF-0.0030806225569736945
aF-0.046347257189687296
aF0.0
aF-0.07273802893968626
aF0.0
aF-0.023821283877068528
aF0.0
aF-0.019405928097456653
aF0.0
aF-0.11490824899771623
aF-0.024886125630678102
aF-0.02488688848721203
aF-0.024663538503120398
aF-0.04648622793017236
aF-0.05554595183308959
aF0.025281164824238946
aF-0.024286131838884128
aF-0.05609535254607358
aF-0.02470885046327568
aF-0.023896545124153526
aF-0.06525466328149629
aF-0.06231069020778773
aF-0.014941654124014277
aF-0.038947935996704534
aF0.0
aF-0.021375516614843815
aF0.0
aF0.027170497973537346
aF-0.024162933726839024
aF0.0
aF0.0
aF0.025053633388521304
aF0.0
aF-0.03903748503803103
aF0.0
aF0.0
aF-0.048081221165154966
aF-0.02500404412637195
aF0.0
aF-0.02265390902004928
aF-0.043185700761430634
aF-0.15167271426196635
aF-0.04465746328869913
aF-0.06890797094886672
aF0.0
aF0.0
aF-0.09433795081760613
aF-0.04668737492284616
aF-0.1273063233434771
aF0.0
aF0.02515249041558475
aF-0.04642717512920094
aF-0.024369834740629915
aF0.0
aF0.0
aF-0.09222677859243748
aF0.0
aF-0.023331334032076836
aF0.0
aF-0.024902940129420844
aF0.02503674412940936
aF0.0038772609886836076
aF-0.024792548581415552
aF-0.017807832999349425
aF0.025255022936683597
aF-0.024995594062032778
aF-0.0874170610356725
aF0.0
aF-0.024956511369064086
aF0.0
aF-0.09676182788124404
aF0.0
aF0.0
aF-0.04656751592514592
aF-0.02440037784556108
aF-0.024789041392136914
aF-0.046016559302087486
aF0.0
aF-0.05859410508915959
aF-0.05156942300659376
aF0.0
aF0.00010458649593323051
aF-0.0465732959414106
aF0.0
aF-0.01236657802404502
aF-0.008932727874543188
aF-0.08062154421014034
aF-0.024556660567748422
aF0.0
aF-0.016340594080153956
aF-0.01601321960429696
aF-0.024359413465181317
aF-0.11475865340424687
aF-0.02499966658083752
aF-0.056601410060557876
aF0.0
aF-0.0461626493796999
aF0.0
aF0.0
aF-0.03148084611876434
aF-0.023982835510057345
aF-0.06590733346597047
aF0.0
aF-0.007150735775285285
aF0.0
aF-0.024480380114469846
aF-0.024990971912696284
aF-0.02446419913549776
aF-0.0249928136919319
aF0.0
aF-0.01843046463344912
aF-0.022367296857167
aF0.0
aF0.0
aF-0.04626110639869811
aF0.004282243323445081
aF0.0
aF0.0
aF-0.02443077115949636
aF-0.06443353340237894
aF-0.09314480371571669
aF-0.09487028679440225
aF-0.025743833897562712
aF-0.024638267686723933
aF-0.010627131216480505
aF-0.024930331871829543
aF0.0
aF-0.028338377575369014
aF-0.06427858603111367
aF-0.024749136353347634
aF-0.024958457371131254
aF-0.024842058085942715
aF0.0
aF0.0
aF-0.02080178696122751
aF0.0
aF0.0
aF-0.024690622794914102
aF-0.024380904172631713
aF-0.025
aF-0.036863009633412984
aF0.0
aF0.0
aF-0.024130741962757038
aF-0.0012624421251657258
aF-0.04655808895796315
aF0.0
aF0.03201842639761906
aF0.0
aF-0.013376515051457726
aF0.0
aF-0.04628583607544791
aF0.0
aF-0.015639385077263722
aF0.0
aF0.0
aF0.0
aF-0.06528853408232549
aF-0.02239660318609905
aF0.0
aF-0.024885543817058715
aF0.0
aF0.0
aF0.0
aF0.02504661423924286
aF0.008053722406822162
aF-0.023667147992061807
aF-0.023601656868392443
aF0.0
aF-0.02479933110098061
aF-0.02460927088816135
aF-0.011926560459559907
aF-0.02441651202961498
aF0.0
aF0.0
aF0.025067376203793353
aF-0.042063489429812126
aF0.0
aF0.0
aF-0.023967988137536263
aF-0.025312455704856025
aF0.0
aF-0.015530638040484337
aF-0.06420838730615228
aF0.0
aF-0.0807577327322424
aF-0.0249993263869457
aF-0.02265436551701046
aF0.0
aF0.0
aF-0.024619738815141175
aF-0.02494214201172847
aF0.025197727697071615
aF0.0
aF-0.04624443216240169
aF0.0
aF-0.00025604801150543033
aF0.0
aF-0.02480765062443903
aF-0.021965593567739465
aF-0.04564057641267885
aF0.0
aF0.0
aF-0.02458030444939909
aF0.022636219677761714
aF0.0
aF0.0
aF-0.022885792157513563
aF0.0
aF0.0
aF0.0
aF0.0
aF-0.032966370705538955
aF0.0
aF-0.02496407628741104
aF-0.03927677586139161
aF0.001379108212011568
aF0.024970281369278865
aF-0.008259374415485623
aF-0.04583453955302266
aF0.0
aF0.0
aF0.0
aF-0.024375095835892657
aF0.0
aF-0.08068897119092916
aF0.0
aF-0.024994172192984495
aF0.0
aF0.0
aF-0.046618244595833455
aF0.0
aF0.0
aF-0.02492243604078838
aF0.0
aF-0.022122594945145516
aF-0.04059365396625329
aF-0.024999905823223836
aF0.0
aF0.0
aF0.0
aF-0.012373020630015536
aF0.0
aF-0.02493048552683283
aF0.025013626220595143
aF-0.02461829394563746
aF0.0
aF-0.015268814877926598
aF0.0
aF0.0
aF0.0
aF-0.10684429302107692
aF-0.02983059011044183
aF0.0
aF0.0
aF-0.022692194636449024
aF-0.03912270020291971
aF-0.0623301292980698
aF-0.06111866158555439
aF-0.025
aF0.0
aF-0.04592963491105842
aF0.02574194828550057
aF0.003684777557891407
aF0.0
aF0.0
aF-0.024999799773450616
aF0.0
aF-0.032750523519483855
aF0.0
aF0.0
aF-0.013351917041001075
aF-0.021945396722696846
aF0.0
aF-0.03442171205553525
aF0.0
aF0.0
aF0.0
aF0.0
aF0.0
aF-0.022516051561823416
aF-0.04210471867492328
aF0.0
aF0.0
aF-0.046088546655093016
aF-0.02499995019356002
aF0.0
aF-0.0150741768658543
aF0.0
aF0.0
aF-0.024949667299239423
aF0.0
aF0.0
aF0.0
aF-0.02490829894403539
aF-0.09337673728444974
aF-0.003877419902600557
aF-0.024886592863467463
aF-0.04627555835291279
aF0.0
aF-0.024804128821661244
aF0.0
aF0.0
aF0.0
aF0.0
aF0.003847486947152364
aF0.0
aF-0.024853113609125933
aF0.0
aF0.0
aF0.0
aF0.0
aF-0.02439223224994049
aF0.0
aF-0.024679118096660523
aF0.0
aF0.0
aF0.0
aF-0.02499986074210539
aF0.028090419836051653
aF-0.05274363267291025
aF0.0
aF0.0
aF0.0
aF0.0
aF0.026062509652058388
aF0.0
aF0.0
aF-0.05202315069380297
aF-0.014558069664642011
aF-0.008487074200631807
aF0.0
aF0.0
aF0.0
aF0.0
aF0.0
aF0.0
aF0.0
aF0.0
aF0.0
aF-0.056275447281748325
aF-0.045547152058206704
aF0.0
aF0.0
aF-0.020520316529340957
aF-0.048925071782643825
aF-0.02499982523763124
aF0.0
aF0.0
aF0.0
aF-0.004198569688652957
aF-0.046486691796748164
aF0.0
aF-0.030835874350353926
aF-0.024340801054063815
aF0.0
aF0.0
aF0.0
aF-0.03642390355401937
aF0.0
aF-0.0013280890044967027
aF0.0
aF0.0
aF0.0
aF0.0
aF0.0
aF0.0
aF0.0
aF-0.01225273886063359
aF0.0
aF0.0
aF-0.02398321580498307
aF0.0
aF0.0
aF0.0
aF-0.024936631560310007
aF-0.012460544999028045
aF0.0
aF0.0
aF0.0
aF0.0
aF0.0
aF0.0
aF0.02527896356800771
aF-0.06355860543144179
aF-0.004987687388500808
aF0.0
aF-0.024869565558940918
aF0.0
aF-0.06076475278939394
aF-0.022653678309723452
aF0.0
aF0.0
aF0.0
aF-0.024921091247165263
aF0.0
aF-0.024836802130450104
aF-0.005328574128209905
aF0.0
aF0.0
aF-0.02492168639950977
aF0.0
aF-0.020069066983361097
aF-0.02761016534965336
aF0.0
aF0.02500030100734965
aF0.0
aF-0.024944493841197696
aF-0.0015452495584986532
aF0.0
aF0.0
aF0.0253046167410517
aF0.0
aF0.0
aF0.0
aF-0.021709843013437796
aF0.0
aF0.0
aF0.0
aF0.0
aF0.0
aF-0.051530281371318744
aF-0.03455384236802638
aF-0.012460593930823277
aF-0.012490251879622978
aF-0.06322512578190005
aF-0.024879095121745784
aF0.0
aF0.0
aF-0.039848468222248794
aF0.0
aF0.0
aF-0.024999823578371518
aF0.0
aF0.0
aF-2.25654742041859e-05
aF0.0
aF-0.012605598265186113
aF0.0
aF0.0
aF0.012511741499551877
aF0.0
aF-0.046631206181300344
aF0.0
aF0.0
aF-0.022662086876262665
aF0.0
aF0.0028105949815176064
aF0.0
aF0.0
aF0.0
aF0.0
aF0.0
aF0.0
aF0.0
aF0.0
aF-0.048382706578764534
aF0.0
aF0.0
aF0.0
aF0.0
aF0.0
aF0.0
aF-0.02317970942988174
aF-0.019766781568351564
aF0.0
aF0.0
aF0.0
aF0.0
aF-0.02499866462178302
aF-0.02183026500937073
aF0.0
aF-0.022125694079731813
aF-0.06302815478489114
aF0.0
aF0.0
aF0.0
aF0.0
aF-0.02265446903698097
aF0.0
aF-0.15003761905943205
aF0.0
aF0.0
aF-0.04663689609685606
aF0.0
aF0.0
aF0.0
aF-0.02470279355565185
aF-0.02501253779160395
aF0.0
aF-0.01250327147003442
aF-0.014862577570614106
aF0.0
aF-0.02495271211071488
aF0.0
aF0.006962193572325654
aF0.0
aF-0.05232327137984836
aF-0.004978496000940264
aF0.0
aF-0.02492018784051392
aF0.0
aF0.0
aF0.0
aF0.0
aF-0.02335470871999723
aF-0.03389934441770365
aF-0.08031749709163559
aF-0.011385379299423928
aF0.0
aF-0.0022914300069082003
aF0.0
aF0.0
aF-0.09527657215487483
aF-0.03257922359840409
aF-0.07399973537592092
aF0.0
aF0.0
aF-0.02493199654174653
aF-0.08012519678480855
aF0.0
aF0.0
aF0.0
aF0.0
aF0.02533586355783002
aF0.0
aF0.0
aF-0.039462641954039014
aF0.0
aF0.0
aF-0.030239071548100467
aF-0.022929594162632395
aF-0.027256988845684307
aF0.0
aF0.0
aF-0.025
aF0.0
aF0.0
aF0.0
aF0.0
aF0.0
aF-0.012499219200540167
aF0.0
aF0.0
aF0.0
aF0.0
aF-0.0010536253889347055
aF0.0
aF-0.04633340274923611
aF0.02500008446725463
aF-0.019101540829903788
aF0.0
aF-0.022575132221362065
aF0.0
aF0.0
aF0.0
aF-0.02479415654531255
aF0.0
aF0.0
aF0.0
aF0.0258746185906387
aF0.0020468565312434135
aF-0.024650074862724452
aF0.0
aF0.0
aF-0.024930072887663777
aF-0.020426866177148447
aF-0.06987708324986797
aF0.0
aF0.0
aF-0.16582202927692238
aF0.0
aF0.0
aF0.0
aF0.008664228214487693
aF0.0
aF0.0
aF0.0
aF-0.01232489611100315
aF0.0
aF0.04858849584058293
aF0.0
aF0.0
aF0.0
aF0.0
aF0.0
aF0.0
aF-0.046532911439350684
aF0.0
aF-0.08037775759469247
aF0.0
aF-0.022653611193411003
aF0.0
aF0.0
aF-0.019451501725992172
aF-0.0010611566159627606
aF-0.023912450536828597
aF-0.08163072316076599
aF0.0
aF0.0
aF0.0
aF0.0
aF0.0
aF0.0
aF0.0
aF0.0
aF0.0
aF0.0
aF-0.024978402423345928
aF0.02499998983363152
aF0.0
aF0.0
aF0.0
aF0.0
aF0.0
aF0.0
aF0.0
aF0.0
aF0.0
aF0.0
aF0.0
aF0.0
aF-0.015607280596390473
aF0.0
aF-0.022756133128580568
aF-0.03452495908151942
aF0.0
aF0.0
aF-0.012416619760896603
aF0.0
aF0.025047636430547516
aF0.0
aF-0.02288988721983592
aF-0.024918060012102533
aF-0.04278940971254931
aF0.0
aF-0.02670191562050283
aF0.0
aF0.0
aF0.0
aF-0.024838901046202514
aF0.0
aF0.0
aF0.0
aF0.0
aF0.0
aF0.0033590386826446855
aF-0.003614903129100713
aF0.0
aF0.0
aF0.0
aF0.0
aF0.0
aF-0.008298601040065887
aF-0.1623703752209804
aF0.0
aF0.0
aF0.0
aF0.0
aF-0.024945689938659598
aF-0.024853649753544912
aF-0.01827878663306933
aF0.0
aF0.0
aF-0.02499969899265035
aF-0.02499992443547728
aF-0.024965482876885634
aF0.0
aF0.0
aF0.0
aF0.0
aF0.0
aF-0.05618606803575558
aF-0.16560422018977922
aF0.0
aF0.0
aF0.0
aF-0.022430477136218152
aF-0.04481775569872641
aF0.0
aF0.0
aF0.0
aF0.0
aF0.0
aF0.0
aF-0.024654906344213683
aF0.0
aF-0.012208763637671594
aF0.0
aF0.0
aF0.0
aF-0.0997038169198586
aF0.0
aF0.0
aF-0.046500213078217965
aF0.0
aF-0.02466542533054153
aF-0.06328027037723509
aF0.0
aF0.0
aF0.0
aF0.0
aF0.0
aF0.0
aF-0.022657138495718432
aF0.0
aF-0.0125
aF-0.02467422115557683
aF-0.025000002541890748
aF0.0
aF0.0
aF-0.0226509780429966
aF-0.04655132499001595
aF0.0
aF-0.10965278546970422
aF0.0
aF0.008316052506108892
aF-0.012327011509100028
aF-0.06039523946609872
aF-0.02112578430025289
aF-0.02484867336820635
aF-0.013805640271054855
aF0.0
aF0.0
aF0.0
aF0.0
aF0.0
aF0.0
aF0.0
aF-0.023062762641037737
aF-0.0324009930619206
aF0.0
aF0.0
aF0.0
aF0.0
aF0.0
aF0.0
aF-0.0246861084752417
aF0.0
aF0.0
aF0.0
aF0.0
aF0.0
aF-0.04351994466041208
aF0.0
aF0.0
aF0.0
aF0.0
aF0.0
aF0.0
aF0.0
aF0.0
aF-0.01636325506452051
aF-0.046686079180331116
aF0.0
aF0.0
aF0.0
aF-0.016449014518399585
aF0.0
aF0.0
aF-0.012480514313701023
aF-0.024490664487379576
aF0.0
aF-0.0806054657123462
aF0.0
aF0.0
aF-0.010561007962354568
aF-0.03694535581270176
aF0.0
aF0.0
aF0.0
aF0.0
aF0.0
aF0.0
aF-0.016807181606297645
aF-0.02499933206237032
aF0.0
aF0.0
aF0.0
aF0.0
aF0.0
aF-0.02499992315722311
aF0.0
aF0.0
aF-0.042163537017719126
aF0.0
aF0.0
aF0.0
aF0.0
aF0.0
aF0.0
aF0.0
aF0.0
aF0.0
aF0.0
aF0.0
aF0.0
aF0.0
aF0.0
aF0.0
aF0.0
aF-0.17065610906437675
aF0.0
aF0.0
aF0.0
aF0.0
aF-0.024999480339539994
aF0.0
aF0.0
aF0.0
aF0.0
aF0.0
aF0.0
aF-0.022651119135188746
aF0.0
aF0.0
aF0.0
aF0.0
aF0.0
aF0.0
aF0.0
aF-0.02499311442242136
aF-0.012396237154484575
aF0.0
aF0.0
aF0.0
aF0.0
aF-0.024608720630561413
aF-0.02499988225450858
aF0.0
aF0.0
aF0.0
aF0.0
aF0.0
aF0.0
aF0.0
aF0.0
aF0.025000112498593532
aF0.0
aF0.0
aF0.0
aF0.0
aF0.0
aF0.0
aF0.0
aF0.025
aF0.0
aF0.0
aF-0.022653892164083533
aF-0.016665746513414955
aF-0.0020832610393427295
aF0.0
aF0.0
aF0.0
aF0.0
aF0.0
aF0.0
aF0.0
aF0.0
aF0.0
aF0.0
aF0.0
aF0.0
aF0.0
aF0.0
aF0.0
aF0.0
aF0.0
aF0.0
aF0.0
aF0.0
aF0.0
aF0.0
aF0.0
aF0.0
aF0.0
aF0.0
aF0.0
aF0.0
aF0.0
aF0.0
aF-0.024997214715734267
aF-0.02492195942407597
aF0.0
aF-0.04657415819690653
aF0.0
aF0.0
aF0.0
aF0.0
aF0.0
aF0.0
aF0.0
aF0.0
aF0.0
aF0.0
aF0.0
aF0.0
aF0.0
aF0.0
aF0.0
aF0.0
aF0.0
aF0.0
aF0.0
aF0.0
aF0.0
aF0.0
aF0.0
aF0.0
aF0.0
aF0.0
aF0.0
aF-0.024999429371708487
aF0.0
aF0.0
aF0.0
aF-0.02498481972847441
aF0.0
aF-0.022087832732446872
aF-0.04384065038552738
aF-0.013546667234773747
aF0.0
aF0.0
aF0.0
aF0.0
aF0.0
aF0.0
aF0.0
aF0.0
aF0.0
aF-0.022653805809165813
aF0.0
aF0.0
aF0.0
aF0.0
aF0.0
aF0.0
aF0.0
aF0.0
aF-0.012499951491613584
aF0.0
aF0.0
aF0.0
aF-0.024999425333867255
aF0.0
aF0.0
aF0.0
aF0.0
aF0.0
aF0.0
aF0.0
aF0.0
aF0.0
aF0.0
aF0.0
aF0.0
aF0.0
aF0.0
aF0.0
aF0.0
aF-0.025000637132396076
aF0.0
aF0.0
aF0.0
aF0.0
aF0.0
aF0.0
aF0.0
aF0.0
aF0.0
aF-0.022756088713147812
aF0.0
aF0.0
aF0.0
aF0.0
aF0.0
aF0.0
aF0.0
aF-0.02499994719659739
aF-0.008333278580748215
aF0.0
aF0.0
aF0.0
aF0.0
aF0.0
aF0.0
aF0.0
aF0.0
aF0.0
aF0.0
aF0.0
aF0.0
aF0.0
aF-0.024999333188681413
aF0.0
aF0.0
aF0.0
aF-0.02499935605046608
aF-0.18731258421385572
aF-0.17319640836710265
aF0.0
aF0.0
aF0.0
aF0.0
aF0.0
aF0.0
aF0.0
aF0.0
aF0.0
aF0.0
aF0.0
aF0.0
aF0.0
aF0.0
aF0.0
aF0.0
aF0.0
aF0.0
aF0.0
aF0.0
aF-0.024852453500261343
aF0.0
aF0.0
aF0.0
aF0.0
aF0.0
aF0.0
aF0.0
aF0.0
aF0.0
aF0.0
aF0.0
aF0.0
aF0.0
aF0.0
aF0.0
aF0.0
aF0.0
aF0.0
aF0.0
aF0.0
aF0.0
aF0.0
aF0.0
aF0.0
aF0.0
aF0.0
aF0.0
aF0.0
aF0.0
aF0.0
aF0.0
aF0.0
aF0.0
aF0.0
aF0.0
aF0.0
aF0.0
aF0.0
aF0.0
aF0.0
aF0.0
aF0.0
aF0.0
aF0.0
aF0.0
aF0.0
aF0.0
aF0.0
aF0.0
aF0.0
aF0.0
aF0.0
aF0.0
aF0.0
aF0.0
aF0.0
aF0.0
aF0.0
aF0.0
aF0.0
aF0.0
aF0.0
aF-0.024964738903951317
aF0.0
aF-0.046619725918911684
aF0.0
aF0.0
aF0.0
aF0.0
aF0.0
aF0.0
aF0.0
aF0.0
aF0.0
aF0.0
aF0.0
aF0.0
aF-0.024999853466292268
aF0.025000139257894616
aF0.0
aF0.0
aF0.0
aF0.0
aF0.0
aF0.0
aF0.0
aF0.0
aF0.0
aF0.0
aF0.0
aF0.0
aF0.0
aF-0.006250048736814335
aF0.0
aF0.0
aF0.0
aF0.0
aF0.0
aF0.0
aF0.0
aF0.0
aF0.0
aF0.0
aF0.0
aF0.0
aF0.0
aF0.0
aF0.0
aF0.0
aF0.0
aF0.0
aF0.0
aF0.0
aF0.0
aF-0.04668732495929703
aF0.0
aF0.0
aF0.0
aF0.0
aF0.0
aF0.0
aF0.0
aF0.0
aF0.0
aF0.0
aF0.0
aF0.0
aF0.0
aF0.0
aF0.0
aF0.0
aF0.0
aF0.0
aF0.0
aF0.0
aF0.0
aF0.0
aF0.0
aF0.0
aF0.0
aF0.0
aF0.0
aF0.0
aF0.0
aF0.0
aF0.0
aF0.0
aF0.0
aF0.0
aF0.0
aF0.0
aF0.0
aF0.0
aF0.0
aF0.0
aF0.0
aF0.0
aF0.0
aF-0.024998207120049975
aF0.0
aF0.0
aF0.0
aF0.0
aF0.0
aF0.0
aF0.0
aF0.0
aF0.0
aF0.0
aF0.0
aF0.0
aF0.0
aF0.0
aF0.0
aF0.0
aF0.0
aF0.0
aF0.0
aF0.0
aF0.0
aF0.0
aF0.0
aF0.0
aF0.0
aF0.0
aF0.0
aF0.0
aF0.0
aF0.0
aF0.0
aF0.0
aF0.0
aF0.0
aF0.0
aF0.0
aF0.0
aF0.0
aF0.0
aF0.0
aF0.0
aF0.0
aF0.0
aF0.0
aF0.0
aF0.0
aF0.0
aF0.0
aF0.0
aF0.0
aF0.0
aF0.0
aF-0.012460902851578103
aF0.0
aF0.0
aF0.0
aF0.0
aF0.0
aF0.0
aF0.0
aF0.0
aF0.0
aF0.0
aF0.0
aF0.0
aF0.0
aF0.0
aF0.0
aF0.0
aF0.0
aF0.0
aF0.0
aF0.0
aF0.0
aF0.0
aF0.0
aF-0.02499963738599766
aF0.0
aF0.0
aF0.0
aF0.0
aF0.0
aF0.0
aF0.0
aF0.0
aF0.0
aF0.0
aF0.0
aF0.0
aF0.0
aF0.0
aF0.0
aF0.0
aF0.0
aF0.0
aF0.0
aF0.0
aF-0.02346091383921023
aF0.0
aF0.0
aF0.0
aF0.0
aF0.0
aF-0.025000043789179083
aF0.0
aF0.0
aF-0.012460081884387998
aF0.0
aF0.0
aF0.0
aF0.0
aF0.0
aF0.0
aF0.0
aF0.0
aF0.0
aF0.0
aF0.0
aF0.0
aF0.0
aF0.0
aF0.0
aF0.0
aF0.0
aF0.0
aF0.0
aF0.0
aF0.0
aF0.0
aF0.0
aF0.0
aF0.0
aF0.0
aF0.0
aF0.0
aF0.0
aF0.0
aF0.0
aF0.0
aF0.0
aF0.0
aF0.0
aF0.0
aF0.0
aF0.0
aF0.0
aF0.0
aF0.0
aF0.0
aF0.0
aF0.0
aF0.0
aF0.0
aF0.0
aF0.0
aF0.0
aF0.0
aF0.0
aF0.0
aF0.0
aF0.0
aF0.0
aF-0.04150001807251078
aF0.0
aF0.0
aF0.0
aF0.0
aF0.0
aF0.0
aF0.0
aF0.0
aF0.0
aF0.0
aF0.0
aF0.0
aF0.0
aF0.0
aF0.004999983014812753
aF0.0
aF0.0
aF0.0
aF0.0
aF0.0
aF0.0
aF0.0
aF0.0
aF0.0
aF0.0
aF0.0
aF0.0
aF-0.02499966658083752
aF0.0
aF0.0
aF0.0
aF0.0
aF0.0
aF0.0
aF0.0
aF0.0
aF0.0
aF0.0
aF0.0
aF0.0
aF0.0
aF0.0
aF0.0
aF0.0
aF0.0
aF0.0
aF0.0
aF0.0
aF0.0
aF0.0
aF0.0
aF0.0
aF0.0
aF0.0
aF0.0
aF0.0
aF-0.012499988971123267
aF0.0
aF0.0
aF0.0
aF0.0
aF0.0
aF0.0
aF0.0
aF0.0
aF0.0
aF0.0
aF0.0
aF0.0
aF0.0
aF0.0
aF0.0
aF0.0
aF0.0
aF0.0
aF0.0
aF0.0
aF0.0
aF0.0
aF0.0
aF0.0
aF0.0
aF0.0
aF0.0
aF0.0
aF0.0
aF0.0
aF0.0
aF0.0
aF0.0
aF0.0
aF0.0
aF0.0
aF0.0
aF0.0
aF0.0
aF0.0
aF0.0
aF0.0
aF0.0
aF0.0
aF0.0
aF0.0
aF0.0
aF0.0
aF0.0
aF0.0
aF0.0
aF0.0
aF0.0
aF0.0
aF0.0
aF0.0
aF0.0
aF-0.024934533716133498
aF0.0
aF0.0
aF-0.023460530692413956
aF0.0
aF0.0
aF0.0
aF0.0
aF0.0
aF0.0
aF0.0
aF0.0
aF0.0
aF0.0
aF0.0
aF0.0
aF0.0
aF0.0
aF0.0
aF0.0
aF0.0
aF0.0
aF0.0
aF0.0
aF0.0
aF0.0
aF0.0
aF0.0
aF0.0
aF0.0
aF0.0
aF0.0
aF0.0
aF0.0
aF0.0
aF0.0
aF0.0
aF0.0
aF0.0
aF0.0
aF0.0
aF0.0
aF0.0
aF-0.01565497820926598
aF0.0
aF0.0
aF0.0
aF0.0
aF0.0
aF0.0
aF-0.02499953646367949
aF0.0
aF0.0
aF0.0
aF0.0
aF0.0
aF0.0
aF0.0
aF0.0
aF0.0
aF0.0
aF0.0
aF0.0
aF0.0
aF0.0
aF0.0
aF0.0
aF0.0
aF0.0
aF0.0
aF0.0
aF0.0
aF0.0
aF0.0
aF0.0
aF0.0
aF0.0
aF0.0
aF0.0
aF0.0
aF0.0
aF0.0
aF-0.00833297496112642
aF0.0
aF0.0
aF0.0
aF0.0
aF0.0
aF0.0
aF0.0
aF0.0
aF0.0
aF0.0
aF0.0
aF0.0
aF0.0
aF-0.08182279934690026
aF0.0
aF0.0
aF0.0
aF0.0
aF-0.02499979856186843
aF0.0
aF0.0
aF0.0
aF0.0
aF0.0
aF0.0
aF0.0
aF0.0
aF0.0
aF0.0
aF0.0
aF0.0
aF0.0
aF0.0
aF0.0
aF0.0
aF0.0
aF0.0
aF0.0
aF0.0
aF0.0
aF0.0
aF-0.024999641164449516
aF0.0
aF0.0
aF0.0
aF0.0
aF0.0
aF0.0
aF0.0
aF0.0
aF0.0
aF0.0
aF0.0
aF0.0
aF0.0
aF0.0
aF0.0
aF0.0
aF0.0
aF0.0
aF0.0
aF0.0
aF0.0
aF0.0
aF0.0
aF0.0
aF0.0
aF0.0
aF0.0
aF0.0
aF0.0
aF0.0
aF0.0
aF0.0
aF0.0
aF0.0
aF0.0
aF0.0
aF0.0
aF-0.0027777812276063994
aF0.0
aF0.0
aF0.0
aF0.0
aF0.0
aF0.0
aF0.0
aF0.0
aF0.0
aF0.0
aF0.0
aF0.0
aF0.0
aF0.0
aF0.0
aF0.0
aF0.0
aF0.0
aF0.0
aF0.0
aF0.0
aF0.0
aF0.0
aF0.0
aF0.0
aF0.0
aF0.0
aF0.0
aF0.0
aF0.0
aF0.0
aF0.0
aF0.0
aF0.0
aF0.0
aF0.0
aF0.0
aF0.0
aF0.0
aF0.0
aF0.0
aF0.0
aF0.0
aF-0.025
aF0.0
aF0.0
aF0.0
aF0.0
aF0.0
aF0.0
aF-0.02499948167846157
aF0.0
aF0.0
aF0.0
aF0.0
aF0.0
aF0.0
aF0.0
aF0.0
aF0.0
aF0.0
aF0.0
aF0.0
aF0.0
aF0.0
aF0.0
aF0.0
aF0.0
aF0.0
aF0.0
aF0.0
aF0.0
aF0.0
aF0.0
aF0.0
aF0.0
aF0.0
aF0.0
aF0.0
aF0.0
aF0.0
aF0.0
aF0.0
aF0.0
aF0.0
aF-0.008333324137799697
aF0.0
aF0.0
aF0.0
aF0.0
aF0.0
aF0.0
aF0.0
aF0.0
aF0.0
aF0.0
aF0.0
aF0.0
aF0.0
aF0.0
aF0.0
aF0.0
aF0.0
aF0.0
aF0.0
aF0.0
aF0.0
aF0.0
aF0.0
aF0.0
aF0.0
aF0.0
aF0.0
aF0.0
aF0.0
aF0.0
aF0.0
aF0.0
aF0.0
aF0.0
aF0.0
aF0.0
aF0.0
aF0.0
aF0.0
aF0.0
aF0.0
aF0.0
aF0.0
aF0.0
aF0.0
aF0.0
aF0.0
aF0.0
aF0.0
aF0.0
aF0.0
aF0.0
aF0.0
aF0.0
aF0.0
aF0.0
aF0.0
aF0.0
aF0.0
aF0.0
aF0.0
aF0.0
aF0.0
aF0.0
aF0.0
aF0.0
aF0.0
aF0.0
aF0.0
aF0.0
aF-0.025000358714129978
aF0.0
aF0.0
aF0.0
aF0.0
aF0.0
aF0.0
aF0.0
aF0.0
aF0.0
aF0.0
aF0.0
aF0.0
aF0.0
aF0.0
aF0.0
aF0.0
aF0.0
aF0.0
aF0.0
aF0.0
aF0.0
aF0.0
aF0.0
aF0.0
aF0.0
aF0.0
aF0.0
aF0.0
aF0.0
aF0.0
aF0.0
aF0.0
aF0.0
aF0.0
aF0.0
aF0.0
aF0.0
aF0.0
aF0.0
aF0.0
aF0.0
aF0.0
aF0.0
aF0.0
aF0.0
aF0.0
aF0.0
aF0.0
aF0.0
aF0.0
aF0.0
aF0.0
aF0.0
aF0.0
aF0.0
aF0.02500001844314615
aF0.0
aF0.0
aF0.0
aF0.0
aF0.0
aF0.0
aF0.0
aF0.0
aF0.0
aF0.0
aF0.0
aF0.0
aF0.0
aF0.0
aF0.0
aF0.0
aF0.0
aF0.0
aF0.0
aF0.0
aF0.0
aF0.0
aF0.0
aF0.0
aF0.0
aF0.0
aF0.0
aF-0.0027778864431364124
aF0.0
aF0.0
aF0.0
aF0.0
aF0.0
aF0.0
aF0.0
aF0.0
aF0.0
aF0.0
aF0.0
aF0.0
aF0.0
aF0.0
aF0.0
aF0.0
aF0.0
aF0.0
aF0.0
aF0.0
aF0.0
aF0.0
aF0.0
aF0.0
aF0.0
aF0.0
aF0.0
aF0.0
aF0.0
aF0.0
aF0.0
aF0.0
aF0.0
aF0.0
aF0.0
aF0.0
aF0.0
aF0.0
aF0.0
aF0.0
aF0.0
aF0.0
aF-0.025000059237241707
aF0.0
aF0.0
aF0.0
aF0.0
aF0.0
aF0.0
aF0.0
aF0.0
aF0.0
aF0.0
aF0.0
aF0.0
aF0.0
aF0.0
aF0.0
aF0.0
aF0.0
aF0.0
aF0.0
aF0.0
aF0.0
aF0.0
aF0.0
aF0.0
aF0.0
aF0.0
aF0.0
aF0.0
aF0.0
aF0.0
aF0.0
aF0.0
aF0.0
aF0.0
aF0.0
aF0.0
aF0.0
aF0.0
aF0.0
aF0.0
aF0.0
aF0.0
aF0.0
aF0.0
aF0.0
aF0.0
aF0.0
aF0.0
aF0.0
aF0.0
aF0.0
aF0.0
aF0.0
aF0.0
aF0.0
aF0.0
aF0.0
aF0.0
aF0.0
aF0.0
aF0.0
aF0.0
aF0.0
aF0.0
aF0.0
aF0.0
aF0.0
aF0.0
aF0.0
aF0.0
aF0.0
aF0.0
aF0.0
aF0.0
aF0.0
aF0.0
aF0.0
aF0.0
aF0.0
aF0.0
aF0.0
aF0.0
aF0.0
aF0.0
aF0.0
aF0.0
aF0.0
aF0.0
aF0.0
aF0.0
aF0.0
aF0.0
aF0.0
aF0.0
aF0.0
aF0.0
aF0.0
aF0.0
aF0.0
aF0.0
aF0.0
aF0.0
aF0.0
aF0.0
aF0.0
aF0.0
aF0.0
aF0.0
aF0.0
aF0.0
aF0.0
aF0.0
aF0.0
aF0.0
aF0.0
aF0.0
aF0.0
aF0.0
aF0.0
aF0.0
aF0.0
aF0.0
aF0.0
aF0.0
aF0.0
aF0.0
aF0.0
aF0.0
aF0.0
aF0.0
aF0.0
aF0.0
aF0.0
aF0.0
aF0.0
aF0.0
aF0.0
aF0.0
aF0.0
aF0.0
aF0.0
aF0.0
aF0.0
aF0.0
aF0.0
aF0.0
aF0.0
aF0.0
aF0.0
aF0.0
aF0.0
aF0.0
aF0.0
aF0.0
aF0.0
aF0.0
aF0.0
aF0.0
aF0.0
aF0.0
aF0.0
aF0.0
aF0.0
aF0.0
aF0.0
aF0.0
aF0.0
aF0.0
aF0.0
aF0.0
aF0.0
aF0.0
aF0.0
aF0.0
aF0.0
aF0.0
aF0.0
aF0.0
aF0.0
aF0.0
aF0.0
aF0.0
aF0.0
aF0.0
aF0.0
aF0.0
aF0.0
aF0.0
aF0.0
aF0.0
aF0.0
aF0.0
aF0.0
aF0.0
aF0.0
aF0.0
aF0.0
aF0.0
aF0.0
aF0.0
aF0.0
aF0.0
aF0.0
aF0.0
aF0.0
aF0.0
aF0.0
aF0.0
aF0.0
aF0.0
aF0.0
aF0.0
aF0.0
aF0.0
aF0.0
aF0.0
aF0.0
aF0.0
aF0.0
aF0.0
aF0.0
aF0.0
aF0.0
aF0.0
aF0.0
aF0.0
aF0.0
aF0.0
aF0.0
aF0.0
aF0.0
aF0.0
aF0.0
aF0.0
aF0.0
aF0.0
aF0.0
aF0.0
aF0.0
aF0.0
aF0.0
aF0.0
aF0.0
aF0.0
aF0.0
aF0.0
aF0.0
aF0.0
aF0.0
aF0.0
aF0.0
aF0.0
aF0.0
aF0.0
aF0.0
aF0.0
aF0.0
aF0.0
aF0.0
aF0.0
aF0.0
aF0.0
aF0.0
aF0.0
aF0.0
aF0.0
aF0.0
aF0.0
aF0.0
aF0.0
aF0.0
aF0.0
aF0.0
aF0.0
aF0.0
aF0.0
aF0.0
aF0.0
aF0.0
aF0.0
aF0.0
aF0.0
aF0.0
aF0.0
aF0.0
aF0.0
aF0.0
aF0.0
aF0.0
aF0.0
aF0.0
aF0.0
aF0.0
aF0.0
aF0.0
aF0.0
aF0.0
aF0.0
aF0.0
aF0.0
aF0.0
aF0.0
aF0.0
aF0.0
aF0.0
aF0.0
aF0.0
aF0.0
aF0.0
aF0.0
aF0.0
aF0.0
aF0.0
aF0.0
aF0.0
aF0.0
aF0.0
aF0.0
aF0.0
aF0.0
aF0.0
aF0.0
aF0.0
aF0.0
aF0.0
aF0.0
aF0.0
aF0.0
aF0.0
aF0.0
aF0.0
aF0.0
aF0.0
aF0.0
aF0.0
aF0.0
aF0.0
aF0.0
aF0.0
aF0.0
aF0.0
aF0.0
aF0.0
aF0.0
aF0.0
aF0.0
aF0.0
aF0.0
aF0.0
aF0.0
aF0.0
aF0.0
aF0.0
aF0.0
aF0.0
aF0.0
aF0.0
aF0.0
aF0.0
aF0.0
aF0.0
aF0.0
aF0.0
aF0.0
aF0.0
aF0.0
aF0.0
aF0.0
aF0.0
aF0.0
aF0.0
aF0.0
aF0.0
aF0.0
aF0.0
aF0.0
aF0.0
aF0.0
aF0.0
aF0.0
aF0.0
aF0.0
aF0.0
aF0.0
aF0.0
aF0.0
aF0.0
aF0.0
aF0.0
aF0.0
aF0.0
aF0.0
aF0.0
aF0.0
aF0.0
aF0.0
aF0.0
aF0.0
aF0.0
aF0.0
aF0.0
aF0.0
aF0.0
aF0.0
aF0.0
aF0.0
aF0.0
aF0.0
aF0.0
aF0.0
aF0.0
aF0.0
aF0.0
aF0.0
aF0.0
aF0.0
aF0.0
aF0.0
aF0.0
aF0.0
aF0.0
aF0.0
aF0.0
aF0.0
aF0.0
aF0.0
aF0.0
aF0.0
aF0.0
aF0.0
aF0.0
aF0.0
aF0.0
aF0.0
aF0.0
aF0.0
aF0.0
aF0.0
aF0.0
aF0.0
aF0.0
aF0.0
aF0.0
aF0.0
aF0.0
aF0.0
aF0.0
aF0.0
aF0.0
aF0.0
aF0.0
aF0.0
aF0.0
aF0.0
aF0.0
aF0.0
aF0.0
aF0.0
aF0.0
aF0.0
aF0.0
aF0.0
aF0.0
aF0.0
aF0.0
aF0.0
aF0.0
aF0.0
aF0.0
aF0.0
aF0.0
aF0.0
aF0.0
aF0.0
aF0.0
aF0.0
aF0.0
aF0.0
aF0.0
aF0.0
aF0.0
aF0.0
aF0.0
aF0.0
aF0.0
aF0.0
aF0.0
aF0.0
aF0.0
aF0.0
aF0.0
aF0.0
aF0.0
aF0.0
aF0.0
aF0.0
aF0.0
aF0.0
aF0.0
aF0.0
aF0.0
aF0.0
aF0.0
aF0.0
aF0.0
aF0.0
aF0.0
aF0.0
aF0.0
aF0.0
aF0.0
aF0.0
aF0.0
aF0.0
aF0.0
aF0.0
aF0.0
aF0.0
aF0.0
aF0.0
aF0.0
aF0.0
aF0.0
aF0.0
aF0.0
aF0.0
aF0.0
aF0.0
aF0.0
aF0.0
aF0.0
aF0.0
aF0.0
aF0.0
aF0.0
aF0.0
aF0.0
aF0.0
aF0.0
aF0.0
aF0.0
aF0.0
aF0.0
aF0.0
aF0.0
aF0.0
aF0.0
aF0.0
aF0.0
aF0.0
aF0.0
aF0.0
aF0.0
aF0.0
aF0.0
aF0.0
aF0.0
aF0.0
aF0.0
aF0.0
aF0.0
aF0.0
aF0.0
aF0.0
aF0.0
aF0.0
aF0.0
aF0.0
aF0.0
aF0.0
aF0.0
aF0.0
aF0.0
aF0.0
aF0.0
aF0.0
aF0.0
aF0.0
aF0.0
aF0.0
aF0.0
aF0.0
aF0.0
aF0.0
aF0.0
aF0.0
aF0.0
aF0.0
aF0.0
aF0.0
aF0.0
aF0.0
aF0.0
aF0.0
aF0.0
aF0.0
aF0.0
aF0.0
aF0.0
aF0.0
aF0.0
aF0.0
aF0.0
aF0.0
aF0.0
aF0.0
aF0.0
aF0.0
aF0.0
aF0.0
aF0.0
aF0.0
aF0.0
aF0.0
aF0.0
aF0.0
aF0.0
aF0.0
aF0.0
aF0.0
aF0.0
aF0.0
aF0.0
aF0.0
aF0.0
aF0.0
aF0.0
aF0.0
aF0.0
aF0.0
aF0.0
aF0.0
aF0.0
aF0.0
aF0.0
aF0.0
aF0.0
aF0.0
aF0.0
aF0.0
aF0.0
aF0.0
aF0.0
aF0.0
aF0.0
aF0.0
aF0.0
aF0.0
aF0.0
aF0.0
aF0.0
aF0.0
aF0.0
aF0.0
aF0.0
aF0.0
aF0.0
aF0.0
aF0.0
aF0.0
aF0.0
aF0.0
aF0.0
aF0.0
aF0.0
aF0.0
aF0.0
aF0.0
aF0.0
aF0.0
aF0.0
aF0.0
aF0.0
aF0.0
aF0.0
aF0.0
aF0.0
aF0.0
aF0.0
aF0.0
aF0.0
aF0.0
aF0.0
aF0.0
aF0.0
aF0.0
aF0.0
aF0.0
aF0.0
aF0.0
aF0.0
aF0.0
aF0.0
aF0.0
aF0.0
aF0.0
aF0.0
aF0.0
aF0.0
aF0.0
aF0.0
aF0.0
aF0.0
aF0.0
aF0.0
aF0.0
aF0.0
aF0.0
aF0.0
aF0.0
aF0.0
aF0.0
aF0.0
aF0.0
aF0.0
aF0.0
aF0.0
aF0.0
aF0.0
aF0.0
aF0.0
aF0.0
aF0.0
aF0.0
aF0.0
aF0.0
aF0.0
aF0.0
aF0.0
aF0.0
aF0.0
aF0.0
aF0.0
aF0.0
aF0.0
aF0.0
aF0.0
aF0.0
aF0.0
aF0.0
aF0.0
aF0.0
aF0.0
aF0.0
aF0.0
aF0.0
aF0.0
aF0.0
aF0.0
aF0.0
aF0.0
aF0.0
aF0.0
aF0.0
aF0.0
aF0.0
aF0.0
aF0.0
aF0.0
aF0.0
aF0.0
aF0.0
aF0.0
aF0.0
aF0.0
aF0.0
aF0.0
aF0.0
aF0.0
aF0.0
aF0.0
aF0.0
aF0.0
aF0.0
aF0.0
aF0.0
aF0.0
aF0.0
aF0.0
aF0.0
aF0.0
aF0.0
aF0.0
aF0.0
aF0.0
aF0.0
aF0.0
aF0.0
aF0.0
aF0.0
aF0.0
aF0.0
aF0.0
aF0.0
aF0.0
aF0.0
aF0.0
aF0.0
aF0.0
aF0.0
aF0.0
aF0.0
aF0.0
aF0.0
aF0.0
aF0.0
aF0.0
aF0.0
aF0.0
aF0.0
aF0.0
aF0.0
aF0.0
aF0.0
aF0.0
aF0.0
aF0.0
aF0.0
aF0.0
aF0.0
aF0.0
aF0.0
aF0.0
aF0.0
aF0.0
aF0.0
aF0.0
aF0.0
aF0.0
aF0.0
aF0.0
aF0.0
aF0.0
aF0.0
aF0.0
aF0.0
aF0.0
aF0.0
aF0.0
aF0.0
aF0.0
aF0.0
aF0.0
aF0.0
aF0.0
aF0.0
aF0.0
aF0.0
aF0.0
aF0.0
aF0.0
aF0.0
aF0.0
aF0.0
aF0.0
aF0.0
aF0.0
aF0.0
aF0.0
aF0.0
aF0.0
aF0.0
aF0.0
aF0.0
aF0.0
aF0.0
aF0.0
aF0.0
aF0.0
aF0.0
aF0.0
aF0.0
aF0.0
aF0.0
aF0.0
aF0.0
aF0.0
aF0.0
aF0.0
aF0.0
aF0.0
aF0.0
aF0.0
aF0.0
aF0.0
aF0.0
aF0.0
aF0.0
aF0.0
aF0.0
aF0.0
aF0.0
aF0.0
aF0.0
aF0.0
aF0.0
aF0.0
aF0.0
aF0.0
aF0.0
aF0.0
aF0.0
aF0.0
aF0.0
aF0.0
aF0.0
aF0.0
aF0.0
aF0.0
aF0.0
aF0.0
aF0.0
aF0.0
aF0.0
aF0.0
aF0.0
aF0.0
aF0.0
aF0.0
aF0.0
aF0.0
aF0.0
aF0.0
aF0.0
aF0.0
aF0.0
aF0.0
aF0.0
aF0.0
aF0.0
aF0.0
aF0.0
aF0.0
aF0.0
aF0.0
aF0.0
aF0.0
aF0.0
aF0.0
aF0.0
aF0.0
aF0.0
aF0.0
aF0.0
aF0.0
aF0.0
aF0.0
aF0.0
aF0.0
aF0.0
aF0.0
aF0.0
aF0.0
aF0.0
aF0.0
aF0.0
aF0.0
aF0.0
aF0.0
aF0.0
aF0.0
aF0.0
aF0.0
aF0.0
aF0.0
aF0.0
aF0.0
aF0.0
aF0.0
aF0.0
aF0.0
aF0.0
aF0.0
aF0.0
aF0.0
aF0.0
aF0.0
aF0.0
aF0.0
aF0.0
aF0.0
aF0.0
aF0.0
aF0.0
aF0.0
aF0.0
aF0.0
aF0.0
aF0.0
aF0.0
aF0.0
aF0.0
aF0.0
aF0.0
aF0.0
aF0.0
aF0.0
aF0.0
aF0.0
aF0.0
aF0.0
aF0.0
aF0.0
aF0.0
aF0.0
aF0.0
aF0.0
aF0.0
aF0.0
aF0.0
aF0.0
aF0.0
aF0.0
aF0.0
aF0.0
aF0.0
aF0.0
aF0.0
aF0.0
aF0.0
aF0.0
aF0.0
aF0.0
aF0.0
aF0.0
aF0.0
aF0.0
aF0.0
aF0.0
aF0.0
aF0.0
aF0.0
aF0.0
aF0.0
aF0.0
aF0.0
aF0.0
aF0.0
aF0.0
aF0.0
aF0.0
aF0.0
aF0.0
aF0.0
aF0.0
aF0.0
aF0.0
aF0.0
aF0.0
aF0.0
aF0.0
aF0.0
aF0.0
aF0.0
aF0.0
aF0.0
aF0.0
aF0.0
aF0.0
aF0.0
aF0.0
aF0.0
aF0.0
aF0.0
aF0.0
aF0.0
aF0.0
aF0.0
aF0.0
aF0.0
aF0.0
aF0.0
aF0.0
aF0.0
aF0.0
aF0.0
aF0.0
aF0.0
aF0.0
aF0.0
aF0.0
aF0.0
aF0.0
aF0.0
aF0.0
aF0.0
aF0.0
aF0.0
aF0.0
aF0.0
aF0.0
aF0.0
aF0.0
aF0.0
aF0.0
aF0.0
aF0.0
aF0.0
aF0.0
aF0.0
aF0.0
aF0.0
aF0.0
aF0.0
aF0.0
aF0.0
aF0.0
aF0.0
aF0.0
aF0.0
aF0.0
aF0.0
aF0.0
aF0.0
aF0.0
aF0.0
aF0.0
aF0.0
aF0.0
aF0.0
aF0.0
aF0.0
aF0.0
aF0.0
aF0.0
aF0.0
aF0.0
aF0.0
aF0.0
aF0.0
aF0.0
aF0.0
aF0.0
aF0.0
aF0.0
aF0.0
aF0.0
aF0.0
aF0.0
aF0.0
aF0.0
aF0.0
aF0.0
aF0.0
aF0.0
aF0.0
aF0.0
aF0.0
aF0.0
aF0.0
aF0.0
aF0.0
aF0.0
aF0.0
aF0.0
aF0.0
aF0.0
aF0.0
aF0.0
aF0.0
aF0.0
aF0.0
aF0.0
aF0.0
aF0.0
aF0.0
aF0.0
aF0.0
aF0.0
aF0.0
aF0.0
aF0.0
aF0.0
aF0.0
aF0.0
aF0.0
aF0.0
aF0.0
aF0.0
aF0.0
aF0.0
aF0.0
aF0.0
aF0.0
aF0.0
aF0.0
aF0.0
aF0.0
aF0.0
aF0.0
aF0.0
aF0.0
aF0.0
aF0.0
aF0.0
aF0.0
aF0.0
aF0.0
aF0.0
aF0.0
aF0.0
aF0.0
aF0.0
aF0.0
aF0.0
aF0.0
aF0.0
aF0.0
aF0.0
aF0.0
aF0.0
aF0.0
aF0.0
aF0.0
aF0.0
aF0.0
aF0.0
aF0.0
aF0.0
aF0.0
aF0.0
aF0.0
aF0.0
aF0.0
aF0.0
aF0.0
aF0.0
aF0.0
aF0.0
aF0.0
aF0.0
aF0.0
aF0.0
aF0.0
aF0.0
aF0.0
aF0.0
aF0.0
aF0.0
aF0.0
aF0.0
aF0.0
aF0.0
aF0.0
aF0.0
aF0.0
aF0.0
aF0.0
aF0.0
aF0.0
aF0.0
aF0.0
aF0.0
aF0.0
aF0.0
aF0.0
aF0.0
aF0.0
aF0.0
aF-0.03983415150572435
aF0.001235679856744441
aF0.0
aF-0.002072685211851195
aF0.0
aF0.0
aF0.0
aF0.0
aF0.0
aF0.0
aF0.0002366465368971778
aF0.0
aF0.0
aF0.0
aF0.0
aF0.0
aF0.0
aF0.0
aF0.0
aF0.0
aF0.0
aF0.0
aF0.0
aF0.0
aF0.0
aF0.0
aF0.0
aF0.0
aF0.0
aF0.0
aF0.0
aF0.0
aF0.0
aF0.0
aF0.0
aF0.0
aF0.0
aF0.0
aF0.0
aF0.0
aF0.0
aF0.0
aF0.0
aF0.0
aF0.0
aF0.0
aF0.0
aF0.0
aF0.0
aF0.0
aF0.0
aF0.0
aF0.0
aF0.0
aF0.0
aF0.0
aF0.0
aF0.0
aF0.0
aF0.0
aF0.0
aF0.0
aF0.0
aF0.0
aF0.0
aF0.0
aF0.0
aF0.0
aF0.0
aF0.0
aF0.0
aF0.0
aF0.0
aF0.0
aF0.0
aF-0.00011420399895665433
aF0.0
aF0.0
aF0.0
aF0.0
aF0.0001309
aF0.0
aF0.0
aF0.0
aF0.0
aF0.0
aF0.0
aF0.0
aF0.0
aF0.0
aF0.0
aF0.0
aF0.0
aF0.0
aF0.0
aF0.0
aF0.0
aF0.0
aF0.0
aF0.0
aF0.0
aF0.0
aF0.0
aF0.0
aF0.0
aF0.0
aF0.0
aF0.0
aF0.0
aF0.0
aF0.0
aF0.0
aF0.0
aF0.0
aF0.0
aF0.0
aF0.0
aF0.0
aF0.0
aF0.0
aF0.0
aF0.0
aF0.0
aF0.0
aF0.0
aF0.0
aF0.0
aF0.0
aF0.0
aF0.0
aF0.0
aF0.0
aF0.0
aF0.0
aF0.0
aF0.0
aF0.0
aF0.0
aF0.0
aF0.0
aF0.0
aF0.0
aF0.0
aF0.0
aF0.0
aF0.0
aF0.0
aF0.0
aF0.0
aF0.0
aF0.0
aF0.0
aF0.0
aF0.0
aF0.0
aF0.0
aF0.0
aF0.0
aF0.0
aF0.0
aF0.0
aF0.0
aF0.0
aF0.0
aF0.0
aF0.0
aF0.0
aF0.0
aF0.0
aF0.0
aF0.0
aF0.0
aF0.0
aF0.0
aF0.0025000000000000005
aF0.0
aF0.0
aF0.0
aF-5.7725e-05
aF0.0
aF0.0
aF0.0
aF0.0
aF0.0
aF0.0
aF0.0
aF0.0
aF0.0
aF0.0
aF0.0
aF0.0
aF0.0
aF0.0
aF0.0
aF0.0
aF0.0
aF0.0
aF0.0
aF0.0
aF0.0
aF0.0
aF0.0
aF0.0
aF0.0
aF0.0
aF0.0
aF0.0
aF0.0
aF0.0
aF0.0
aF0.0
aF0.0
aF0.0
aF0.0
aF0.0
aF0.0
aF0.0
aF0.0
aF0.0
aF0.0
aF0.0
aF0.0
aF0.0
aF0.0
aF0.0
aF0.0
aF0.0
aF0.0
aF0.0
aF0.0
aF0.0
aF0.0
aF0.0
aF0.00037880000000000005
aF0.0
aF0.0
aF0.0
aF0.0
aF0.0
aF0.0
aF0.0
aF0.0
aF0.0
aF0.0
aF0.0
aF0.0
aF0.0
aF0.0
aF0.0
aF0.0
aF0.0
aF0.0
aF0.0
aF0.0
aF0.0
aF0.0
aF0.0
aF0.0
aF0.0
aF0.0
aF0.0
aF0.0
aF0.0
aF0.0
aF0.0
aF0.0
aF0.0
aF0.0
aF0.0
aF0.0
aF0.0
aF0.0
aF0.0
aF0.0
aF0.0
aF0.0
aF0.0
aF0.0
aF0.0
aF0.0
aF0.0
aF0.0
aF0.0
aF0.0
aF0.0
aF0.0
aF0.0
aF0.0
aF0.0
aF0.0
aF0.0
aF0.0
aF0.0
aF0.0
aF0.0
aF0.0
aF0.0
aF0.0
aF0.0
aF0.0
aF0.0
aF0.0
aF0.0
aF0.0
aF0.0
aF0.0
aF0.0
aF0.0
aF0.0
aF0.0
aF0.0
aF0.0
aF0.0
aF0.0
aF0.0
aF0.0
aF0.0
aF0.0
aF0.0
aF0.0
aF0.0
aF0.0
aF0.0
aF0.0
aF0.0
aF0.0
aF0.0
aF0.0
aF0.0
aF0.0
aF0.0
aF0.0
aF0.0
aF0.0
aF0.0
aF0.0
aF0.0
aF0.0
aF0.0
aF0.0
aF0.0
aF0.0
aF0.0
aF0.0
aF0.0
aF0.0
aF0.0
aF0.0
aF0.0
aF0.0
aF0.0
aF0.0
aF0.0
aF0.0
aF0.0
aF0.0
asb.