(ilrsgd
LogisticRegressionSGD
p0
(dp1
S'mu'
p2
F0.02
sS'eta'
p3
F0.05
sS'weight'
p4
(lp5
F-0.023520434013862765
aF-0.024559107849751276
aF0.0
aF0.0
aF0.0
aF-0.06434925482452301
aF0.0027221758149062227
aF-0.10811634606620645
aF-0.024568503235090477
aF0.0
aF-0.02436999196706136
aF-0.05558247873678432
aF0.0
aF-0.04812528381867617
aF0.026274547831818054
aF0.0
aF-0.025043212934352157
aF-0.024824448062170393
aF-0.011189486005478505
aF0.0
aF-0.02357326406389862
aF0.0
aF0.0
aF-0.024921834147986575
aF-0.09017719792630538
aF-0.024628654681279505
aF-0.0005861988719198206
aF-0.048102451401004304
aF-0.021651957173065534
aF-0.06034689284800633
aF0.07770567502042852
aF-0.012343914185695802
aF-0.024835718143403938
aF-0.0944749234883111
aF-0.04599824252399274
aF-0.046845458422242414
aF-0.0198038787193974
aF0.0
aF0.013247925125979243
aF-0.02105566865933291
aF-0.022411107454736828
aF-0.0194226183761927
aF-0.02440660085220399
aF-0.0009140026692906096
aF0.0
aF-0.023396514313566687
aF-0.024749928521535305
aF-0.025074753645579186
aF-0.02393479911466308
aF0.026398212019556357
aF0.025019594002664947
aF-0.02481154032957785
aF-0.059839470150143265
aF-0.10187676898500507
aF-0.034115939845884194
aF-0.02490795027660545
aF-0.030840980517866226
aF-0.07088144091167717
aF0.0
aF0.050230743255124485
aF-0.007105819391856218
aF-0.048413627324000355
aF-0.05383409130818545
aF-0.05526162350574556
aF0.0
aF-0.023590918598547776
aF0.0
aF0.0
aF0.027622682694759884
aF0.025112591110559274
aF-0.04872071351246595
aF0.0
aF0.0
aF-0.011217679226621622
aF0.026191605184164603
aF0.0
aF0.026259713643785265
aF-0.02492371847812822
aF0.0
aF0.02512496431376885
aF0.0
aF0.0
aF-0.012463028591757437
aF0.0
aF0.0
aF-0.021688832281383526
aF-0.022073285395068785
aF-0.024178297134168775
aF0.0
aF-0.02494541808105391
aF-0.02565413951912494
aF-0.02453743407175868
aF0.0
aF-0.08725259406539554
aF-0.09440198494498492
aF-0.02499970421953947
aF-0.0007112188935442625
aF-0.024546209386079026
aF-0.0008704734658946563
aF-0.000956704369335426
aF-0.04828855421417603
aF0.0
aF-0.09686464911051476
aF0.0
aF-0.02362550053954218
aF0.0
aF-0.019126117225434575
aF0.0
aF-0.12640703739070505
aF-0.024885131901423455
aF-0.024808571636115686
aF-0.02462763867679766
aF-0.04825195767107648
aF-0.06626643432064769
aF0.025568226330768863
aF-0.023765727682122362
aF-0.0757782171262939
aF-0.024429065487472302
aF-0.02385309291977174
aF-0.06940875825422746
aF-0.06840988479062961
aF-0.034667938391320804
aF-0.049519004980682874
aF0.0
aF-0.022675472521014844
aF0.0
aF0.02794064651692792
aF-0.024079875700949483
aF0.0
aF0.0
aF0.025109507887215533
aF0.0
aF-0.07782280845156873
aF0.0
aF0.0
aF-0.06735392846679786
aF-0.02496635840664919
aF0.0
aF-0.01973564353631365
aF-0.044624901538198175
aF-0.22223545551748364
aF-0.04552518422196162
aF-0.09158362972414319
aF0.0
aF0.0
aF-0.11027814561099933
aF-0.04868733369788922
aF-0.16529526904918643
aF0.0
aF0.02518461258064862
aF-0.04814942120565888
aF-0.024253143904631194
aF0.0
aF0.0
aF-0.10458984515131187
aF0.0
aF-0.024399727682909787
aF0.0
aF-0.024885955529335917
aF0.02504814118415204
aF0.0024840651122931684
aF-0.024495315210268997
aF-0.06307859196383536
aF0.025441947189189507
aF-0.024987123212110957
aF-0.1428758672888695
aF0.0
aF-0.024941320284619494
aF0.0
aF-0.10072383156250596
aF0.0
aF0.0
aF-0.04854697694922151
aF-0.024116552802679277
aF-0.02476427805691543
aF-0.0478048577690538
aF0.0
aF-0.12823328107178733
aF-0.07815619088864656
aF0.0
aF0.0005864223096183341
aF-0.048416952944972745
aF0.0
aF-0.011759578715693811
aF-0.010430632392535567
aF-0.09050778994484293
aF-0.02433754665621021
aF0.0
aF-0.034194711912374706
aF-0.021227607115554284
aF-0.024117740462164448
aF-0.1711764464214376
aF-0.02499966658083752
aF-0.07892615355266536
aF0.0
aF-0.047697808441685495
aF0.0
aF0.0
aF-0.04978924758379013
aF-0.023881741666008236
aF-0.059850395456563434
aF0.0
aF-0.01486787988403606
aF0.0
aF-0.02446304253656532
aF-0.024981512448915985
aF-0.024302555146195864
aF-0.024988967529726024
aF0.0
aF-0.021236542324394383
aF-0.019109297036247308
aF0.0
aF0.0
aF-0.048147450950186535
aF0.0024000850061659147
aF0.0
aF0.0
aF-0.024319031470108124
aF-0.06974589745425296
aF-0.10510240928006989
aF-0.11063856866598656
aF-0.03297077894937883
aF-0.024506888320949514
aF-0.013143337310610603
aF-0.024892625386125446
aF0.0
aF-0.033311248465364436
aF-0.0692594935510526
aF-0.02473065046845699
aF-0.02493979548196314
aF-0.024666290721374266
aF0.0
aF0.0
aF-0.0168822204439443
aF0.0
aF0.0
aF-0.02445387292919496
aF-0.02438066900827567
aF-0.025
aF-0.05827828658365891
aF0.0
aF0.0
aF-0.03031490087386178
aF-0.00015137442733005428
aF-0.04854471590310108
aF0.0
aF0.05087922152814671
aF0.0
aF-0.017793592369492198
aF0.0
aF-0.04819595496261065
aF0.0
aF-0.016300387818855844
aF0.0
aF0.0
aF0.0
aF-0.06906622929633749
aF-0.01894150117134249
aF0.0
aF-0.024884581606487648
aF0.0
aF0.0
aF0.0
aF0.025058463671788524
aF0.004274971950182841
aF-0.0225990153205145
aF-0.023279678429970703
aF0.0
aF-0.024774633570523674
aF-0.024609268520362083
aF-0.018242255956063977
aF-0.02439152623942836
aF0.0
aF0.0
aF0.02510069552265345
aF-0.04425865163357294
aF0.0
aF0.0
aF-0.023892272726519323
aF-0.02531244829295752
aF0.0
aF-0.016145765072698305
aF-0.06905269962055882
aF0.0
aF-0.09107299732822821
aF-0.024999257107114058
aF-0.019149230028230046
aF0.0
aF0.0
aF-0.02460008408059962
aF-0.024914871866922508
aF0.025363803472786273
aF0.0
aF-0.0481991450084641
aF0.0
aF0.001453890105488461
aF0.0
aF-0.024588513137386782
aF-0.018298299392446933
aF-0.04745001499283015
aF0.0
aF0.0
aF-0.02416456421308727
aF0.024415913431099494
aF0.0
aF0.0
aF-0.02379399714859673
aF0.0
aF0.0
aF0.0
aF0.0
aF-0.03571652945447062
aF0.0
aF-0.024964044507429672
aF-0.044049546424013625
aF0.00187154753468896
aF0.024981936597778615
aF-0.008220788982635051
aF-0.04778071311373881
aF0.0
aF0.0
aF0.0
aF-0.02437538662013413
aF0.0
aF-0.09093681991467702
aF0.0
aF-0.02499297792198258
aF0.0
aF0.0
aF-0.04846909486442843
aF0.0
aF0.0
aF-0.02492242708887825
aF0.0
aF-0.01863683024305328
aF-0.045655792635514336
aF-0.02499990279968005
aF0.0
aF0.0
aF0.0
aF-0.012321167350689173
aF0.0
aF-0.024925465051903697
aF0.025013812917612146
aF-0.024186081130781634
aF0.0
aF-0.020607751983632752
aF0.0
aF0.0
aF0.0
aF-0.12941243311268646
aF-0.041561709293194166
aF0.0
aF0.0
aF-0.020412109967333687
aF-0.0329895205558321
aF-0.06686543553212093
aF-0.06263832780038
aF-0.025
aF0.0
aF-0.04752072348993076
aF0.025978893168125572
aF0.001841989013011476
aF0.0
aF0.0
aF-0.024999773099917622
aF0.0
aF-0.035520201344979005
aF0.0
aF0.0
aF-0.04358450066337427
aF-0.02185578654156426
aF0.0
aF-0.02661476372485432
aF0.0
aF0.0
aF0.0
aF0.0
aF0.0
aF-0.01901240904316325
aF-0.037120700015664816
aF0.0
aF0.0
aF-0.04758834141365065
aF-0.02499989684865452
aF0.0
aF-0.0285431634660404
aF0.0
aF0.0
aF-0.0249527433194275
aF0.0
aF0.0
aF0.0
aF-0.024807244870372728
aF-0.10877616400940719
aF-0.005217546086656519
aF-0.024830310825033577
aF-0.04802454481338689
aF0.0
aF-0.024676345420940243
aF0.0
aF0.0
aF0.0
aF0.0
aF0.002015097989794469
aF0.0
aF-0.02484698344136296
aF0.0
aF0.0
aF0.0
aF0.0
aF-0.024354238397983913
aF0.0
aF-0.02433669366797994
aF0.0
aF0.0
aF0.0
aF-0.024999835410566856
aF0.026712530398538277
aF-0.044063286390699855
aF0.0
aF0.0
aF0.0
aF0.0
aF0.02632793924272089
aF0.0
aF0.0
aF-0.09587188760968357
aF-0.014971827664254134
aF-0.007719800141410618
aF0.0
aF0.0
aF0.0
aF0.0
aF0.0
aF0.0
aF0.0
aF0.0
aF0.0
aF-0.05341713671455007
aF-0.047357430081941876
aF0.0
aF0.0
aF-0.015085518066021115
aF-0.0918248563102968
aF-0.024999798564098244
aF0.0
aF0.0
aF0.0
aF-0.010349324451078591
aF-0.048351734580399916
aF0.0
aF-0.038701137159178764
aF-0.024218072389761196
aF0.0
aF0.0
aF0.0
aF-0.0444763209548718
aF0.0
aF-0.00015259588129122766
aF0.0
aF0.0
aF0.0
aF0.0
aF0.0
aF0.0
aF0.0
aF-0.012208500741886438
aF0.0
aF0.0
aF-0.023899314516788575
aF0.0
aF0.0
aF0.0
aF-0.02492144053718061
aF-0.012460390351874389
aF0.0
aF0.0
aF0.0
aF0.0
aF0.0
aF0.0
aF0.025442963374705974
aF-0.06894743093075066
aF-0.0049835061129756015
aF0.0
aF-0.02480777824670048
aF0.0
aF-0.06270733130378583
aF-0.01915273665832807
aF0.0
aF0.0
aF0.0
aF-0.024920889330985962
aF0.0
aF-0.02467785056891887
aF-0.007125931097971362
aF0.0
aF0.0
aF-0.02492119174129655
aF0.0
aF-0.017297147527153552
aF-0.031145001671068154
aF0.0
aF0.02500035435225515
aF0.0
aF-0.024943493846216535
aF-0.00153853986664859
aF0.0
aF0.0
aF0.02563963352201003
aF0.0
aF0.0
aF0.0
aF-0.018188095782297693
aF0.0
aF0.0
aF0.0
aF0.0
aF0.0
aF-0.05741400236736772
aF-0.054283565601557976
aF-0.01245867589526882
aF-0.012490253378640266
aF-0.06753419885112961
aF-0.024808499087904043
aF0.0
aF0.0
aF-0.03363909883137629
aF0.0
aF0.0
aF-0.024999809333343535
aF0.0
aF0.0
aF4.4133626320452986e-05
aF0.0
aF-0.012597237652518481
aF0.0
aF0.0
aF0.012512769101562255
aF0.0
aF-0.048622364111582855
aF0.0
aF0.0
aF-0.019964588989352106
aF0.0
aF0.0009107863835258051
aF0.0
aF0.0
aF0.0
aF0.0
aF0.0
aF0.0
aF0.0
aF0.0
aF-0.05669224936598201
aF0.0
aF0.0
aF0.0
aF0.0
aF0.0
aF0.0
aF-0.02259932840487287
aF-0.06250115327353642
aF0.0
aF0.0
aF0.0
aF0.0
aF-0.024997692401351353
aF-0.023615714259442085
aF0.0
aF-0.01957325075863224
aF-0.06727375432260795
aF0.0
aF0.0
aF0.0
aF0.0
aF-0.019149346704896267
aF0.0
aF-0.21785157674401973
aF0.0
aF0.0
aF-0.04862145987103612
aF0.0
aF0.0
aF0.0
aF-0.024378703496056628
aF-0.025004613953079277
aF0.0
aF-0.012484861292746317
aF-0.02015402853127968
aF0.0
aF-0.024928426331027143
aF0.0
aF0.004174911553266733
aF0.0
aF-0.0598762021911243
aF-0.017723763105801153
aF0.0
aF-0.024916351770402148
aF0.0
aF0.0
aF0.0
aF0.0
aF-0.024277503080441375
aF-0.03605859412410597
aF-0.09072839822483114
aF-0.014673388690004523
aF0.0
aF-8.493433145163876e-07
aF0.0
aF0.0
aF-0.11176809578251928
aF-0.03819538815217802
aF-0.08835813629025792
aF0.0
aF0.0
aF-0.024876742858442907
aF-0.07648438749380762
aF0.0
aF0.0
aF0.0
aF0.0
aF0.025727952878167582
aF0.0
aF0.0
aF-0.06782418591522792
aF0.0
aF0.0
aF-0.07052999220224081
aF-0.021720403247084873
aF-0.03322251242720411
aF0.0
aF0.0
aF-0.025
aF0.0
aF0.0
aF0.0
aF0.0
aF0.0
aF-0.012499127771144404
aF0.0
aF0.0
aF0.0
aF0.0
aF-0.0003696768693138156
aF0.0
aF-0.04800026989119248
aF0.025000124328309184
aF-0.015043002652363344
aF0.0
aF-0.01916941899506233
aF0.0
aF0.0
aF0.0
aF-0.024634060182193485
aF0.0
aF0.0
aF0.0
aF0.025995752601679068
aF0.0016908315647558847
aF-0.024647296346963374
aF0.0
aF0.0
aF-0.024905736518425866
aF-0.015542761894061044
aF-0.06873885365840915
aF0.0
aF0.0
aF-0.3669164240725762
aF0.0
aF0.0
aF0.0
aF0.008784486499075435
aF0.0
aF0.0
aF0.0
aF-0.012141974799724915
aF0.0
aF0.05139394100454267
aF0.0
aF0.0
aF0.0
aF0.0
aF0.0
aF0.0
aF-0.04846004947714344
aF0.0
aF-0.08999773707318526
aF0.0
aF-0.019261551084542822
aF0.0
aF0.0
aF-0.01506993983848049
aF7.038807682162133e-05
aF-0.03221161542941336
aF-0.0919571619459238
aF0.0
aF0.0
aF0.0
aF0.0
aF0.0
aF0.0
aF0.0
aF0.0
aF0.0
aF0.0
aF-0.02496844605238592
aF0.02499999278539739
aF0.0
aF0.0
aF0.0
aF0.0
aF0.0
aF0.0
aF0.0
aF0.0
aF0.0
aF0.0
aF0.0
aF0.0
aF-0.016243855865731426
aF0.0
aF-0.02144520859277087
aF-0.04982260052638028
aF0.0
aF0.0
aF-0.012413475048297262
aF0.0
aF0.025067281811634447
aF0.0
aF-0.014373800508779733
aF-0.024893376907840298
aF-0.040969443697442126
aF0.0
aF-0.04179558766119352
aF0.0
aF0.0
aF0.0
aF-0.02463773083206659
aF0.0
aF0.0
aF0.0
aF0.0
aF0.0
aF0.001413884089984871
aF-0.026696363358630727
aF0.0
aF0.0
aF0.0
aF0.0
aF0.0
aF-0.008275163618015289
aF-0.27759766231612915
aF0.0
aF0.0
aF0.0
aF0.0
aF-0.024918524663132408
aF-0.024776261247234213
aF-0.02845513641840431
aF0.0
aF0.0
aF-0.02499964564774485
aF-0.024999894669265273
aF-0.02496481788260356
aF0.0
aF0.0
aF0.0
aF0.0
aF0.0
aF-0.05050984272282057
aF-0.2892412208826935
aF0.0
aF0.0
aF0.0
aF-0.022922266483351626
aF-0.065035772750693
aF0.0
aF0.0
aF0.0
aF0.0
aF0.0
aF0.0
aF-0.02465166522527178
aF0.0
aF-0.012051257842948655
aF0.0
aF0.0
aF0.0
aF-0.1461492443351928
aF0.0
aF0.0
aF-0.048249868111135366
aF0.0
aF-0.024408181975561348
aF-0.0653826730153512
aF0.0
aF0.0
aF0.0
aF0.0
aF0.0
aF0.0
aF-0.01984085843143663
aF0.0
aF-0.0125
aF-0.024400344100519642
aF-0.02500000180386257
aF0.0
aF0.0
aF-0.019593983736812776
aF-0.04849291169164405
aF0.0
aF-0.1257121744272706
aF0.0
aF0.011359401130987344
aF-0.012174201573404429
aF-0.08864755099469995
aF-0.023036660831244372
aF-0.024750184433039415
aF-0.02016387615765836
aF0.0
aF0.0
aF0.0
aF0.0
aF0.0
aF0.0
aF0.0
aF-0.022271459850534144
aF-0.11128910902333018
aF0.0
aF0.0
aF0.0
aF0.0
aF0.0
aF0.0
aF-0.024685325309674665
aF0.0
aF0.0
aF0.0
aF0.0
aF0.0
aF-0.04195471890773335
aF0.0
aF0.0
aF0.0
aF0.0
aF0.0
aF0.0
aF0.0
aF0.0
aF-0.017671263795234086
aF-0.048685407017037254
aF0.0
aF0.0
aF0.0
aF-0.017814038930541207
aF0.0
aF0.0
aF-0.012480508053172133
aF-0.030862030517541363
aF0.0
aF-0.12163910096793304
aF0.0
aF0.0
aF-0.011655105200080253
aF-0.044976194314429375
aF0.0
aF0.0
aF0.0
aF0.0
aF0.0
aF0.0
aF-0.05795833697719024
aF-0.02499877347774931
aF0.0
aF0.0
aF0.0
aF0.0
aF0.0
aF-0.024999881082430855
aF0.0
aF0.0
aF-0.03720899360912579
aF0.0
aF0.0
aF0.0
aF0.0
aF0.0
aF0.0
aF0.0
aF0.0
aF0.0
aF0.0
aF0.0
aF0.0
aF0.0
aF0.0
aF0.0
aF0.0
aF-0.32286506127267267
aF0.0
aF0.0
aF0.0
aF0.0
aF-0.024999225364631637
aF0.0
aF0.0
aF0.0
aF0.0
aF0.0
aF0.0
aF-0.019312261684702056
aF0.0
aF0.0
aF0.0
aF0.0
aF0.0
aF0.0
aF0.0
aF-0.024992319722778784
aF-0.012387178395501656
aF0.0
aF0.0
aF0.0
aF0.0
aF-0.02460856237109366
aF-0.024999877227884243
aF0.0
aF0.0
aF0.0
aF0.0
aF0.0
aF0.0
aF0.0
aF0.0
aF0.025000548119041194
aF0.0
aF0.0
aF0.0
aF0.0
aF0.0
aF0.0
aF0.0
aF0.025
aF0.0
aF0.0
aF-0.019147977895177568
aF-0.01666484946763382
aF-0.0020832484204189893
aF0.0
aF0.0
aF0.0
aF0.0
aF0.0
aF0.0
aF0.0
aF0.0
aF0.0
aF0.0
aF0.0
aF0.0
aF0.0
aF0.0
aF0.0
aF0.0
aF0.0
aF0.0
aF0.0
aF0.0
aF0.0
aF0.0
aF0.0
aF0.0
aF0.0
aF0.0
aF0.0
aF0.0
aF0.0
aF0.0
aF-0.024996576580064447
aF-0.02492150269507329
aF0.0
aF-0.048572821832651485
aF0.0
aF0.0
aF0.0
aF0.0
aF0.0
aF0.0
aF0.0
aF0.0
aF0.0
aF0.0
aF0.0
aF0.0
aF0.0
aF0.0
aF0.0
aF0.0
aF0.0
aF0.0
aF0.0
aF0.0
aF0.0
aF0.0
aF0.0
aF0.0
aF0.0
aF0.0
aF0.0
aF-0.024999159513864586
aF0.0
aF0.0
aF0.0
aF-0.024978192879323468
aF0.0
aF-0.023979243998890926
aF-0.04226343629012183
aF-0.01892364693342973
aF0.0
aF0.0
aF0.0
aF0.0
aF0.0
aF0.0
aF0.0
aF0.0
aF0.0
aF-0.019149303833814794
aF0.0
aF0.0
aF0.0
aF0.0
aF0.0
aF0.0
aF0.0
aF0.0
aF-0.012497997188266835
aF0.0
aF0.0
aF0.0
aF-0.024999148095852415
aF0.0
aF0.0
aF0.0
aF0.0
aF0.0
aF0.0
aF0.0
aF0.0
aF0.0
aF0.0
aF0.0
aF0.0
aF0.0
aF0.0
aF0.0
aF0.0
aF-0.02500039271161399
aF0.0
aF0.0
aF0.0
aF0.0
aF0.0
aF0.0
aF0.0
aF0.0
aF0.0
aF-0.02144514521507116
aF0.0
aF0.0
aF0.0
aF0.0
aF0.0
aF0.0
aF0.0
aF-0.02499992735167883
aF-0.008333270136910481
aF0.0
aF0.0
aF0.0
aF0.0
aF0.0
aF0.0
aF0.0
aF0.0
aF0.0
aF0.0
aF0.0
aF0.0
aF0.0
aF-0.024999333188681413
aF0.0
aF0.0
aF0.0
aF-0.02499931093719544
aF-0.4749586499357816
aF-0.2946544676640815
aF0.0
aF0.0
aF0.0
aF0.0
aF0.0
aF0.0
aF0.0
aF0.0
aF0.0
aF0.0
aF0.0
aF0.0
aF0.0
aF0.0
aF0.0
aF0.0
aF0.0
aF0.0
aF0.0
aF0.0
aF-0.024845895631359055
aF0.0
aF0.0
aF0.0
aF0.0
aF0.0
aF0.0
aF0.0
aF0.0
aF0.0
aF0.0
aF0.0
aF0.0
aF0.0
aF0.0
aF0.0
aF0.0
aF0.0
aF0.0
aF0.0
aF0.0
aF0.0
aF0.0
aF0.0
aF0.0
aF0.0
aF0.0
aF0.0
aF0.0
aF0.0
aF0.0
aF0.0
aF0.0
aF0.0
aF0.0
aF0.0
aF0.0
aF0.0
aF0.0
aF0.0
aF0.0
aF0.0
aF0.0
aF0.0
aF0.0
aF0.0
aF0.0
aF0.0
aF0.0
aF0.0
aF0.0
aF0.0
aF0.0
aF0.0
aF0.0
aF0.0
aF0.0
aF0.0
aF0.0
aF0.0
aF0.0
aF0.0
aF0.0
aF-0.024964244765091577
aF0.0
aF-0.04861347357881739
aF0.0
aF0.0
aF0.0
aF0.0
aF0.0
aF0.0
aF0.0
aF0.0
aF0.0
aF0.0
aF0.0
aF0.0
aF-0.024999828134753734
aF0.025000164589433146
aF0.0
aF0.0
aF0.0
aF0.0
aF0.0
aF0.0
aF0.0
aF0.0
aF0.0
aF0.0
aF0.0
aF0.0
aF0.0
aF-0.006250037793924067
aF0.0
aF0.0
aF0.0
aF0.0
aF0.0
aF0.0
aF0.0
aF0.0
aF0.0
aF0.0
aF0.0
aF0.0
aF0.0
aF0.0
aF0.0
aF0.0
aF0.0
aF0.0
aF0.0
aF0.0
aF0.0
aF-0.048687264520885246
aF0.0
aF0.0
aF0.0
aF0.0
aF0.0
aF0.0
aF0.0
aF0.0
aF0.0
aF0.0
aF0.0
aF0.0
aF0.0
aF0.0
aF0.0
aF0.0
aF0.0
aF0.0
aF0.0
aF0.0
aF0.0
aF0.0
aF0.0
aF0.0
aF0.0
aF0.0
aF0.0
aF0.0
aF0.0
aF0.0
aF0.0
aF0.0
aF0.0
aF0.0
aF0.0
aF0.0
aF0.0
aF0.0
aF0.0
aF0.0
aF0.0
aF0.0
aF0.0
aF-0.024995173866565218
aF0.0
aF0.0
aF0.0
aF0.0
aF0.0
aF0.0
aF0.0
aF0.0
aF0.0
aF0.0
aF0.0
aF0.0
aF0.0
aF0.0
aF0.0
aF0.0
aF0.0
aF0.0
aF0.0
aF0.0
aF0.0
aF0.0
aF0.0
aF0.0
aF0.0
aF0.0
aF0.0
aF0.0
aF0.0
aF0.0
aF0.0
aF0.0
aF0.0
aF0.0
aF0.0
aF0.0
aF0.0
aF0.0
aF0.0
aF0.0
aF0.0
aF0.0
aF0.0
aF0.0
aF0.0
aF0.0
aF0.0
aF0.0
aF0.0
aF0.0
aF0.0
aF0.0
aF-0.01246089659188078
aF0.0
aF0.0
aF0.0
aF0.0
aF0.0
aF0.0
aF0.0
aF0.0
aF0.0
aF0.0
aF0.0
aF0.0
aF0.0
aF0.0
aF0.0
aF0.0
aF0.0
aF0.0
aF0.0
aF0.0
aF0.0
aF0.0
aF0.0
aF-0.024999601488073685
aF0.0
aF0.0
aF0.0
aF0.0
aF0.0
aF0.0
aF0.0
aF0.0
aF0.0
aF0.0
aF0.0
aF0.0
aF0.0
aF0.0
aF0.0
aF0.0
aF0.0
aF0.0
aF0.0
aF0.0
aF-0.02446091009046624
aF0.0
aF0.0
aF0.0
aF0.0
aF0.0
aF-0.024999995494706675
aF0.0
aF0.0
aF-0.012459501175261026
aF0.0
aF0.0
aF0.0
aF0.0
aF0.0
aF0.0
aF0.0
aF0.0
aF0.0
aF0.0
aF0.0
aF0.0
aF0.0
aF0.0
aF0.0
aF0.0
aF0.0
aF0.0
aF0.0
aF0.0
aF0.0
aF0.0
aF0.0
aF0.0
aF0.0
aF0.0
aF0.0
aF0.0
aF0.0
aF0.0
aF0.0
aF0.0
aF0.0
aF0.0
aF0.0
aF0.0
aF0.0
aF0.0
aF0.0
aF0.0
aF0.0
aF0.0
aF0.0
aF0.0
aF0.0
aF0.0
aF0.0
aF0.0
aF0.0
aF0.0
aF0.0
aF0.0
aF0.0
aF0.0
aF0.0
aF-0.046856834431267966
aF0.0
aF0.0
aF0.0
aF0.0
aF0.0
aF0.0
aF0.0
aF0.0
aF0.0
aF0.0
aF0.0
aF0.0
aF0.0
aF0.0
aF0.004999988349519352
aF0.0
aF0.0
aF0.0
aF0.0
aF0.0
aF0.0
aF0.0
aF0.0
aF0.0
aF0.0
aF0.0
aF0.0
aF-0.02499966658083752
aF0.0
aF0.0
aF0.0
aF0.0
aF0.0
aF0.0
aF0.0
aF0.0
aF0.0
aF0.0
aF0.0
aF0.0
aF0.0
aF0.0
aF0.0
aF0.0
aF0.0
aF0.0
aF0.0
aF0.0
aF0.0
aF0.0
aF0.0
aF0.0
aF0.0
aF0.0
aF0.0
aF0.0
aF-0.012499965808889405
aF0.0
aF0.0
aF0.0
aF0.0
aF0.0
aF0.0
aF0.0
aF0.0
aF0.0
aF0.0
aF0.0
aF0.0
aF0.0
aF0.0
aF0.0
aF0.0
aF0.0
aF0.0
aF0.0
aF0.0
aF0.0
aF0.0
aF0.0
aF0.0
aF0.0
aF0.0
aF0.0
aF0.0
aF0.0
aF0.0
aF0.0
aF0.0
aF0.0
aF0.0
aF0.0
aF0.0
aF0.0
aF0.0
aF0.0
aF0.0
aF0.0
aF0.0
aF0.0
aF0.0
aF0.0
aF0.0
aF0.0
aF0.0
aF0.0
aF0.0
aF0.0
aF0.0
aF0.0
aF0.0
aF0.0
aF0.0
aF0.0
aF-0.024931684774977023
aF0.0
aF0.0
aF-0.02446047579540779
aF0.0
aF0.0
aF0.0
aF0.0
aF0.0
aF0.0
aF0.0
aF0.0
aF0.0
aF0.0
aF0.0
aF0.0
aF0.0
aF0.0
aF0.0
aF0.0
aF0.0
aF0.0
aF0.0
aF0.0
aF0.0
aF0.0
aF0.0
aF0.0
aF0.0
aF0.0
aF0.0
aF0.0
aF0.0
aF0.0
aF0.0
aF0.0
aF0.0
aF0.0
aF0.0
aF0.0
aF0.0
aF0.0
aF0.0
aF-0.016321605127986975
aF0.0
aF0.0
aF0.0
aF0.0
aF0.0
aF0.0
aF-0.02499949972802396
aF0.0
aF0.0
aF0.0
aF0.0
aF0.0
aF0.0
aF0.0
aF0.0
aF0.0
aF0.0
aF0.0
aF0.0
aF0.0
aF0.0
aF0.0
aF0.0
aF0.0
aF0.0
aF0.0
aF0.0
aF0.0
aF0.0
aF0.0
aF0.0
aF0.0
aF0.0
aF0.0
aF0.0
aF0.0
aF0.0
aF0.0
aF-0.008332969376492047
aF0.0
aF0.0
aF0.0
aF0.0
aF0.0
aF0.0
aF0.0
aF0.0
aF0.0
aF0.0
aF0.0
aF0.0
aF0.0
aF-0.09239741519608137
aF0.0
aF0.0
aF0.0
aF0.0
aF-0.024999771888335437
aF0.0
aF0.0
aF0.0
aF0.0
aF0.0
aF0.0
aF0.0
aF0.0
aF0.0
aF0.0
aF0.0
aF0.0
aF0.0
aF0.0
aF0.0
aF0.0
aF0.0
aF0.0
aF0.0
aF0.0
aF0.0
aF0.0
aF-0.024999632786951866
aF0.0
aF0.0
aF0.0
aF0.0
aF0.0
aF0.0
aF0.0
aF0.0
aF0.0
aF0.0
aF0.0
aF0.0
aF0.0
aF0.0
aF0.0
aF0.0
aF0.0
aF0.0
aF0.0
aF0.0
aF0.0
aF0.0
aF0.0
aF0.0
aF0.0
aF0.0
aF0.0
aF0.0
aF0.0
aF0.0
aF0.0
aF0.0
aF0.0
aF0.0
aF0.0
aF0.0
aF0.0
aF-0.0027777761898903786
aF0.0
aF0.0
aF0.0
aF0.0
aF0.0
aF0.0
aF0.0
aF0.0
aF0.0
aF0.0
aF0.0
aF0.0
aF0.0
aF0.0
aF0.0
aF0.0
aF0.0
aF0.0
aF0.0
aF0.0
aF0.0
aF0.0
aF0.0
aF0.0
aF0.0
aF0.0
aF0.0
aF0.0
aF0.0
aF0.0
aF0.0
aF0.0
aF0.0
aF0.0
aF0.0
aF0.0
aF0.0
aF0.0
aF0.0
aF0.0
aF0.0
aF0.0
aF0.0
aF-0.025
aF0.0
aF0.0
aF0.0
aF0.0
aF0.0
aF0.0
aF-0.024998613010289675
aF0.0
aF0.0
aF0.0
aF0.0
aF0.0
aF0.0
aF0.0
aF0.0
aF0.0
aF0.0
aF0.0
aF0.0
aF0.0
aF0.0
aF0.0
aF0.0
aF0.0
aF0.0
aF0.0
aF0.0
aF0.0
aF0.0
aF0.0
aF0.0
aF0.0
aF0.0
aF0.0
aF0.0
aF0.0
aF0.0
aF0.0
aF0.0
aF0.0
aF0.0
aF-0.008333322010408947
aF0.0
aF0.0
aF0.0
aF0.0
aF0.0
aF0.0
aF0.0
aF0.0
aF0.0
aF0.0
aF0.0
aF0.0
aF0.0
aF0.0
aF0.0
aF0.0
aF0.0
aF0.0
aF0.0
aF0.0
aF0.0
aF0.0
aF0.0
aF0.0
aF0.0
aF0.0
aF0.0
aF0.0
aF0.0
aF0.0
aF0.0
aF0.0
aF0.0
aF0.0
aF0.0
aF0.0
aF0.0
aF0.0
aF0.0
aF0.0
aF0.0
aF0.0
aF0.0
aF0.0
aF0.0
aF0.0
aF0.0
aF0.0
aF0.0
aF0.0
aF0.0
aF0.0
aF0.0
aF0.0
aF0.0
aF0.0
aF0.0
aF0.0
aF0.0
aF0.0
aF0.0
aF0.0
aF0.0
aF0.0
aF0.0
aF0.0
aF0.0
aF0.0
aF0.0
aF0.0
aF-0.025000358714129978
aF0.0
aF0.0
aF0.0
aF0.0
aF0.0
aF0.0
aF0.0
aF0.0
aF0.0
aF0.0
aF0.0
aF0.0
aF0.0
aF0.0
aF0.0
aF0.0
aF0.0
aF0.0
aF0.0
aF0.0
aF0.0
aF0.0
aF0.0
aF0.0
aF0.0
aF0.0
aF0.0
aF0.0
aF0.0
aF0.0
aF0.0
aF0.0
aF0.0
aF0.0
aF0.0
aF0.0
aF0.0
aF0.0
aF0.0
aF0.0
aF0.0
aF0.0
aF0.0
aF0.0
aF0.0
aF0.0
aF0.0
aF0.0
aF0.0
aF0.0
aF0.0
aF0.0
aF0.0
aF0.0
aF0.0
aF0.025000108714378577
aF0.0
aF0.0
aF0.0
aF0.0
aF0.0
aF0.0
aF0.0
aF0.0
aF0.0
aF0.0
aF0.0
aF0.0
aF0.0
aF0.0
aF0.0
aF0.0
aF0.0
aF0.0
aF0.0
aF0.0
aF0.0
aF0.0
aF0.0
aF0.0
aF0.0
aF0.0
aF0.0
aF-0.0027775670159797725
aF0.0
aF0.0
aF0.0
aF0.0
aF0.0
aF0.0
aF0.0
aF0.0
aF0.0
aF0.0
aF0.0
aF0.0
aF0.0
aF0.0
aF0.0
aF0.0
aF0.0
aF0.0
aF0.0
aF0.0
aF0.0
aF0.0
aF0.0
aF0.0
aF0.0
aF0.0
aF0.0
aF0.0
aF0.0
aF0.0
aF0.0
aF0.0
aF0.0
aF0.0
aF0.0
aF0.0
aF0.0
aF0.0
aF0.0
aF0.0
aF0.0
aF0.0
aF-0.02500001291260357
aF0.0
aF0.0
aF0.0
aF0.0
aF0.0
aF0.0
aF0.0
aF0.0
aF0.0
aF0.0
aF0.0
aF0.0
aF0.0
aF0.0
aF0.0
aF0.0
aF0.0
aF0.0
aF0.0
aF0.0
aF0.0
aF0.0
aF0.0
aF0.0
aF0.0
aF0.0
aF0.0
aF0.0
aF0.0
aF0.0
aF0.0
aF0.0
aF0.0
aF0.0
aF0.0
aF0.0
aF0.0
aF0.0
aF0.0
aF0.0
aF0.0
aF0.0
aF0.0
aF0.0
aF0.0
aF0.0
aF0.0
aF0.0
aF0.0
aF0.0
aF0.0
aF0.0
aF0.0
aF0.0
aF0.0
aF0.0
aF0.0
aF0.0
aF0.0
aF0.0
aF0.0
aF0.0
aF0.0
aF0.0
aF0.0
aF0.0
aF0.0
aF0.0
aF0.0
aF0.0
aF0.0
aF0.0
aF0.0
aF0.0
aF0.0
aF0.0
aF0.0
aF0.0
aF0.0
aF0.0
aF0.0
aF0.0
aF0.0
aF0.0
aF0.0
aF0.0
aF0.0
aF0.0
aF0.0
aF0.0
aF0.0
aF0.0
aF0.0
aF0.0
aF0.0
aF0.0
aF0.0
aF0.0
aF0.0
aF0.0
aF0.0
aF0.0
aF0.0
aF0.0
aF0.0
aF0.0
aF0.0
aF0.0
aF0.0
aF0.0
aF0.0
aF0.0
aF0.0
aF0.0
aF0.0
aF0.0
aF0.0
aF0.0
aF0.0
aF0.0
aF0.0
aF0.0
aF0.0
aF0.0
aF0.0
aF0.0
aF0.0
aF0.0
aF0.0
aF0.0
aF0.0
aF0.0
aF0.0
aF0.0
aF0.0
aF0.0
aF0.0
aF0.0
aF0.0
aF0.0
aF0.0
aF0.0
aF0.0
aF0.0
aF0.0
aF0.0
aF0.0
aF0.0
aF0.0
aF0.0
aF0.0
aF0.0
aF0.0
aF0.0
aF0.0
aF0.0
aF0.0
aF0.0
aF0.0
aF0.0
aF0.0
aF0.0
aF0.0
aF0.0
aF0.0
aF0.0
aF0.0
aF0.0
aF0.0
aF0.0
aF0.0
aF0.0
aF0.0
aF0.0
aF0.0
aF0.0
aF0.0
aF0.0
aF0.0
aF0.0
aF0.0
aF0.0
aF0.0
aF0.0
aF0.0
aF0.0
aF0.0
aF0.0
aF0.0
aF0.0
aF0.0
aF0.0
aF0.0
aF0.0
aF0.0
aF0.0
aF0.0
aF0.0
aF0.0
aF0.0
aF0.0
aF0.0
aF0.0
aF0.0
aF0.0
aF0.0
aF0.0
aF0.0
aF0.0
aF0.0
aF0.0
aF0.0
aF0.0
aF0.0
aF0.0
aF0.0
aF0.0
aF0.0
aF0.0
aF0.0
aF0.0
aF0.0
aF0.0
aF0.0
aF0.0
aF0.0
aF0.0
aF0.0
aF0.0
aF0.0
aF0.0
aF0.0
aF0.0
aF0.0
aF0.0
aF0.0
aF0.0
aF0.0
aF0.0
aF0.0
aF0.0
aF0.0
aF0.0
aF0.0
aF0.0
aF0.0
aF0.0
aF0.0
aF0.0
aF0.0
aF0.0
aF0.0
aF0.0
aF0.0
aF0.0
aF0.0
aF0.0
aF0.0
aF0.0
aF0.0
aF0.0
aF0.0
aF0.0
aF0.0
aF0.0
aF0.0
aF0.0
aF0.0
aF0.0
aF0.0
aF0.0
aF0.0
aF0.0
aF0.0
aF0.0
aF0.0
aF0.0
aF0.0
aF0.0
aF0.0
aF0.0
aF0.0
aF0.0
aF0.0
aF0.0
aF0.0
aF0.0
aF0.0
aF0.0
aF0.0
aF0.0
aF0.0
aF0.0
aF0.0
aF0.0
aF0.0
aF0.0
aF0.0
aF0.0
aF0.0
aF0.0
aF0.0
aF0.0
aF0.0
aF0.0
aF0.0
aF0.0
aF0.0
aF0.0
aF0.0
aF0.0
aF0.0
aF0.0
aF0.0
aF0.0
aF0.0
aF0.0
aF0.0
aF0.0
aF0.0
aF0.0
aF0.0
aF0.0
aF0.0
aF0.0
aF0.0
aF0.0
aF0.0
aF0.0
aF0.0
aF0.0
aF0.0
aF0.0
aF0.0
aF0.0
aF0.0
aF0.0
aF0.0
aF0.0
aF0.0
aF0.0
aF0.0
aF0.0
aF0.0
aF0.0
aF0.0
aF0.0
aF0.0
aF0.0
aF0.0
aF0.0
aF0.0
aF0.0
aF0.0
aF0.0
aF0.0
aF0.0
aF0.0
aF0.0
aF0.0
aF0.0
aF0.0
aF0.0
aF0.0
aF0.0
aF0.0
aF0.0
aF0.0
aF0.0
aF0.0
aF0.0
aF0.0
aF0.0
aF0.0
aF0.0
aF0.0
aF0.0
aF0.0
aF0.0
aF0.0
aF0.0
aF0.0
aF0.0
aF0.0
aF0.0
aF0.0
aF0.0
aF0.0
aF0.0
aF0.0
aF0.0
aF0.0
aF0.0
aF0.0
aF0.0
aF0.0
aF0.0
aF0.0
aF0.0
aF0.0
aF0.0
aF0.0
aF0.0
aF0.0
aF0.0
aF0.0
aF0.0
aF0.0
aF0.0
aF0.0
aF0.0
aF0.0
aF0.0
aF0.0
aF0.0
aF0.0
aF0.0
aF0.0
aF0.0
aF0.0
aF0.0
aF0.0
aF0.0
aF0.0
aF0.0
aF0.0
aF0.0
aF0.0
aF0.0
aF0.0
aF0.0
aF0.0
aF0.0
aF0.0
aF0.0
aF0.0
aF0.0
aF0.0
aF0.0
aF0.0
aF0.0
aF0.0
aF0.0
aF0.0
aF0.0
aF0.0
aF0.0
aF0.0
aF0.0
aF0.0
aF0.0
aF0.0
aF0.0
aF0.0
aF0.0
aF0.0
aF0.0
aF0.0
aF0.0
aF0.0
aF0.0
aF0.0
aF0.0
aF0.0
aF0.0
aF0.0
aF0.0
aF0.0
aF0.0
aF0.0
aF0.0
aF0.0
aF0.0
aF0.0
aF0.0
aF0.0
aF0.0
aF0.0
aF0.0
aF0.0
aF0.0
aF0.0
aF0.0
aF0.0
aF0.0
aF0.0
aF0.0
aF0.0
aF0.0
aF0.0
aF0.0
aF0.0
aF0.0
aF0.0
aF0.0
aF0.0
aF0.0
aF0.0
aF0.0
aF0.0
aF0.0
aF0.0
aF0.0
aF0.0
aF0.0
aF0.0
aF0.0
aF0.0
aF0.0
aF0.0
aF0.0
aF0.0
aF0.0
aF0.0
aF0.0
aF0.0
aF0.0
aF0.0
aF0.0
aF0.0
aF0.0
aF0.0
aF0.0
aF0.0
aF0.0
aF0.0
aF0.0
aF0.0
aF0.0
aF0.0
aF0.0
aF0.0
aF0.0
aF0.0
aF0.0
aF0.0
aF0.0
aF0.0
aF0.0
aF0.0
aF0.0
aF0.0
aF0.0
aF0.0
aF0.0
aF0.0
aF0.0
aF0.0
aF0.0
aF0.0
aF0.0
aF0.0
aF0.0
aF0.0
aF0.0
aF0.0
aF0.0
aF0.0
aF0.0
aF0.0
aF0.0
aF0.0
aF0.0
aF0.0
aF0.0
aF0.0
aF0.0
aF0.0
aF0.0
aF0.0
aF0.0
aF0.0
aF0.0
aF0.0
aF0.0
aF0.0
aF0.0
aF0.0
aF0.0
aF0.0
aF0.0
aF0.0
aF0.0
aF0.0
aF0.0
aF0.0
aF0.0
aF0.0
aF0.0
aF0.0
aF0.0
aF0.0
aF0.0
aF0.0
aF0.0
aF0.0
aF0.0
aF0.0
aF0.0
aF0.0
aF0.0
aF0.0
aF0.0
aF0.0
aF0.0
aF0.0
aF0.0
aF0.0
aF0.0
aF0.0
aF0.0
aF0.0
aF0.0
aF0.0
aF0.0
aF0.0
aF0.0
aF0.0
aF0.0
aF0.0
aF0.0
aF0.0
aF0.0
aF0.0
aF0.0
aF0.0
aF0.0
aF0.0
aF0.0
aF0.0
aF0.0
aF0.0
aF0.0
aF0.0
aF0.0
aF0.0
aF0.0
aF0.0
aF0.0
aF0.0
aF0.0
aF0.0
aF0.0
aF0.0
aF0.0
aF0.0
aF0.0
aF0.0
aF0.0
aF0.0
aF0.0
aF0.0
aF0.0
aF0.0
aF0.0
aF0.0
aF0.0
aF0.0
aF0.0
aF0.0
aF0.0
aF0.0
aF0.0
aF0.0
aF0.0
aF0.0
aF0.0
aF0.0
aF0.0
aF0.0
aF0.0
aF0.0
aF0.0
aF0.0
aF0.0
aF0.0
aF0.0
aF0.0
aF0.0
aF0.0
aF0.0
aF0.0
aF0.0
aF0.0
aF0.0
aF0.0
aF0.0
aF0.0
aF0.0
aF0.0
aF0.0
aF0.0
aF0.0
aF0.0
aF0.0
aF0.0
aF0.0
aF0.0
aF0.0
aF0.0
aF0.0
aF0.0
aF0.0
aF0.0
aF0.0
aF0.0
aF0.0
aF0.0
aF0.0
aF0.0
aF0.0
aF0.0
aF0.0
aF0.0
aF0.0
aF0.0
aF0.0
aF0.0
aF0.0
aF0.0
aF0.0
aF0.0
aF0.0
aF0.0
aF0.0
aF0.0
aF0.0
aF0.0
aF0.0
aF0.0
aF0.0
aF0.0
aF0.0
aF0.0
aF0.0
aF0.0
aF0.0
aF0.0
aF0.0
aF0.0
aF0.0
aF0.0
aF0.0
aF0.0
aF0.0
aF0.0
aF0.0
aF0.0
aF0.0
aF0.0
aF0.0
aF0.0
aF0.0
aF0.0
aF0.0
aF0.0
aF0.0
aF0.0
aF0.0
aF0.0
aF0.0
aF0.0
aF0.0
aF0.0
aF0.0
aF0.0
aF0.0
aF0.0
aF0.0
aF0.0
aF0.0
aF0.0
aF0.0
aF0.0
aF0.0
aF0.0
aF0.0
aF0.0
aF0.0
aF0.0
aF0.0
aF0.0
aF0.0
aF0.0
aF0.0
aF0.0
aF0.0
aF0.0
aF0.0
aF0.0
aF0.0
aF0.0
aF0.0
aF0.0
aF0.0
aF0.0
aF0.0
aF0.0
aF0.0
aF0.0
aF0.0
aF0.0
aF0.0
aF0.0
aF0.0
aF0.0
aF0.0
aF0.0
aF0.0
aF0.0
aF0.0
aF0.0
aF0.0
aF0.0
aF0.0
aF0.0
aF0.0
aF0.0
aF0.0
aF0.0
aF0.0
aF0.0
aF0.0
aF0.0
aF0.0
aF0.0
aF0.0
aF0.0
aF0.0
aF0.0
aF0.0
aF0.0
aF0.0
aF0.0
aF0.0
aF0.0
aF0.0
aF0.0
aF0.0
aF0.0
aF0.0
aF0.0
aF0.0
aF0.0
aF0.0
aF0.0
aF0.0
aF0.0
aF0.0
aF0.0
aF0.0
aF0.0
aF0.0
aF0.0
aF0.0
aF0.0
aF0.0
aF0.0
aF0.0
aF0.0
aF0.0
aF0.0
aF0.0
aF0.0
aF0.0
aF0.0
aF0.0
aF0.0
aF0.0
aF0.0
aF0.0
aF0.0
aF0.0
aF0.0
aF0.0
aF0.0
aF0.0
aF0.0
aF0.0
aF0.0
aF0.0
aF0.0
aF0.0
aF0.0
aF0.0
aF0.0
aF0.0
aF0.0
aF0.0
aF0.0
aF0.0
aF0.0
aF0.0
aF0.0
aF0.0
aF0.0
aF0.0
aF0.0
aF0.0
aF0.0
aF0.0
aF0.0
aF0.0
aF0.0
aF0.0
aF0.0
aF0.0
aF0.0
aF0.0
aF0.0
aF0.0
aF0.0
aF0.0
aF0.0
aF0.0
aF0.0
aF0.0
aF0.0
aF0.0
aF0.0
aF0.0
aF0.0
aF0.0
aF0.0
aF0.0
aF0.0
aF0.0
aF0.0
aF0.0
aF0.0
aF0.0
aF0.0
aF0.0
aF0.0
aF0.0
aF0.0
aF0.0
aF0.0
aF0.0
aF0.0
aF0.0
aF0.0
aF0.0
aF0.0
aF0.0
aF0.0
aF0.0
aF0.0
aF0.0
aF0.0
aF0.0
aF0.0
aF0.0
aF0.0
aF0.0
aF0.0
aF0.0
aF0.0
aF0.0
aF0.0
aF0.0
aF0.0
aF0.0
aF0.0
aF0.0
aF0.0
aF0.0
aF0.0
aF0.0
aF0.0
aF0.0
aF0.0
aF0.0
aF0.0
aF0.0
aF0.0
aF0.0
aF0.0
aF0.0
aF0.0
aF0.0
aF0.0
aF0.0
aF0.0
aF0.0
aF0.0
aF0.0
aF0.0
aF0.0
aF0.0
aF0.0
aF0.0
aF0.0
aF0.0
aF0.0
aF0.0
aF0.0
aF0.0
aF0.0
aF0.0
aF0.0
aF0.0
aF0.0
aF0.0
aF0.0
aF0.0
aF0.0
aF0.0
aF0.0
aF0.0
aF0.0
aF0.0
aF0.0
aF0.0
aF0.0
aF0.0
aF0.0
aF0.0
aF0.0
aF0.0
aF0.0
aF0.0
aF0.0
aF0.0
aF0.0
aF0.0
aF0.0
aF0.0
aF0.0
aF0.0
aF0.0
aF0.0
aF0.0
aF0.0
aF0.0
aF0.0
aF0.0
aF0.0
aF0.0
aF0.0
aF0.0
aF0.0
aF0.0
aF0.0
aF0.0
aF0.0
aF0.0
aF0.0
aF0.0
aF0.0
aF0.0
aF0.0
aF0.0
aF0.0
aF0.0
aF0.0
aF0.0
aF0.0
aF0.0
aF0.0
aF0.0
aF0.0
aF0.0
aF0.0
aF0.0
aF0.0
aF0.0
aF0.0
aF0.0
aF0.0
aF0.0
aF0.0
aF0.0
aF0.0
aF0.0
aF0.0
aF0.0
aF0.0
aF0.0
aF0.0
aF0.0
aF0.0
aF0.0
aF0.0
aF0.0
aF0.0
aF0.0
aF0.0
aF0.0
aF0.0
aF0.0
aF0.0
aF0.0
aF0.0
aF0.0
aF0.0
aF0.0
aF0.0
aF0.0
aF0.0
aF0.0
aF0.0
aF0.0
aF0.0
aF0.0
aF0.0
aF0.0
aF0.0
aF0.0
aF0.0
aF0.0
aF0.0
aF0.0
aF0.0
aF0.0
aF0.0
aF0.0
aF0.0
aF0.0
aF0.0
aF0.0
aF0.0
aF0.0
aF0.0
aF0.0
aF0.0
aF0.0
aF0.0
aF0.0
aF0.0
aF0.0
aF0.0
aF0.0
aF0.0
aF0.0
aF0.0
aF0.0
aF0.0
aF0.0
aF0.0
aF0.0
aF0.0
aF0.0
aF0.0
aF0.0
aF0.0
aF0.0
aF0.0
aF0.0
aF0.0
aF0.0
aF0.0
aF0.0
aF0.0
aF0.0
aF0.0
aF0.0
aF0.0
aF0.0
aF0.0
aF0.0
aF0.0
aF0.0
aF0.0
aF0.0
aF0.0
aF0.0
aF0.0
aF0.0
aF0.0
aF0.0
aF0.0
aF0.0
aF0.0
aF0.0
aF0.0
aF0.0
aF0.0
aF0.0
aF0.0
aF0.0
aF0.0
aF0.0
aF0.0
aF0.0
aF0.0
aF0.0
aF0.0
aF0.0
aF0.0
aF0.0
aF0.0
aF0.0
aF0.0
aF0.0
aF0.0
aF0.0
aF0.0
aF0.0
aF0.0
aF0.0
aF0.0
aF0.0
aF0.0
aF0.0
aF0.0
aF0.0
aF0.0
aF0.0
aF0.0
aF0.0
aF0.0
aF0.0
aF0.0
aF0.0
aF0.0
aF0.0
aF0.0
aF0.0
aF0.0
aF0.0
aF0.0
aF0.0
aF0.0
aF0.0
aF0.0
aF0.0
aF0.0
aF0.0
aF0.0
aF0.0
aF0.0
aF0.0
aF0.0
aF0.0
aF0.0
aF0.0
aF0.0
aF0.0
aF0.0
aF0.0
aF0.0
aF0.0
aF0.0
aF0.0
aF0.0
aF0.0
aF0.0
aF0.0
aF0.0
aF0.0
aF0.0
aF0.0
aF0.0
aF0.0
aF0.0
aF0.0
aF0.0
aF0.0
aF-0.05427739516444965
aF0.0012235543506102147
aF0.0
aF-0.005441344921094268
aF0.0
aF0.0
aF0.0
aF0.0
aF0.0
aF0.0
aF-0.0005492472980506167
aF0.0
aF0.0
aF0.0
aF0.0
aF0.0
aF0.0
aF0.0
aF0.0
aF0.0
aF0.0
aF0.0
aF0.0
aF0.0
aF0.0
aF0.0
aF0.0
aF0.0
aF0.0
aF0.0
aF0.0
aF0.0
aF0.0
aF0.0
aF0.0
aF0.0
aF0.0
aF0.0
aF0.0
aF0.0
aF0.0
aF0.0
aF0.0
aF0.0
aF0.0
aF0.0
aF0.0
aF0.0
aF0.0
aF0.0
aF0.0
aF0.0
aF0.0
aF0.0
aF0.0
aF0.0
aF0.0
aF0.0
aF0.0
aF0.0
aF0.0
aF0.0
aF0.0
aF0.0
aF0.0
aF0.0
aF0.0
aF0.0
aF0.0
aF0.0
aF0.0
aF0.0
aF0.0
aF0.0
aF0.0
aF-0.0001309179989566543
aF0.0
aF0.0
aF0.0
aF0.0
aF0.0001309
aF0.0
aF0.0
aF0.0
aF0.0
aF0.0
aF0.0
aF0.0
aF0.0
aF0.0
aF0.0
aF0.0
aF0.0
aF0.0
aF0.0
aF0.0
aF0.0
aF0.0
aF0.0
aF0.0
aF0.0
aF0.0
aF0.0
aF0.0
aF0.0
aF0.0
aF0.0
aF0.0
aF0.0
aF0.0
aF0.0
aF0.0
aF0.0
aF0.0
aF0.0
aF0.0
aF0.0
aF0.0
aF0.0
aF0.0
aF0.0
aF0.0
aF0.0
aF0.0
aF0.0
aF0.0
aF0.0
aF0.0
aF0.0
aF0.0
aF0.0
aF0.0
aF0.0
aF0.0
aF0.0
aF0.0
aF0.0
aF0.0
aF0.0
aF0.0
aF0.0
aF0.0
aF0.0
aF0.0
aF0.0
aF0.0
aF0.0
aF0.0
aF0.0
aF0.0
aF0.0
aF0.0
aF0.0
aF0.0
aF0.0
aF0.0
aF0.0
aF0.0
aF0.0
aF0.0
aF0.0
aF0.0
aF0.0
aF0.0
aF0.0
aF0.0
aF0.0
aF0.0
aF0.0
aF0.0
aF0.0
aF0.0
aF0.0
aF0.0
aF0.0025000000000000005
aF0.0
aF0.0
aF0.0
aF-5.7725e-05
aF0.0
aF0.0
aF0.0
aF0.0
aF0.0
aF0.0
aF0.0
aF0.0
aF0.0
aF0.0
aF0.0
aF0.0
aF0.0
aF0.0
aF0.0
aF0.0
aF0.0
aF0.0
aF0.0
aF0.0
aF0.0
aF0.0
aF0.0
aF0.0
aF0.0
aF0.0
aF0.0
aF0.0
aF0.0
aF0.0
aF0.0
aF0.0
aF0.0
aF0.0
aF0.0
aF0.0
aF0.0
aF0.0
aF0.0
aF0.0
aF0.0
aF0.0
aF0.0
aF0.0
aF0.0
aF0.0
aF0.0
aF0.0
aF0.0
aF0.0
aF0.0
aF0.0
aF0.0
aF0.0
aF0.00037880000000000005
aF0.0
aF0.0
aF0.0
aF0.0
aF0.0
aF0.0
aF0.0
aF0.0
aF0.0
aF0.0
aF0.0
aF0.0
aF0.0
aF0.0
aF0.0
aF0.0
aF0.0
aF0.0
aF0.0
aF0.0
aF0.0
aF0.0
aF0.0
aF0.0
aF0.0
aF0.0
aF0.0
aF0.0
aF0.0
aF0.0
aF0.0
aF0.0
aF0.0
aF0.0
aF0.0
aF0.0
aF0.0
aF0.0
aF0.0
aF0.0
aF0.0
aF0.0
aF0.0
aF0.0
aF0.0
aF0.0
aF0.0
aF0.0
aF0.0
aF0.0
aF0.0
aF0.0
aF0.0
aF0.0
aF0.0
aF0.0
aF0.0
aF0.0
aF0.0
aF0.0
aF0.0
aF0.0
aF0.0
aF0.0
aF0.0
aF0.0
aF0.0
aF0.0
aF0.0
aF0.0
aF0.0
aF0.0
aF0.0
aF0.0
aF0.0
aF0.0
aF0.0
aF0.0
aF0.0
aF0.0
aF0.0
aF0.0
aF0.0
aF0.0
aF0.0
aF0.0
aF0.0
aF0.0
aF0.0
aF0.0
aF0.0
aF0.0
aF0.0
aF0.0
aF0.0
aF0.0
aF0.0
aF0.0
aF0.0
aF0.0
aF0.0
aF0.0
aF0.0
aF0.0
aF0.0
aF0.0
aF0.0
aF0.0
aF0.0
aF0.0
aF0.0
aF0.0
aF0.0
aF0.0
aF0.0
aF0.0
aF0.0
aF0.0
aF0.0
aF0.0
aF0.0
aF0.0
asb.