(ilrsgd
LogisticRegressionSGD
p0
(dp1
S'mu'
p2
F0.02
sS'eta'
p3
F0.07
sS'weight'
p4
(lp5
F-0.03214762915872419
aF-0.034170324259086914
aF0.0
aF0.0
aF0.0
aF-0.08052001843327966
aF0.004693472414285443
aF-0.1452879435603137
aF-0.03415743372558929
aF0.0
aF-0.03327295938489415
aF-0.07174881661726559
aF0.0
aF-0.06690419714390419
aF0.03745609408470575
aF0.0
aF-0.03508495296067006
aF-0.034660849345518586
aF-0.015492951110412424
aF0.0
aF-0.032230893829863015
aF0.0
aF0.0
aF-0.03484679544527236
aF-0.11575205718835618
aF-0.03427427756291576
aF-0.0006026470707318071
aF-0.06685609330801923
aF-0.02866299014301769
aF-0.08178555699393986
aF0.1116723513138006
aF-0.017196344846627062
aF-0.03467903503508843
aF-0.12782238290166234
aF-0.06282286015787013
aF-0.06441473081541618
aF-0.025544508836465078
aF0.0
aF0.018947657661768605
aF-0.027484512269893516
aF-0.02999465333569198
aF-0.02580477718054755
aF-0.03385184588141983
aF-0.001241029587303974
aF0.0
aF-0.03192054077157711
aF-0.03453193527853045
aF-0.03514706771919335
aF-0.03321146525406054
aF0.03770835036184852
aF0.035038335969271445
aF-0.03463095313009801
aF-0.0815690918639869
aF-0.12980136043109736
aF-0.04479785147706571
aF-0.034821650769171056
aF-0.039971967011728615
aF-0.09859136197090301
aF0.0
aF0.07181508397529543
aF-0.008890898674863926
aF-0.0674612888929815
aF-0.06983852929700995
aF-0.06515023173432136
aF0.0
aF-0.03225674194730757
aF0.0
aF0.0
aF0.04003444984365805
aF0.03521984733229535
aF-0.0681245580523913
aF0.0
aF0.0
aF-0.01541430453273402
aF0.03731651973341881
aF0.0
aF0.03745685745779772
aF-0.03271040547671701
aF0.0
aF0.035244366344962814
aF0.0
aF0.0
aF-0.01742757194852804
aF0.0
aF0.0
aF-0.029090961094947347
aF-0.029866988357197005
aF-0.033400995411641134
aF0.0
aF-0.03489428519090627
aF-0.03477920676297943
aF-0.034097527187399716
aF0.0
aF-0.11899192581746873
aF-0.13052781324986729
aF-0.034999420275879115
aF-0.0008525488671060066
aF-0.03411379732589151
aF-0.0007794272796053624
aF-0.0013188795523573077
aF-0.06721623001257016
aF0.0
aF-0.11824618360528291
aF0.0
aF-0.032366671481004486
aF0.0
aF-0.024366700147198574
aF0.0
aF-0.1592527298537386
aF-0.03477506064314464
aF-0.03463036566038022
aF-0.03427318793432432
aF-0.06716958546325895
aF-0.08899879940140494
aF0.036107285111491166
aF-0.03262516500661663
aF-0.10144254154230482
aF-0.03388775296858514
aF-0.032758389258954766
aF-0.09530112117823193
aF-0.09429896219928013
aF-0.039049250616352796
aF-0.06841252463162588
aF0.0
aF-0.031005486731173496
aF0.0
aF0.04064474932184377
aF-0.03320437231296478
aF0.0
aF0.0
aF0.035213916639376196
aF0.0
aF-0.10034279463368354
aF0.0
aF0.0
aF-0.09213399041651463
aF-0.03493457767986648
aF0.0
aF-0.02543796087635478
aF-0.06012485753866771
aF-0.30122301224162545
aF-0.062068344706326606
aF-0.12581366860040968
aF0.0
aF0.0
aF-0.15167282848489722
aF-0.06798720661289939
aF-0.22668832419978024
aF0.0
aF0.03535820186175927
aF-0.06696207320921621
aF-0.03354309400458645
aF0.0
aF0.0
aF-0.14170491974553345
aF0.0
aF-0.034105392642223134
aF0.0
aF-0.03477805867377004
aF0.03509417749241113
aF0.004272112586806258
aF-0.0340445201844299
aF-0.08291254472859251
aF0.03585845746852552
aF-0.034974764983344904
aF-0.1961466521872388
aF0.0
aF-0.03488521822239583
aF0.0
aF-0.12738937216887192
aF0.0
aF0.0
aF-0.0677133859827462
aF-0.033275241146133845
aF-0.03454358897887694
aF-0.06628471982214196
aF0.0
aF-0.17328986330391727
aF-0.10801361807561279
aF0.0
aF0.0011591593588286056
aF-0.06746391186775097
aF0.0
aF-0.016045781156313284
aF-0.01298341274180391
aF-0.12475101160997953
aF-0.03371712439308694
aF0.0
aF-0.04620570570570626
aF-0.029251252625630844
aF-0.033304409318398946
aF-0.229646908082927
aF-0.03499934649844158
aF-0.10684927239783559
aF0.0
aF-0.06607581005244725
aF0.0
aF0.0
aF-0.06778376655806762
aF-0.03282315096429083
aF-0.07330416656090294
aF0.0
aF-0.019724924089820232
aF0.0
aF-0.03394934306742566
aF-0.034964066093799845
aF-0.033647455715927095
aF-0.0349783771270284
aF0.0
aF-0.028744883201625077
aF-0.024438344060603183
aF0.0
aF0.0
aF-0.06693807999882934
aF0.004128932503234539
aF0.0
aF0.0
aF-0.03367721813392014
aF-0.09639572644968603
aF-0.14257241716654934
aF-0.15239886424692248
aF-0.04082851824517013
aF-0.03403746836954209
aF-0.018216570624586842
aF-0.034790002677168634
aF0.0
aF-0.045945850030196404
aF-0.09545219989787833
aF-0.03447388964153188
aF-0.034894368685704405
aF-0.03434907115640811
aF0.0
aF0.0
aF-0.020804190163291516
aF0.0
aF0.0
aF-0.033939950675055695
aF-0.03379056412392635
aF-0.035
aF-0.08019652680082334
aF0.0
aF0.0
aF-0.042031749496841596
aF-2.3549223671669173e-05
aF-0.06770992642608883
aF0.0
aF0.07096502395962365
aF0.0
aF-0.023076298698220893
aF0.0
aF-0.0670317203059129
aF0.0
aF-0.022803160838831535
aF0.0
aF0.0
aF0.0
aF-0.09464331371213322
aF-0.02425998131439002
aF0.0
aF-0.03477378203602014
aF0.0
aF0.0
aF0.0
aF0.03511124757077038
aF0.00675956555562944
aF-0.03037261817161498
aF-0.03166158556963483
aF0.0
aF-0.03455991177749402
aF-0.0342342295944638
aF-0.023967843810154425
aF-0.03381067573929162
aF0.0
aF0.0
aF0.035196838426601144
aF-0.059948537300161246
aF0.0
aF0.0
aF-0.032847082320556956
aF-0.035612369263450516
aF0.0
aF-0.022501841683343952
aF-0.09507552186777435
aF0.0
aF-0.12582863311662135
aF-0.034998543895961666
aF-0.024611511421047474
aF0.0
aF0.0
aF-0.034216831040409276
aF-0.03483364651453796
aF0.035705831078355996
aF0.0
aF-0.06703374395977468
aF0.0
aF0.0027631900092272774
aF0.0
aF-0.03420350239454832
aF-0.02303548647868546
aF-0.06559567340829175
aF0.0
aF0.0
aF-0.03340522327917858
aF0.03438157586208642
aF0.0
aF0.0
aF-0.03294848665495486
aF0.0
aF0.0
aF0.0
aF0.0
aF-0.04983548727546777
aF0.0
aF-0.034929528407720345
aF-0.06024968603206414
aF0.002639414158702888
aF0.03496114814926232
aF-0.011446658967156655
aF-0.06623750235553197
aF0.0
aF0.0
aF0.0
aF-0.033777192187306807
aF0.0
aF-0.12555758958792645
aF0.0
aF-0.03498623735362173
aF0.0
aF0.0
aF-0.06757400822374046
aF0.0
aF0.0
aF-0.03484821755331719
aF0.0
aF-0.023647193004627774
aF-0.06314597661824288
aF-0.03499980948779844
aF0.0
aF0.0
aF0.0
aF-0.017150801118640292
aF0.0
aF-0.03485489685058663
aF0.03502707321504796
aF-0.03342135580003113
aF0.0
aF-0.02807936546128869
aF0.0
aF0.0
aF0.0
aF-0.1777557452524051
aF-0.057462248515365855
aF0.0
aF0.0
aF-0.026530890058067223
aF-0.04054419369602333
aF-0.09084629284819992
aF-0.08365385935220983
aF-0.035
aF0.0
aF-0.06571923266521972
aF0.036912645334565265
aF0.0030386605700229025
aF0.0
aF0.0
aF-0.03499955528032072
aF0.0
aF-0.0494529431747357
aF0.0
aF0.0
aF-0.057818424935885425
aF-0.028959492737123525
aF0.0
aF-0.03018788084243725
aF0.0
aF0.0
aF0.0
aF0.0
aF0.0
aF-0.024359865988316628
aF-0.04749781055237449
aF0.0
aF0.0
aF-0.06586255038567929
aF-0.034999797832326825
aF0.0
aF-0.03848702706600628
aF0.0
aF0.0
aF-0.03490905804241968
aF0.0
aF0.0
aF0.0
aF-0.03462421377926231
aF-0.14894964679043196
aF-0.007142560134529014
aF-0.03466822543283311
aF-0.06671208261469655
aF0.0
aF-0.034371860260765705
aF0.0
aF0.0
aF0.0
aF0.0
aF0.0033704776448042276
aF0.0
aF-0.03470053848450537
aF0.0
aF0.0
aF0.0
aF0.0
aF-0.0337411140815578
aF0.0
aF-0.03371375793303956
aF0.0
aF0.0
aF0.0
aF-0.03499967740594477
aF0.03779717632376372
aF-0.0527182187996821
aF0.0
aF0.0
aF0.0
aF0.0
aF0.03758028526061627
aF0.0
aF0.0
aF-0.12979712288520884
aF-0.020370465170696333
aF-0.010301021174196314
aF0.0
aF0.0
aF0.0
aF0.0
aF0.0
aF0.0
aF0.0
aF0.0
aF0.0
aF-0.06717273532133455
aF-0.06540111582127225
aF0.0
aF0.0
aF-0.018008776218666964
aF-0.1249582508711654
aF-0.03499960519011474
aF0.0
aF0.0
aF0.0
aF-0.013867891578790353
aF-0.06733388283534741
aF0.0
aF-0.0521459676104896
aF-0.03348219022312359
aF0.0
aF0.0
aF0.0
aF-0.061981085815869634
aF0.0
aF-2.413186315453411e-05
aF0.0
aF0.0
aF0.0
aF0.0
aF0.0
aF0.0
aF0.0
aF-0.016931393381344615
aF0.0
aF0.0
aF-0.0328619239685611
aF0.0
aF0.0
aF0.0
aF-0.03484624229240085
aF-0.017422576885374214
aF0.0
aF0.0
aF0.0
aF0.0
aF0.0
aF0.0
aF0.035856260448729006
aF-0.09484587181449619
aF-0.006967782922210748
aF0.0
aF-0.034625008768952095
aF0.0
aF-0.08384081465077244
aF-0.024613927687175845
aF0.0
aF0.0
aF0.0
aF-0.0348449438000233
aF0.0
aF-0.03437153140647689
aF-0.0098588477944547
aF0.0
aF0.0
aF-0.03484553657908879
aF0.0
aF-0.021223529763795407
aF-0.04347037911288687
aF0.0
aF0.035000694521456065
aF0.0
aF-0.03488926771941567
aF-0.0021409799045160214
aF0.0
aF0.0
aF0.03624332366376837
aF0.0
aF0.0
aF0.0
aF-0.022826135524616997
aF0.0
aF0.0
aF0.0
aF0.0
aF0.0
aF-0.07946582212581212
aF-0.07235500596735335
aF-0.017419041718966615
aF-0.017480911504867195
aF-0.09222731519387553
aF-0.034626455380777875
aF0.0
aF0.0
aF-0.04174838557033183
aF0.0
aF0.0
aF-0.03499962629402623
aF0.0
aF0.0
aF0.00010510334855348539
aF0.0
aF-0.017694680963080574
aF0.0
aF0.0
aF0.01752467625270007
aF0.0
aF-0.06786059465123337
aF0.0
aF0.0
aF-0.025799200071483418
aF0.0
aF0.0012007848160084655
aF0.0
aF0.0
aF0.0
aF0.0
aF0.0
aF0.0
aF0.0
aF0.0
aF-0.07881625670723334
aF0.0
aF0.0
aF0.0
aF0.0
aF0.0
aF0.0
aF-0.030362729533621943
aF-0.08548239560070078
aF0.0
aF0.0
aF0.0
aF0.0
aF-0.03499547762296296
aF-0.03284311989149285
aF0.0
aF-0.025049300374017442
aF-0.09174415419013388
aF0.0
aF0.0
aF0.0
aF0.0
aF-0.024611732043354873
aF0.0
aF-0.27096999970370067
aF0.0
aF0.0
aF-0.06785883293570938
aF0.0
aF0.0
aF0.0
aF-0.033790533394934874
aF-0.03500949430043222
aF0.0
aF-0.017471698921465658
aF-0.027182342484946678
aF0.0
aF-0.03486010337378766
aF0.0
aF0.007070435730914405
aF0.0
aF-0.0827143924169787
aF-0.02424117304089648
aF0.0
aF-0.03483612357547759
aF0.0
aF0.0
aF0.0
aF0.0
aF-0.03386849104071071
aF-0.05026278937991563
aF-0.1251503627309575
aF-0.019874071672255935
aF0.0
aF0.0005328128366908769
aF0.0
aF0.0
aF-0.1544909081368177
aF-0.053324671696950085
aF-0.12226975123624609
aF0.0
aF0.0
aF-0.034759222414105076
aF-0.0935544467839031
aF0.0
aF0.0
aF0.0
aF0.0
aF0.036415287573635345
aF0.0
aF0.0
aF-0.09321904327797426
aF0.0
aF0.0
aF-0.09602681744006722
aF-0.028801797417359096
aF-0.04622234714002397
aF0.0
aF0.0
aF-0.035
aF0.0
aF0.0
aF0.0
aF0.0
aF0.0
aF-0.017498290472853395
aF0.0
aF0.0
aF0.0
aF0.0
aF-7.975517721078677e-05
aF0.0
aF-0.06665042991110814
aF0.03500024367888531
aF-0.017477240342741115
aF0.0
aF-0.024580754216383404
aF0.0
aF0.0
aF0.0
aF-0.03428766648760499
aF0.0
aF0.0
aF0.0
aF0.03694090501723514
aF0.003249935358304333
aF-0.03430890587401627
aF0.0
aF0.0
aF-0.0348158105854868
aF-0.018645719690132474
aF-0.08705084784167486
aF0.0
aF0.0
aF-0.44788144605457064
aF0.0
aF0.0
aF0.0
aF0.012543150564216123
aF0.0
aF0.0
aF0.0
aF-0.01680451331246739
aF0.0
aF0.0731541322953298
aF0.0
aF0.0
aF0.0
aF0.0
aF0.0
aF0.0
aF-0.06754827189860174
aF0.0
aF-0.12383114467076216
aF0.0
aF-0.024745452252727312
aF0.0
aF0.0
aF-0.01768870513597187
aF0.0004083562847013687
aF-0.04483109515546797
aF-0.12753602552594484
aF0.0
aF0.0
aF0.0
aF0.0
aF0.0
aF0.0
aF0.0
aF0.0
aF0.0
aF0.0
aF-0.03493846981812772
aF0.0349999858593203
aF0.0
aF0.0
aF0.0
aF0.0
aF0.0
aF0.0
aF0.0
aF0.0
aF0.0
aF0.0
aF0.0
aF0.0
aF-0.022691775711811284
aF0.0
aF-0.02829862702539753
aF-0.06840446724045751
aF0.0
aF0.0
aF-0.0173305211871372
aF0.0
aF0.035131365737924865
aF0.0
aF-0.015782797107307598
aF-0.03479220163107051
aF-0.05406171413388645
aF0.0
aF-0.05745399516154033
aF0.0
aF0.0
aF0.0
aF-0.034293622673454933
aF0.0
aF0.0
aF0.0
aF0.0
aF0.0
aF0.0022104240576498943
aF-0.03612172349614867
aF0.0
aF0.0
aF0.0
aF0.0
aF0.0
aF-0.011553024620042455
aF-0.3469232659888591
aF0.0
aF0.0
aF0.0
aF0.0
aF-0.03484070854068747
aF-0.03456278139360204
aF-0.03924388081142702
aF0.0
aF0.0
aF-0.034999305478543935
aF-0.03499979355237405
aF-0.03493104344634225
aF0.0
aF0.0
aF0.0
aF0.0
aF0.0
aF-0.06287215916170438
aF-0.3661140081824285
aF0.0
aF0.0
aF0.0
aF-0.03127766914314307
aF-0.08993700420525365
aF0.0
aF0.0
aF0.0
aF0.0
aF0.0
aF0.0
aF-0.03431762144376783
aF0.0
aF-0.0166242638985086
aF0.0
aF0.0
aF0.0
aF-0.1971264433852563
aF0.0
aF0.0
aF-0.06713623135033372
aF0.0
aF-0.033845558602770685
aF-0.0889149781412584
aF0.0
aF0.0
aF0.0
aF0.0
aF0.0
aF0.0
aF-0.02560266619130359
aF0.0
aF-0.0175
aF-0.033830233697551476
aF-0.03500000353558529
aF0.0
aF0.0
aF-0.025220295366759005
aF-0.06760812487140942
aF0.0
aF-0.1641758693897484
aF0.0
aF0.01608911186834564
aF-0.016864725840374132
aF-0.1228551223949681
aF-0.03193777533110141
aF-0.034512415090512616
aF-0.02808518699422885
aF0.0
aF0.0
aF0.0
aF0.0
aF0.0
aF0.0
aF0.0
aF-0.029791540005803214
aF-0.15448521091496578
aF0.0
aF0.0
aF0.0
aF0.0
aF0.0
aF0.0
aF-0.0343832772837338
aF0.0
aF0.0
aF0.0
aF0.0
aF0.0
aF-0.055938956732544384
aF0.0
aF0.0
aF0.0
aF0.0
aF0.0
aF0.0
aF0.0
aF0.0
aF-0.024552766323896108
aF-0.0679834468535022
aF0.0
aF0.0
aF0.0
aF-0.0248308213586017
aF0.0
aF0.0
aF-0.01746179638492247
aF-0.043091612905996377
aF0.0
aF-0.16124069577141897
aF0.0
aF0.0
aF-0.016203660300439487
aF-0.06280925095463721
aF0.0
aF0.0
aF0.0
aF0.0
aF0.0
aF0.0
aF-0.08051648121924371
aF-0.03499759623750798
aF0.0
aF0.0
aF0.0
aF0.0
aF0.0
aF-0.03499976692620912
aF0.0
aF0.0
aF-0.047625655717575224
aF0.0
aF0.0
aF0.0
aF0.0
aF0.0
aF0.0
aF0.0
aF0.0
aF0.0
aF0.0
aF0.0
aF0.0
aF0.0
aF0.0
aF0.0
aF0.0
aF-0.4009160587778082
aF0.0
aF0.0
aF0.0
aF0.0
aF-0.0349984817747791
aF0.0
aF0.0
aF0.0
aF0.0
aF0.0
aF0.0
aF-0.02481066077114991
aF0.0
aF0.0
aF0.0
aF0.0
aF0.0
aF0.0
aF0.0
aF-0.034984960006783486
aF-0.01727915559846943
aF0.0
aF0.0
aF0.0
aF0.0
aF-0.0342328462435691
aF-0.03499975936703968
aF0.0
aF0.0
aF0.0
aF0.0
aF0.0
aF0.0
aF0.0
aF0.0
aF0.03500107421616115
aF0.0
aF0.0
aF0.0
aF0.0
aF0.0
aF0.0
aF0.0
aF0.035
aF0.0
aF0.0
aF-0.02460933291957468
aF-0.023329767158373087
aF-0.002916504907868361
aF0.0
aF0.0
aF0.0
aF0.0
aF0.0
aF0.0
aF0.0
aF0.0
aF0.0
aF0.0
aF0.0
aF0.0
aF0.0
aF0.0
aF0.0
aF0.0
aF0.0
aF0.0
aF0.0
aF0.0
aF0.0
aF0.0
aF0.0
aF0.0
aF0.0
aF0.0
aF0.0
aF0.0
aF0.0
aF0.0
aF-0.03499329028131162
aF-0.03484614608728354
aF0.0
aF-0.06776281059657473
aF0.0
aF0.0
aF0.0
aF0.0
aF0.0
aF0.0
aF0.0
aF0.0
aF0.0
aF0.0
aF0.0
aF0.0
aF0.0
aF0.0
aF0.0
aF0.0
aF0.0
aF0.0
aF0.0
aF0.0
aF0.0
aF0.0
aF0.0
aF0.0
aF0.0
aF0.0
aF0.0
aF-0.03499835270787727
aF0.0
aF0.0
aF0.0
aF-0.03495731125644044
aF0.0
aF-0.03355187813442757
aF-0.056486865485277996
aF-0.026459823937751488
aF0.0
aF0.0
aF0.0
aF0.0
aF0.0
aF0.0
aF0.0
aF0.0
aF0.0
aF-0.02461080116171017
aF0.0
aF0.0
aF0.0
aF0.0
aF0.0
aF0.0
aF0.0
aF0.0
aF-0.01749607502525627
aF0.0
aF0.0
aF0.0
aF-0.034998330347699065
aF0.0
aF0.0
aF0.0
aF0.0
aF0.0
aF0.0
aF0.0
aF0.0
aF0.0
aF0.0
aF0.0
aF0.0
aF0.0
aF0.0
aF0.0
aF0.0
aF-0.03500076974036237
aF0.0
aF0.0
aF0.0
aF0.0
aF0.0
aF0.0
aF0.0
aF0.0
aF0.0
aF-0.028298504890374332
aF0.0
aF0.0
aF0.0
aF0.0
aF0.0
aF0.0
aF0.0
aF-0.03499985760969993
aF-0.011666547468755787
aF0.0
aF0.0
aF0.0
aF0.0
aF0.0
aF0.0
aF0.0
aF0.0
aF0.0
aF0.0
aF0.0
aF0.0
aF0.0
aF-0.034998693049815864
aF0.0
aF0.0
aF0.0
aF-0.034998649420716864
aF-0.6084440620391511
aF-0.3970748079863382
aF0.0
aF0.0
aF0.0
aF0.0
aF0.0
aF0.0
aF0.0
aF0.0
aF0.0
aF0.0
aF0.0
aF0.0
aF0.0
aF0.0
aF0.0
aF0.0
aF0.0
aF0.0
aF0.0
aF0.0
aF-0.03469815284061286
aF0.0
aF0.0
aF0.0
aF0.0
aF0.0
aF0.0
aF0.0
aF0.0
aF0.0
aF0.0
aF0.0
aF0.0
aF0.0
aF0.0
aF0.0
aF0.0
aF0.0
aF0.0
aF0.0
aF0.0
aF0.0
aF0.0
aF0.0
aF0.0
aF0.0
aF0.0
aF0.0
aF0.0
aF0.0
aF0.0
aF0.0
aF0.0
aF0.0
aF0.0
aF0.0
aF0.0
aF0.0
aF0.0
aF0.0
aF0.0
aF0.0
aF0.0
aF0.0
aF0.0
aF0.0
aF0.0
aF0.0
aF0.0
aF0.0
aF0.0
aF0.0
aF0.0
aF0.0
aF0.0
aF0.0
aF0.0
aF0.0
aF0.0
aF0.0
aF0.0
aF0.0
aF0.0
aF-0.03492991993869102
aF0.0
aF-0.06784320462251586
aF0.0
aF0.0
aF0.0
aF0.0
aF0.0
aF0.0
aF0.0
aF0.0
aF0.0
aF0.0
aF0.0
aF0.0
aF-0.034999663145351044
aF0.035000322594055236
aF0.0
aF0.0
aF0.0
aF0.0
aF0.0
aF0.0
aF0.0
aF0.0
aF0.0
aF0.0
aF0.0
aF0.0
aF0.0
aF-0.008750074089072689
aF0.0
aF0.0
aF0.0
aF0.0
aF0.0
aF0.0
aF0.0
aF0.0
aF0.0
aF0.0
aF0.0
aF0.0
aF0.0
aF0.0
aF0.0
aF0.0
aF0.0
aF0.0
aF0.0
aF0.0
aF0.0
aF-0.06798707016782106
aF0.0
aF0.0
aF0.0
aF0.0
aF0.0
aF0.0
aF0.0
aF0.0
aF0.0
aF0.0
aF0.0
aF0.0
aF0.0
aF0.0
aF0.0
aF0.0
aF0.0
aF0.0
aF0.0
aF0.0
aF0.0
aF0.0
aF0.0
aF0.0
aF0.0
aF0.0
aF0.0
aF0.0
aF0.0
aF0.0
aF0.0
aF0.0
aF0.0
aF0.0
aF0.0
aF0.0
aF0.0
aF0.0
aF0.0
aF0.0
aF0.0
aF0.0
aF0.0
aF-0.034990541547881865
aF0.0
aF0.0
aF0.0
aF0.0
aF0.0
aF0.0
aF0.0
aF0.0
aF0.0
aF0.0
aF0.0
aF0.0
aF0.0
aF0.0
aF0.0
aF0.0
aF0.0
aF0.0
aF0.0
aF0.0
aF0.0
aF0.0
aF0.0
aF0.0
aF0.0
aF0.0
aF0.0
aF0.0
aF0.0
aF0.0
aF0.0
aF0.0
aF0.0
aF0.0
aF0.0
aF0.0
aF0.0
aF0.0
aF0.0
aF0.0
aF0.0
aF0.0
aF0.0
aF0.0
aF0.0
aF0.0
aF0.0
aF0.0
aF0.0
aF0.0
aF0.0
aF0.0
aF-0.017423357644159514
aF0.0
aF0.0
aF0.0
aF0.0
aF0.0
aF0.0
aF0.0
aF0.0
aF0.0
aF0.0
aF0.0
aF0.0
aF0.0
aF0.0
aF0.0
aF0.0
aF0.0
aF0.0
aF0.0
aF0.0
aF0.0
aF0.0
aF0.0
aF-0.03499921889972928
aF0.0
aF0.0
aF0.0
aF0.0
aF0.0
aF0.0
aF0.0
aF0.0
aF0.0
aF0.0
aF0.0
aF0.0
aF0.0
aF0.0
aF0.0
aF0.0
aF0.0
aF0.0
aF0.0
aF0.0
aF-0.034223384034923164
aF0.0
aF0.0
aF0.0
aF0.0
aF0.0
aF-0.034999991174727074
aF0.0
aF0.0
aF-0.017420622992262255
aF0.0
aF0.0
aF0.0
aF0.0
aF0.0
aF0.0
aF0.0
aF0.0
aF0.0
aF0.0
aF0.0
aF0.0
aF0.0
aF0.0
aF0.0
aF0.0
aF0.0
aF0.0
aF0.0
aF0.0
aF0.0
aF0.0
aF0.0
aF0.0
aF0.0
aF0.0
aF0.0
aF0.0
aF0.0
aF0.0
aF0.0
aF0.0
aF0.0
aF0.0
aF0.0
aF0.0
aF0.0
aF0.0
aF0.0
aF0.0
aF0.0
aF0.0
aF0.0
aF0.0
aF0.0
aF0.0
aF0.0
aF0.0
aF0.0
aF0.0
aF0.0
aF0.0
aF0.0
aF0.0
aF0.0
aF-0.06547542427353174
aF0.0
aF0.0
aF0.0
aF0.0
aF0.0
aF0.0
aF0.0
aF0.0
aF0.0
aF0.0
aF0.0
aF0.0
aF0.0
aF0.0
aF0.006999977164161498
aF0.0
aF0.0
aF0.0
aF0.0
aF0.0
aF0.0
aF0.0
aF0.0
aF0.0
aF0.0
aF0.0
aF0.0
aF-0.03499934649844158
aF0.0
aF0.0
aF0.0
aF0.0
aF0.0
aF0.0
aF0.0
aF0.0
aF0.0
aF0.0
aF0.0
aF0.0
aF0.0
aF0.0
aF0.0
aF0.0
aF0.0
aF0.0
aF0.0
aF0.0
aF0.0
aF0.0
aF0.0
aF0.0
aF0.0
aF0.0
aF0.0
aF0.0
aF-0.017499932988091493
aF0.0
aF0.0
aF0.0
aF0.0
aF0.0
aF0.0
aF0.0
aF0.0
aF0.0
aF0.0
aF0.0
aF0.0
aF0.0
aF0.0
aF0.0
aF0.0
aF0.0
aF0.0
aF0.0
aF0.0
aF0.0
aF0.0
aF0.0
aF0.0
aF0.0
aF0.0
aF0.0
aF0.0
aF0.0
aF0.0
aF0.0
aF0.0
aF0.0
aF0.0
aF0.0
aF0.0
aF0.0
aF0.0
aF0.0
aF0.0
aF0.0
aF0.0
aF0.0
aF0.0
aF0.0
aF0.0
aF0.0
aF0.0
aF0.0
aF0.0
aF0.0
aF0.0
aF0.0
aF0.0
aF0.0
aF0.0
aF0.0
aF-0.03486614074084465
aF0.0
aF0.0
aF-0.03422253307134658
aF0.0
aF0.0
aF0.0
aF0.0
aF0.0
aF0.0
aF0.0
aF0.0
aF0.0
aF0.0
aF0.0
aF0.0
aF0.0
aF0.0
aF0.0
aF0.0
aF0.0
aF0.0
aF0.0
aF0.0
aF0.0
aF0.0
aF0.0
aF0.0
aF0.0
aF0.0
aF0.0
aF0.0
aF0.0
aF0.0
aF0.0
aF0.0
aF0.0
aF0.0
aF0.0
aF0.0
aF0.0
aF0.0
aF0.0
aF-0.022843688563314046
aF0.0
aF0.0
aF0.0
aF0.0
aF0.0
aF0.0
aF-0.03499901945039073
aF0.0
aF0.0
aF0.0
aF0.0
aF0.0
aF0.0
aF0.0
aF0.0
aF0.0
aF0.0
aF0.0
aF0.0
aF0.0
aF0.0
aF0.0
aF0.0
aF0.0
aF0.0
aF0.0
aF0.0
aF0.0
aF0.0
aF0.0
aF0.0
aF0.0
aF0.0
aF0.0
aF0.0
aF0.0
aF0.0
aF0.0
aF-0.011665957979139429
aF0.0
aF0.0
aF0.0
aF0.0
aF0.0
aF0.0
aF0.0
aF0.0
aF0.0
aF0.0
aF0.0
aF0.0
aF0.0
aF-0.12838293985211466
aF0.0
aF0.0
aF0.0
aF0.0
aF-0.03499955290561963
aF0.0
aF0.0
aF0.0
aF0.0
aF0.0
aF0.0
aF0.0
aF0.0
aF0.0
aF0.0
aF0.0
aF0.0
aF0.0
aF0.0
aF0.0
aF0.0
aF0.0
aF0.0
aF0.0
aF0.0
aF0.0
aF0.0
aF-0.03499928026365881
aF0.0
aF0.0
aF0.0
aF0.0
aF0.0
aF0.0
aF0.0
aF0.0
aF0.0
aF0.0
aF0.0
aF0.0
aF0.0
aF0.0
aF0.0
aF0.0
aF0.0
aF0.0
aF0.0
aF0.0
aF0.0
aF0.0
aF0.0
aF0.0
aF0.0
aF0.0
aF0.0
aF0.0
aF0.0
aF0.0
aF0.0
aF0.0
aF0.0
aF0.0
aF0.0
aF0.0
aF0.0
aF-0.0038888873327420485
aF0.0
aF0.0
aF0.0
aF0.0
aF0.0
aF0.0
aF0.0
aF0.0
aF0.0
aF0.0
aF0.0
aF0.0
aF0.0
aF0.0
aF0.0
aF0.0
aF0.0
aF0.0
aF0.0
aF0.0
aF0.0
aF0.0
aF0.0
aF0.0
aF0.0
aF0.0
aF0.0
aF0.0
aF0.0
aF0.0
aF0.0
aF0.0
aF0.0
aF0.0
aF0.0
aF0.0
aF0.0
aF0.0
aF0.0
aF0.0
aF0.0
aF0.0
aF0.0
aF-0.035
aF0.0
aF0.0
aF0.0
aF0.0
aF0.0
aF0.0
aF-0.03499728171414483
aF0.0
aF0.0
aF0.0
aF0.0
aF0.0
aF0.0
aF0.0
aF0.0
aF0.0
aF0.0
aF0.0
aF0.0
aF0.0
aF0.0
aF0.0
aF0.0
aF0.0
aF0.0
aF0.0
aF0.0
aF0.0
aF0.0
aF0.0
aF0.0
aF0.0
aF0.0
aF0.0
aF0.0
aF0.0
aF0.0
aF0.0
aF0.0
aF0.0
aF0.0
aF-0.011666649140432984
aF0.0
aF0.0
aF0.0
aF0.0
aF0.0
aF0.0
aF0.0
aF0.0
aF0.0
aF0.0
aF0.0
aF0.0
aF0.0
aF0.0
aF0.0
aF0.0
aF0.0
aF0.0
aF0.0
aF0.0
aF0.0
aF0.0
aF0.0
aF0.0
aF0.0
aF0.0
aF0.0
aF0.0
aF0.0
aF0.0
aF0.0
aF0.0
aF0.0
aF0.0
aF0.0
aF0.0
aF0.0
aF0.0
aF0.0
aF0.0
aF0.0
aF0.0
aF0.0
aF0.0
aF0.0
aF0.0
aF0.0
aF0.0
aF0.0
aF0.0
aF0.0
aF0.0
aF0.0
aF0.0
aF0.0
aF0.0
aF0.0
aF0.0
aF0.0
aF0.0
aF0.0
aF0.0
aF0.0
aF0.0
aF0.0
aF0.0
aF0.0
aF0.0
aF0.0
aF0.0
aF-0.03500070307969471
aF0.0
aF0.0
aF0.0
aF0.0
aF0.0
aF0.0
aF0.0
aF0.0
aF0.0
aF0.0
aF0.0
aF0.0
aF0.0
aF0.0
aF0.0
aF0.0
aF0.0
aF0.0
aF0.0
aF0.0
aF0.0
aF0.0
aF0.0
aF0.0
aF0.0
aF0.0
aF0.0
aF0.0
aF0.0
aF0.0
aF0.0
aF0.0
aF0.0
aF0.0
aF0.0
aF0.0
aF0.0
aF0.0
aF0.0
aF0.0
aF0.0
aF0.0
aF0.0
aF0.0
aF0.0
aF0.0
aF0.0
aF0.0
aF0.0
aF0.0
aF0.0
aF0.0
aF0.0
aF0.0
aF0.0
aF0.03500021306976965
aF0.0
aF0.0
aF0.0
aF0.0
aF0.0
aF0.0
aF0.0
aF0.0
aF0.0
aF0.0
aF0.0
aF0.0
aF0.0
aF0.0
aF0.0
aF0.0
aF0.0
aF0.0
aF0.0
aF0.0
aF0.0
aF0.0
aF0.0
aF0.0
aF0.0
aF0.0
aF0.0
aF-0.003888477453089771
aF0.0
aF0.0
aF0.0
aF0.0
aF0.0
aF0.0
aF0.0
aF0.0
aF0.0
aF0.0
aF0.0
aF0.0
aF0.0
aF0.0
aF0.0
aF0.0
aF0.0
aF0.0
aF0.0
aF0.0
aF0.0
aF0.0
aF0.0
aF0.0
aF0.0
aF0.0
aF0.0
aF0.0
aF0.0
aF0.0
aF0.0
aF0.0
aF0.0
aF0.0
aF0.0
aF0.0
aF0.0
aF0.0
aF0.0
aF0.0
aF0.0
aF0.0
aF-0.03500002531374511
aF0.0
aF0.0
aF0.0
aF0.0
aF0.0
aF0.0
aF0.0
aF0.0
aF0.0
aF0.0
aF0.0
aF0.0
aF0.0
aF0.0
aF0.0
aF0.0
aF0.0
aF0.0
aF0.0
aF0.0
aF0.0
aF0.0
aF0.0
aF0.0
aF0.0
aF0.0
aF0.0
aF0.0
aF0.0
aF0.0
aF0.0
aF0.0
aF0.0
aF0.0
aF0.0
aF0.0
aF0.0
aF0.0
aF0.0
aF0.0
aF0.0
aF0.0
aF0.0
aF0.0
aF0.0
aF0.0
aF0.0
aF0.0
aF0.0
aF0.0
aF0.0
aF0.0
aF0.0
aF0.0
aF0.0
aF0.0
aF0.0
aF0.0
aF0.0
aF0.0
aF0.0
aF0.0
aF0.0
aF0.0
aF0.0
aF0.0
aF0.0
aF0.0
aF0.0
aF0.0
aF0.0
aF0.0
aF0.0
aF0.0
aF0.0
aF0.0
aF0.0
aF0.0
aF0.0
aF0.0
aF0.0
aF0.0
aF0.0
aF0.0
aF0.0
aF0.0
aF0.0
aF0.0
aF0.0
aF0.0
aF0.0
aF0.0
aF0.0
aF0.0
aF0.0
aF0.0
aF0.0
aF0.0
aF0.0
aF0.0
aF0.0
aF0.0
aF0.0
aF0.0
aF0.0
aF0.0
aF0.0
aF0.0
aF0.0
aF0.0
aF0.0
aF0.0
aF0.0
aF0.0
aF0.0
aF0.0
aF0.0
aF0.0
aF0.0
aF0.0
aF0.0
aF0.0
aF0.0
aF0.0
aF0.0
aF0.0
aF0.0
aF0.0
aF0.0
aF0.0
aF0.0
aF0.0
aF0.0
aF0.0
aF0.0
aF0.0
aF0.0
aF0.0
aF0.0
aF0.0
aF0.0
aF0.0
aF0.0
aF0.0
aF0.0
aF0.0
aF0.0
aF0.0
aF0.0
aF0.0
aF0.0
aF0.0
aF0.0
aF0.0
aF0.0
aF0.0
aF0.0
aF0.0
aF0.0
aF0.0
aF0.0
aF0.0
aF0.0
aF0.0
aF0.0
aF0.0
aF0.0
aF0.0
aF0.0
aF0.0
aF0.0
aF0.0
aF0.0
aF0.0
aF0.0
aF0.0
aF0.0
aF0.0
aF0.0
aF0.0
aF0.0
aF0.0
aF0.0
aF0.0
aF0.0
aF0.0
aF0.0
aF0.0
aF0.0
aF0.0
aF0.0
aF0.0
aF0.0
aF0.0
aF0.0
aF0.0
aF0.0
aF0.0
aF0.0
aF0.0
aF0.0
aF0.0
aF0.0
aF0.0
aF0.0
aF0.0
aF0.0
aF0.0
aF0.0
aF0.0
aF0.0
aF0.0
aF0.0
aF0.0
aF0.0
aF0.0
aF0.0
aF0.0
aF0.0
aF0.0
aF0.0
aF0.0
aF0.0
aF0.0
aF0.0
aF0.0
aF0.0
aF0.0
aF0.0
aF0.0
aF0.0
aF0.0
aF0.0
aF0.0
aF0.0
aF0.0
aF0.0
aF0.0
aF0.0
aF0.0
aF0.0
aF0.0
aF0.0
aF0.0
aF0.0
aF0.0
aF0.0
aF0.0
aF0.0
aF0.0
aF0.0
aF0.0
aF0.0
aF0.0
aF0.0
aF0.0
aF0.0
aF0.0
aF0.0
aF0.0
aF0.0
aF0.0
aF0.0
aF0.0
aF0.0
aF0.0
aF0.0
aF0.0
aF0.0
aF0.0
aF0.0
aF0.0
aF0.0
aF0.0
aF0.0
aF0.0
aF0.0
aF0.0
aF0.0
aF0.0
aF0.0
aF0.0
aF0.0
aF0.0
aF0.0
aF0.0
aF0.0
aF0.0
aF0.0
aF0.0
aF0.0
aF0.0
aF0.0
aF0.0
aF0.0
aF0.0
aF0.0
aF0.0
aF0.0
aF0.0
aF0.0
aF0.0
aF0.0
aF0.0
aF0.0
aF0.0
aF0.0
aF0.0
aF0.0
aF0.0
aF0.0
aF0.0
aF0.0
aF0.0
aF0.0
aF0.0
aF0.0
aF0.0
aF0.0
aF0.0
aF0.0
aF0.0
aF0.0
aF0.0
aF0.0
aF0.0
aF0.0
aF0.0
aF0.0
aF0.0
aF0.0
aF0.0
aF0.0
aF0.0
aF0.0
aF0.0
aF0.0
aF0.0
aF0.0
aF0.0
aF0.0
aF0.0
aF0.0
aF0.0
aF0.0
aF0.0
aF0.0
aF0.0
aF0.0
aF0.0
aF0.0
aF0.0
aF0.0
aF0.0
aF0.0
aF0.0
aF0.0
aF0.0
aF0.0
aF0.0
aF0.0
aF0.0
aF0.0
aF0.0
aF0.0
aF0.0
aF0.0
aF0.0
aF0.0
aF0.0
aF0.0
aF0.0
aF0.0
aF0.0
aF0.0
aF0.0
aF0.0
aF0.0
aF0.0
aF0.0
aF0.0
aF0.0
aF0.0
aF0.0
aF0.0
aF0.0
aF0.0
aF0.0
aF0.0
aF0.0
aF0.0
aF0.0
aF0.0
aF0.0
aF0.0
aF0.0
aF0.0
aF0.0
aF0.0
aF0.0
aF0.0
aF0.0
aF0.0
aF0.0
aF0.0
aF0.0
aF0.0
aF0.0
aF0.0
aF0.0
aF0.0
aF0.0
aF0.0
aF0.0
aF0.0
aF0.0
aF0.0
aF0.0
aF0.0
aF0.0
aF0.0
aF0.0
aF0.0
aF0.0
aF0.0
aF0.0
aF0.0
aF0.0
aF0.0
aF0.0
aF0.0
aF0.0
aF0.0
aF0.0
aF0.0
aF0.0
aF0.0
aF0.0
aF0.0
aF0.0
aF0.0
aF0.0
aF0.0
aF0.0
aF0.0
aF0.0
aF0.0
aF0.0
aF0.0
aF0.0
aF0.0
aF0.0
aF0.0
aF0.0
aF0.0
aF0.0
aF0.0
aF0.0
aF0.0
aF0.0
aF0.0
aF0.0
aF0.0
aF0.0
aF0.0
aF0.0
aF0.0
aF0.0
aF0.0
aF0.0
aF0.0
aF0.0
aF0.0
aF0.0
aF0.0
aF0.0
aF0.0
aF0.0
aF0.0
aF0.0
aF0.0
aF0.0
aF0.0
aF0.0
aF0.0
aF0.0
aF0.0
aF0.0
aF0.0
aF0.0
aF0.0
aF0.0
aF0.0
aF0.0
aF0.0
aF0.0
aF0.0
aF0.0
aF0.0
aF0.0
aF0.0
aF0.0
aF0.0
aF0.0
aF0.0
aF0.0
aF0.0
aF0.0
aF0.0
aF0.0
aF0.0
aF0.0
aF0.0
aF0.0
aF0.0
aF0.0
aF0.0
aF0.0
aF0.0
aF0.0
aF0.0
aF0.0
aF0.0
aF0.0
aF0.0
aF0.0
aF0.0
aF0.0
aF0.0
aF0.0
aF0.0
aF0.0
aF0.0
aF0.0
aF0.0
aF0.0
aF0.0
aF0.0
aF0.0
aF0.0
aF0.0
aF0.0
aF0.0
aF0.0
aF0.0
aF0.0
aF0.0
aF0.0
aF0.0
aF0.0
aF0.0
aF0.0
aF0.0
aF0.0
aF0.0
aF0.0
aF0.0
aF0.0
aF0.0
aF0.0
aF0.0
aF0.0
aF0.0
aF0.0
aF0.0
aF0.0
aF0.0
aF0.0
aF0.0
aF0.0
aF0.0
aF0.0
aF0.0
aF0.0
aF0.0
aF0.0
aF0.0
aF0.0
aF0.0
aF0.0
aF0.0
aF0.0
aF0.0
aF0.0
aF0.0
aF0.0
aF0.0
aF0.0
aF0.0
aF0.0
aF0.0
aF0.0
aF0.0
aF0.0
aF0.0
aF0.0
aF0.0
aF0.0
aF0.0
aF0.0
aF0.0
aF0.0
aF0.0
aF0.0
aF0.0
aF0.0
aF0.0
aF0.0
aF0.0
aF0.0
aF0.0
aF0.0
aF0.0
aF0.0
aF0.0
aF0.0
aF0.0
aF0.0
aF0.0
aF0.0
aF0.0
aF0.0
aF0.0
aF0.0
aF0.0
aF0.0
aF0.0
aF0.0
aF0.0
aF0.0
aF0.0
aF0.0
aF0.0
aF0.0
aF0.0
aF0.0
aF0.0
aF0.0
aF0.0
aF0.0
aF0.0
aF0.0
aF0.0
aF0.0
aF0.0
aF0.0
aF0.0
aF0.0
aF0.0
aF0.0
aF0.0
aF0.0
aF0.0
aF0.0
aF0.0
aF0.0
aF0.0
aF0.0
aF0.0
aF0.0
aF0.0
aF0.0
aF0.0
aF0.0
aF0.0
aF0.0
aF0.0
aF0.0
aF0.0
aF0.0
aF0.0
aF0.0
aF0.0
aF0.0
aF0.0
aF0.0
aF0.0
aF0.0
aF0.0
aF0.0
aF0.0
aF0.0
aF0.0
aF0.0
aF0.0
aF0.0
aF0.0
aF0.0
aF0.0
aF0.0
aF0.0
aF0.0
aF0.0
aF0.0
aF0.0
aF0.0
aF0.0
aF0.0
aF0.0
aF0.0
aF0.0
aF0.0
aF0.0
aF0.0
aF0.0
aF0.0
aF0.0
aF0.0
aF0.0
aF0.0
aF0.0
aF0.0
aF0.0
aF0.0
aF0.0
aF0.0
aF0.0
aF0.0
aF0.0
aF0.0
aF0.0
aF0.0
aF0.0
aF0.0
aF0.0
aF0.0
aF0.0
aF0.0
aF0.0
aF0.0
aF0.0
aF0.0
aF0.0
aF0.0
aF0.0
aF0.0
aF0.0
aF0.0
aF0.0
aF0.0
aF0.0
aF0.0
aF0.0
aF0.0
aF0.0
aF0.0
aF0.0
aF0.0
aF0.0
aF0.0
aF0.0
aF0.0
aF0.0
aF0.0
aF0.0
aF0.0
aF0.0
aF0.0
aF0.0
aF0.0
aF0.0
aF0.0
aF0.0
aF0.0
aF0.0
aF0.0
aF0.0
aF0.0
aF0.0
aF0.0
aF0.0
aF0.0
aF0.0
aF0.0
aF0.0
aF0.0
aF0.0
aF0.0
aF0.0
aF0.0
aF0.0
aF0.0
aF0.0
aF0.0
aF0.0
aF0.0
aF0.0
aF0.0
aF0.0
aF0.0
aF0.0
aF0.0
aF0.0
aF0.0
aF0.0
aF0.0
aF0.0
aF0.0
aF0.0
aF0.0
aF0.0
aF0.0
aF0.0
aF0.0
aF0.0
aF0.0
aF0.0
aF0.0
aF0.0
aF0.0
aF0.0
aF0.0
aF0.0
aF0.0
aF0.0
aF0.0
aF0.0
aF0.0
aF0.0
aF0.0
aF0.0
aF0.0
aF0.0
aF0.0
aF0.0
aF0.0
aF0.0
aF0.0
aF0.0
aF0.0
aF0.0
aF0.0
aF0.0
aF0.0
aF0.0
aF0.0
aF0.0
aF0.0
aF0.0
aF0.0
aF0.0
aF0.0
aF0.0
aF0.0
aF0.0
aF0.0
aF0.0
aF0.0
aF0.0
aF0.0
aF0.0
aF0.0
aF0.0
aF0.0
aF0.0
aF0.0
aF0.0
aF0.0
aF0.0
aF0.0
aF0.0
aF0.0
aF0.0
aF0.0
aF0.0
aF0.0
aF0.0
aF0.0
aF0.0
aF0.0
aF0.0
aF0.0
aF0.0
aF0.0
aF0.0
aF0.0
aF0.0
aF0.0
aF0.0
aF0.0
aF0.0
aF0.0
aF0.0
aF0.0
aF0.0
aF0.0
aF0.0
aF0.0
aF0.0
aF0.0
aF0.0
aF0.0
aF0.0
aF0.0
aF0.0
aF0.0
aF0.0
aF0.0
aF0.0
aF0.0
aF0.0
aF0.0
aF0.0
aF0.0
aF0.0
aF0.0
aF0.0
aF0.0
aF0.0
aF0.0
aF0.0
aF0.0
aF0.0
aF0.0
aF0.0
aF0.0
aF0.0
aF0.0
aF0.0
aF0.0
aF0.0
aF0.0
aF0.0
aF0.0
aF0.0
aF0.0
aF0.0
aF0.0
aF0.0
aF0.0
aF0.0
aF0.0
aF0.0
aF0.0
aF0.0
aF0.0
aF0.0
aF0.0
aF0.0
aF0.0
aF0.0
aF0.0
aF0.0
aF0.0
aF0.0
aF0.0
aF0.0
aF0.0
aF0.0
aF0.0
aF0.0
aF0.0
aF0.0
aF0.0
aF0.0
aF0.0
aF0.0
aF0.0
aF0.0
aF0.0
aF0.0
aF0.0
aF0.0
aF0.0
aF0.0
aF0.0
aF0.0
aF0.0
aF0.0
aF0.0
aF0.0
aF0.0
aF0.0
aF0.0
aF0.0
aF0.0
aF0.0
aF0.0
aF0.0
aF0.0
aF0.0
aF0.0
aF0.0
aF0.0
aF0.0
aF0.0
aF0.0
aF0.0
aF0.0
aF0.0
aF0.0
aF0.0
aF0.0
aF0.0
aF0.0
aF0.0
aF0.0
aF0.0
aF0.0
aF0.0
aF0.0
aF0.0
aF0.0
aF0.0
aF0.0
aF0.0
aF0.0
aF0.0
aF0.0
aF0.0
aF0.0
aF0.0
aF0.0
aF0.0
aF0.0
aF0.0
aF0.0
aF0.0
aF0.0
aF0.0
aF0.0
aF0.0
aF0.0
aF0.0
aF0.0
aF0.0
aF0.0
aF0.0
aF0.0
aF0.0
aF0.0
aF0.0
aF0.0
aF0.0
aF0.0
aF0.0
aF0.0
aF0.0
aF0.0
aF0.0
aF0.0
aF0.0
aF0.0
aF0.0
aF0.0
aF0.0
aF0.0
aF0.0
aF0.0
aF0.0
aF0.0
aF0.0
aF0.0
aF0.0
aF0.0
aF0.0
aF0.0
aF0.0
aF0.0
aF0.0
aF0.0
aF0.0
aF0.0
aF0.0
aF0.0
aF0.0
aF0.0
aF0.0
aF0.0
aF0.0
aF0.0
aF0.0
aF0.0
aF0.0
aF0.0
aF0.0
aF0.0
aF0.0
aF0.0
aF0.0
aF0.0
aF0.0
aF0.0
aF0.0
aF0.0
aF0.0
aF0.0
aF0.0
aF0.0
aF0.0
aF0.0
aF0.0
aF0.0
aF0.0
aF0.0
aF0.0
aF0.0
aF0.0
aF0.0
aF0.0
aF0.0
aF0.0
aF0.0
aF0.0
aF0.0
aF0.0
aF0.0
aF0.0
aF0.0
aF0.0
aF0.0
aF0.0
aF0.0
aF0.0
aF0.0
aF0.0
aF0.0
aF0.0
aF0.0
aF0.0
aF0.0
aF0.0
aF0.0
aF0.0
aF0.0
aF0.0
aF0.0
aF0.0
aF0.0
aF0.0
aF0.0
aF0.0
aF0.0
aF0.0
aF0.0
aF0.0
aF0.0
aF0.0
aF0.0
aF0.0
aF0.0
aF0.0
aF0.0
aF0.0
aF0.0
aF0.0
aF0.0
aF0.0
aF0.0
aF0.0
aF0.0
aF0.0
aF0.0
aF0.0
aF0.0
aF0.0
aF0.0
aF0.0
aF0.0
aF0.0
aF0.0
aF0.0
aF0.0
aF0.0
aF0.0
aF0.0
aF0.0
aF0.0
aF0.0
aF0.0
aF0.0
aF0.0
aF0.0
aF0.0
aF0.0
aF0.0
aF0.0
aF0.0
aF0.0
aF0.0
aF0.0
aF0.0
aF0.0
aF0.0
aF0.0
aF0.0
aF0.0
aF0.0
aF0.0
aF0.0
aF0.0
aF0.0
aF0.0
aF0.0
aF0.0
aF0.0
aF0.0
aF0.0
aF0.0
aF0.0
aF0.0
aF0.0
aF0.0
aF0.0
aF0.0
aF0.0
aF0.0
aF0.0
aF0.0
aF0.0
aF0.0
aF0.0
aF0.0
aF0.0
aF0.0
aF0.0
aF0.0
aF0.0
aF0.0
aF0.0
aF0.0
aF0.0
aF0.0
aF0.0
aF0.0
aF0.0
aF0.0
aF0.0
aF0.0
aF0.0
aF0.0
aF0.0
aF0.0
aF0.0
aF0.0
aF0.0
aF0.0
aF0.0
aF0.0
aF0.0
aF0.0
aF0.0
aF0.0
aF0.0
aF0.0
aF0.0
aF0.0
aF0.0
aF0.0
aF0.0
aF0.0
aF0.0
aF0.0
aF0.0
aF0.0
aF0.0
aF0.0
aF0.0
aF0.0
aF-0.07572123215963078
aF0.0017131469572907545
aF0.0
aF-0.00761682902552478
aF0.0
aF0.0
aF0.0
aF0.0
aF0.0
aF0.0
aF-0.0007689278019945128
aF0.0
aF0.0
aF0.0
aF0.0
aF0.0
aF0.0
aF0.0
aF0.0
aF0.0
aF0.0
aF0.0
aF0.0
aF0.0
aF0.0
aF0.0
aF0.0
aF0.0
aF0.0
aF0.0
aF0.0
aF0.0
aF0.0
aF0.0
aF0.0
aF0.0
aF0.0
aF0.0
aF0.0
aF0.0
aF0.0
aF0.0
aF0.0
aF0.0
aF0.0
aF0.0
aF0.0
aF0.0
aF0.0
aF0.0
aF0.0
aF0.0
aF0.0
aF0.0
aF0.0
aF0.0
aF0.0
aF0.0
aF0.0
aF0.0
aF0.0
aF0.0
aF0.0
aF0.0
aF0.0
aF0.0
aF0.0
aF0.0
aF0.0
aF0.0
aF0.0
aF0.0
aF0.0
aF0.0
aF0.0
aF-0.00018328519795504249
aF0.0
aF0.0
aF0.0
aF0.0
aF0.00018326000000000003
aF0.0
aF0.0
aF0.0
aF0.0
aF0.0
aF0.0
aF0.0
aF0.0
aF0.0
aF0.0
aF0.0
aF0.0
aF0.0
aF0.0
aF0.0
aF0.0
aF0.0
aF0.0
aF0.0
aF0.0
aF0.0
aF0.0
aF0.0
aF0.0
aF0.0
aF0.0
aF0.0
aF0.0
aF0.0
aF0.0
aF0.0
aF0.0
aF0.0
aF0.0
aF0.0
aF0.0
aF0.0
aF0.0
aF0.0
aF0.0
aF0.0
aF0.0
aF0.0
aF0.0
aF0.0
aF0.0
aF0.0
aF0.0
aF0.0
aF0.0
aF0.0
aF0.0
aF0.0
aF0.0
aF0.0
aF0.0
aF0.0
aF0.0
aF0.0
aF0.0
aF0.0
aF0.0
aF0.0
aF0.0
aF0.0
aF0.0
aF0.0
aF0.0
aF0.0
aF0.0
aF0.0
aF0.0
aF0.0
aF0.0
aF0.0
aF0.0
aF0.0
aF0.0
aF0.0
aF0.0
aF0.0
aF0.0
aF0.0
aF0.0
aF0.0
aF0.0
aF0.0
aF0.0
aF0.0
aF0.0
aF0.0
aF0.0
aF0.0
aF0.0035000000000000005
aF0.0
aF0.0
aF0.0
aF-8.0815e-05
aF0.0
aF0.0
aF0.0
aF0.0
aF0.0
aF0.0
aF0.0
aF0.0
aF0.0
aF0.0
aF0.0
aF0.0
aF0.0
aF0.0
aF0.0
aF0.0
aF0.0
aF0.0
aF0.0
aF0.0
aF0.0
aF0.0
aF0.0
aF0.0
aF0.0
aF0.0
aF0.0
aF0.0
aF0.0
aF0.0
aF0.0
aF0.0
aF0.0
aF0.0
aF0.0
aF0.0
aF0.0
aF0.0
aF0.0
aF0.0
aF0.0
aF0.0
aF0.0
aF0.0
aF0.0
aF0.0
aF0.0
aF0.0
aF0.0
aF0.0
aF0.0
aF0.0
aF0.0
aF0.0
aF0.00053032
aF0.0
aF0.0
aF0.0
aF0.0
aF0.0
aF0.0
aF0.0
aF0.0
aF0.0
aF0.0
aF0.0
aF0.0
aF0.0
aF0.0
aF0.0
aF0.0
aF0.0
aF0.0
aF0.0
aF0.0
aF0.0
aF0.0
aF0.0
aF0.0
aF0.0
aF0.0
aF0.0
aF0.0
aF0.0
aF0.0
aF0.0
aF0.0
aF0.0
aF0.0
aF0.0
aF0.0
aF0.0
aF0.0
aF0.0
aF0.0
aF0.0
aF0.0
aF0.0
aF0.0
aF0.0
aF0.0
aF0.0
aF0.0
aF0.0
aF0.0
aF0.0
aF0.0
aF0.0
aF0.0
aF0.0
aF0.0
aF0.0
aF0.0
aF0.0
aF0.0
aF0.0
aF0.0
aF0.0
aF0.0
aF0.0
aF0.0
aF0.0
aF0.0
aF0.0
aF0.0
aF0.0
aF0.0
aF0.0
aF0.0
aF0.0
aF0.0
aF0.0
aF0.0
aF0.0
aF0.0
aF0.0
aF0.0
aF0.0
aF0.0
aF0.0
aF0.0
aF0.0
aF0.0
aF0.0
aF0.0
aF0.0
aF0.0
aF0.0
aF0.0
aF0.0
aF0.0
aF0.0
aF0.0
aF0.0
aF0.0
aF0.0
aF0.0
aF0.0
aF0.0
aF0.0
aF0.0
aF0.0
aF0.0
aF0.0
aF0.0
aF0.0
aF0.0
aF0.0
aF0.0
aF0.0
aF0.0
aF0.0
aF0.0
aF0.0
aF0.0
aF0.0
aF0.0
asb.