(ilrsgd
LogisticRegressionSGD
p0
(dp1
S'mu'
p2
F0.08
sS'eta'
p3
F0.02
sS'weight'
p4
(lp5
F-0.009845624597281714
aF-0.0099793087390311
aF0.0
aF0.0
aF0.0
aF-0.014990671489831322
aF0.0017928526168889923
aF-0.015129635060753824
aF-0.009955778458286114
aF0.0
aF-0.011196406897216482
aF-0.02436113562750852
aF0.0
aF-0.01830534956583077
aF0.010159860102608059
aF0.0
aF-0.010006917178736918
aF-0.00999171963911371
aF-0.0033660031247518298
aF0.0
aF-0.00980435661689084
aF0.0
aF0.0
aF-0.0099874947151464
aF-0.034162283162425935
aF-0.009948807119435153
aF-0.001616016515360445
aF-0.018317400021807418
aF-0.009593466581551203
aF-0.015807917879240706
aF0.025888723108217864
aF-0.00498447024952026
aF-0.009982153297521277
aF-0.019597946843758627
aF-0.018029033928938773
aF-0.018170836983857318
aF-0.009697284956576114
aF0.0
aF0.005098372561791166
aF-0.009593634639051494
aF-0.009674754036326817
aF-0.005199022685616388
aF-0.00993385992978242
aF-0.0016091918003648172
aF0.0
aF-0.009777892195666084
aF-0.00997463411761137
aF-0.01001221346382091
aF-0.009172436866496807
aF0.010194111601842741
aF0.010003076628350876
aF-0.009974987483106082
aF-0.01612706446808524
aF-0.03848510437893039
aF-0.005863459729639871
aF-0.009987071303020723
aF-0.00456113863300755
aF-0.02530358278662674
aF0.0
aF0.016688848727199994
aF-0.004397885703893694
aF-0.018343751696901077
aF-0.013138541112504423
aF-0.028774012999827788
aF0.0
aF-0.009827406108861778
aF0.0
aF0.0
aF0.010309879127286732
aF0.010018125954581594
aF-0.018361406079321935
aF0.0
aF0.0
aF-0.0038703019952801526
aF0.010145578959776738
aF0.0
aF0.010161633259754332
aF-0.007567942411495588
aF0.0
aF0.010014382528303774
aF0.0
aF0.0
aF-0.004994769228255256
aF0.0
aF0.0
aF-0.008347866207468009
aF-0.008460079564317248
aF-0.009909241009241813
aF0.0
aF-0.010000010043941448
aF-0.00787231757132211
aF-0.00996198042427399
aF0.0
aF-0.030032783979855954
aF-0.03362453442870983
aF-0.009999964138839013
aF-0.0016023843728537896
aF-0.009948216083038723
aF-0.0016854920875946497
aF-0.0016180620252259983
aF-0.01829849690247253
aF0.0
aF-0.027279718511909162
aF0.0
aF-0.009820107656646046
aF0.0
aF-0.008254330548742368
aF0.0
aF-0.04471436306810341
aF-0.009981835815970673
aF-0.009984775372055592
aF-0.009948312760807335
aF-0.018323043905129593
aF-0.021461274460575767
aF0.010036236488986786
aF-0.00990395006996842
aF-0.02065026448529601
aF-0.0099612416078508
aF-0.009826283404845556
aF-0.025918502226833014
aF-0.02422160621994844
aF-0.005353337535222307
aF-0.014115485446659248
aF0.0
aF-0.008499890873883146
aF0.0
aF0.010316282951348288
aF-0.009870376200301519
aF0.0
aF0.0
aF0.010006060211534886
aF0.0
aF-0.011665929774405687
aF0.0
aF0.0
aF-0.01718386997453007
aF-0.010002515989641792
aF0.0
aF-0.009697216556597374
aF-0.01781914410883333
aF-0.0531771769142981
aF-0.01806497180437951
aF-0.024459255772117525
aF0.0
aF0.0
aF-0.035770423319184744
aF-0.01834998064216184
aF-0.04617126453156135
aF0.0
aF0.010022467286213423
aF-0.018315702904688664
aF-0.009906487226054857
aF0.0
aF0.0
aF-0.03550799128887548
aF0.0
aF-0.009170457629800791
aF0.0
aF-0.00998549884298906
aF0.010005281684372877
aF0.0017166112558627197
aF-0.009973144996924223
aF-0.006051208138352795
aF0.01003397053899185
aF-0.009999555426516954
aF-0.028984505067050224
aF0.0
aF-0.00999403688313516
aF0.0
aF-0.03865161826244605
aF0.0
aF0.0
aF-0.01833205936111787
aF-0.009913906959611658
aF-0.009967005525937019
aF-0.018251471191972325
aF0.0
aF-0.018761421403440975
aF-0.017175908559108145
aF0.0
aF-0.00017292297105313444
aF-0.01833694067797204
aF0.0
aF-0.005141695602185476
aF-0.0033655171933405087
aF-0.030976444449589663
aF-0.009938688376274832
aF0.0
aF-0.0042951583775748675
aF-0.005591189210137716
aF-0.009905850197283819
aF-0.04114237150977547
aF-0.009999946652934003
aF-0.019838276310636935
aF0.0
aF-0.018281976861159212
aF0.0
aF0.0
aF-0.010782107635295602
aF-0.009840896850288836
aF-0.028959504391695253
aF0.0
aF-0.0024031881385127582
aF0.0
aF-0.009918081825872168
aF-0.00999897121003125
aF-0.009921952809222583
aF-0.009999076850998304
aF0.0
aF-0.007114560664448015
aF-0.00964851122088843
aF0.0
aF0.0
aF-0.01828862896139507
aF0.0017981834523566591
aF0.0
aF0.0
aF-0.00991241067657787
aF-0.025166270576990273
aF-0.035654444231836856
aF-0.03585976923708286
aF-0.010295016149744865
aF-0.009948054782484764
aF-0.0038761832440528626
aF-0.009990730478282998
aF0.0
aF-0.010663998426676268
aF-0.025147731276415702
aF-0.009960985377148342
aF-0.009992755825475302
aF-0.00998052025390249
aF0.0
aF0.0
aF-0.009412918998580617
aF0.0
aF0.0
aF-0.009957646722112894
aF-0.009900469993413177
aF-0.01
aF-0.012543661053733508
aF0.0
aF0.0
aF-0.008738464164387068
aF-0.000767936891360942
aF-0.018330083664815186
aF0.0
aF0.011446630844126704
aF0.0
aF-0.005144917542961437
aF0.0
aF-0.01829160150843106
aF0.0
aF-0.006129283371883662
aF0.0
aF0.0
aF0.0
aF-0.025940164051489727
aF-0.009651748331419392
aF0.0
aF-0.009981728711311633
aF0.0
aF0.0
aF0.0
aF0.010006880334429447
aF0.0036525210761764095
aF-0.009818580921174767
aF-0.009788299622951628
aF0.0
aF-0.009969205221663406
aF-0.009937478746955476
aF-0.004154577968827816
aF-0.00990825257235429
aF0.0
aF0.0
aF0.010008800287749234
aF-0.016895040346720007
aF0.0
aF0.0
aF-0.009838717119210276
aF-0.010049995455403575
aF0.0
aF-0.006112955259520455
aF-0.025144026449334167
aF0.0
aF-0.03098692624184178
aF-0.009999895197833354
aF-0.00969739256462389
aF0.0
aF0.0
aF-0.009940352197204202
aF-0.009992392371391856
aF0.010027516391833692
aF0.0
aF-0.018281137127353946
aF0.0
aF-0.0004417896824180593
aF0.0
aF-0.009975254918533035
aF-0.009596794696217976
aF-0.018192686994685073
aF0.0
aF0.0
aF-0.009949115504967491
aF0.008696986646021214
aF0.0
aF0.0
aF-0.009104175704579656
aF0.0
aF0.0
aF0.0
aF0.0
aF-0.012697702944787531
aF0.0
aF-0.009994251307685897
aF-0.015090771359351194
aF0.0004564876561027164
aF0.009994746887450268
aF-0.0033233436888100852
aF-0.018215408317570098
aF0.0
aF0.0
aF0.0
aF-0.009899922853698225
aF0.0
aF-0.030978865425928016
aF0.0
aF-0.009999092935687045
aF0.0
aF0.0
aF-0.01834523725103103
aF0.0
aF0.0
aF-0.009987571668368783
aF0.0
aF-0.009611979184894584
aF-0.0155301290887466
aF-0.009999985034211458
aF0.0
aF0.0
aF0.0
aF-0.00498179174485389
aF0.0
aF-0.009989128668892386
aF0.010002165270137385
aF-0.00995197583927342
aF0.0
aF-0.005298823657544341
aF0.0
aF0.0
aF0.0
aF-0.03986731728795481
aF-0.01013659206388522
aF0.0
aF0.0
aF-0.009699018518835431
aF-0.017317678015194952
aF-0.02485358533257449
aF-0.024726863260209713
aF-0.01
aF0.0
aF-0.018239201501282925
aF0.010109245417014925
aF0.0017030544817134945
aF0.0
aF0.0
aF-0.0099999700970859
aF0.0
aF-0.01266273359371463
aF0.0
aF0.0
aF-0.003935887985381528
aF-0.009241814477385
aF0.0
aF-0.01663486766974707
aF0.0
aF0.0
aF0.0
aF0.0
aF0.0
aF-0.009674829238194993
aF-0.01776172176403053
aF0.0
aF0.0
aF-0.018269415755059533
aF-0.009999996297464415
aF0.0
aF-0.005293860881068745
aF0.0
aF0.0
aF-0.009991544855650165
aF0.0
aF0.0
aF0.0
aF-0.009988583425355982
aF-0.03563356637890198
aF-0.0013328473775985994
aF-0.009984678740224054
aF-0.01829464398071877
aF0.0
aF-0.009973730083527378
aF0.0
aF0.0
aF0.0
aF0.0
aF0.0017290570145746444
aF0.0
aF-0.009976952287614103
aF0.0
aF0.0
aF0.0
aF0.0
aF-0.0099049529366537
aF0.0
aF-0.009959402005996678
aF0.0
aF0.0
aF0.0
aF-0.009999978825359569
aF0.011405096234087963
aF-0.023600391405041436
aF0.0
aF0.0
aF0.0
aF0.0
aF0.010156730759986772
aF0.0
aF0.0
aF-0.016864985917670296
aF-0.005883401133485005
aF-0.003675622118221646
aF0.0
aF0.0
aF0.0
aF0.0
aF0.0
aF0.0
aF0.0
aF0.0
aF0.0
aF-0.024069011796026954
aF-0.018176261605854595
aF0.0
aF0.0
aF-0.009394471849171665
aF-0.015044448715435012
aF-0.0099999741713548
aF0.0
aF0.0
aF0.0
aF-0.0009814417268030574
aF-0.01832378294952457
aF0.0
aF-0.010931021779346555
aF-0.00989820106628783
aF0.0
aF0.0
aF0.0
aF-0.013286336405208824
aF0.0
aF-0.0007777206434206917
aF0.0
aF0.0
aF0.0
aF0.0
aF0.0
aF0.0
aF0.0
aF-0.004963289652499829
aF0.0
aF0.0
aF-0.009842074574394111
aF0.0
aF0.0
aF0.0
aF-0.009990857562018528
aF-0.004993672439787229
aF0.0
aF0.0
aF0.0
aF0.0
aF0.0
aF0.0
aF0.0100369158816609
aF-0.02502350624890387
aF-0.0019982569491467073
aF0.0
aF-0.009981617243943001
aF0.0
aF-0.024667670206294713
aF-0.009697356949335293
aF0.0
aF0.0
aF0.0
aF-0.009987387364573629
aF0.0
aF-0.009979455708820327
aF-0.0018016400869451362
aF0.0
aF0.0
aF-0.00998748686606726
aF0.0
aF-0.009300121107230932
aF-0.010433600154172577
aF0.0
aF0.010000043894681137
aF0.0
aF-0.00999119660227412
aF-0.0006225885469549909
aF0.0
aF0.0
aF0.010038995794042212
aF0.0
aF0.0
aF0.0
aF-0.009548449150609952
aF0.0
aF0.0
aF0.0
aF0.0
aF0.0
aF-0.01972483408206421
aF-0.011573618437290824
aF-0.004993839441688053
aF-0.004998438574333421
aF-0.025005077537151282
aF-0.009982883779484674
aF0.0
aF0.0
aF-0.017438764710688462
aF0.0
aF0.0
aF-0.009999972679775709
aF0.0
aF0.0
aF-1.167926764682691e-05
aF0.0
aF-0.005017304046297212
aF0.0
aF0.0
aF0.005001846875661682
aF0.0
aF-0.018341570909534213
aF0.0
aF0.0
aF-0.0096975233744732
aF0.0
aF0.0015701561636464693
aF0.0
aF0.0
aF0.0
aF0.0
aF0.0
aF0.0
aF0.0
aF0.0
aF-0.018061544912934276
aF0.0
aF0.0
aF0.0
aF0.0
aF0.0
aF0.0
aF-0.009726180230952125
aF-0.0059243255319271606
aF0.0
aF0.0
aF0.0
aF0.0
aF-0.009999813763070816
aF-0.008442845675002615
aF0.0
aF-0.009608114942746038
aF-0.024981194686260033
aF0.0
aF0.0
aF0.0
aF0.0
aF-0.009697408430441153
aF0.0
aF-0.055248969338208734
aF0.0
aF0.0
aF-0.018342859675319238
aF0.0
aF0.0
aF0.0
aF-0.009961666513715047
aF-0.010002302198480995
aF0.0
aF-0.005000743566166662
aF-0.0052332400098704
aF0.0
aF-0.009993891660736639
aF0.0
aF0.00294571985201089
aF0.0
aF-0.01996273989310214
aF-0.001242257757286781
aF0.0
aF-0.009987518859499373
aF0.0
aF0.0
aF0.0
aF0.0
aF-0.00918060027661083
aF-0.013158899669727935
aF-0.030911967138594273
aF-0.004236422599053108
aF0.0
aF-0.0015014437921363668
aF0.0
aF0.0
aF-0.03589620892614803
aF-0.012089292116920381
aF-0.027510723259867614
aF0.0
aF0.0
aF-0.009991592497038406
aF-0.033939602762068685
aF0.0
aF0.0
aF0.0
aF0.0
aF0.010043666104794718
aF0.0
aF0.0
aF-0.01324594188733216
aF0.0
aF0.0
aF-0.008201146170023812
aF-0.009717559862117236
aF-0.009957952760404202
aF0.0
aF0.0
aF-0.01
aF0.0
aF0.0
aF0.0
aF0.0
aF0.0
aF-0.004999880711488479
aF0.0
aF0.0
aF0.0
aF0.0
aF-0.00041067541761003086
aF0.0
aF-0.018305303586045533
aF0.010000010592209663
aF-0.009143929381949061
aF0.0
aF-0.00968482015329552
aF0.0
aF0.0
aF0.0
aF-0.009972548105669264
aF0.0
aF0.0
aF0.0
aF0.01013476569282879
aF0.0006813288209179518
aF-0.00994416385812903
aF0.0
aF0.0
aF-0.00999038482060351
aF-0.00938201092871441
aF-0.029522777271631467
aF0.0
aF0.0
aF-0.057932434580339684
aF0.0
aF0.0
aF0.0
aF0.0033825809507021186
aF0.0
aF0.0
aF0.0
aF-0.004977654665311076
aF0.0
aF0.01862213925945458
aF0.0
aF0.0
aF0.0
aF0.0
aF0.0
aF0.0
aF-0.018328514990615573
aF0.0
aF-0.03094840527431057
aF0.0
aF-0.00969738476683983
aF0.0
aF0.0
aF-0.009211480044972646
aF-0.000736724150494656
aF-0.00814464137351186
aF-0.031121749746174793
aF0.0
aF0.0
aF0.0
aF0.0
aF0.0
aF0.0
aF0.0
aF0.0
aF0.0
aF0.0
aF-0.00999708219224002
aF0.009999998150284812
aF0.0
aF0.0
aF0.0
aF0.0
aF0.0
aF0.0
aF0.0
aF0.0
aF0.0
aF0.0
aF0.0
aF0.0
aF-0.006125366174316738
aF0.0
aF-0.009691767705893325
aF-0.011602896134735483
aF0.0
aF0.0
aF-0.004986896686229465
aF0.0
aF0.010006365141390465
aF0.0
aF-0.010722202927314227
aF-0.009988355413762464
aF-0.017817504630638352
aF0.0
aF-0.009161505426812176
aF0.0
aF0.0
aF0.0
aF-0.00998028775496703
aF0.0
aF0.0
aF0.0
aF0.0
aF0.0
aF0.0016549956582861975
aF-0.0007778325522002768
aF0.0
aF0.0
aF0.0
aF0.0
aF0.0
aF-0.0033288689398871018
aF-0.05751151085395172
aF0.0
aF0.0
aF0.0
aF0.0
aF-0.009992840818185786
aF-0.00998018294383381
aF-0.006058784787926561
aF0.0
aF0.0
aF-0.009999956105318864
aF-0.009999989657231976
aF-0.009994501933535634
aF0.0
aF0.0
aF0.0
aF0.0
aF0.0
aF-0.024091222854036448
aF-0.05789724135398521
aF0.0
aF0.0
aF0.0
aF-0.009049209344623495
aF-0.015379925106634273
aF0.0
aF0.0
aF0.0
aF0.0
aF0.0
aF0.0
aF-0.009944960063807153
aF0.0
aF-0.004957821504635968
aF0.0
aF0.0
aF0.0
aF-0.03496976627600995
aF0.0
aF0.0
aF-0.018326064448212304
aF0.0
aF-0.009954920515166254
aF-0.02504150865638608
aF0.0
aF0.0
aF0.0
aF0.0
aF0.0
aF0.0
aF-0.009697329213663538
aF0.0
aF-0.005
aF-0.009956507137681063
aF-0.01000000046248313
aF0.0
aF0.0
aF-0.009697161033636659
aF-0.01833064777580374
aF0.0
aF-0.04230163378725588
aF0.0
aF0.0027426436268249412
aF-0.004976659330782641
aF-0.020586013275456307
aF-0.008197361382467428
aF-0.009979063870072918
aF-0.004663456748827491
aF0.0
aF0.0
aF0.0
aF0.0
aF0.0
aF0.0
aF0.0
aF-0.00972632597686673
aF-0.008483907055343994
aF0.0
aF0.0
aF0.0
aF0.0
aF0.0
aF0.0
aF-0.009949809880963393
aF0.0
aF0.0
aF0.0
aF0.0
aF0.0
aF-0.017918211171498603
aF0.0
aF0.0
aF0.0
aF0.0
aF0.0
aF0.0
aF0.0
aF0.0
aF-0.006331996448601429
aF-0.018349803775123578
aF0.0
aF0.0
aF0.0
aF-0.006343528629616422
aF0.0
aF0.0
aF-0.004996881968594837
aF-0.008790688593427052
aF0.0
aF-0.027993352792826304
aF0.0
aF0.0
aF-0.004061663426901644
aF-0.013477070863091793
aF0.0
aF0.0
aF0.0
aF0.0
aF0.0
aF0.0
aF-0.003953888670053321
aF-0.009999910905539899
aF0.0
aF0.0
aF0.0
aF0.0
aF0.0
aF-0.009999990795022397
aF0.0
aF0.0
aF-0.01777174890914902
aF0.0
aF0.0
aF0.0
aF0.0
aF0.0
aF0.0
aF0.0
aF0.0
aF0.0
aF0.0
aF0.0
aF0.0
aF0.0
aF0.0
aF0.0
aF0.0
aF-0.058686646354642075
aF0.0
aF0.0
aF0.0
aF0.0
aF-0.009999930848025935
aF0.0
aF0.0
aF0.0
aF0.0
aF0.0
aF0.0
aF-0.009697250478582633
aF0.0
aF0.0
aF0.0
aF0.0
aF0.0
aF0.0
aF0.0
aF-0.00999895144247933
aF-0.004984053788645383
aF0.0
aF0.0
aF0.0
aF0.0
aF-0.009937400778715083
aF-0.00999998134368653
aF0.0
aF0.0
aF0.0
aF0.0
aF0.0
aF0.0
aF0.0
aF0.0
aF0.010000006986749117
aF0.0
aF0.0
aF0.0
aF0.0
aF0.0
aF0.0
aF0.0
aF0.01
aF0.0
aF0.0
aF-0.009697376380239374
aF-0.006666565347576522
aF-0.0008333205837482302
aF0.0
aF0.0
aF0.0
aF0.0
aF0.0
aF0.0
aF0.0
aF0.0
aF0.0
aF0.0
aF0.0
aF0.0
aF0.0
aF0.0
aF0.0
aF0.0
aF0.0
aF0.0
aF0.0
aF0.0
aF0.0
aF0.0
aF0.0
aF0.0
aF0.0
aF0.0
aF0.0
aF0.0
aF0.0
aF0.0
aF-0.009999595449518967
aF-0.00998752786895531
aF0.0
aF-0.01833190838772817
aF0.0
aF0.0
aF0.0
aF0.0
aF0.0
aF0.0
aF0.0
aF0.0
aF0.0
aF0.0
aF0.0
aF0.0
aF0.0
aF0.0
aF0.0
aF0.0
aF0.0
aF0.0
aF0.0
aF0.0
aF0.0
aF0.0
aF0.0
aF0.0
aF0.0
aF0.0
aF0.0
aF-0.009999923566925969
aF0.0
aF0.0
aF0.0
aF-0.009997932550257934
aF0.0
aF-0.008480332036870626
aF-0.017971051756913083
aF-0.004656906749079408
aF0.0
aF0.0
aF0.0
aF0.0
aF0.0
aF0.0
aF0.0
aF0.0
aF0.0
aF-0.009697360069180462
aF0.0
aF0.0
aF0.0
aF0.0
aF0.0
aF0.0
aF0.0
aF0.0
aF-0.005000042440439721
aF0.0
aF0.0
aF0.0
aF-0.009999922662963037
aF0.0
aF0.0
aF0.0
aF0.0
aF0.0
aF0.0
aF0.0
aF0.0
aF0.0
aF0.0
aF0.0
aF0.0
aF0.0
aF0.0
aF0.0
aF0.0
aF-0.010000116644467923
aF0.0
aF0.0
aF0.0
aF0.0
aF0.0
aF0.0
aF0.0
aF0.0
aF0.0
aF-0.009691761564145808
aF0.0
aF0.0
aF0.0
aF0.0
aF0.0
aF0.0
aF0.0
aF-0.009999992716538288
aF-0.003333322941793581
aF0.0
aF0.0
aF0.0
aF0.0
aF0.0
aF0.0
aF0.0
aF0.0
aF0.0
aF0.0
aF0.0
aF0.0
aF0.0
aF-0.009999893310189004
aF0.0
aF0.0
aF0.0
aF-0.00999989883726663
aF-0.0604289437385003
aF-0.058120426402412786
aF0.0
aF0.0
aF0.0
aF0.0
aF0.0
aF0.0
aF0.0
aF0.0
aF0.0
aF0.0
aF0.0
aF0.0
aF0.0
aF0.0
aF0.0
aF0.0
aF0.0
aF0.0
aF0.0
aF0.0
aF-0.009976884940397569
aF0.0
aF0.0
aF0.0
aF0.0
aF0.0
aF0.0
aF0.0
aF0.0
aF0.0
aF0.0
aF0.0
aF0.0
aF0.0
aF0.0
aF0.0
aF0.0
aF0.0
aF0.0
aF0.0
aF0.0
aF0.0
aF0.0
aF0.0
aF0.0
aF0.0
aF0.0
aF0.0
aF0.0
aF0.0
aF0.0
aF0.0
aF0.0
aF0.0
aF0.0
aF0.0
aF0.0
aF0.0
aF0.0
aF0.0
aF0.0
aF0.0
aF0.0
aF0.0
aF0.0
aF0.0
aF0.0
aF0.0
aF0.0
aF0.0
aF0.0
aF0.0
aF0.0
aF0.0
aF0.0
aF0.0
aF0.0
aF0.0
aF0.0
aF0.0
aF0.0
aF0.0
aF0.0
aF-0.009994374393185864
aF0.0
aF-0.01833956032622781
aF0.0
aF0.0
aF0.0
aF0.0
aF0.0
aF0.0
aF0.0
aF0.0
aF0.0
aF0.0
aF0.0
aF0.0
aF-0.009999977661229469
aF0.010000021174640432
aF0.0
aF0.0
aF0.0
aF0.0
aF0.0
aF0.0
aF0.0
aF0.0
aF0.0
aF0.0
aF0.0
aF0.0
aF0.0
aF-0.002500008427395206
aF0.0
aF0.0
aF0.0
aF0.0
aF0.0
aF0.0
aF0.0
aF0.0
aF0.0
aF0.0
aF0.0
aF0.0
aF0.0
aF0.0
aF0.0
aF0.0
aF0.0
aF0.0
aF0.0
aF0.0
aF0.0
aF-0.018349972771498264
aF0.0
aF0.0
aF0.0
aF0.0
aF0.0
aF0.0
aF0.0
aF0.0
aF0.0
aF0.0
aF0.0
aF0.0
aF0.0
aF0.0
aF0.0
aF0.0
aF0.0
aF0.0
aF0.0
aF0.0
aF0.0
aF0.0
aF0.0
aF0.0
aF0.0
aF0.0
aF0.0
aF0.0
aF0.0
aF0.0
aF0.0
aF0.0
aF0.0
aF0.0
aF0.0
aF0.0
aF0.0
aF0.0
aF0.0
aF0.0
aF0.0
aF0.0
aF0.0
aF-0.009999840757523673
aF0.0
aF0.0
aF0.0
aF0.0
aF0.0
aF0.0
aF0.0
aF0.0
aF0.0
aF0.0
aF0.0
aF0.0
aF0.0
aF0.0
aF0.0
aF0.0
aF0.0
aF0.0
aF0.0
aF0.0
aF0.0
aF0.0
aF0.0
aF0.0
aF0.0
aF0.0
aF0.0
aF0.0
aF0.0
aF0.0
aF0.0
aF0.0
aF0.0
aF0.0
aF0.0
aF0.0
aF0.0
aF0.0
aF0.0
aF0.0
aF0.0
aF0.0
aF0.0
aF0.0
aF0.0
aF0.0
aF0.0
aF0.0
aF0.0
aF0.0
aF0.0
aF0.0
aF-0.004993744710699937
aF0.0
aF0.0
aF0.0
aF0.0
aF0.0
aF0.0
aF0.0
aF0.0
aF0.0
aF0.0
aF0.0
aF0.0
aF0.0
aF0.0
aF0.0
aF0.0
aF0.0
aF0.0
aF0.0
aF0.0
aF0.0
aF0.0
aF0.0
aF-0.009999943515520356
aF0.0
aF0.0
aF0.0
aF0.0
aF0.0
aF0.0
aF0.0
aF0.0
aF0.0
aF0.0
aF0.0
aF0.0
aF0.0
aF0.0
aF0.0
aF0.0
aF0.0
aF0.0
aF0.0
aF0.0
aF-0.009193746379879414
aF0.0
aF0.0
aF0.0
aF0.0
aF0.0
aF-0.01000000990758415
aF0.0
aF0.0
aF-0.004993625092712058
aF0.0
aF0.0
aF0.0
aF0.0
aF0.0
aF0.0
aF0.0
aF0.0
aF0.0
aF0.0
aF0.0
aF0.0
aF0.0
aF0.0
aF0.0
aF0.0
aF0.0
aF0.0
aF0.0
aF0.0
aF0.0
aF0.0
aF0.0
aF0.0
aF0.0
aF0.0
aF0.0
aF0.0
aF0.0
aF0.0
aF0.0
aF0.0
aF0.0
aF0.0
aF0.0
aF0.0
aF0.0
aF0.0
aF0.0
aF0.0
aF0.0
aF0.0
aF0.0
aF0.0
aF0.0
aF0.0
aF0.0
aF0.0
aF0.0
aF0.0
aF0.0
aF0.0
aF0.0
aF0.0
aF0.0
aF-0.01566154719780871
aF0.0
aF0.0
aF0.0
aF0.0
aF0.0
aF0.0
aF0.0
aF0.0
aF0.0
aF0.0
aF0.0
aF0.0
aF0.0
aF0.0
aF0.00199999685570328
aF0.0
aF0.0
aF0.0
aF0.0
aF0.0
aF0.0
aF0.0
aF0.0
aF0.0
aF0.0
aF0.0
aF0.0
aF-0.009999946652934003
aF0.0
aF0.0
aF0.0
aF0.0
aF0.0
aF0.0
aF0.0
aF0.0
aF0.0
aF0.0
aF0.0
aF0.0
aF0.0
aF0.0
aF0.0
aF0.0
aF0.0
aF0.0
aF0.0
aF0.0
aF0.0
aF0.0
aF0.0
aF0.0
aF0.0
aF0.0
aF0.0
aF0.0
aF-0.004999999620332595
aF0.0
aF0.0
aF0.0
aF0.0
aF0.0
aF0.0
aF0.0
aF0.0
aF0.0
aF0.0
aF0.0
aF0.0
aF0.0
aF0.0
aF0.0
aF0.0
aF0.0
aF0.0
aF0.0
aF0.0
aF0.0
aF0.0
aF0.0
aF0.0
aF0.0
aF0.0
aF0.0
aF0.0
aF0.0
aF0.0
aF0.0
aF0.0
aF0.0
aF0.0
aF0.0
aF0.0
aF0.0
aF0.0
aF0.0
aF0.0
aF0.0
aF0.0
aF0.0
aF0.0
aF0.0
aF0.0
aF0.0
aF0.0
aF0.0
aF0.0
aF0.0
aF0.0
aF0.0
aF0.0
aF0.0
aF0.0
aF0.0
aF-0.009989746553818178
aF0.0
aF0.0
aF-0.009193687721964737
aF0.0
aF0.0
aF0.0
aF0.0
aF0.0
aF0.0
aF0.0
aF0.0
aF0.0
aF0.0
aF0.0
aF0.0
aF0.0
aF0.0
aF0.0
aF0.0
aF0.0
aF0.0
aF0.0
aF0.0
aF0.0
aF0.0
aF0.0
aF0.0
aF0.0
aF0.0
aF0.0
aF0.0
aF0.0
aF0.0
aF0.0
aF0.0
aF0.0
aF0.0
aF0.0
aF0.0
aF0.0
aF0.0
aF0.0
aF-0.006131461464761855
aF0.0
aF0.0
aF0.0
aF0.0
aF0.0
aF0.0
aF-0.009999927398423685
aF0.0
aF0.0
aF0.0
aF0.0
aF0.0
aF0.0
aF0.0
aF0.0
aF0.0
aF0.0
aF0.0
aF0.0
aF0.0
aF0.0
aF0.0
aF0.0
aF0.0
aF0.0
aF0.0
aF0.0
aF0.0
aF0.0
aF0.0
aF0.0
aF0.0
aF0.0
aF0.0
aF0.0
aF0.0
aF0.0
aF0.0
aF-0.003333274197007082
aF0.0
aF0.0
aF0.0
aF0.0
aF0.0
aF0.0
aF0.0
aF0.0
aF0.0
aF0.0
aF0.0
aF0.0
aF0.0
aF-0.031144078525633646
aF0.0
aF0.0
aF0.0
aF0.0
aF-0.009999969903232752
aF0.0
aF0.0
aF0.0
aF0.0
aF0.0
aF0.0
aF0.0
aF0.0
aF0.0
aF0.0
aF0.0
aF0.0
aF0.0
aF0.0
aF0.0
aF0.0
aF0.0
aF0.0
aF0.0
aF0.0
aF0.0
aF0.0
aF-0.00999994289120917
aF0.0
aF0.0
aF0.0
aF0.0
aF0.0
aF0.0
aF0.0
aF0.0
aF0.0
aF0.0
aF0.0
aF0.0
aF0.0
aF0.0
aF0.0
aF0.0
aF0.0
aF0.0
aF0.0
aF0.0
aF0.0
aF0.0
aF0.0
aF0.0
aF0.0
aF0.0
aF0.0
aF0.0
aF0.0
aF0.0
aF0.0
aF0.0
aF0.0
aF0.0
aF0.0
aF0.0
aF0.0
aF-0.0011111112968858923
aF0.0
aF0.0
aF0.0
aF0.0
aF0.0
aF0.0
aF0.0
aF0.0
aF0.0
aF0.0
aF0.0
aF0.0
aF0.0
aF0.0
aF0.0
aF0.0
aF0.0
aF0.0
aF0.0
aF0.0
aF0.0
aF0.0
aF0.0
aF0.0
aF0.0
aF0.0
aF0.0
aF0.0
aF0.0
aF0.0
aF0.0
aF0.0
aF0.0
aF0.0
aF0.0
aF0.0
aF0.0
aF0.0
aF0.0
aF0.0
aF0.0
aF0.0
aF0.0
aF-0.01
aF0.0
aF0.0
aF0.0
aF0.0
aF0.0
aF0.0
aF-0.009999948286172554
aF0.0
aF0.0
aF0.0
aF0.0
aF0.0
aF0.0
aF0.0
aF0.0
aF0.0
aF0.0
aF0.0
aF0.0
aF0.0
aF0.0
aF0.0
aF0.0
aF0.0
aF0.0
aF0.0
aF0.0
aF0.0
aF0.0
aF0.0
aF0.0
aF0.0
aF0.0
aF0.0
aF0.0
aF0.0
aF0.0
aF0.0
aF0.0
aF0.0
aF0.0
aF-0.003333329965280376
aF0.0
aF0.0
aF0.0
aF0.0
aF0.0
aF0.0
aF0.0
aF0.0
aF0.0
aF0.0
aF0.0
aF0.0
aF0.0
aF0.0
aF0.0
aF0.0
aF0.0
aF0.0
aF0.0
aF0.0
aF0.0
aF0.0
aF0.0
aF0.0
aF0.0
aF0.0
aF0.0
aF0.0
aF0.0
aF0.0
aF0.0
aF0.0
aF0.0
aF0.0
aF0.0
aF0.0
aF0.0
aF0.0
aF0.0
aF0.0
aF0.0
aF0.0
aF0.0
aF0.0
aF0.0
aF0.0
aF0.0
aF0.0
aF0.0
aF0.0
aF0.0
aF0.0
aF0.0
aF0.0
aF0.0
aF0.0
aF0.0
aF0.0
aF0.0
aF0.0
aF0.0
aF0.0
aF0.0
aF0.0
aF0.0
aF0.0
aF0.0
aF0.0
aF0.0
aF0.0
aF-0.010000057394260799
aF0.0
aF0.0
aF0.0
aF0.0
aF0.0
aF0.0
aF0.0
aF0.0
aF0.0
aF0.0
aF0.0
aF0.0
aF0.0
aF0.0
aF0.0
aF0.0
aF0.0
aF0.0
aF0.0
aF0.0
aF0.0
aF0.0
aF0.0
aF0.0
aF0.0
aF0.0
aF0.0
aF0.0
aF0.0
aF0.0
aF0.0
aF0.0
aF0.0
aF0.0
aF0.0
aF0.0
aF0.0
aF0.0
aF0.0
aF0.0
aF0.0
aF0.0
aF0.0
aF0.0
aF0.0
aF0.0
aF0.0
aF0.0
aF0.0
aF0.0
aF0.0
aF0.0
aF0.0
aF0.0
aF0.0
aF0.009999997591390404
aF0.0
aF0.0
aF0.0
aF0.0
aF0.0
aF0.0
aF0.0
aF0.0
aF0.0
aF0.0
aF0.0
aF0.0
aF0.0
aF0.0
aF0.0
aF0.0
aF0.0
aF0.0
aF0.0
aF0.0
aF0.0
aF0.0
aF0.0
aF0.0
aF0.0
aF0.0
aF0.0
aF-0.0011111356802948906
aF0.0
aF0.0
aF0.0
aF0.0
aF0.0
aF0.0
aF0.0
aF0.0
aF0.0
aF0.0
aF0.0
aF0.0
aF0.0
aF0.0
aF0.0
aF0.0
aF0.0
aF0.0
aF0.0
aF0.0
aF0.0
aF0.0
aF0.0
aF0.0
aF0.0
aF0.0
aF0.0
aF0.0
aF0.0
aF0.0
aF0.0
aF0.0
aF0.0
aF0.0
aF0.0
aF0.0
aF0.0
aF0.0
aF0.0
aF0.0
aF0.0
aF0.0
aF-0.010000012247889146
aF0.0
aF0.0
aF0.0
aF0.0
aF0.0
aF0.0
aF0.0
aF0.0
aF0.0
aF0.0
aF0.0
aF0.0
aF0.0
aF0.0
aF0.0
aF0.0
aF0.0
aF0.0
aF0.0
aF0.0
aF0.0
aF0.0
aF0.0
aF0.0
aF0.0
aF0.0
aF0.0
aF0.0
aF0.0
aF0.0
aF0.0
aF0.0
aF0.0
aF0.0
aF0.0
aF0.0
aF0.0
aF0.0
aF0.0
aF0.0
aF0.0
aF0.0
aF0.0
aF0.0
aF0.0
aF0.0
aF0.0
aF0.0
aF0.0
aF0.0
aF0.0
aF0.0
aF0.0
aF0.0
aF0.0
aF0.0
aF0.0
aF0.0
aF0.0
aF0.0
aF0.0
aF0.0
aF0.0
aF0.0
aF0.0
aF0.0
aF0.0
aF0.0
aF0.0
aF0.0
aF0.0
aF0.0
aF0.0
aF0.0
aF0.0
aF0.0
aF0.0
aF0.0
aF0.0
aF0.0
aF0.0
aF0.0
aF0.0
aF0.0
aF0.0
aF0.0
aF0.0
aF0.0
aF0.0
aF0.0
aF0.0
aF0.0
aF0.0
aF0.0
aF0.0
aF0.0
aF0.0
aF0.0
aF0.0
aF0.0
aF0.0
aF0.0
aF0.0
aF0.0
aF0.0
aF0.0
aF0.0
aF0.0
aF0.0
aF0.0
aF0.0
aF0.0
aF0.0
aF0.0
aF0.0
aF0.0
aF0.0
aF0.0
aF0.0
aF0.0
aF0.0
aF0.0
aF0.0
aF0.0
aF0.0
aF0.0
aF0.0
aF0.0
aF0.0
aF0.0
aF0.0
aF0.0
aF0.0
aF0.0
aF0.0
aF0.0
aF0.0
aF0.0
aF0.0
aF0.0
aF0.0
aF0.0
aF0.0
aF0.0
aF0.0
aF0.0
aF0.0
aF0.0
aF0.0
aF0.0
aF0.0
aF0.0
aF0.0
aF0.0
aF0.0
aF0.0
aF0.0
aF0.0
aF0.0
aF0.0
aF0.0
aF0.0
aF0.0
aF0.0
aF0.0
aF0.0
aF0.0
aF0.0
aF0.0
aF0.0
aF0.0
aF0.0
aF0.0
aF0.0
aF0.0
aF0.0
aF0.0
aF0.0
aF0.0
aF0.0
aF0.0
aF0.0
aF0.0
aF0.0
aF0.0
aF0.0
aF0.0
aF0.0
aF0.0
aF0.0
aF0.0
aF0.0
aF0.0
aF0.0
aF0.0
aF0.0
aF0.0
aF0.0
aF0.0
aF0.0
aF0.0
aF0.0
aF0.0
aF0.0
aF0.0
aF0.0
aF0.0
aF0.0
aF0.0
aF0.0
aF0.0
aF0.0
aF0.0
aF0.0
aF0.0
aF0.0
aF0.0
aF0.0
aF0.0
aF0.0
aF0.0
aF0.0
aF0.0
aF0.0
aF0.0
aF0.0
aF0.0
aF0.0
aF0.0
aF0.0
aF0.0
aF0.0
aF0.0
aF0.0
aF0.0
aF0.0
aF0.0
aF0.0
aF0.0
aF0.0
aF0.0
aF0.0
aF0.0
aF0.0
aF0.0
aF0.0
aF0.0
aF0.0
aF0.0
aF0.0
aF0.0
aF0.0
aF0.0
aF0.0
aF0.0
aF0.0
aF0.0
aF0.0
aF0.0
aF0.0
aF0.0
aF0.0
aF0.0
aF0.0
aF0.0
aF0.0
aF0.0
aF0.0
aF0.0
aF0.0
aF0.0
aF0.0
aF0.0
aF0.0
aF0.0
aF0.0
aF0.0
aF0.0
aF0.0
aF0.0
aF0.0
aF0.0
aF0.0
aF0.0
aF0.0
aF0.0
aF0.0
aF0.0
aF0.0
aF0.0
aF0.0
aF0.0
aF0.0
aF0.0
aF0.0
aF0.0
aF0.0
aF0.0
aF0.0
aF0.0
aF0.0
aF0.0
aF0.0
aF0.0
aF0.0
aF0.0
aF0.0
aF0.0
aF0.0
aF0.0
aF0.0
aF0.0
aF0.0
aF0.0
aF0.0
aF0.0
aF0.0
aF0.0
aF0.0
aF0.0
aF0.0
aF0.0
aF0.0
aF0.0
aF0.0
aF0.0
aF0.0
aF0.0
aF0.0
aF0.0
aF0.0
aF0.0
aF0.0
aF0.0
aF0.0
aF0.0
aF0.0
aF0.0
aF0.0
aF0.0
aF0.0
aF0.0
aF0.0
aF0.0
aF0.0
aF0.0
aF0.0
aF0.0
aF0.0
aF0.0
aF0.0
aF0.0
aF0.0
aF0.0
aF0.0
aF0.0
aF0.0
aF0.0
aF0.0
aF0.0
aF0.0
aF0.0
aF0.0
aF0.0
aF0.0
aF0.0
aF0.0
aF0.0
aF0.0
aF0.0
aF0.0
aF0.0
aF0.0
aF0.0
aF0.0
aF0.0
aF0.0
aF0.0
aF0.0
aF0.0
aF0.0
aF0.0
aF0.0
aF0.0
aF0.0
aF0.0
aF0.0
aF0.0
aF0.0
aF0.0
aF0.0
aF0.0
aF0.0
aF0.0
aF0.0
aF0.0
aF0.0
aF0.0
aF0.0
aF0.0
aF0.0
aF0.0
aF0.0
aF0.0
aF0.0
aF0.0
aF0.0
aF0.0
aF0.0
aF0.0
aF0.0
aF0.0
aF0.0
aF0.0
aF0.0
aF0.0
aF0.0
aF0.0
aF0.0
aF0.0
aF0.0
aF0.0
aF0.0
aF0.0
aF0.0
aF0.0
aF0.0
aF0.0
aF0.0
aF0.0
aF0.0
aF0.0
aF0.0
aF0.0
aF0.0
aF0.0
aF0.0
aF0.0
aF0.0
aF0.0
aF0.0
aF0.0
aF0.0
aF0.0
aF0.0
aF0.0
aF0.0
aF0.0
aF0.0
aF0.0
aF0.0
aF0.0
aF0.0
aF0.0
aF0.0
aF0.0
aF0.0
aF0.0
aF0.0
aF0.0
aF0.0
aF0.0
aF0.0
aF0.0
aF0.0
aF0.0
aF0.0
aF0.0
aF0.0
aF0.0
aF0.0
aF0.0
aF0.0
aF0.0
aF0.0
aF0.0
aF0.0
aF0.0
aF0.0
aF0.0
aF0.0
aF0.0
aF0.0
aF0.0
aF0.0
aF0.0
aF0.0
aF0.0
aF0.0
aF0.0
aF0.0
aF0.0
aF0.0
aF0.0
aF0.0
aF0.0
aF0.0
aF0.0
aF0.0
aF0.0
aF0.0
aF0.0
aF0.0
aF0.0
aF0.0
aF0.0
aF0.0
aF0.0
aF0.0
aF0.0
aF0.0
aF0.0
aF0.0
aF0.0
aF0.0
aF0.0
aF0.0
aF0.0
aF0.0
aF0.0
aF0.0
aF0.0
aF0.0
aF0.0
aF0.0
aF0.0
aF0.0
aF0.0
aF0.0
aF0.0
aF0.0
aF0.0
aF0.0
aF0.0
aF0.0
aF0.0
aF0.0
aF0.0
aF0.0
aF0.0
aF0.0
aF0.0
aF0.0
aF0.0
aF0.0
aF0.0
aF0.0
aF0.0
aF0.0
aF0.0
aF0.0
aF0.0
aF0.0
aF0.0
aF0.0
aF0.0
aF0.0
aF0.0
aF0.0
aF0.0
aF0.0
aF0.0
aF0.0
aF0.0
aF0.0
aF0.0
aF0.0
aF0.0
aF0.0
aF0.0
aF0.0
aF0.0
aF0.0
aF0.0
aF0.0
aF0.0
aF0.0
aF0.0
aF0.0
aF0.0
aF0.0
aF0.0
aF0.0
aF0.0
aF0.0
aF0.0
aF0.0
aF0.0
aF0.0
aF0.0
aF0.0
aF0.0
aF0.0
aF0.0
aF0.0
aF0.0
aF0.0
aF0.0
aF0.0
aF0.0
aF0.0
aF0.0
aF0.0
aF0.0
aF0.0
aF0.0
aF0.0
aF0.0
aF0.0
aF0.0
aF0.0
aF0.0
aF0.0
aF0.0
aF0.0
aF0.0
aF0.0
aF0.0
aF0.0
aF0.0
aF0.0
aF0.0
aF0.0
aF0.0
aF0.0
aF0.0
aF0.0
aF0.0
aF0.0
aF0.0
aF0.0
aF0.0
aF0.0
aF0.0
aF0.0
aF0.0
aF0.0
aF0.0
aF0.0
aF0.0
aF0.0
aF0.0
aF0.0
aF0.0
aF0.0
aF0.0
aF0.0
aF0.0
aF0.0
aF0.0
aF0.0
aF0.0
aF0.0
aF0.0
aF0.0
aF0.0
aF0.0
aF0.0
aF0.0
aF0.0
aF0.0
aF0.0
aF0.0
aF0.0
aF0.0
aF0.0
aF0.0
aF0.0
aF0.0
aF0.0
aF0.0
aF0.0
aF0.0
aF0.0
aF0.0
aF0.0
aF0.0
aF0.0
aF0.0
aF0.0
aF0.0
aF0.0
aF0.0
aF0.0
aF0.0
aF0.0
aF0.0
aF0.0
aF0.0
aF0.0
aF0.0
aF0.0
aF0.0
aF0.0
aF0.0
aF0.0
aF0.0
aF0.0
aF0.0
aF0.0
aF0.0
aF0.0
aF0.0
aF0.0
aF0.0
aF0.0
aF0.0
aF0.0
aF0.0
aF0.0
aF0.0
aF0.0
aF0.0
aF0.0
aF0.0
aF0.0
aF0.0
aF0.0
aF0.0
aF0.0
aF0.0
aF0.0
aF0.0
aF0.0
aF0.0
aF0.0
aF0.0
aF0.0
aF0.0
aF0.0
aF0.0
aF0.0
aF0.0
aF0.0
aF0.0
aF0.0
aF0.0
aF0.0
aF0.0
aF0.0
aF0.0
aF0.0
aF0.0
aF0.0
aF0.0
aF0.0
aF0.0
aF0.0
aF0.0
aF0.0
aF0.0
aF0.0
aF0.0
aF0.0
aF0.0
aF0.0
aF0.0
aF0.0
aF0.0
aF0.0
aF0.0
aF0.0
aF0.0
aF0.0
aF0.0
aF0.0
aF0.0
aF0.0
aF0.0
aF0.0
aF0.0
aF0.0
aF0.0
aF0.0
aF0.0
aF0.0
aF0.0
aF0.0
aF0.0
aF0.0
aF0.0
aF0.0
aF0.0
aF0.0
aF0.0
aF0.0
aF0.0
aF0.0
aF0.0
aF0.0
aF0.0
aF0.0
aF0.0
aF0.0
aF0.0
aF0.0
aF0.0
aF0.0
aF0.0
aF0.0
aF0.0
aF0.0
aF0.0
aF0.0
aF0.0
aF0.0
aF0.0
aF0.0
aF0.0
aF0.0
aF0.0
aF0.0
aF0.0
aF0.0
aF0.0
aF0.0
aF0.0
aF0.0
aF0.0
aF0.0
aF0.0
aF0.0
aF0.0
aF0.0
aF0.0
aF0.0
aF0.0
aF0.0
aF0.0
aF0.0
aF0.0
aF0.0
aF0.0
aF0.0
aF0.0
aF0.0
aF0.0
aF0.0
aF0.0
aF0.0
aF0.0
aF0.0
aF0.0
aF0.0
aF0.0
aF0.0
aF0.0
aF0.0
aF0.0
aF0.0
aF0.0
aF0.0
aF0.0
aF0.0
aF0.0
aF0.0
aF0.0
aF0.0
aF0.0
aF0.0
aF0.0
aF0.0
aF0.0
aF0.0
aF0.0
aF0.0
aF0.0
aF0.0
aF0.0
aF0.0
aF0.0
aF0.0
aF0.0
aF0.0
aF0.0
aF0.0
aF0.0
aF0.0
aF0.0
aF0.0
aF0.0
aF0.0
aF0.0
aF0.0
aF0.0
aF0.0
aF0.0
aF0.0
aF0.0
aF0.0
aF0.0
aF0.0
aF0.0
aF0.0
aF0.0
aF0.0
aF0.0
aF0.0
aF0.0
aF0.0
aF0.0
aF0.0
aF0.0
aF0.0
aF0.0
aF0.0
aF0.0
aF0.0
aF0.0
aF0.0
aF0.0
aF0.0
aF0.0
aF0.0
aF0.0
aF0.0
aF0.0
aF0.0
aF0.0
aF0.0
aF0.0
aF0.0
aF0.0
aF0.0
aF0.0
aF0.0
aF0.0
aF0.0
aF0.0
aF0.0
aF0.0
aF0.0
aF0.0
aF0.0
aF0.0
aF0.0
aF0.0
aF0.0
aF0.0
aF0.0
aF0.0
aF0.0
aF0.0
aF0.0
aF0.0
aF0.0
aF0.0
aF0.0
aF0.0
aF0.0
aF0.0
aF0.0
aF0.0
aF0.0
aF0.0
aF0.0
aF0.0
aF0.0
aF0.0
aF0.0
aF0.0
aF0.0
aF0.0
aF0.0
aF0.0
aF0.0
aF0.0
aF0.0
aF0.0
aF0.0
aF0.0
aF0.0
aF0.0
aF0.0
aF0.0
aF0.0
aF0.0
aF0.0
aF0.0
aF0.0
aF0.0
aF0.0
aF0.0
aF0.0
aF0.0
aF0.0
aF0.0
aF0.0
aF0.0
aF0.0
aF0.0
aF0.0
aF0.0
aF0.0
aF0.0
aF0.0
aF0.0
aF0.0
aF0.0
aF0.0
aF0.0
aF0.0
aF0.0
aF0.0
aF0.0
aF0.0
aF0.0
aF0.0
aF0.0
aF0.0
aF0.0
aF0.0
aF0.0
aF0.0
aF0.0
aF0.0
aF0.0
aF0.0
aF0.0
aF0.0
aF0.0
aF0.0
aF0.0
aF0.0
aF0.0
aF0.0
aF0.0
aF0.0
aF0.0
aF0.0
aF0.0
aF0.0
aF0.0
aF0.0
aF0.0
aF0.0
aF0.0
aF0.0
aF0.0
aF0.0
aF0.0
aF0.0
aF0.0
aF0.0
aF0.0
aF0.0
aF0.0
aF0.0
aF0.0
aF0.0
aF0.0
aF0.0
aF0.0
aF0.0
aF0.0
aF0.0
aF0.0
aF0.0
aF0.0
aF0.0
aF0.0
aF0.0
aF0.0
aF0.0
aF0.0
aF0.0
aF0.0
aF0.0
aF0.0
aF0.0
aF0.0
aF0.0
aF0.0
aF0.0
aF0.0
aF0.0
aF0.0
aF0.0
aF0.0
aF0.0
aF0.0
aF0.0
aF0.0
aF0.0
aF0.0
aF0.0
aF0.0
aF0.0
aF0.0
aF0.0
aF0.0
aF0.0
aF0.0
aF0.0
aF0.0
aF0.0
aF0.0
aF0.0
aF0.0
aF0.0
aF0.0
aF0.0
aF0.0
aF0.0
aF0.0
aF0.0
aF0.0
aF0.0
aF0.0
aF0.0
aF0.0
aF0.0
aF0.0
aF0.0
aF0.0
aF0.0
aF0.0
aF0.0
aF0.0
aF0.0
aF0.0
aF0.0
aF0.0
aF0.0
aF0.0
aF0.0
aF0.0
aF0.0
aF0.0
aF0.0
aF0.0
aF0.0
aF0.0
aF0.0
aF0.0
aF0.0
aF0.0
aF0.0
aF0.0
aF0.0
aF0.0
aF0.0
aF0.0
aF0.0
aF0.0
aF0.0
aF0.0
aF0.0
aF0.0
aF0.0
aF0.0
aF0.0
aF0.0
aF0.0
aF0.0
aF0.0
aF0.0
aF0.0
aF0.0
aF0.0
aF0.0
aF0.0
aF0.0
aF0.0
aF0.0
aF0.0
aF0.0
aF0.0
aF0.0
aF0.0
aF0.0
aF0.0
aF0.0
aF0.0
aF0.0
aF0.0
aF0.0
aF0.0
aF0.0
aF0.0
aF0.0
aF0.0
aF0.0
aF0.0
aF0.0
aF0.0
aF0.0
aF0.0
aF0.0
aF0.0
aF0.0
aF0.0
aF0.0
aF0.0
aF0.0
aF0.0
aF0.0
aF0.0
aF0.0
aF0.0
aF0.0
aF0.0
aF0.0
aF0.0
aF0.0
aF0.0
aF0.0
aF0.0
aF0.0
aF0.0
aF0.0
aF0.0
aF0.0
aF0.0
aF0.0
aF0.0
aF0.0
aF0.0
aF0.0
aF0.0
aF0.0
aF0.0
aF0.0
aF0.0
aF0.0
aF0.0
aF0.0
aF0.0
aF0.0
aF0.0
aF0.0
aF0.0
aF0.0
aF0.0
aF0.0
aF0.0
aF0.0
aF0.0
aF0.0
aF0.0
aF0.0
aF0.0
aF0.0
aF0.0
aF0.0
aF0.0
aF0.0
aF0.0
aF0.0
aF0.0
aF0.0
aF0.0
aF0.0
aF0.0
aF0.0
aF0.0
aF0.0
aF0.0
aF0.0
aF-0.013704702180565827
aF0.0004938382633677431
aF0.0
aF-0.0005669248278929772
aF0.0
aF0.0
aF0.0
aF0.0
aF0.0
aF0.0
aF0.00014618639106479592
aF0.0
aF0.0
aF0.0
aF0.0
aF0.0
aF0.0
aF0.0
aF0.0
aF0.0
aF0.0
aF0.0
aF0.0
aF0.0
aF0.0
aF0.0
aF0.0
aF0.0
aF0.0
aF0.0
aF0.0
aF0.0
aF0.0
aF0.0
aF0.0
aF0.0
aF0.0
aF0.0
aF0.0
aF0.0
aF0.0
aF0.0
aF0.0
aF0.0
aF0.0
aF0.0
aF0.0
aF0.0
aF0.0
aF0.0
aF0.0
aF0.0
aF0.0
aF0.0
aF0.0
aF0.0
aF0.0
aF0.0
aF0.0
aF0.0
aF0.0
aF0.0
aF0.0
aF0.0
aF0.0
aF0.0
aF0.0
aF0.0
aF0.0
aF0.0
aF0.0
aF0.0
aF0.0
aF0.0
aF0.0
aF-4.2338799833064696e-05
aF0.0
aF0.0
aF0.0
aF0.0
aF5.236e-05
aF0.0
aF0.0
aF0.0
aF0.0
aF0.0
aF0.0
aF0.0
aF0.0
aF0.0
aF0.0
aF0.0
aF0.0
aF0.0
aF0.0
aF0.0
aF0.0
aF0.0
aF0.0
aF0.0
aF0.0
aF0.0
aF0.0
aF0.0
aF0.0
aF0.0
aF0.0
aF0.0
aF0.0
aF0.0
aF0.0
aF0.0
aF0.0
aF0.0
aF0.0
aF0.0
aF0.0
aF0.0
aF0.0
aF0.0
aF0.0
aF0.0
aF0.0
aF0.0
aF0.0
aF0.0
aF0.0
aF0.0
aF0.0
aF0.0
aF0.0
aF0.0
aF0.0
aF0.0
aF0.0
aF0.0
aF0.0
aF0.0
aF0.0
aF0.0
aF0.0
aF0.0
aF0.0
aF0.0
aF0.0
aF0.0
aF0.0
aF0.0
aF0.0
aF0.0
aF0.0
aF0.0
aF0.0
aF0.0
aF0.0
aF0.0
aF0.0
aF0.0
aF0.0
aF0.0
aF0.0
aF0.0
aF0.0
aF0.0
aF0.0
aF0.0
aF0.0
aF0.0
aF0.0
aF0.0
aF0.0
aF0.0
aF0.0
aF0.0
aF0.001
aF0.0
aF0.0
aF0.0
aF-2.3089999999999997e-05
aF0.0
aF0.0
aF0.0
aF0.0
aF0.0
aF0.0
aF0.0
aF0.0
aF0.0
aF0.0
aF0.0
aF0.0
aF0.0
aF0.0
aF0.0
aF0.0
aF0.0
aF0.0
aF0.0
aF0.0
aF0.0
aF0.0
aF0.0
aF0.0
aF0.0
aF0.0
aF0.0
aF0.0
aF0.0
aF0.0
aF0.0
aF0.0
aF0.0
aF0.0
aF0.0
aF0.0
aF0.0
aF0.0
aF0.0
aF0.0
aF0.0
aF0.0
aF0.0
aF0.0
aF0.0
aF0.0
aF0.0
aF0.0
aF0.0
aF0.0
aF0.0
aF0.0
aF0.0
aF0.0
aF0.00015152
aF0.0
aF0.0
aF0.0
aF0.0
aF0.0
aF0.0
aF0.0
aF0.0
aF0.0
aF0.0
aF0.0
aF0.0
aF0.0
aF0.0
aF0.0
aF0.0
aF0.0
aF0.0
aF0.0
aF0.0
aF0.0
aF0.0
aF0.0
aF0.0
aF0.0
aF0.0
aF0.0
aF0.0
aF0.0
aF0.0
aF0.0
aF0.0
aF0.0
aF0.0
aF0.0
aF0.0
aF0.0
aF0.0
aF0.0
aF0.0
aF0.0
aF0.0
aF0.0
aF0.0
aF0.0
aF0.0
aF0.0
aF0.0
aF0.0
aF0.0
aF0.0
aF0.0
aF0.0
aF0.0
aF0.0
aF0.0
aF0.0
aF0.0
aF0.0
aF0.0
aF0.0
aF0.0
aF0.0
aF0.0
aF0.0
aF0.0
aF0.0
aF0.0
aF0.0
aF0.0
aF0.0
aF0.0
aF0.0
aF0.0
aF0.0
aF0.0
aF0.0
aF0.0
aF0.0
aF0.0
aF0.0
aF0.0
aF0.0
aF0.0
aF0.0
aF0.0
aF0.0
aF0.0
aF0.0
aF0.0
aF0.0
aF0.0
aF0.0
aF0.0
aF0.0
aF0.0
aF0.0
aF0.0
aF0.0
aF0.0
aF0.0
aF0.0
aF0.0
aF0.0
aF0.0
aF0.0
aF0.0
aF0.0
aF0.0
aF0.0
aF0.0
aF0.0
aF0.0
aF0.0
aF0.0
aF0.0
aF0.0
aF0.0
aF0.0
aF0.0
aF0.0
aF0.0
asb.