(ilrsgd
LogisticRegressionSGD
p0
(dp1
S'mu'
p2
F0.01
sS'eta'
p3
F0.02
sS'weight'
p4
(lp5
F-0.009731292714823772
aF-0.009903780008295676
aF0.0
aF0.0
aF0.0
aF-0.04839690273665769
aF0.0005069966352581005
aF-0.07527056773929952
aF-0.009921290516931745
aF0.0
aF-0.009896792380095686
aF-0.024929130725521227
aF0.0
aF-0.019642536722936137
aF0.010236586406399519
aF0.0
aF-0.010006874686733514
aF-0.009962080221266122
aF-0.004746566451054181
aF0.0
aF-0.009746574174668395
aF0.0
aF0.0
aF-0.009987493024594101
aF-0.04265625115106862
aF-0.009938779376076136
aF-7.3022384284957e-05
aF-0.019626452171960903
aF-0.009401203840817399
aF-0.02714248117501228
aF0.030561422581991276
aF-0.004971954016670921
aF-0.009971675907348657
aF-0.045537072354466544
aF-0.019283525795800165
aF-0.0193911938059941
aF-0.008733084682009678
aF0.0
aF0.005127485181914149
aF-0.009251118978137202
aF-0.009545428761791507
aF-0.008908056115781191
aF-0.009894816007370293
aF-0.0001776758667160743
aF0.0
aF-0.009711649690868884
aF-0.009943680220635572
aF-0.010011793262243834
aF-0.00977935266862491
aF0.010233869760184571
aF0.010003147601585072
aF-0.00996872108024571
aF-0.026866437350786813
aF-0.04734284361541413
aF-0.016871460896206926
aF-0.00998391131973754
aF-0.016064117015047483
aF-0.029207354348518365
aF0.0
aF0.020048981623980645
aF-0.0030020570985125382
aF-0.019682278029871002
aF-0.02582654535905885
aF-0.027141839879149768
aF0.0
aF-0.009756972944619503
aF0.0
aF0.0
aF0.010480300678015633
aF0.010018074513279199
aF-0.0197430891199775
aF0.0
aF0.0
aF-0.004746964238701116
aF0.010205370326021753
aF0.0
aF0.010218026286832669
aF-0.01159910163118938
aF0.0
aF0.010021227846603207
aF0.0
aF0.0
aF-0.004993960600996233
aF0.0
aF0.0
aF-0.009405218551490532
aF-0.009432099668213961
aF-0.009853001940259797
aF0.0
aF-0.009988429510887178
aF-0.011361765365028767
aF-0.009912538842716884
aF0.0
aF-0.03746175364061669
aF-0.03904200181720579
aF-0.009999950393461255
aF-0.0001320443505273168
aF-0.00992111404638564
aF-0.00017741159529247302
aF-0.00018429084298882646
aF-0.019682078393133254
aF0.0
aF-0.05244271411270826
aF0.0
aF-0.00976306753849455
aF0.0
aF-0.008819773509849901
aF0.0
aF-0.0599459233881644
aF-0.009981556516905484
aF-0.009962481031714474
aF-0.009938311405393273
aF-0.019651647574467593
aF-0.029823119122451943
aF0.010118054043988614
aF-0.009741342002917602
aF-0.035094711230329166
aF-0.00987571223646032
aF-0.00981400992839208
aF-0.028997893982662636
aF-0.028722598089511792
aF-0.021574526798227356
aF-0.021528991500489727
aF0.0
aF-0.00955609018635345
aF0.0
aF0.010538850057102733
aF-0.009847501913073452
aF0.0
aF0.0
aF0.01002115825974191
aF0.0
aF-0.04040130354161671
aF0.0
aF0.0
aF-0.030729713915906495
aF-0.009992381443243587
aF0.0
aF-0.008697750356804215
aF-0.019059866131167877
aF-0.10378398146132126
aF-0.019118426887977123
aF-0.0406302939701754
aF0.0
aF0.0
aF-0.04714838611901894
aF-0.019749969198090307
aF-0.07301646498982854
aF0.0
aF0.01003150560308012
aF-0.019632449915347773
aF-0.009874272128308348
aF0.0
aF0.0
aF-0.045217194551327014
aF0.0
aF-0.009887452462618448
aF0.0
aF-0.009980758090820765
aF0.01000835377312356
aF0.00048776660863268304
aF-0.009884496537830906
aF-0.05651107837823636
aF0.010087185172552462
aF-0.009997113264712759
aF-0.06766498159393292
aF0.0
aF-0.009989883801871595
aF0.0
aF-0.04698807657517085
aF0.0
aF0.0
aF-0.019726394291296617
aF-0.009834243374023409
aF-0.00995981569017393
aF-0.01959152434814148
aF0.0
aF-0.07243695914385145
aF-0.035434694995512356
aF0.0
aF0.00010998248878230435
aF-0.019691239262720747
aF0.0
aF-0.004837316788340289
aF-0.005028994293873179
aF-0.03815003193124598
aF-0.009876654375262982
aF0.0
aF-0.016739744041245532
aF-0.009261402545104859
aF-0.009830190024190272
aF-0.08293163825550305
aF-0.009999946652934003
aF-0.03583242626802492
aF0.0
aF-0.019548487272048592
aF0.0
aF0.0
aF-0.02423578763301933
aF-0.009811699205445707
aF-0.02883050693272215
aF0.0
aF-0.00782364464612388
aF0.0
aF-0.00991314379984344
aF-0.009996409424938672
aF-0.009874819071544102
aF-0.009998032380293995
aF0.0
aF-0.00926454535038201
aF-0.008394870950064531
aF0.0
aF0.0
aF-0.019656995159970762
aF0.0004310824178873941
aF0.0
aF0.0
aF-0.009880356356275669
aF-0.029010659153151094
aF-0.04537685911554838
aF-0.047179203964171884
aF-0.016654147418642955
aF-0.009912503050079357
aF-0.005628301759347908
aF-0.009980591070169232
aF0.0
aF-0.0141793269916008
aF-0.02888841014479759
aF-0.009955855061524955
aF-0.009986316187164224
aF-0.009931161661389656
aF0.0
aF0.0
aF-0.007573474368010391
aF0.0
aF0.0
aF-0.009880962346521718
aF-0.009900346009078189
aF-0.01
aF-0.027476779845221646
aF0.0
aF0.0
aF-0.0130388615048065
aF-3.743546482530124e-05
aF-0.01972632828151947
aF0.0
aF0.024531611869370952
aF0.0
aF-0.008580531411899957
aF0.0
aF-0.019666488311869006
aF0.0
aF-0.0065943328104202835
aF0.0
aF0.0
aF0.0
aF-0.02891113037165196
aF-0.007995196510701083
aF0.0
aF-0.009981469334954583
aF0.0
aF0.0
aF0.0
aF0.010010293026662157
aF0.0008871036243720647
aF-0.009492213529881766
aF-0.009685853159384767
aF0.0
aF-0.00996243719676816
aF-0.009937478103933807
aF-0.008712840629392721
aF-0.009901253207681015
aF0.0
aF0.0
aF0.010017837276384656
aF-0.018882589708499105
aF0.0
aF0.0
aF-0.009817154788557141
aF-0.010049993362449324
aF0.0
aF-0.006563922384508534
aF-0.028843128371896704
aF0.0
aF-0.038294436375465875
aF-0.009999876650383589
aF-0.008066193781623453
aF0.0
aF0.0
aF-0.009934997208564535
aF-0.009984982558406607
aF0.010082862595405157
aF0.0
aF-0.01966858742666728
aF0.0
aF0.000344134597205184
aF0.0
aF-0.009901328662253558
aF-0.007910928478277398
aF-0.019538595443935824
aF0.0
aF0.0
aF-0.009831014608940416
aF0.009873269722669303
aF0.0
aF0.0
aF-0.009775577903066249
aF0.0
aF0.0
aF0.0
aF0.0
aF-0.014646869684222165
aF0.0
aF-0.009994243750423163
aF-0.018801455389124797
aF0.0007907676559101283
aF0.009998063165689153
aF-0.003312920663508564
aF-0.019599063367590507
aF0.0
aF0.0
aF0.0
aF-0.009899889483848017
aF0.0
aF-0.03826807081408451
aF0.0
aF-0.009998760199485963
aF0.0
aF0.0
aF-0.01970067516761307
aF0.0
aF0.0
aF-0.009987551865897254
aF0.0
aF-0.007971959426692784
aF-0.019152622963034494
aF-0.009999984251546013
aF0.0
aF0.0
aF0.0
aF-0.004967539857805858
aF0.0
aF-0.009987716967020326
aF0.010002217547555956
aF-0.009822381253002142
aF0.0
aF-0.009148511318370914
aF0.0
aF0.0
aF0.0
aF-0.055941891068549854
aF-0.01829779155776879
aF0.0
aF0.0
aF-0.008987886416556914
aF-0.015034568084951724
aF-0.028458899106477198
aF-0.026847468874975782
aF-0.01
aF0.0
aF-0.019510317310459255
aF0.0101746712266631
aF0.0003479000085615785
aF0.0
aF0.0
aF-0.009999962628496662
aF0.0
aF-0.014617165388625997
aF0.0
aF0.0
aF-0.02662851124758986
aF-0.009457270285974347
aF0.0
aF-0.013921533949145016
aF0.0
aF0.0
aF0.0
aF0.0
aF0.0
aF-0.008021896582507354
aF-0.015936172398528226
aF0.0
aF0.0
aF-0.01952331998055476
aF-0.009999981360890874
aF0.0
aF-0.019597224072472066
aF0.0
aF0.0
aF-0.00999234339988169
aF0.0
aF0.0
aF0.0
aF-0.009959413545096819
aF-0.046839410469831526
aF-0.002297094818434234
aF-0.009969486934225166
aF-0.019624093134013004
aF0.0
aF-0.00993725796281481
aF0.0
aF0.0
aF0.0
aF0.0
aF0.0003771203214177742
aF0.0
aF-0.009975214320175747
aF0.0
aF0.0
aF0.0
aF0.0
aF-0.009894167809388905
aF0.0
aF-0.009860922221061308
aF0.0
aF0.0
aF0.0
aF-0.009999972063934229
aF0.010350914905740864
aF-0.02112808034972388
aF0.0
aF0.0
aF0.0
aF0.0
aF0.010232217629475052
aF0.0
aF0.0
aF-0.048083565324694044
aF-0.006334026391440898
aF-0.003233814975145731
aF0.0
aF0.0
aF0.0
aF0.0
aF0.0
aF0.0
aF0.0
aF0.0
aF0.0
aF-0.024621651033988043
aF-0.01952179772741038
aF0.0
aF0.0
aF-0.006922587694337657
aF-0.045125330249398174
aF-0.009999966702765562
aF0.0
aF0.0
aF0.0
aF-0.00531796033920292
aF-0.019687133848091447
aF0.0
aF-0.017478014467929417
aF-0.009855071430990741
aF0.0
aF0.0
aF0.0
aF-0.01886404919818707
aF0.0
aF-2.5866933283140263e-05
aF0.0
aF0.0
aF0.0
aF0.0
aF0.0
aF0.0
aF0.0
aF-0.004951001343047034
aF0.0
aF0.0
aF-0.0098179423355791
aF0.0
aF0.0
aF0.0
aF-0.009986704483402291
aF-0.004993628396237821
aF0.0
aF0.0
aF0.0
aF0.0
aF0.0
aF0.0
aF0.010083187458876264
aF-0.02888952623563288
aF-0.0019971061610809453
aF0.0
aF-0.00996483047196532
aF0.0
aF-0.02738639608897412
aF-0.008099834370402568
aF0.0
aF0.0
aF0.0
aF-0.009987332030791331
aF0.0
aF-0.009935285238549502
aF-0.003086731771938064
aF0.0
aF0.0
aF-0.009987353291942036
aF0.0
aF-0.008346672271728604
aF-0.0128966180762239
aF0.0
aF0.010000058831254677
aF0.0
aF-0.009990916602498096
aF-0.0006207292906347669
aF0.0
aF0.0
aF0.010140789855803242
aF0.0
aF0.0
aF0.0
aF-0.007876799030755412
aF0.0
aF0.0
aF0.0
aF0.0
aF0.0
aF-0.023998586687373598
aF-0.025830467297938114
aF-0.004993304860349642
aF-0.0049984387414145634
aF-0.028539617919093097
aF-0.009962920591850338
aF0.0
aF0.0
aF-0.015280293194139462
aF0.0
aF0.0
aF-0.009999968776936059
aF0.0
aF0.0
aF1.0120157387984554e-05
aF0.0
aF-0.005014577780706052
aF0.0
aF0.0
aF0.0050021454152346335
aF0.0
aF-0.01973911128315598
aF0.0
aF0.0
aF-0.008809444326373175
aF0.0
aF0.00020159833534288442
aF0.0
aF0.0
aF0.0
aF0.0
aF0.0
aF0.0
aF0.0
aF0.0
aF-0.023846993444352326
aF0.0
aF0.0
aF0.0
aF0.0
aF0.0
aF0.0
aF-0.009542642523451049
aF-0.04820757550354409
aF0.0
aF0.0
aF0.0
aF0.0
aF-0.009999537627366602
aF-0.009728154007320003
aF0.0
aF-0.008778179264701896
aF-0.028509866289904862
aF0.0
aF0.0
aF0.0
aF0.0
aF-0.008066213949366857
aF0.0
aF-0.11746112082504798
aF0.0
aF0.0
aF-0.019738619648152482
aF0.0
aF0.0
aF0.0
aF-0.009867065762106192
aF-0.010000185708615314
aF0.0
aF-0.004994120357763543
aF-0.009071861860178628
aF0.0
aF-0.00998730181993488
aF0.0
aF0.0008002616332384192
aF0.0
aF-0.025332998881742515
aF-0.010740960343671987
aF0.0
aF-0.009986449696866816
aF0.0
aF0.0
aF0.0
aF0.0
aF-0.009858848486883124
aF-0.01472431836706762
aF-0.03824639492273791
aF-0.00664965593137352
aF0.0
aF-2.1013898312390034e-05
aF0.0
aF0.0
aF-0.047431998650818305
aF-0.015967659926955067
aF-0.03765174889420893
aF0.0
aF0.0
aF-0.009976659438264956
aF-0.03707361510409337
aF0.0
aF0.0
aF0.0
aF0.0
aF0.010163377849388668
aF0.0
aF0.0
aF-0.033621477011002016
aF0.0
aF0.0
aF-0.036395654276647926
aF-0.009369114825000068
aF-0.014121291005469546
aF0.0
aF0.0
aF-0.01
aF0.0
aF0.0
aF0.0
aF0.0
aF0.0
aF-0.004999855623757857
aF0.0
aF0.0
aF0.0
aF0.0
aF-0.00012540196273988329
aF0.0
aF-0.019612609206379063
aF0.01000002159831577
aF-0.007418633661199535
aF0.0
aF-0.008302635452426502
aF0.0
aF0.0
aF0.0
aF-0.009925090838601668
aF0.0
aF0.0
aF0.0
aF0.010169502998054136
aF0.00028595125055814845
aF-0.00994338373240301
aF0.0
aF0.0
aF-0.00998369959735537
aF-0.007168970010885543
aF-0.03215920614890248
aF0.0
aF0.0
aF-0.26794750764108005
aF0.0
aF0.0
aF0.0
aF0.0034194456191983177
aF0.0
aF0.0
aF0.0
aF-0.0049240846541861545
aF0.0
aF0.020257180056588775
aF0.0
aF0.0
aF0.0
aF0.0
aF0.0
aF0.0
aF-0.019707847896662096
aF0.0
aF-0.03804750473278237
aF0.0
aF-0.008337859043950006
aF0.0
aF0.0
aF-0.007213291027409358
aF-6.496473940742487e-08
aF-0.013927450969854004
aF-0.03843242536769529
aF0.0
aF0.0
aF0.0
aF0.0
aF0.0
aF0.0
aF0.0
aF0.0
aF0.0
aF0.0
aF-0.009994378752870495
aF0.009999998969174013
aF0.0
aF0.0
aF0.0
aF0.0
aF0.0
aF0.0
aF0.0
aF0.0
aF0.0
aF0.0
aF0.0
aF0.0
aF-0.0065839037385558175
aF0.0
aF-0.009311269220078907
aF-0.022406752558653282
aF0.0
aF0.0
aF-0.004986016361980771
aF0.0
aF0.010011763979658646
aF0.0
aF-0.006527192747880198
aF-0.009981561206227394
aF-0.017547232943613274
aF0.0
aF-0.019698549481082593
aF0.0
aF0.0
aF0.0
aF-0.009922657787454292
aF0.0
aF0.0
aF0.0
aF0.0
aF0.0
aF0.0002698141449546179
aF-0.021628731257366536
aF0.0
aF0.0
aF0.0
aF0.0
aF0.0
aF-0.003322513320893781
aF-0.15737740664483196
aF0.0
aF0.0
aF0.0
aF0.0
aF-0.009985506816839887
aF-0.009959240348697123
aF-0.013085255846355696
aF0.0
aF0.0
aF-0.009999941168745322
aF-0.009999981585351534
aF-0.00999431911549888
aF0.0
aF0.0
aF0.0
aF0.0
aF0.0
aF-0.023166858865167242
aF-0.16248551346744416
aF0.0
aF0.0
aF0.0
aF-0.009601515459444532
aF-0.0294185434361941
aF0.0
aF0.0
aF0.0
aF0.0
aF0.0
aF0.0
aF-0.009944049946726145
aF0.0
aF-0.004911329074707058
aF0.0
aF0.0
aF0.0
aF-0.06873154572548337
aF0.0
aF0.0
aF-0.019649019278172045
aF0.0
aF-0.009880210046091683
aF-0.027320519494759707
aF0.0
aF0.0
aF0.0
aF0.0
aF0.0
aF0.0
aF-0.008751444475525673
aF0.0
aF-0.005
aF-0.009878668623477057
aF-0.010000000257736777
aF0.0
aF0.0
aF-0.008616946038460718
aF-0.019714745698222715
aF0.0
aF-0.05733806932401046
aF0.0
aF0.004774014245136351
aF-0.00493188107907646
aF-0.03996139342998271
aF-0.00959671864716354
aF-0.009950695443182615
aF-0.008979592582488954
aF0.0
aF0.0
aF0.0
aF0.0
aF0.0
aF0.0
aF0.0
aF-0.009501918970648811
aF-0.06998811506364094
aF0.0
aF0.0
aF0.0
aF0.0
aF0.0
aF0.0
aF-0.009949598814070797
aF0.0
aF0.0
aF0.0
aF0.0
aF0.0
aF-0.01767538049186495
aF0.0
aF0.0
aF0.0
aF0.0
aF0.0
aF0.0
aF0.0
aF0.0
aF-0.007286884029897677
aF-0.019749621565119297
aF0.0
aF0.0
aF0.0
aF-0.007315164039959864
aF0.0
aF0.0
aF-0.004996880519304296
aF-0.013150438398322178
aF0.0
aF-0.0590933290037114
aF0.0
aF0.0
aF-0.004833909905885077
aF-0.018979428661132593
aF0.0
aF0.0
aF0.0
aF0.0
aF0.0
aF0.0
aF-0.03414631880610987
aF-0.009999754087567316
aF0.0
aF0.0
aF0.0
aF0.0
aF0.0
aF-0.00999997917477344
aF0.0
aF0.0
aF-0.01608227404041039
aF0.0
aF0.0
aF0.0
aF0.0
aF0.0
aF0.0
aF0.0
aF0.0
aF0.0
aF0.0
aF0.0
aF0.0
aF0.0
aF0.0
aF0.0
aF0.0
aF-0.1971395707208244
aF0.0
aF0.0
aF0.0
aF0.0
aF-0.00999986201322883
aF0.0
aF0.0
aF0.0
aF0.0
aF0.0
aF0.0
aF-0.008398781236078205
aF0.0
aF0.0
aF0.0
aF0.0
aF0.0
aF0.0
aF0.0
aF-0.009998733065708662
aF-0.004981533598928003
aF0.0
aF0.0
aF0.0
aF0.0
aF-0.009937357272508256
aF-0.009999980026365471
aF0.0
aF0.0
aF0.0
aF0.0
aF0.0
aF0.0
aF0.0
aF0.0
aF0.010000127202109113
aF0.0
aF0.0
aF0.0
aF0.0
aF0.0
aF0.0
aF0.0
aF0.01
aF0.0
aF0.0
aF-0.008057459857065307
aF-0.006666324132291588
aF-0.00083331711601131
aF0.0
aF0.0
aF0.0
aF0.0
aF0.0
aF0.0
aF0.0
aF0.0
aF0.0
aF0.0
aF0.0
aF0.0
aF0.0
aF0.0
aF0.0
aF0.0
aF0.0
aF0.0
aF0.0
aF0.0
aF0.0
aF0.0
aF0.0
aF0.0
aF0.0
aF0.0
aF0.0
aF0.0
aF0.0
aF0.0
aF-0.009999420240571719
aF-0.00998740309602895
aF0.0
aF-0.019731547731489385
aF0.0
aF0.0
aF0.0
aF0.0
aF0.0
aF0.0
aF0.0
aF0.0
aF0.0
aF0.0
aF0.0
aF0.0
aF0.0
aF0.0
aF0.0
aF0.0
aF0.0
aF0.0
aF0.0
aF0.0
aF0.0
aF0.0
aF0.0
aF0.0
aF0.0
aF0.0
aF0.0
aF-0.009999850696207485
aF0.0
aF0.0
aF0.0
aF-0.009996133862699222
aF0.0
aF-0.009795793693675909
aF-0.017697318125565163
aF-0.00828958429504791
aF0.0
aF0.0
aF0.0
aF0.0
aF0.0
aF0.0
aF0.0
aF0.0
aF0.0
aF-0.008071930437333324
aF0.0
aF0.0
aF0.0
aF0.0
aF0.0
aF0.0
aF0.0
aF0.0
aF-0.004999502818919748
aF0.0
aF0.0
aF0.0
aF-0.009999847968700815
aF0.0
aF0.0
aF0.0
aF0.0
aF0.0
aF0.0
aF0.0
aF0.0
aF0.0
aF0.0
aF0.0
aF0.0
aF0.0
aF0.0
aF0.0
aF0.0
aF-0.010000050770896244
aF0.0
aF0.0
aF0.0
aF0.0
aF0.0
aF0.0
aF0.0
aF0.0
aF0.0
aF-0.0093112577290989
aF0.0
aF0.0
aF0.0
aF0.0
aF0.0
aF0.0
aF0.0
aF-0.009999987335073898
aF-0.0033333206879873883
aF0.0
aF0.0
aF0.0
aF0.0
aF0.0
aF0.0
aF0.0
aF0.0
aF0.0
aF0.0
aF0.0
aF0.0
aF0.0
aF-0.009999893310189004
aF0.0
aF0.0
aF0.0
aF-0.00999988681879502
aF-0.3981801604682963
aF-0.14617624135308757
aF0.0
aF0.0
aF0.0
aF0.0
aF0.0
aF0.0
aF0.0
aF0.0
aF0.0
aF0.0
aF0.0
aF0.0
aF0.0
aF0.0
aF0.0
aF0.0
aF0.0
aF0.0
aF0.0
aF0.0
aF-0.009975051881899448
aF0.0
aF0.0
aF0.0
aF0.0
aF0.0
aF0.0
aF0.0
aF0.0
aF0.0
aF0.0
aF0.0
aF0.0
aF0.0
aF0.0
aF0.0
aF0.0
aF0.0
aF0.0
aF0.0
aF0.0
aF0.0
aF0.0
aF0.0
aF0.0
aF0.0
aF0.0
aF0.0
aF0.0
aF0.0
aF0.0
aF0.0
aF0.0
aF0.0
aF0.0
aF0.0
aF0.0
aF0.0
aF0.0
aF0.0
aF0.0
aF0.0
aF0.0
aF0.0
aF0.0
aF0.0
aF0.0
aF0.0
aF0.0
aF0.0
aF0.0
aF0.0
aF0.0
aF0.0
aF0.0
aF0.0
aF0.0
aF0.0
aF0.0
aF0.0
aF0.0
aF0.0
aF0.0
aF-0.00999424048529732
aF0.0
aF-0.01973780967806724
aF0.0
aF0.0
aF0.0
aF0.0
aF0.0
aF0.0
aF0.0
aF0.0
aF0.0
aF0.0
aF0.0
aF0.0
aF-0.00999997089980413
aF0.010000027936065772
aF0.0
aF0.0
aF0.0
aF0.0
aF0.0
aF0.0
aF0.0
aF0.0
aF0.0
aF0.0
aF0.0
aF0.0
aF0.0
aF-0.0025000054540401996
aF0.0
aF0.0
aF0.0
aF0.0
aF0.0
aF0.0
aF0.0
aF0.0
aF0.0
aF0.0
aF0.0
aF0.0
aF0.0
aF0.0
aF0.0
aF0.0
aF0.0
aF0.0
aF0.0
aF0.0
aF0.0
aF-0.019749956397525546
aF0.0
aF0.0
aF0.0
aF0.0
aF0.0
aF0.0
aF0.0
aF0.0
aF0.0
aF0.0
aF0.0
aF0.0
aF0.0
aF0.0
aF0.0
aF0.0
aF0.0
aF0.0
aF0.0
aF0.0
aF0.0
aF0.0
aF0.0
aF0.0
aF0.0
aF0.0
aF0.0
aF0.0
aF0.0
aF0.0
aF0.0
aF0.0
aF0.0
aF0.0
aF0.0
aF0.0
aF0.0
aF0.0
aF0.0
aF0.0
aF0.0
aF0.0
aF0.0
aF-0.00999902385948285
aF0.0
aF0.0
aF0.0
aF0.0
aF0.0
aF0.0
aF0.0
aF0.0
aF0.0
aF0.0
aF0.0
aF0.0
aF0.0
aF0.0
aF0.0
aF0.0
aF0.0
aF0.0
aF0.0
aF0.0
aF0.0
aF0.0
aF0.0
aF0.0
aF0.0
aF0.0
aF0.0
aF0.0
aF0.0
aF0.0
aF0.0
aF0.0
aF0.0
aF0.0
aF0.0
aF0.0
aF0.0
aF0.0
aF0.0
aF0.0
aF0.0
aF0.0
aF0.0
aF0.0
aF0.0
aF0.0
aF0.0
aF0.0
aF0.0
aF0.0
aF0.0
aF0.0
aF-0.004993743028342286
aF0.0
aF0.0
aF0.0
aF0.0
aF0.0
aF0.0
aF0.0
aF0.0
aF0.0
aF0.0
aF0.0
aF0.0
aF0.0
aF0.0
aF0.0
aF0.0
aF0.0
aF0.0
aF0.0
aF0.0
aF0.0
aF0.0
aF0.0
aF-0.009999933912102955
aF0.0
aF0.0
aF0.0
aF0.0
aF0.0
aF0.0
aF0.0
aF0.0
aF0.0
aF0.0
aF0.0
aF0.0
aF0.0
aF0.0
aF0.0
aF0.0
aF0.0
aF0.0
aF0.0
aF0.0
aF-0.0098937453716543
aF0.0
aF0.0
aF0.0
aF0.0
aF0.0
aF-0.009999996893867559
aF0.0
aF0.0
aF-0.004993463128924302
aF0.0
aF0.0
aF0.0
aF0.0
aF0.0
aF0.0
aF0.0
aF0.0
aF0.0
aF0.0
aF0.0
aF0.0
aF0.0
aF0.0
aF0.0
aF0.0
aF0.0
aF0.0
aF0.0
aF0.0
aF0.0
aF0.0
aF0.0
aF0.0
aF0.0
aF0.0
aF0.0
aF0.0
aF0.0
aF0.0
aF0.0
aF0.0
aF0.0
aF0.0
aF0.0
aF0.0
aF0.0
aF0.0
aF0.0
aF0.0
aF0.0
aF0.0
aF0.0
aF0.0
aF0.0
aF0.0
aF0.0
aF0.0
aF0.0
aF0.0
aF0.0
aF0.0
aF0.0
aF0.0
aF0.0
aF-0.019371323136462462
aF0.0
aF0.0
aF0.0
aF0.0
aF0.0
aF0.0
aF0.0
aF0.0
aF0.0
aF0.0
aF0.0
aF0.0
aF0.0
aF0.0
aF0.001999998349421128
aF0.0
aF0.0
aF0.0
aF0.0
aF0.0
aF0.0
aF0.0
aF0.0
aF0.0
aF0.0
aF0.0
aF0.0
aF-0.009999946652934003
aF0.0
aF0.0
aF0.0
aF0.0
aF0.0
aF0.0
aF0.0
aF0.0
aF0.0
aF0.0
aF0.0
aF0.0
aF0.0
aF0.0
aF0.0
aF0.0
aF0.0
aF0.0
aF0.0
aF0.0
aF0.0
aF0.0
aF0.0
aF0.0
aF0.0
aF0.0
aF0.0
aF0.0
aF-0.004999993382380225
aF0.0
aF0.0
aF0.0
aF0.0
aF0.0
aF0.0
aF0.0
aF0.0
aF0.0
aF0.0
aF0.0
aF0.0
aF0.0
aF0.0
aF0.0
aF0.0
aF0.0
aF0.0
aF0.0
aF0.0
aF0.0
aF0.0
aF0.0
aF0.0
aF0.0
aF0.0
aF0.0
aF0.0
aF0.0
aF0.0
aF0.0
aF0.0
aF0.0
aF0.0
aF0.0
aF0.0
aF0.0
aF0.0
aF0.0
aF0.0
aF0.0
aF0.0
aF0.0
aF0.0
aF0.0
aF0.0
aF0.0
aF0.0
aF0.0
aF0.0
aF0.0
aF0.0
aF0.0
aF0.0
aF0.0
aF0.0
aF0.0
aF-0.00998894946979095
aF0.0
aF0.0
aF-0.009893672982544587
aF0.0
aF0.0
aF0.0
aF0.0
aF0.0
aF0.0
aF0.0
aF0.0
aF0.0
aF0.0
aF0.0
aF0.0
aF0.0
aF0.0
aF0.0
aF0.0
aF0.0
aF0.0
aF0.0
aF0.0
aF0.0
aF0.0
aF0.0
aF0.0
aF0.0
aF0.0
aF0.0
aF0.0
aF0.0
aF0.0
aF0.0
aF0.0
aF0.0
aF0.0
aF0.0
aF0.0
aF0.0
aF0.0
aF0.0
aF-0.006598117118504979
aF0.0
aF0.0
aF0.0
aF0.0
aF0.0
aF0.0
aF-0.009999917575437221
aF0.0
aF0.0
aF0.0
aF0.0
aF0.0
aF0.0
aF0.0
aF0.0
aF0.0
aF0.0
aF0.0
aF0.0
aF0.0
aF0.0
aF0.0
aF0.0
aF0.0
aF0.0
aF0.0
aF0.0
aF0.0
aF0.0
aF0.0
aF0.0
aF0.0
aF0.0
aF0.0
aF0.0
aF0.0
aF0.0
aF0.0
aF-0.0033332727333801934
aF0.0
aF0.0
aF0.0
aF0.0
aF0.0
aF0.0
aF0.0
aF0.0
aF0.0
aF0.0
aF0.0
aF0.0
aF0.0
aF-0.03852484059946178
aF0.0
aF0.0
aF0.0
aF0.0
aF-0.00999996243464351
aF0.0
aF0.0
aF0.0
aF0.0
aF0.0
aF0.0
aF0.0
aF0.0
aF0.0
aF0.0
aF0.0
aF0.0
aF0.0
aF0.0
aF0.0
aF0.0
aF0.0
aF0.0
aF0.0
aF0.0
aF0.0
aF0.0
aF-0.009999940695677362
aF0.0
aF0.0
aF0.0
aF0.0
aF0.0
aF0.0
aF0.0
aF0.0
aF0.0
aF0.0
aF0.0
aF0.0
aF0.0
aF0.0
aF0.0
aF0.0
aF0.0
aF0.0
aF0.0
aF0.0
aF0.0
aF0.0
aF0.0
aF0.0
aF0.0
aF0.0
aF0.0
aF0.0
aF0.0
aF0.0
aF0.0
aF0.0
aF0.0
aF0.0
aF0.0
aF0.0
aF0.0
aF-0.0011111099405579283
aF0.0
aF0.0
aF0.0
aF0.0
aF0.0
aF0.0
aF0.0
aF0.0
aF0.0
aF0.0
aF0.0
aF0.0
aF0.0
aF0.0
aF0.0
aF0.0
aF0.0
aF0.0
aF0.0
aF0.0
aF0.0
aF0.0
aF0.0
aF0.0
aF0.0
aF0.0
aF0.0
aF0.0
aF0.0
aF0.0
aF0.0
aF0.0
aF0.0
aF0.0
aF0.0
aF0.0
aF0.0
aF0.0
aF0.0
aF0.0
aF0.0
aF0.0
aF0.0
aF-0.01
aF0.0
aF0.0
aF0.0
aF0.0
aF0.0
aF0.0
aF-0.009999713993893995
aF0.0
aF0.0
aF0.0
aF0.0
aF0.0
aF0.0
aF0.0
aF0.0
aF0.0
aF0.0
aF0.0
aF0.0
aF0.0
aF0.0
aF0.0
aF0.0
aF0.0
aF0.0
aF0.0
aF0.0
aF0.0
aF0.0
aF0.0
aF0.0
aF0.0
aF0.0
aF0.0
aF0.0
aF0.0
aF0.0
aF0.0
aF0.0
aF0.0
aF0.0
aF-0.0033333293952152437
aF0.0
aF0.0
aF0.0
aF0.0
aF0.0
aF0.0
aF0.0
aF0.0
aF0.0
aF0.0
aF0.0
aF0.0
aF0.0
aF0.0
aF0.0
aF0.0
aF0.0
aF0.0
aF0.0
aF0.0
aF0.0
aF0.0
aF0.0
aF0.0
aF0.0
aF0.0
aF0.0
aF0.0
aF0.0
aF0.0
aF0.0
aF0.0
aF0.0
aF0.0
aF0.0
aF0.0
aF0.0
aF0.0
aF0.0
aF0.0
aF0.0
aF0.0
aF0.0
aF0.0
aF0.0
aF0.0
aF0.0
aF0.0
aF0.0
aF0.0
aF0.0
aF0.0
aF0.0
aF0.0
aF0.0
aF0.0
aF0.0
aF0.0
aF0.0
aF0.0
aF0.0
aF0.0
aF0.0
aF0.0
aF0.0
aF0.0
aF0.0
aF0.0
aF0.0
aF0.0
aF-0.010000057394260799
aF0.0
aF0.0
aF0.0
aF0.0
aF0.0
aF0.0
aF0.0
aF0.0
aF0.0
aF0.0
aF0.0
aF0.0
aF0.0
aF0.0
aF0.0
aF0.0
aF0.0
aF0.0
aF0.0
aF0.0
aF0.0
aF0.0
aF0.0
aF0.0
aF0.0
aF0.0
aF0.0
aF0.0
aF0.0
aF0.0
aF0.0
aF0.0
aF0.0
aF0.0
aF0.0
aF0.0
aF0.0
aF0.0
aF0.0
aF0.0
aF0.0
aF0.0
aF0.0
aF0.0
aF0.0
aF0.0
aF0.0
aF0.0
aF0.0
aF0.0
aF0.0
aF0.0
aF0.0
aF0.0
aF0.0
aF0.010000021879965768
aF0.0
aF0.0
aF0.0
aF0.0
aF0.0
aF0.0
aF0.0
aF0.0
aF0.0
aF0.0
aF0.0
aF0.0
aF0.0
aF0.0
aF0.0
aF0.0
aF0.0
aF0.0
aF0.0
aF0.0
aF0.0
aF0.0
aF0.0
aF0.0
aF0.0
aF0.0
aF0.0
aF-0.0011110473604719377
aF0.0
aF0.0
aF0.0
aF0.0
aF0.0
aF0.0
aF0.0
aF0.0
aF0.0
aF0.0
aF0.0
aF0.0
aF0.0
aF0.0
aF0.0
aF0.0
aF0.0
aF0.0
aF0.0
aF0.0
aF0.0
aF0.0
aF0.0
aF0.0
aF0.0
aF0.0
aF0.0
aF0.0
aF0.0
aF0.0
aF0.0
aF0.0
aF0.0
aF0.0
aF0.0
aF0.0
aF0.0
aF0.0
aF0.0
aF0.0
aF0.0
aF0.0
aF-0.009999999771965562
aF0.0
aF0.0
aF0.0
aF0.0
aF0.0
aF0.0
aF0.0
aF0.0
aF0.0
aF0.0
aF0.0
aF0.0
aF0.0
aF0.0
aF0.0
aF0.0
aF0.0
aF0.0
aF0.0
aF0.0
aF0.0
aF0.0
aF0.0
aF0.0
aF0.0
aF0.0
aF0.0
aF0.0
aF0.0
aF0.0
aF0.0
aF0.0
aF0.0
aF0.0
aF0.0
aF0.0
aF0.0
aF0.0
aF0.0
aF0.0
aF0.0
aF0.0
aF0.0
aF0.0
aF0.0
aF0.0
aF0.0
aF0.0
aF0.0
aF0.0
aF0.0
aF0.0
aF0.0
aF0.0
aF0.0
aF0.0
aF0.0
aF0.0
aF0.0
aF0.0
aF0.0
aF0.0
aF0.0
aF0.0
aF0.0
aF0.0
aF0.0
aF0.0
aF0.0
aF0.0
aF0.0
aF0.0
aF0.0
aF0.0
aF0.0
aF0.0
aF0.0
aF0.0
aF0.0
aF0.0
aF0.0
aF0.0
aF0.0
aF0.0
aF0.0
aF0.0
aF0.0
aF0.0
aF0.0
aF0.0
aF0.0
aF0.0
aF0.0
aF0.0
aF0.0
aF0.0
aF0.0
aF0.0
aF0.0
aF0.0
aF0.0
aF0.0
aF0.0
aF0.0
aF0.0
aF0.0
aF0.0
aF0.0
aF0.0
aF0.0
aF0.0
aF0.0
aF0.0
aF0.0
aF0.0
aF0.0
aF0.0
aF0.0
aF0.0
aF0.0
aF0.0
aF0.0
aF0.0
aF0.0
aF0.0
aF0.0
aF0.0
aF0.0
aF0.0
aF0.0
aF0.0
aF0.0
aF0.0
aF0.0
aF0.0
aF0.0
aF0.0
aF0.0
aF0.0
aF0.0
aF0.0
aF0.0
aF0.0
aF0.0
aF0.0
aF0.0
aF0.0
aF0.0
aF0.0
aF0.0
aF0.0
aF0.0
aF0.0
aF0.0
aF0.0
aF0.0
aF0.0
aF0.0
aF0.0
aF0.0
aF0.0
aF0.0
aF0.0
aF0.0
aF0.0
aF0.0
aF0.0
aF0.0
aF0.0
aF0.0
aF0.0
aF0.0
aF0.0
aF0.0
aF0.0
aF0.0
aF0.0
aF0.0
aF0.0
aF0.0
aF0.0
aF0.0
aF0.0
aF0.0
aF0.0
aF0.0
aF0.0
aF0.0
aF0.0
aF0.0
aF0.0
aF0.0
aF0.0
aF0.0
aF0.0
aF0.0
aF0.0
aF0.0
aF0.0
aF0.0
aF0.0
aF0.0
aF0.0
aF0.0
aF0.0
aF0.0
aF0.0
aF0.0
aF0.0
aF0.0
aF0.0
aF0.0
aF0.0
aF0.0
aF0.0
aF0.0
aF0.0
aF0.0
aF0.0
aF0.0
aF0.0
aF0.0
aF0.0
aF0.0
aF0.0
aF0.0
aF0.0
aF0.0
aF0.0
aF0.0
aF0.0
aF0.0
aF0.0
aF0.0
aF0.0
aF0.0
aF0.0
aF0.0
aF0.0
aF0.0
aF0.0
aF0.0
aF0.0
aF0.0
aF0.0
aF0.0
aF0.0
aF0.0
aF0.0
aF0.0
aF0.0
aF0.0
aF0.0
aF0.0
aF0.0
aF0.0
aF0.0
aF0.0
aF0.0
aF0.0
aF0.0
aF0.0
aF0.0
aF0.0
aF0.0
aF0.0
aF0.0
aF0.0
aF0.0
aF0.0
aF0.0
aF0.0
aF0.0
aF0.0
aF0.0
aF0.0
aF0.0
aF0.0
aF0.0
aF0.0
aF0.0
aF0.0
aF0.0
aF0.0
aF0.0
aF0.0
aF0.0
aF0.0
aF0.0
aF0.0
aF0.0
aF0.0
aF0.0
aF0.0
aF0.0
aF0.0
aF0.0
aF0.0
aF0.0
aF0.0
aF0.0
aF0.0
aF0.0
aF0.0
aF0.0
aF0.0
aF0.0
aF0.0
aF0.0
aF0.0
aF0.0
aF0.0
aF0.0
aF0.0
aF0.0
aF0.0
aF0.0
aF0.0
aF0.0
aF0.0
aF0.0
aF0.0
aF0.0
aF0.0
aF0.0
aF0.0
aF0.0
aF0.0
aF0.0
aF0.0
aF0.0
aF0.0
aF0.0
aF0.0
aF0.0
aF0.0
aF0.0
aF0.0
aF0.0
aF0.0
aF0.0
aF0.0
aF0.0
aF0.0
aF0.0
aF0.0
aF0.0
aF0.0
aF0.0
aF0.0
aF0.0
aF0.0
aF0.0
aF0.0
aF0.0
aF0.0
aF0.0
aF0.0
aF0.0
aF0.0
aF0.0
aF0.0
aF0.0
aF0.0
aF0.0
aF0.0
aF0.0
aF0.0
aF0.0
aF0.0
aF0.0
aF0.0
aF0.0
aF0.0
aF0.0
aF0.0
aF0.0
aF0.0
aF0.0
aF0.0
aF0.0
aF0.0
aF0.0
aF0.0
aF0.0
aF0.0
aF0.0
aF0.0
aF0.0
aF0.0
aF0.0
aF0.0
aF0.0
aF0.0
aF0.0
aF0.0
aF0.0
aF0.0
aF0.0
aF0.0
aF0.0
aF0.0
aF0.0
aF0.0
aF0.0
aF0.0
aF0.0
aF0.0
aF0.0
aF0.0
aF0.0
aF0.0
aF0.0
aF0.0
aF0.0
aF0.0
aF0.0
aF0.0
aF0.0
aF0.0
aF0.0
aF0.0
aF0.0
aF0.0
aF0.0
aF0.0
aF0.0
aF0.0
aF0.0
aF0.0
aF0.0
aF0.0
aF0.0
aF0.0
aF0.0
aF0.0
aF0.0
aF0.0
aF0.0
aF0.0
aF0.0
aF0.0
aF0.0
aF0.0
aF0.0
aF0.0
aF0.0
aF0.0
aF0.0
aF0.0
aF0.0
aF0.0
aF0.0
aF0.0
aF0.0
aF0.0
aF0.0
aF0.0
aF0.0
aF0.0
aF0.0
aF0.0
aF0.0
aF0.0
aF0.0
aF0.0
aF0.0
aF0.0
aF0.0
aF0.0
aF0.0
aF0.0
aF0.0
aF0.0
aF0.0
aF0.0
aF0.0
aF0.0
aF0.0
aF0.0
aF0.0
aF0.0
aF0.0
aF0.0
aF0.0
aF0.0
aF0.0
aF0.0
aF0.0
aF0.0
aF0.0
aF0.0
aF0.0
aF0.0
aF0.0
aF0.0
aF0.0
aF0.0
aF0.0
aF0.0
aF0.0
aF0.0
aF0.0
aF0.0
aF0.0
aF0.0
aF0.0
aF0.0
aF0.0
aF0.0
aF0.0
aF0.0
aF0.0
aF0.0
aF0.0
aF0.0
aF0.0
aF0.0
aF0.0
aF0.0
aF0.0
aF0.0
aF0.0
aF0.0
aF0.0
aF0.0
aF0.0
aF0.0
aF0.0
aF0.0
aF0.0
aF0.0
aF0.0
aF0.0
aF0.0
aF0.0
aF0.0
aF0.0
aF0.0
aF0.0
aF0.0
aF0.0
aF0.0
aF0.0
aF0.0
aF0.0
aF0.0
aF0.0
aF0.0
aF0.0
aF0.0
aF0.0
aF0.0
aF0.0
aF0.0
aF0.0
aF0.0
aF0.0
aF0.0
aF0.0
aF0.0
aF0.0
aF0.0
aF0.0
aF0.0
aF0.0
aF0.0
aF0.0
aF0.0
aF0.0
aF0.0
aF0.0
aF0.0
aF0.0
aF0.0
aF0.0
aF0.0
aF0.0
aF0.0
aF0.0
aF0.0
aF0.0
aF0.0
aF0.0
aF0.0
aF0.0
aF0.0
aF0.0
aF0.0
aF0.0
aF0.0
aF0.0
aF0.0
aF0.0
aF0.0
aF0.0
aF0.0
aF0.0
aF0.0
aF0.0
aF0.0
aF0.0
aF0.0
aF0.0
aF0.0
aF0.0
aF0.0
aF0.0
aF0.0
aF0.0
aF0.0
aF0.0
aF0.0
aF0.0
aF0.0
aF0.0
aF0.0
aF0.0
aF0.0
aF0.0
aF0.0
aF0.0
aF0.0
aF0.0
aF0.0
aF0.0
aF0.0
aF0.0
aF0.0
aF0.0
aF0.0
aF0.0
aF0.0
aF0.0
aF0.0
aF0.0
aF0.0
aF0.0
aF0.0
aF0.0
aF0.0
aF0.0
aF0.0
aF0.0
aF0.0
aF0.0
aF0.0
aF0.0
aF0.0
aF0.0
aF0.0
aF0.0
aF0.0
aF0.0
aF0.0
aF0.0
aF0.0
aF0.0
aF0.0
aF0.0
aF0.0
aF0.0
aF0.0
aF0.0
aF0.0
aF0.0
aF0.0
aF0.0
aF0.0
aF0.0
aF0.0
aF0.0
aF0.0
aF0.0
aF0.0
aF0.0
aF0.0
aF0.0
aF0.0
aF0.0
aF0.0
aF0.0
aF0.0
aF0.0
aF0.0
aF0.0
aF0.0
aF0.0
aF0.0
aF0.0
aF0.0
aF0.0
aF0.0
aF0.0
aF0.0
aF0.0
aF0.0
aF0.0
aF0.0
aF0.0
aF0.0
aF0.0
aF0.0
aF0.0
aF0.0
aF0.0
aF0.0
aF0.0
aF0.0
aF0.0
aF0.0
aF0.0
aF0.0
aF0.0
aF0.0
aF0.0
aF0.0
aF0.0
aF0.0
aF0.0
aF0.0
aF0.0
aF0.0
aF0.0
aF0.0
aF0.0
aF0.0
aF0.0
aF0.0
aF0.0
aF0.0
aF0.0
aF0.0
aF0.0
aF0.0
aF0.0
aF0.0
aF0.0
aF0.0
aF0.0
aF0.0
aF0.0
aF0.0
aF0.0
aF0.0
aF0.0
aF0.0
aF0.0
aF0.0
aF0.0
aF0.0
aF0.0
aF0.0
aF0.0
aF0.0
aF0.0
aF0.0
aF0.0
aF0.0
aF0.0
aF0.0
aF0.0
aF0.0
aF0.0
aF0.0
aF0.0
aF0.0
aF0.0
aF0.0
aF0.0
aF0.0
aF0.0
aF0.0
aF0.0
aF0.0
aF0.0
aF0.0
aF0.0
aF0.0
aF0.0
aF0.0
aF0.0
aF0.0
aF0.0
aF0.0
aF0.0
aF0.0
aF0.0
aF0.0
aF0.0
aF0.0
aF0.0
aF0.0
aF0.0
aF0.0
aF0.0
aF0.0
aF0.0
aF0.0
aF0.0
aF0.0
aF0.0
aF0.0
aF0.0
aF0.0
aF0.0
aF0.0
aF0.0
aF0.0
aF0.0
aF0.0
aF0.0
aF0.0
aF0.0
aF0.0
aF0.0
aF0.0
aF0.0
aF0.0
aF0.0
aF0.0
aF0.0
aF0.0
aF0.0
aF0.0
aF0.0
aF0.0
aF0.0
aF0.0
aF0.0
aF0.0
aF0.0
aF0.0
aF0.0
aF0.0
aF0.0
aF0.0
aF0.0
aF0.0
aF0.0
aF0.0
aF0.0
aF0.0
aF0.0
aF0.0
aF0.0
aF0.0
aF0.0
aF0.0
aF0.0
aF0.0
aF0.0
aF0.0
aF0.0
aF0.0
aF0.0
aF0.0
aF0.0
aF0.0
aF0.0
aF0.0
aF0.0
aF0.0
aF0.0
aF0.0
aF0.0
aF0.0
aF0.0
aF0.0
aF0.0
aF0.0
aF0.0
aF0.0
aF0.0
aF0.0
aF0.0
aF0.0
aF0.0
aF0.0
aF0.0
aF0.0
aF0.0
aF0.0
aF0.0
aF0.0
aF0.0
aF0.0
aF0.0
aF0.0
aF0.0
aF0.0
aF0.0
aF0.0
aF0.0
aF0.0
aF0.0
aF0.0
aF0.0
aF0.0
aF0.0
aF0.0
aF0.0
aF0.0
aF0.0
aF0.0
aF0.0
aF0.0
aF0.0
aF0.0
aF0.0
aF0.0
aF0.0
aF0.0
aF0.0
aF0.0
aF0.0
aF0.0
aF0.0
aF0.0
aF0.0
aF0.0
aF0.0
aF0.0
aF0.0
aF0.0
aF0.0
aF0.0
aF0.0
aF0.0
aF0.0
aF0.0
aF0.0
aF0.0
aF0.0
aF0.0
aF0.0
aF0.0
aF0.0
aF0.0
aF0.0
aF0.0
aF0.0
aF0.0
aF0.0
aF0.0
aF0.0
aF0.0
aF0.0
aF0.0
aF0.0
aF0.0
aF0.0
aF0.0
aF0.0
aF0.0
aF0.0
aF0.0
aF0.0
aF0.0
aF0.0
aF0.0
aF0.0
aF0.0
aF0.0
aF0.0
aF0.0
aF0.0
aF0.0
aF0.0
aF0.0
aF0.0
aF0.0
aF0.0
aF0.0
aF0.0
aF0.0
aF0.0
aF0.0
aF0.0
aF0.0
aF0.0
aF0.0
aF0.0
aF0.0
aF0.0
aF0.0
aF0.0
aF0.0
aF0.0
aF0.0
aF0.0
aF0.0
aF0.0
aF0.0
aF0.0
aF0.0
aF0.0
aF0.0
aF0.0
aF0.0
aF0.0
aF0.0
aF0.0
aF0.0
aF0.0
aF0.0
aF0.0
aF0.0
aF0.0
aF0.0
aF0.0
aF0.0
aF0.0
aF0.0
aF0.0
aF0.0
aF0.0
aF0.0
aF0.0
aF0.0
aF0.0
aF0.0
aF0.0
aF0.0
aF0.0
aF0.0
aF0.0
aF0.0
aF0.0
aF0.0
aF0.0
aF0.0
aF0.0
aF0.0
aF0.0
aF0.0
aF0.0
aF0.0
aF0.0
aF0.0
aF0.0
aF0.0
aF0.0
aF0.0
aF0.0
aF0.0
aF0.0
aF0.0
aF0.0
aF0.0
aF0.0
aF0.0
aF0.0
aF0.0
aF0.0
aF0.0
aF0.0
aF0.0
aF0.0
aF0.0
aF0.0
aF0.0
aF0.0
aF0.0
aF0.0
aF0.0
aF0.0
aF0.0
aF0.0
aF0.0
aF0.0
aF0.0
aF0.0
aF0.0
aF0.0
aF0.0
aF0.0
aF0.0
aF0.0
aF0.0
aF0.0
aF0.0
aF0.0
aF0.0
aF0.0
aF0.0
aF0.0
aF0.0
aF0.0
aF0.0
aF0.0
aF0.0
aF0.0
aF0.0
aF0.0
aF0.0
aF0.0
aF0.0
aF0.0
aF0.0
aF0.0
aF0.0
aF0.0
aF0.0
aF0.0
aF0.0
aF0.0
aF0.0
aF0.0
aF0.0
aF0.0
aF0.0
aF0.0
aF0.0
aF0.0
aF0.0
aF0.0
aF0.0
aF0.0
aF0.0
aF0.0
aF0.0
aF0.0
aF0.0
aF0.0
aF0.0
aF0.0
aF0.0
aF0.0
aF0.0
aF0.0
aF0.0
aF0.0
aF0.0
aF0.0
aF0.0
aF0.0
aF0.0
aF0.0
aF0.0
aF0.0
aF0.0
aF0.0
aF0.0
aF0.0
aF0.0
aF0.0
aF0.0
aF0.0
aF0.0
aF0.0
aF0.0
aF0.0
aF0.0
aF0.0
aF0.0
aF0.0
aF0.0
aF0.0
aF0.0
aF0.0
aF0.0
aF0.0
aF0.0
aF0.0
aF0.0
aF0.0
aF0.0
aF0.0
aF0.0
aF0.0
aF0.0
aF0.0
aF0.0
aF0.0
aF0.0
aF0.0
aF0.0
aF0.0
aF0.0
aF0.0
aF0.0
aF0.0
aF0.0
aF0.0
aF0.0
aF0.0
aF0.0
aF0.0
aF0.0
aF0.0
aF0.0
aF0.0
aF0.0
aF0.0
aF0.0
aF0.0
aF0.0
aF0.0
aF0.0
aF0.0
aF0.0
aF0.0
aF0.0
aF0.0
aF0.0
aF0.0
aF0.0
aF0.0
aF0.0
aF0.0
aF0.0
aF0.0
aF0.0
aF0.0
aF0.0
aF0.0
aF0.0
aF0.0
aF0.0
aF0.0
aF0.0
aF0.0
aF0.0
aF0.0
aF0.0
aF0.0
aF0.0
aF0.0
aF0.0
aF0.0
aF0.0
aF0.0
aF0.0
aF0.0
aF0.0
aF0.0
aF0.0
aF0.0
aF0.0
aF0.0
aF0.0
aF0.0
aF0.0
aF0.0
aF0.0
aF0.0
aF0.0
aF0.0
aF0.0
aF0.0
aF0.0
aF0.0
aF0.0
aF0.0
aF0.0
aF0.0
aF0.0
aF0.0
aF-0.02357560316982326
aF0.0004868991261759903
aF0.0
aF-0.003007514189039341
aF0.0
aF0.0
aF0.0
aF0.0
aF0.0
aF0.0
aF-0.0003864146135809504
aF0.0
aF0.0
aF0.0
aF0.0
aF0.0
aF0.0
aF0.0
aF0.0
aF0.0
aF0.0
aF0.0
aF0.0
aF0.0
aF0.0
aF0.0
aF0.0
aF0.0
aF0.0
aF0.0
aF0.0
aF0.0
aF0.0
aF0.0
aF0.0
aF0.0
aF0.0
aF0.0
aF0.0
aF0.0
aF0.0
aF0.0
aF0.0
aF0.0
aF0.0
aF0.0
aF0.0
aF0.0
aF0.0
aF0.0
aF0.0
aF0.0
aF0.0
aF0.0
aF0.0
aF0.0
aF0.0
aF0.0
aF0.0
aF0.0
aF0.0
aF0.0
aF0.0
aF0.0
aF0.0
aF0.0
aF0.0
aF0.0
aF0.0
aF0.0
aF0.0
aF0.0
aF0.0
aF0.0
aF0.0
aF-5.4038599833064695e-05
aF0.0
aF0.0
aF0.0
aF0.0
aF5.236e-05
aF0.0
aF0.0
aF0.0
aF0.0
aF0.0
aF0.0
aF0.0
aF0.0
aF0.0
aF0.0
aF0.0
aF0.0
aF0.0
aF0.0
aF0.0
aF0.0
aF0.0
aF0.0
aF0.0
aF0.0
aF0.0
aF0.0
aF0.0
aF0.0
aF0.0
aF0.0
aF0.0
aF0.0
aF0.0
aF0.0
aF0.0
aF0.0
aF0.0
aF0.0
aF0.0
aF0.0
aF0.0
aF0.0
aF0.0
aF0.0
aF0.0
aF0.0
aF0.0
aF0.0
aF0.0
aF0.0
aF0.0
aF0.0
aF0.0
aF0.0
aF0.0
aF0.0
aF0.0
aF0.0
aF0.0
aF0.0
aF0.0
aF0.0
aF0.0
aF0.0
aF0.0
aF0.0
aF0.0
aF0.0
aF0.0
aF0.0
aF0.0
aF0.0
aF0.0
aF0.0
aF0.0
aF0.0
aF0.0
aF0.0
aF0.0
aF0.0
aF0.0
aF0.0
aF0.0
aF0.0
aF0.0
aF0.0
aF0.0
aF0.0
aF0.0
aF0.0
aF0.0
aF0.0
aF0.0
aF0.0
aF0.0
aF0.0
aF0.0
aF0.001
aF0.0
aF0.0
aF0.0
aF-2.3089999999999997e-05
aF0.0
aF0.0
aF0.0
aF0.0
aF0.0
aF0.0
aF0.0
aF0.0
aF0.0
aF0.0
aF0.0
aF0.0
aF0.0
aF0.0
aF0.0
aF0.0
aF0.0
aF0.0
aF0.0
aF0.0
aF0.0
aF0.0
aF0.0
aF0.0
aF0.0
aF0.0
aF0.0
aF0.0
aF0.0
aF0.0
aF0.0
aF0.0
aF0.0
aF0.0
aF0.0
aF0.0
aF0.0
aF0.0
aF0.0
aF0.0
aF0.0
aF0.0
aF0.0
aF0.0
aF0.0
aF0.0
aF0.0
aF0.0
aF0.0
aF0.0
aF0.0
aF0.0
aF0.0
aF0.0
aF0.00015152
aF0.0
aF0.0
aF0.0
aF0.0
aF0.0
aF0.0
aF0.0
aF0.0
aF0.0
aF0.0
aF0.0
aF0.0
aF0.0
aF0.0
aF0.0
aF0.0
aF0.0
aF0.0
aF0.0
aF0.0
aF0.0
aF0.0
aF0.0
aF0.0
aF0.0
aF0.0
aF0.0
aF0.0
aF0.0
aF0.0
aF0.0
aF0.0
aF0.0
aF0.0
aF0.0
aF0.0
aF0.0
aF0.0
aF0.0
aF0.0
aF0.0
aF0.0
aF0.0
aF0.0
aF0.0
aF0.0
aF0.0
aF0.0
aF0.0
aF0.0
aF0.0
aF0.0
aF0.0
aF0.0
aF0.0
aF0.0
aF0.0
aF0.0
aF0.0
aF0.0
aF0.0
aF0.0
aF0.0
aF0.0
aF0.0
aF0.0
aF0.0
aF0.0
aF0.0
aF0.0
aF0.0
aF0.0
aF0.0
aF0.0
aF0.0
aF0.0
aF0.0
aF0.0
aF0.0
aF0.0
aF0.0
aF0.0
aF0.0
aF0.0
aF0.0
aF0.0
aF0.0
aF0.0
aF0.0
aF0.0
aF0.0
aF0.0
aF0.0
aF0.0
aF0.0
aF0.0
aF0.0
aF0.0
aF0.0
aF0.0
aF0.0
aF0.0
aF0.0
aF0.0
aF0.0
aF0.0
aF0.0
aF0.0
aF0.0
aF0.0
aF0.0
aF0.0
aF0.0
aF0.0
aF0.0
aF0.0
aF0.0
aF0.0
aF0.0
aF0.0
aF0.0
aF0.0
asb.