(ilrsgd
LogisticRegressionSGD
p0
(dp1
S'mu'
p2
F0.01
sS'eta'
p3
F0.06
sS'weight'
p4
(lp5
F-0.027661246917733938
aF-0.029209155350265796
aF0.0
aF0.0
aF0.0
aF-0.1107999822042944
aF0.003228036850993661
aF-0.20084732314948703
aF-0.02929751296012968
aF0.0
aF-0.027977721783765657
aF-0.058414607137966784
aF0.0
aF-0.05801678260840296
aF0.03205128763218707
aF0.0
aF-0.03006228090111071
aF-0.02966797979275472
aF-0.013921542066755398
aF0.0
aF-0.027771208947989474
aF0.0
aF0.0
aF-0.02988743774382246
aF-0.10386074572379976
aF-0.029452353036106313
aF0.0005059282121063456
aF-0.057868016397175794
aF-0.025004117557821604
aF-0.07625480045468885
aF0.09805180953519485
aF-0.014751432391865627
aF-0.029746682888796998
aF-0.12589186778294031
aF-0.05491100993459691
aF-0.055791089677692085
aF-0.02052028525861595
aF0.0
aF0.016114978220560926
aF-0.023653361066215746
aF-0.026022469380974456
aF-0.023897773633415532
aF-0.029080902434463884
aF-0.0004181633682664651
aF0.0
aF-0.027517862923101842
aF-0.029535618317499134
aF-0.030106967953207355
aF-0.028652444867862337
aF0.03205590113117575
aF0.030028225662495807
aF-0.029719003617488898
aF-0.0758406043308223
aF-0.10671617192046522
aF-0.04489323389975555
aF-0.02985854687409512
aF-0.04154549414646658
aF-0.08645199919414512
aF0.0
aF0.06353810511411011
aF-0.006564381562583281
aF-0.0583629553540133
aF-0.06571871103291953
aF-0.047491516248642084
aF0.0
aF-0.027844318933039368
aF0.0
aF0.0
aF0.03413631456707737
aF0.03016140897552013
aF-0.05901412947753101
aF0.0
aF0.0
aF-0.013647121601071725
aF0.03181630171357997
aF0.0
aF0.031941712853179996
aF-0.029948932996247426
aF0.0
aF0.030190191147630257
aF0.0
aF0.0
aF-0.014945699013789365
aF0.0
aF0.0
aF-0.02589356377076688
aF-0.02618373803835951
aF-0.02869718092257829
aF0.0
aF-0.02989795103969544
aF-0.03168871699758853
aF-0.029220548712906295
aF0.0
aF-0.10579841798435557
aF-0.11423190351424825
aF-0.029999553549813252
aF-2.3745132522554058e-05
aF-0.029295486846981668
aF0.0005327446033060422
aF-0.00046511593905923174
aF-0.05835520953304506
aF0.0
aF-0.10487656032950575
aF0.0
aF-0.027968466673576425
aF0.0
aF-0.02120858827821281
aF0.0
aF-0.1275720766601815
aF-0.02983430685910528
aF-0.02967428494162735
aF-0.029450293678770924
aF-0.058142339655289886
aF-0.08172179188580164
aF0.03104884029627017
aF-0.027776746160964618
aF-0.09581553984762933
aF-0.028897743587100243
aF-0.028335097824921295
aF-0.08360606620341623
aF-0.08331846661173892
aF-0.0437406942463284
aF-0.06270861279454226
aF0.0
aF-0.027224495152139597
aF0.0
aF0.034630964937032944
aF-0.028639287338143356
aF0.0
aF0.0
aF0.030189151511902743
aF0.0
aF-0.10308299871330731
aF0.0
aF0.0
aF-0.08748820426561746
aF-0.029932289568776912
aF0.0
aF-0.020323384200197782
aF-0.05288741431772252
aF-0.2906423160849543
aF-0.0537868190166556
aF-0.11653775449557993
aF0.0
aF0.0
aF-0.13632913703242772
aF-0.05894975573695699
aF-0.20980526559580426
aF0.0
aF0.03027746396696102
aF-0.05795306301326025
aF-0.02887909265254153
aF0.0
aF0.0
aF-0.12438853952006415
aF0.0
aF-0.029591229004982983
aF0.0
aF-0.029829676756937866
aF0.03007488438913742
aF0.003123345964250776
aF-0.02903524813608231
aF-0.1484611665345197
aF0.030768827118892637
aF-0.029974027666194322
aF-0.19461593853672468
aF0.0
aF-0.02990930156683597
aF0.0
aF-0.1027765314295262
aF0.0
aF0.0
aF-0.058739520224201036
aF-0.02852122215081174
aF-0.02964778481477714
aF-0.057568714480216124
aF0.0
aF-0.19941226365854223
aF-0.10340613382420073
aF0.0
aF0.0009911943475649741
aF-0.05843419808710967
aF0.0
aF-0.013554683525750275
aF-0.010983127098963463
aF-0.11060855931753487
aF-0.028919568626111888
aF0.0
aF-0.04679352418465006
aF-0.026922843873051217
aF-0.02854658989879199
aF-0.2265260824039217
aF-0.029999519876406037
aF-0.1003531793088895
aF0.0
aF-0.057193104523213065
aF0.0
aF0.0
aF-0.06760137104670771
aF-0.028331405897908443
aF-0.05759647652367651
aF0.0
aF-0.021171085666138175
aF0.0
aF-0.029221210276479552
aF-0.0299682052812853
aF-0.02890225896862652
aF-0.029982292714099867
aF0.0
aF-0.0258206346256402
aF-0.018729805913993664
aF0.0
aF0.0
aF-0.05812749567196713
aF0.002657021782088105
aF0.0
aF0.0
aF-0.02894368958482703
aF-0.0847307931387958
aF-0.12462511813266798
aF-0.13666885290980169
aF-0.03878786568898474
aF-0.02921911987738733
aF-0.01653350894840284
aF-0.02982608567376728
aF0.0
aF-0.04121247686198681
aF-0.08366094570168789
aF-0.029605481522459506
aF-0.029901188757753338
aF-0.029387030603072115
aF0.0
aF0.0
aF-0.01499547020770929
aF0.0
aF0.0
aF-0.028954434223812938
aF-0.029109820452240424
aF-0.03
aF-0.0794221936177356
aF0.0
aF0.0
aF-0.038253270682864056
aF0.0002511184014028084
aF-0.05874036987795013
aF0.0
aF0.07318915731342336
aF0.0
aF-0.022067523907293805
aF0.0
aF-0.058210895821542555
aF0.0
aF-0.01975074498402834
aF0.0
aF0.0
aF0.0
aF-0.08283594618399984
aF-0.017424211400164914
aF0.0
aF-0.029833226521614707
aF0.0
aF0.0
aF0.0
aF0.030087336743245582
aF0.00437544541694327
aF-0.02560113715208336
aF-0.027235316585000807
aF0.0
aF-0.02966449795158545
aF-0.029437366681880878
aF-0.023221079852138185
aF-0.029116005476894316
aF0.0
aF0.0
aF0.030159711295807315
aF-0.05252716488642374
aF0.0
aF0.0
aF-0.028382604355695455
aF-0.030449912219893165
aF0.0
aF-0.019481363060675237
aF-0.08330533891684666
aF0.0
aF-0.11184092474101542
aF-0.029998889809661998
aF-0.017695539323372925
aF0.0
aF0.0
aF-0.02941594706157523
aF-0.029865615535233588
aF0.030726635064971423
aF0.0
aF-0.05822294095853928
aF0.0
aF0.0029023146540475657
aF0.0
aF-0.029139693521842064
aF-0.01655503227653743
aF-0.05709990633603254
aF0.0
aF0.0
aF-0.028562365055546796
aF0.030016115691319442
aF0.0
aF0.0
aF-0.028637477985689046
aF0.0
aF0.0
aF0.0
aF0.0
aF-0.04361396297619094
aF0.0
aF-0.02994819547344727
aF-0.05339670600187335
aF0.002414348610069036
aF0.029977182216815085
aF-0.009817305973938496
aF-0.05763698195671195
aF0.0
aF0.0
aF0.0
aF-0.0291013214605587
aF0.0
aF-0.1116005335393013
aF0.0
aF-0.029988843176339753
aF0.0
aF0.0
aF-0.05853537293500177
aF0.0
aF0.0
aF-0.029888392144691807
aF0.0
aF-0.01702825430909769
aF-0.05597380774676124
aF-0.0299998582646117
aF0.0
aF0.0
aF0.0
aF-0.0147102415268546
aF0.0
aF-0.02989101412334171
aF0.030019957773388683
aF-0.028437561645931527
aF0.0
aF-0.025966900457222816
aF0.0
aF0.0
aF0.0
aF-0.1612400125210256
aF-0.053480052104020806
aF0.0
aF0.0
aF-0.022060797615818223
aF-0.029539948632584596
aF-0.07992593418952246
aF-0.070636648190425
aF-0.03
aF0.0
aF-0.056835694236970824
aF0.0315611732483732
aF0.0019085581631837975
aF0.0
aF0.0
aF-0.029999663663056005
aF0.0
aF-0.043351264828212624
aF0.0
aF0.0
aF-0.0713411217466662
aF-0.025289211975856464
aF0.0
aF-0.023146094353816732
aF0.0
aF0.0
aF0.0
aF0.0
aF0.0
aF-0.017482915590903307
aF-0.034694905410049076
aF0.0
aF0.0
aF-0.05696645582404013
aF-0.029999832261189418
aF0.0
aF-0.05398343404261841
aF0.0
aF0.0
aF-0.029933725088026674
aF0.0
aF0.0
aF0.0
aF-0.029638844388102548
aF-0.13397812269402382
aF-0.006571370949668774
aF-0.02972679750272593
aF-0.05786367823714223
aF0.0
aF-0.02944725580099297
aF0.0
aF0.0
aF0.0
aF0.0
aF0.0021585908360534645
aF0.0
aF-0.02977764061162734
aF0.0
aF0.0
aF0.0
aF0.0
aF-0.029058149208714617
aF0.0
aF-0.02877440202892206
aF0.0
aF0.0
aF0.0
aF-0.029999748577675317
aF0.03193571747104019
aF-0.038344223426428854
aF0.0
aF0.0
aF0.0
aF0.0
aF0.03205119590017869
aF0.0
aF0.0
aF-0.13399030553602898
aF-0.017811032579586793
aF-0.008738844538884105
aF0.0
aF0.0
aF0.0
aF0.0
aF0.0
aF0.0
aF0.0
aF0.0
aF0.0
aF-0.054689645173018504
aF-0.05692865208917102
aF0.0
aF0.0
aF-0.011910736239228977
aF-0.1274473161829211
aF-0.02999970033147611
aF0.0
aF0.0
aF0.0
aF-0.014586164569988264
aF-0.05839180368050539
aF0.0
aF-0.0475269637999224
aF-0.028726876128139765
aF0.0
aF0.0
aF0.0
aF-0.055986682495342076
aF0.0
aF0.00035638035144491993
aF0.0
aF0.0
aF0.0
aF0.0
aF0.0
aF0.0
aF0.0
aF-0.014563456996532392
aF0.0
aF0.0
aF-0.028391882671840837
aF0.0
aF0.0
aF0.0
aF-0.029880670491864044
aF-0.014942969913818738
aF0.0
aF0.0
aF0.0
aF0.0
aF0.0
aF0.0
aF0.030726213755209224
aF-0.08365587719952995
aF-0.005974133579054213
aF0.0
aF-0.02968652638884049
aF0.0
aF-0.07309000182086069
aF-0.01777386849175731
aF0.0
aF0.0
aF0.0
aF-0.029885989138956764
aF0.0
aF-0.029423440137621677
aF-0.00898763780862493
aF0.0
aF0.0
aF-0.029886180621246608
aF0.0
aF-0.018314003467196333
aF-0.03844187086875468
aF0.0
aF0.030000529468120478
aF0.0
aF-0.029918278402117613
aF-0.0018374134900737424
aF0.0
aF0.0
aF0.0312427281498109
aF0.0
aF0.0
aF0.0
aF-0.01642909190432543
aF0.0
aF0.0
aF0.0
aF0.0
aF0.0
aF-0.07017425971941317
aF-0.07011564657901595
aF-0.0149397985119329
aF-0.014985970997580735
aF-0.0808121613053736
aF-0.029669633482057242
aF0.0
aF0.0
aF-0.03086936914024102
aF0.0
aF0.0
aF-0.029999718993531453
aF0.0
aF0.0
aF0.00013682434180390486
aF0.0
aF-0.015139497355954958
aF0.0
aF0.0
aF0.015018728817820985
aF0.0
aF-0.058853123477718594
aF0.0
aF0.0
aF-0.020960009225480403
aF0.0
aF0.0005699363514174473
aF0.0
aF0.0
aF0.0
aF0.0
aF0.0
aF0.0
aF0.0
aF0.0
aF-0.07052060915850578
aF0.0
aF0.0
aF0.0
aF0.0
aF0.0
aF0.0
aF-0.02601129970326288
aF-0.13729253492806318
aF0.0
aF0.0
aF0.0
aF0.0
aF-0.029995839788320617
aF-0.02875224398602263
aF0.0
aF-0.020612370417405903
aF-0.08057654435678877
aF0.0
aF0.0
aF0.0
aF0.0
aF-0.01769569616331312
aF0.0
aF-0.2541828769553561
aF0.0
aF0.0
aF-0.05884874767581821
aF0.0
aF0.0
aF0.0
aF-0.028821370963037458
aF-0.030002420527705995
aF0.0
aF-0.014950627180127133
aF-0.025263914172125333
aF0.0
aF-0.029886313988907055
aF0.0
aF0.004784826787448911
aF0.0
aF-0.07389935451321761
aF-0.030654605745782184
aF0.0
aF-0.029878157059807616
aF0.0
aF0.0
aF0.0
aF0.0
aF-0.02933857049211867
aF-0.04375403899505799
aF-0.11139486315042679
aF-0.01853072747402594
aF0.0
aF0.0009672051647088564
aF0.0
aF0.0
aF-0.13871665229152302
aF-0.04763248640366938
aF-0.11004877566809154
aF0.0
aF0.0
aF-0.02979134964440587
aF-0.07389810671719407
aF0.0
aF0.0
aF0.0
aF0.0
aF0.03144324217198519
aF0.0
aF0.0
aF-0.09656988713507926
aF0.0
aF0.0
aF-0.10278391729475397
aF-0.02473598955949855
aF-0.04174970441952149
aF0.0
aF0.0
aF-0.03
aF0.0
aF0.0
aF0.0
aF0.0
aF0.0
aF-0.014998700680236428
aF0.0
aF0.0
aF0.0
aF0.0
aF0.0005746731545856389
aF0.0
aF-0.05773184431897665
aF0.030000194377933203
aF-0.012988074341357384
aF0.0
aF-0.018395563145369574
aF0.0
aF0.0
aF0.0
aF-0.029336346469826698
aF0.0
aF0.0
aF0.0
aF0.031507548721416166
aF0.002493271264349367
aF-0.02949077349107359
aF0.0
aF0.0
aF-0.029854260445284612
aF-0.013028147150897843
aF-0.07319876813450919
aF0.0
aF0.0
aF-0.5516325074145346
aF0.0
aF0.0
aF0.0
aF0.010760104600817796
aF0.0
aF0.0
aF0.0
aF-0.014329799538885614
aF0.0
aF0.06326614919626339
aF0.0
aF0.0
aF0.0
aF0.0
aF0.0
aF0.0
aF-0.05858193893870814
aF0.0
aF-0.1098230756056859
aF0.0
aF-0.018585362375264612
aF0.0
aF0.0
aF-0.012687888474145682
aF0.0005843706141597967
aF-0.04123902392255527
aF-0.11304546682958062
aF0.0
aF0.0
aF0.0
aF0.0
aF0.0
aF0.0
aF0.0
aF0.0
aF0.0
aF0.0
aF-0.02994998984826861
aF0.029999990722479414
aF0.0
aF0.0
aF0.0
aF0.0
aF0.0
aF0.0
aF0.0
aF0.0
aF0.0
aF0.0
aF0.0
aF0.0
aF-0.019655978801785386
aF0.0
aF-0.024286369362397663
aF-0.06444229187618211
aF0.0
aF0.0
aF-0.014874307913893534
aF0.0
aF0.030105012346926422
aF0.0
aF-0.00678965900358711
aF-0.029836133174768104
aF-0.0441217941181756
aF0.0
aF-0.0565994409024376
aF0.0
aF0.0
aF0.0
aF-0.029312079030856406
aF0.0
aF0.0
aF0.0
aF0.0
aF0.0
aF0.001226974809477293
aF-0.06110641578219363
aF0.0
aF0.0
aF0.0
aF0.0
aF0.0
aF-0.00990328411774989
aF-0.34822695676938387
aF0.0
aF0.0
aF0.0
aF0.0
aF-0.029870192573713927
aF-0.029635461230054082
aF-0.037964420535999556
aF0.0
aF0.0
aF-0.029999470531879523
aF-0.029999834269195797
aF-0.029948872746155413
aF0.0
aF0.0
aF0.0
aF0.0
aF0.0
aF-0.04806432557108329
aF-0.3757430079349799
aF0.0
aF0.0
aF0.0
aF-0.02714020199649004
aF-0.08572058821109031
aF0.0
aF0.0
aF0.0
aF0.0
aF0.0
aF0.0
aF-0.029497017556379734
aF0.0
aF-0.014210349276371685
aF0.0
aF0.0
aF0.0
aF-0.19016300969653172
aF0.0
aF0.0
aF-0.058056867225626224
aF0.0
aF-0.028933854389087924
aF-0.07474145301598258
aF0.0
aF0.0
aF0.0
aF0.0
aF0.0
aF0.0
aF-0.020624249605487636
aF0.0
aF-0.015
aF-0.028919576266773737
aF-0.030000002319652663
aF0.0
aF0.0
aF-0.01988912358666366
aF-0.058636223599636966
aF0.0
aF-0.1400922032007571
aF0.0
aF0.014745725437669896
aF-0.014394306525124346
aF-0.11727261004206693
aF-0.02811880203540293
aF-0.029560410163695313
aF-0.026628895025332912
aF0.0
aF0.0
aF0.0
aF0.0
aF0.0
aF0.0
aF0.0
aF-0.02575102902550325
aF-0.20599113487972504
aF0.0
aF0.0
aF0.0
aF0.0
aF0.0
aF0.0
aF-0.02954643380509376
aF0.0
aF0.0
aF0.0
aF0.0
aF0.0
aF-0.045451300877044076
aF0.0
aF0.0
aF0.0
aF0.0
aF0.0
aF0.0
aF0.0
aF0.0
aF-0.021481044836551985
aF-0.05894665410221645
aF0.0
aF0.0
aF0.0
aF-0.021732229005908862
aF0.0
aF0.0
aF-0.014971925550444791
aF-0.03923054739578276
aF0.0
aF-0.15284952463383428
aF0.0
aF0.0
aF-0.014290670319551897
aF-0.05665855193361178
aF0.0
aF0.0
aF0.0
aF0.0
aF0.0
aF0.0
aF-0.10088422434777385
aF-0.02999778728132546
aF0.0
aF0.0
aF0.0
aF0.0
aF0.0
aF-0.029999812579934726
aF0.0
aF0.0
aF-0.035138249794784
aF0.0
aF0.0
aF0.0
aF0.0
aF0.0
aF0.0
aF0.0
aF0.0
aF0.0
aF0.0
aF0.0
aF0.0
aF0.0
aF0.0
aF0.0
aF0.0
aF-0.41839659008389324
aF0.0
aF0.0
aF0.0
aF0.0
aF-0.029998758221309273
aF0.0
aF0.0
aF0.0
aF0.0
aF0.0
aF0.0
aF-0.01883974749063404
aF0.0
aF0.0
aF0.0
aF0.0
aF0.0
aF0.0
aF0.0
aF-0.029988617501782475
aF-0.014834226381818348
aF0.0
aF0.0
aF0.0
aF0.0
aF-0.029436280149576225
aF-0.029999820237912814
aF0.0
aF0.0
aF0.0
aF0.0
aF0.0
aF0.0
aF0.0
aF0.0
aF0.030001144613296376
aF0.0
aF0.0
aF0.0
aF0.0
aF0.0
aF0.0
aF0.0
aF0.03
aF0.0
aF0.0
aF-0.017676814424544333
aF-0.019996897548857435
aF-0.002499874050345577
aF0.0
aF0.0
aF0.0
aF0.0
aF0.0
aF0.0
aF0.0
aF0.0
aF0.0
aF0.0
aF0.0
aF0.0
aF0.0
aF0.0
aF0.0
aF0.0
aF0.0
aF0.0
aF0.0
aF0.0
aF0.0
aF0.0
aF0.0
aF0.0
aF0.0
aF0.0
aF0.0
aF0.0
aF0.0
aF0.0
aF-0.029994782464375265
aF-0.029886628938222325
aF0.0
aF-0.05878400920315785
aF0.0
aF0.0
aF0.0
aF0.0
aF0.0
aF0.0
aF0.0
aF0.0
aF0.0
aF0.0
aF0.0
aF0.0
aF0.0
aF0.0
aF0.0
aF0.0
aF0.0
aF0.0
aF0.0
aF0.0
aF0.0
aF0.0
aF0.0
aF0.0
aF0.0
aF0.0
aF0.0
aF-0.029998656369118176
aF0.0
aF0.0
aF0.0
aF-0.02996529056028841
aF0.0
aF-0.02935422130826032
aF-0.0457467036499607
aF-0.024806265303466593
aF0.0
aF0.0
aF0.0
aF0.0
aF0.0
aF0.0
aF0.0
aF0.0
aF0.0
aF-0.017707426624333545
aF0.0
aF0.0
aF0.0
aF0.0
aF0.0
aF0.0
aF0.0
aF0.0
aF-0.014995526471017472
aF0.0
aF0.0
aF0.0
aF-0.029998631854503365
aF0.0
aF0.0
aF0.0
aF0.0
aF0.0
aF0.0
aF0.0
aF0.0
aF0.0
aF0.0
aF0.0
aF0.0
aF0.0
aF0.0
aF0.0
aF0.0
aF-0.03000045697844477
aF0.0
aF0.0
aF0.0
aF0.0
aF0.0
aF0.0
aF0.0
aF0.0
aF0.0
aF-0.02428626922121361
aF0.0
aF0.0
aF0.0
aF0.0
aF0.0
aF0.0
aF0.0
aF-0.02999988601635306
aF-0.009999906192642245
aF0.0
aF0.0
aF0.0
aF0.0
aF0.0
aF0.0
aF0.0
aF0.0
aF0.0
aF0.0
aF0.0
aF0.0
aF0.0
aF-0.029999039791701328
aF0.0
aF0.0
aF0.0
aF-0.029998981348558326
aF-0.872912123548172
aF-0.4041639021400041
aF0.0
aF0.0
aF0.0
aF0.0
aF0.0
aF0.0
aF0.0
aF0.0
aF0.0
aF0.0
aF0.0
aF0.0
aF0.0
aF0.0
aF0.0
aF0.0
aF0.0
aF0.0
aF0.0
aF0.0
aF-0.0297757554965828
aF0.0
aF0.0
aF0.0
aF0.0
aF0.0
aF0.0
aF0.0
aF0.0
aF0.0
aF0.0
aF0.0
aF0.0
aF0.0
aF0.0
aF0.0
aF0.0
aF0.0
aF0.0
aF0.0
aF0.0
aF0.0
aF0.0
aF0.0
aF0.0
aF0.0
aF0.0
aF0.0
aF0.0
aF0.0
aF0.0
aF0.0
aF0.0
aF0.0
aF0.0
aF0.0
aF0.0
aF0.0
aF0.0
aF0.0
aF0.0
aF0.0
aF0.0
aF0.0
aF0.0
aF0.0
aF0.0
aF0.0
aF0.0
aF0.0
aF0.0
aF0.0
aF0.0
aF0.0
aF0.0
aF0.0
aF0.0
aF0.0
aF0.0
aF0.0
aF0.0
aF0.0
aF0.0
aF-0.029948164712814467
aF0.0
aF-0.05884144253749478
aF0.0
aF0.0
aF0.0
aF0.0
aF0.0
aF0.0
aF0.0
aF0.0
aF0.0
aF0.0
aF0.0
aF0.0
aF-0.029999738100504415
aF0.030000251422324677
aF0.0
aF0.0
aF0.0
aF0.0
aF0.0
aF0.0
aF0.0
aF0.0
aF0.0
aF0.0
aF0.0
aF0.0
aF0.0
aF-0.007500049109328252
aF0.0
aF0.0
aF0.0
aF0.0
aF0.0
aF0.0
aF0.0
aF0.0
aF0.0
aF0.0
aF0.0
aF0.0
aF0.0
aF0.0
aF0.0
aF0.0
aF0.0
aF0.0
aF0.0
aF0.0
aF0.0
aF-0.05894963926425774
aF0.0
aF0.0
aF0.0
aF0.0
aF0.0
aF0.0
aF0.0
aF0.0
aF0.0
aF0.0
aF0.0
aF0.0
aF0.0
aF0.0
aF0.0
aF0.0
aF0.0
aF0.0
aF0.0
aF0.0
aF0.0
aF0.0
aF0.0
aF0.0
aF0.0
aF0.0
aF0.0
aF0.0
aF0.0
aF0.0
aF0.0
aF0.0
aF0.0
aF0.0
aF0.0
aF0.0
aF0.0
aF0.0
aF0.0
aF0.0
aF0.0
aF0.0
aF0.0
aF-0.02999121616068882
aF0.0
aF0.0
aF0.0
aF0.0
aF0.0
aF0.0
aF0.0
aF0.0
aF0.0
aF0.0
aF0.0
aF0.0
aF0.0
aF0.0
aF0.0
aF0.0
aF0.0
aF0.0
aF0.0
aF0.0
aF0.0
aF0.0
aF0.0
aF0.0
aF0.0
aF0.0
aF0.0
aF0.0
aF0.0
aF0.0
aF0.0
aF0.0
aF0.0
aF0.0
aF0.0
aF0.0
aF0.0
aF0.0
aF0.0
aF0.0
aF0.0
aF0.0
aF0.0
aF0.0
aF0.0
aF0.0
aF0.0
aF0.0
aF0.0
aF0.0
aF0.0
aF0.0
aF-0.014943687639684908
aF0.0
aF0.0
aF0.0
aF0.0
aF0.0
aF0.0
aF0.0
aF0.0
aF0.0
aF0.0
aF0.0
aF0.0
aF0.0
aF0.0
aF0.0
aF0.0
aF0.0
aF0.0
aF0.0
aF0.0
aF0.0
aF0.0
aF0.0
aF-0.029999405187186252
aF0.0
aF0.0
aF0.0
aF0.0
aF0.0
aF0.0
aF0.0
aF0.0
aF0.0
aF0.0
aF0.0
aF0.0
aF0.0
aF0.0
aF0.0
aF0.0
aF0.0
aF0.0
aF0.0
aF0.0
aF-0.02964370860612647
aF0.0
aF0.0
aF0.0
aF0.0
aF0.0
aF-0.02999997205285644
aF0.0
aF0.0
aF-0.014941169310750147
aF0.0
aF0.0
aF0.0
aF0.0
aF0.0
aF0.0
aF0.0
aF0.0
aF0.0
aF0.0
aF0.0
aF0.0
aF0.0
aF0.0
aF0.0
aF0.0
aF0.0
aF0.0
aF0.0
aF0.0
aF0.0
aF0.0
aF0.0
aF0.0
aF0.0
aF0.0
aF0.0
aF0.0
aF0.0
aF0.0
aF0.0
aF0.0
aF0.0
aF0.0
aF0.0
aF0.0
aF0.0
aF0.0
aF0.0
aF0.0
aF0.0
aF0.0
aF0.0
aF0.0
aF0.0
aF0.0
aF0.0
aF0.0
aF0.0
aF0.0
aF0.0
aF0.0
aF0.0
aF0.0
aF0.0
aF-0.05789471373848221
aF0.0
aF0.0
aF0.0
aF0.0
aF0.0
aF0.0
aF0.0
aF0.0
aF0.0
aF0.0
aF0.0
aF0.0
aF0.0
aF0.0
aF0.00599998514347294
aF0.0
aF0.0
aF0.0
aF0.0
aF0.0
aF0.0
aF0.0
aF0.0
aF0.0
aF0.0
aF0.0
aF0.0
aF-0.029999519876406037
aF0.0
aF0.0
aF0.0
aF0.0
aF0.0
aF0.0
aF0.0
aF0.0
aF0.0
aF0.0
aF0.0
aF0.0
aF0.0
aF0.0
aF0.0
aF0.0
aF0.0
aF0.0
aF0.0
aF0.0
aF0.0
aF0.0
aF0.0
aF0.0
aF0.0
aF0.0
aF0.0
aF0.0
aF-0.014999940445642722
aF0.0
aF0.0
aF0.0
aF0.0
aF0.0
aF0.0
aF0.0
aF0.0
aF0.0
aF0.0
aF0.0
aF0.0
aF0.0
aF0.0
aF0.0
aF0.0
aF0.0
aF0.0
aF0.0
aF0.0
aF0.0
aF0.0
aF0.0
aF0.0
aF0.0
aF0.0
aF0.0
aF0.0
aF0.0
aF0.0
aF0.0
aF0.0
aF0.0
aF0.0
aF0.0
aF0.0
aF0.0
aF0.0
aF0.0
aF0.0
aF0.0
aF0.0
aF0.0
aF0.0
aF0.0
aF0.0
aF0.0
aF0.0
aF0.0
aF0.0
aF0.0
aF0.0
aF0.0
aF0.0
aF0.0
aF0.0
aF0.0
aF-0.029900601846401014
aF0.0
aF0.0
aF-0.029643057509374404
aF0.0
aF0.0
aF0.0
aF0.0
aF0.0
aF0.0
aF0.0
aF0.0
aF0.0
aF0.0
aF0.0
aF0.0
aF0.0
aF0.0
aF0.0
aF0.0
aF0.0
aF0.0
aF0.0
aF0.0
aF0.0
aF0.0
aF0.0
aF0.0
aF0.0
aF0.0
aF0.0
aF0.0
aF0.0
aF0.0
aF0.0
aF0.0
aF0.0
aF0.0
aF0.0
aF0.0
aF0.0
aF0.0
aF0.0
aF-0.01978309371400802
aF0.0
aF0.0
aF0.0
aF0.0
aF0.0
aF0.0
aF-0.029999258157783506
aF0.0
aF0.0
aF0.0
aF0.0
aF0.0
aF0.0
aF0.0
aF0.0
aF0.0
aF0.0
aF0.0
aF0.0
aF0.0
aF0.0
aF0.0
aF0.0
aF0.0
aF0.0
aF0.0
aF0.0
aF0.0
aF0.0
aF0.0
aF0.0
aF0.0
aF0.0
aF0.0
aF0.0
aF0.0
aF0.0
aF0.0
aF-0.009999474602407885
aF0.0
aF0.0
aF0.0
aF0.0
aF0.0
aF0.0
aF0.0
aF0.0
aF0.0
aF0.0
aF0.0
aF0.0
aF0.0
aF-0.11384665979215519
aF0.0
aF0.0
aF0.0
aF0.0
aF-0.02999966191837766
aF0.0
aF0.0
aF0.0
aF0.0
aF0.0
aF0.0
aF0.0
aF0.0
aF0.0
aF0.0
aF0.0
aF0.0
aF0.0
aF0.0
aF0.0
aF0.0
aF0.0
aF0.0
aF0.0
aF0.0
aF0.0
aF0.0
aF-0.029999466263105266
aF0.0
aF0.0
aF0.0
aF0.0
aF0.0
aF0.0
aF0.0
aF0.0
aF0.0
aF0.0
aF0.0
aF0.0
aF0.0
aF0.0
aF0.0
aF0.0
aF0.0
aF0.0
aF0.0
aF0.0
aF0.0
aF0.0
aF0.0
aF0.0
aF0.0
aF0.0
aF0.0
aF0.0
aF0.0
aF0.0
aF0.0
aF0.0
aF0.0
aF0.0
aF0.0
aF0.0
aF0.0
aF-0.0033333294659003143
aF0.0
aF0.0
aF0.0
aF0.0
aF0.0
aF0.0
aF0.0
aF0.0
aF0.0
aF0.0
aF0.0
aF0.0
aF0.0
aF0.0
aF0.0
aF0.0
aF0.0
aF0.0
aF0.0
aF0.0
aF0.0
aF0.0
aF0.0
aF0.0
aF0.0
aF0.0
aF0.0
aF0.0
aF0.0
aF0.0
aF0.0
aF0.0
aF0.0
aF0.0
aF0.0
aF0.0
aF0.0
aF0.0
aF0.0
aF0.0
aF0.0
aF0.0
aF0.0
aF-0.03
aF0.0
aF0.0
aF0.0
aF0.0
aF0.0
aF0.0
aF-0.02999742635722611
aF0.0
aF0.0
aF0.0
aF0.0
aF0.0
aF0.0
aF0.0
aF0.0
aF0.0
aF0.0
aF0.0
aF0.0
aF0.0
aF0.0
aF0.0
aF0.0
aF0.0
aF0.0
aF0.0
aF0.0
aF0.0
aF0.0
aF0.0
aF0.0
aF0.0
aF0.0
aF0.0
aF0.0
aF0.0
aF0.0
aF0.0
aF0.0
aF0.0
aF0.0
aF-0.009999984556993295
aF0.0
aF0.0
aF0.0
aF0.0
aF0.0
aF0.0
aF0.0
aF0.0
aF0.0
aF0.0
aF0.0
aF0.0
aF0.0
aF0.0
aF0.0
aF0.0
aF0.0
aF0.0
aF0.0
aF0.0
aF0.0
aF0.0
aF0.0
aF0.0
aF0.0
aF0.0
aF0.0
aF0.0
aF0.0
aF0.0
aF0.0
aF0.0
aF0.0
aF0.0
aF0.0
aF0.0
aF0.0
aF0.0
aF0.0
aF0.0
aF0.0
aF0.0
aF0.0
aF0.0
aF0.0
aF0.0
aF0.0
aF0.0
aF0.0
aF0.0
aF0.0
aF0.0
aF0.0
aF0.0
aF0.0
aF0.0
aF0.0
aF0.0
aF0.0
aF0.0
aF0.0
aF0.0
aF0.0
aF0.0
aF0.0
aF0.0
aF0.0
aF0.0
aF0.0
aF0.0
aF-0.030000516548347147
aF0.0
aF0.0
aF0.0
aF0.0
aF0.0
aF0.0
aF0.0
aF0.0
aF0.0
aF0.0
aF0.0
aF0.0
aF0.0
aF0.0
aF0.0
aF0.0
aF0.0
aF0.0
aF0.0
aF0.0
aF0.0
aF0.0
aF0.0
aF0.0
aF0.0
aF0.0
aF0.0
aF0.0
aF0.0
aF0.0
aF0.0
aF0.0
aF0.0
aF0.0
aF0.0
aF0.0
aF0.0
aF0.0
aF0.0
aF0.0
aF0.0
aF0.0
aF0.0
aF0.0
aF0.0
aF0.0
aF0.0
aF0.0
aF0.0
aF0.0
aF0.0
aF0.0
aF0.0
aF0.0
aF0.0
aF0.030000196903248684
aF0.0
aF0.0
aF0.0
aF0.0
aF0.0
aF0.0
aF0.0
aF0.0
aF0.0
aF0.0
aF0.0
aF0.0
aF0.0
aF0.0
aF0.0
aF0.0
aF0.0
aF0.0
aF0.0
aF0.0
aF0.0
aF0.0
aF0.0
aF0.0
aF0.0
aF0.0
aF0.0
aF-0.003332766450646851
aF0.0
aF0.0
aF0.0
aF0.0
aF0.0
aF0.0
aF0.0
aF0.0
aF0.0
aF0.0
aF0.0
aF0.0
aF0.0
aF0.0
aF0.0
aF0.0
aF0.0
aF0.0
aF0.0
aF0.0
aF0.0
aF0.0
aF0.0
aF0.0
aF0.0
aF0.0
aF0.0
aF0.0
aF0.0
aF0.0
aF0.0
aF0.0
aF0.0
aF0.0
aF0.0
aF0.0
aF0.0
aF0.0
aF0.0
aF0.0
aF0.0
aF0.0
aF-0.029999997955646625
aF0.0
aF0.0
aF0.0
aF0.0
aF0.0
aF0.0
aF0.0
aF0.0
aF0.0
aF0.0
aF0.0
aF0.0
aF0.0
aF0.0
aF0.0
aF0.0
aF0.0
aF0.0
aF0.0
aF0.0
aF0.0
aF0.0
aF0.0
aF0.0
aF0.0
aF0.0
aF0.0
aF0.0
aF0.0
aF0.0
aF0.0
aF0.0
aF0.0
aF0.0
aF0.0
aF0.0
aF0.0
aF0.0
aF0.0
aF0.0
aF0.0
aF0.0
aF0.0
aF0.0
aF0.0
aF0.0
aF0.0
aF0.0
aF0.0
aF0.0
aF0.0
aF0.0
aF0.0
aF0.0
aF0.0
aF0.0
aF0.0
aF0.0
aF0.0
aF0.0
aF0.0
aF0.0
aF0.0
aF0.0
aF0.0
aF0.0
aF0.0
aF0.0
aF0.0
aF0.0
aF0.0
aF0.0
aF0.0
aF0.0
aF0.0
aF0.0
aF0.0
aF0.0
aF0.0
aF0.0
aF0.0
aF0.0
aF0.0
aF0.0
aF0.0
aF0.0
aF0.0
aF0.0
aF0.0
aF0.0
aF0.0
aF0.0
aF0.0
aF0.0
aF0.0
aF0.0
aF0.0
aF0.0
aF0.0
aF0.0
aF0.0
aF0.0
aF0.0
aF0.0
aF0.0
aF0.0
aF0.0
aF0.0
aF0.0
aF0.0
aF0.0
aF0.0
aF0.0
aF0.0
aF0.0
aF0.0
aF0.0
aF0.0
aF0.0
aF0.0
aF0.0
aF0.0
aF0.0
aF0.0
aF0.0
aF0.0
aF0.0
aF0.0
aF0.0
aF0.0
aF0.0
aF0.0
aF0.0
aF0.0
aF0.0
aF0.0
aF0.0
aF0.0
aF0.0
aF0.0
aF0.0
aF0.0
aF0.0
aF0.0
aF0.0
aF0.0
aF0.0
aF0.0
aF0.0
aF0.0
aF0.0
aF0.0
aF0.0
aF0.0
aF0.0
aF0.0
aF0.0
aF0.0
aF0.0
aF0.0
aF0.0
aF0.0
aF0.0
aF0.0
aF0.0
aF0.0
aF0.0
aF0.0
aF0.0
aF0.0
aF0.0
aF0.0
aF0.0
aF0.0
aF0.0
aF0.0
aF0.0
aF0.0
aF0.0
aF0.0
aF0.0
aF0.0
aF0.0
aF0.0
aF0.0
aF0.0
aF0.0
aF0.0
aF0.0
aF0.0
aF0.0
aF0.0
aF0.0
aF0.0
aF0.0
aF0.0
aF0.0
aF0.0
aF0.0
aF0.0
aF0.0
aF0.0
aF0.0
aF0.0
aF0.0
aF0.0
aF0.0
aF0.0
aF0.0
aF0.0
aF0.0
aF0.0
aF0.0
aF0.0
aF0.0
aF0.0
aF0.0
aF0.0
aF0.0
aF0.0
aF0.0
aF0.0
aF0.0
aF0.0
aF0.0
aF0.0
aF0.0
aF0.0
aF0.0
aF0.0
aF0.0
aF0.0
aF0.0
aF0.0
aF0.0
aF0.0
aF0.0
aF0.0
aF0.0
aF0.0
aF0.0
aF0.0
aF0.0
aF0.0
aF0.0
aF0.0
aF0.0
aF0.0
aF0.0
aF0.0
aF0.0
aF0.0
aF0.0
aF0.0
aF0.0
aF0.0
aF0.0
aF0.0
aF0.0
aF0.0
aF0.0
aF0.0
aF0.0
aF0.0
aF0.0
aF0.0
aF0.0
aF0.0
aF0.0
aF0.0
aF0.0
aF0.0
aF0.0
aF0.0
aF0.0
aF0.0
aF0.0
aF0.0
aF0.0
aF0.0
aF0.0
aF0.0
aF0.0
aF0.0
aF0.0
aF0.0
aF0.0
aF0.0
aF0.0
aF0.0
aF0.0
aF0.0
aF0.0
aF0.0
aF0.0
aF0.0
aF0.0
aF0.0
aF0.0
aF0.0
aF0.0
aF0.0
aF0.0
aF0.0
aF0.0
aF0.0
aF0.0
aF0.0
aF0.0
aF0.0
aF0.0
aF0.0
aF0.0
aF0.0
aF0.0
aF0.0
aF0.0
aF0.0
aF0.0
aF0.0
aF0.0
aF0.0
aF0.0
aF0.0
aF0.0
aF0.0
aF0.0
aF0.0
aF0.0
aF0.0
aF0.0
aF0.0
aF0.0
aF0.0
aF0.0
aF0.0
aF0.0
aF0.0
aF0.0
aF0.0
aF0.0
aF0.0
aF0.0
aF0.0
aF0.0
aF0.0
aF0.0
aF0.0
aF0.0
aF0.0
aF0.0
aF0.0
aF0.0
aF0.0
aF0.0
aF0.0
aF0.0
aF0.0
aF0.0
aF0.0
aF0.0
aF0.0
aF0.0
aF0.0
aF0.0
aF0.0
aF0.0
aF0.0
aF0.0
aF0.0
aF0.0
aF0.0
aF0.0
aF0.0
aF0.0
aF0.0
aF0.0
aF0.0
aF0.0
aF0.0
aF0.0
aF0.0
aF0.0
aF0.0
aF0.0
aF0.0
aF0.0
aF0.0
aF0.0
aF0.0
aF0.0
aF0.0
aF0.0
aF0.0
aF0.0
aF0.0
aF0.0
aF0.0
aF0.0
aF0.0
aF0.0
aF0.0
aF0.0
aF0.0
aF0.0
aF0.0
aF0.0
aF0.0
aF0.0
aF0.0
aF0.0
aF0.0
aF0.0
aF0.0
aF0.0
aF0.0
aF0.0
aF0.0
aF0.0
aF0.0
aF0.0
aF0.0
aF0.0
aF0.0
aF0.0
aF0.0
aF0.0
aF0.0
aF0.0
aF0.0
aF0.0
aF0.0
aF0.0
aF0.0
aF0.0
aF0.0
aF0.0
aF0.0
aF0.0
aF0.0
aF0.0
aF0.0
aF0.0
aF0.0
aF0.0
aF0.0
aF0.0
aF0.0
aF0.0
aF0.0
aF0.0
aF0.0
aF0.0
aF0.0
aF0.0
aF0.0
aF0.0
aF0.0
aF0.0
aF0.0
aF0.0
aF0.0
aF0.0
aF0.0
aF0.0
aF0.0
aF0.0
aF0.0
aF0.0
aF0.0
aF0.0
aF0.0
aF0.0
aF0.0
aF0.0
aF0.0
aF0.0
aF0.0
aF0.0
aF0.0
aF0.0
aF0.0
aF0.0
aF0.0
aF0.0
aF0.0
aF0.0
aF0.0
aF0.0
aF0.0
aF0.0
aF0.0
aF0.0
aF0.0
aF0.0
aF0.0
aF0.0
aF0.0
aF0.0
aF0.0
aF0.0
aF0.0
aF0.0
aF0.0
aF0.0
aF0.0
aF0.0
aF0.0
aF0.0
aF0.0
aF0.0
aF0.0
aF0.0
aF0.0
aF0.0
aF0.0
aF0.0
aF0.0
aF0.0
aF0.0
aF0.0
aF0.0
aF0.0
aF0.0
aF0.0
aF0.0
aF0.0
aF0.0
aF0.0
aF0.0
aF0.0
aF0.0
aF0.0
aF0.0
aF0.0
aF0.0
aF0.0
aF0.0
aF0.0
aF0.0
aF0.0
aF0.0
aF0.0
aF0.0
aF0.0
aF0.0
aF0.0
aF0.0
aF0.0
aF0.0
aF0.0
aF0.0
aF0.0
aF0.0
aF0.0
aF0.0
aF0.0
aF0.0
aF0.0
aF0.0
aF0.0
aF0.0
aF0.0
aF0.0
aF0.0
aF0.0
aF0.0
aF0.0
aF0.0
aF0.0
aF0.0
aF0.0
aF0.0
aF0.0
aF0.0
aF0.0
aF0.0
aF0.0
aF0.0
aF0.0
aF0.0
aF0.0
aF0.0
aF0.0
aF0.0
aF0.0
aF0.0
aF0.0
aF0.0
aF0.0
aF0.0
aF0.0
aF0.0
aF0.0
aF0.0
aF0.0
aF0.0
aF0.0
aF0.0
aF0.0
aF0.0
aF0.0
aF0.0
aF0.0
aF0.0
aF0.0
aF0.0
aF0.0
aF0.0
aF0.0
aF0.0
aF0.0
aF0.0
aF0.0
aF0.0
aF0.0
aF0.0
aF0.0
aF0.0
aF0.0
aF0.0
aF0.0
aF0.0
aF0.0
aF0.0
aF0.0
aF0.0
aF0.0
aF0.0
aF0.0
aF0.0
aF0.0
aF0.0
aF0.0
aF0.0
aF0.0
aF0.0
aF0.0
aF0.0
aF0.0
aF0.0
aF0.0
aF0.0
aF0.0
aF0.0
aF0.0
aF0.0
aF0.0
aF0.0
aF0.0
aF0.0
aF0.0
aF0.0
aF0.0
aF0.0
aF0.0
aF0.0
aF0.0
aF0.0
aF0.0
aF0.0
aF0.0
aF0.0
aF0.0
aF0.0
aF0.0
aF0.0
aF0.0
aF0.0
aF0.0
aF0.0
aF0.0
aF0.0
aF0.0
aF0.0
aF0.0
aF0.0
aF0.0
aF0.0
aF0.0
aF0.0
aF0.0
aF0.0
aF0.0
aF0.0
aF0.0
aF0.0
aF0.0
aF0.0
aF0.0
aF0.0
aF0.0
aF0.0
aF0.0
aF0.0
aF0.0
aF0.0
aF0.0
aF0.0
aF0.0
aF0.0
aF0.0
aF0.0
aF0.0
aF0.0
aF0.0
aF0.0
aF0.0
aF0.0
aF0.0
aF0.0
aF0.0
aF0.0
aF0.0
aF0.0
aF0.0
aF0.0
aF0.0
aF0.0
aF0.0
aF0.0
aF0.0
aF0.0
aF0.0
aF0.0
aF0.0
aF0.0
aF0.0
aF0.0
aF0.0
aF0.0
aF0.0
aF0.0
aF0.0
aF0.0
aF0.0
aF0.0
aF0.0
aF0.0
aF0.0
aF0.0
aF0.0
aF0.0
aF0.0
aF0.0
aF0.0
aF0.0
aF0.0
aF0.0
aF0.0
aF0.0
aF0.0
aF0.0
aF0.0
aF0.0
aF0.0
aF0.0
aF0.0
aF0.0
aF0.0
aF0.0
aF0.0
aF0.0
aF0.0
aF0.0
aF0.0
aF0.0
aF0.0
aF0.0
aF0.0
aF0.0
aF0.0
aF0.0
aF0.0
aF0.0
aF0.0
aF0.0
aF0.0
aF0.0
aF0.0
aF0.0
aF0.0
aF0.0
aF0.0
aF0.0
aF0.0
aF0.0
aF0.0
aF0.0
aF0.0
aF0.0
aF0.0
aF0.0
aF0.0
aF0.0
aF0.0
aF0.0
aF0.0
aF0.0
aF0.0
aF0.0
aF0.0
aF0.0
aF0.0
aF0.0
aF0.0
aF0.0
aF0.0
aF0.0
aF0.0
aF0.0
aF0.0
aF0.0
aF0.0
aF0.0
aF0.0
aF0.0
aF0.0
aF0.0
aF0.0
aF0.0
aF0.0
aF0.0
aF0.0
aF0.0
aF0.0
aF0.0
aF0.0
aF0.0
aF0.0
aF0.0
aF0.0
aF0.0
aF0.0
aF0.0
aF0.0
aF0.0
aF0.0
aF0.0
aF0.0
aF0.0
aF0.0
aF0.0
aF0.0
aF0.0
aF0.0
aF0.0
aF0.0
aF0.0
aF0.0
aF0.0
aF0.0
aF0.0
aF0.0
aF0.0
aF0.0
aF0.0
aF0.0
aF0.0
aF0.0
aF0.0
aF0.0
aF0.0
aF0.0
aF0.0
aF0.0
aF0.0
aF0.0
aF0.0
aF0.0
aF0.0
aF0.0
aF0.0
aF0.0
aF0.0
aF0.0
aF0.0
aF0.0
aF0.0
aF0.0
aF0.0
aF0.0
aF0.0
aF0.0
aF0.0
aF0.0
aF0.0
aF0.0
aF0.0
aF0.0
aF0.0
aF0.0
aF0.0
aF0.0
aF0.0
aF0.0
aF0.0
aF0.0
aF0.0
aF0.0
aF0.0
aF0.0
aF0.0
aF0.0
aF0.0
aF0.0
aF0.0
aF0.0
aF0.0
aF0.0
aF0.0
aF0.0
aF0.0
aF0.0
aF0.0
aF0.0
aF0.0
aF0.0
aF0.0
aF0.0
aF0.0
aF0.0
aF0.0
aF0.0
aF0.0
aF0.0
aF0.0
aF0.0
aF0.0
aF0.0
aF0.0
aF0.0
aF0.0
aF0.0
aF0.0
aF0.0
aF0.0
aF0.0
aF0.0
aF0.0
aF0.0
aF0.0
aF0.0
aF0.0
aF0.0
aF0.0
aF0.0
aF0.0
aF0.0
aF0.0
aF0.0
aF0.0
aF0.0
aF0.0
aF0.0
aF0.0
aF0.0
aF0.0
aF0.0
aF0.0
aF0.0
aF0.0
aF0.0
aF0.0
aF0.0
aF0.0
aF0.0
aF0.0
aF0.0
aF0.0
aF0.0
aF0.0
aF0.0
aF0.0
aF0.0
aF0.0
aF0.0
aF0.0
aF0.0
aF0.0
aF0.0
aF0.0
aF0.0
aF0.0
aF0.0
aF0.0
aF0.0
aF0.0
aF0.0
aF0.0
aF0.0
aF0.0
aF0.0
aF0.0
aF0.0
aF0.0
aF0.0
aF0.0
aF0.0
aF0.0
aF0.0
aF0.0
aF0.0
aF0.0
aF0.0
aF0.0
aF0.0
aF0.0
aF0.0
aF0.0
aF0.0
aF0.0
aF0.0
aF0.0
aF0.0
aF0.0
aF0.0
aF0.0
aF0.0
aF0.0
aF0.0
aF0.0
aF0.0
aF0.0
aF0.0
aF0.0
aF0.0
aF0.0
aF0.0
aF0.0
aF0.0
aF0.0
aF0.0
aF0.0
aF0.0
aF0.0
aF0.0
aF0.0
aF0.0
aF0.0
aF0.0
aF0.0
aF0.0
aF0.0
aF0.0
aF0.0
aF0.0
aF0.0
aF0.0
aF0.0
aF0.0
aF0.0
aF0.0
aF0.0
aF0.0
aF0.0
aF0.0
aF0.0
aF0.0
aF0.0
aF0.0
aF0.0
aF0.0
aF0.0
aF0.0
aF0.0
aF0.0
aF0.0
aF0.0
aF0.0
aF0.0
aF0.0
aF0.0
aF0.0
aF0.0
aF0.0
aF0.0
aF0.0
aF0.0
aF0.0
aF0.0
aF0.0
aF0.0
aF0.0
aF0.0
aF0.0
aF0.0
aF0.0
aF0.0
aF0.0
aF0.0
aF0.0
aF0.0
aF0.0
aF0.0
aF0.0
aF0.0
aF0.0
aF0.0
aF0.0
aF0.0
aF0.0
aF0.0
aF0.0
aF0.0
aF0.0
aF0.0
aF0.0
aF0.0
aF0.0
aF0.0
aF0.0
aF0.0
aF0.0
aF0.0
aF0.0
aF0.0
aF0.0
aF0.0
aF0.0
aF0.0
aF0.0
aF0.0
aF0.0
aF0.0
aF0.0
aF0.0
aF0.0
aF0.0
aF0.0
aF0.0
aF0.0
aF0.0
aF0.0
aF0.0
aF0.0
aF0.0
aF0.0
aF0.0
aF0.0
aF0.0
aF0.0
aF0.0
aF0.0
aF0.0
aF0.0
aF0.0
aF0.0
aF0.0
aF0.0
aF0.0
aF0.0
aF0.0
aF0.0
aF0.0
aF0.0
aF0.0
aF0.0
aF0.0
aF0.0
aF0.0
aF0.0
aF0.0
aF0.0
aF0.0
aF0.0
aF0.0
aF0.0
aF0.0
aF0.0
aF0.0
aF0.0
aF0.0
aF0.0
aF0.0
aF0.0
aF0.0
aF0.0
aF0.0
aF0.0
aF0.0
aF0.0
aF0.0
aF0.0
aF0.0
aF0.0
aF0.0
aF0.0
aF0.0
aF0.0
aF0.0
aF0.0
aF0.0
aF0.0
aF0.0
aF0.0
aF0.0
aF0.0
aF0.0
aF0.0
aF0.0
aF0.0
aF0.0
aF0.0
aF0.0
aF0.0
aF0.0
aF0.0
aF0.0
aF0.0
aF0.0
aF0.0
aF0.0
aF0.0
aF0.0
aF0.0
aF0.0
aF0.0
aF0.0
aF0.0
aF0.0
aF0.0
aF0.0
aF0.0
aF0.0
aF0.0
aF0.0
aF0.0
aF0.0
aF0.0
aF0.0
aF0.0
aF0.0
aF0.0
aF0.0
aF0.0
aF0.0
aF0.0
aF0.0
aF0.0
aF0.0
aF0.0
aF0.0
aF0.0
aF0.0
aF0.0
aF0.0
aF0.0
aF0.0
aF0.0
aF0.0
aF0.0
aF0.0
aF0.0
aF0.0
aF0.0
aF0.0
aF0.0
aF0.0
aF-0.07021860021647071
aF0.0014610579076007506
aF0.0
aF-0.009019610250448165
aF0.0
aF0.0
aF0.0
aF0.0
aF0.0
aF0.0
aF-0.0011591993163641806
aF0.0
aF0.0
aF0.0
aF0.0
aF0.0
aF0.0
aF0.0
aF0.0
aF0.0
aF0.0
aF0.0
aF0.0
aF0.0
aF0.0
aF0.0
aF0.0
aF0.0
aF0.0
aF0.0
aF0.0
aF0.0
aF0.0
aF0.0
aF0.0
aF0.0
aF0.0
aF0.0
aF0.0
aF0.0
aF0.0
aF0.0
aF0.0
aF0.0
aF0.0
aF0.0
aF0.0
aF0.0
aF0.0
aF0.0
aF0.0
aF0.0
aF0.0
aF0.0
aF0.0
aF0.0
aF0.0
aF0.0
aF0.0
aF0.0
aF0.0
aF0.0
aF0.0
aF0.0
aF0.0
aF0.0
aF0.0
aF0.0
aF0.0
aF0.0
aF0.0
aF0.0
aF0.0
aF0.0
aF0.0
aF-0.00016211579849758218
aF0.0
aF0.0
aF0.0
aF0.0
aF0.00015708
aF0.0
aF0.0
aF0.0
aF0.0
aF0.0
aF0.0
aF0.0
aF0.0
aF0.0
aF0.0
aF0.0
aF0.0
aF0.0
aF0.0
aF0.0
aF0.0
aF0.0
aF0.0
aF0.0
aF0.0
aF0.0
aF0.0
aF0.0
aF0.0
aF0.0
aF0.0
aF0.0
aF0.0
aF0.0
aF0.0
aF0.0
aF0.0
aF0.0
aF0.0
aF0.0
aF0.0
aF0.0
aF0.0
aF0.0
aF0.0
aF0.0
aF0.0
aF0.0
aF0.0
aF0.0
aF0.0
aF0.0
aF0.0
aF0.0
aF0.0
aF0.0
aF0.0
aF0.0
aF0.0
aF0.0
aF0.0
aF0.0
aF0.0
aF0.0
aF0.0
aF0.0
aF0.0
aF0.0
aF0.0
aF0.0
aF0.0
aF0.0
aF0.0
aF0.0
aF0.0
aF0.0
aF0.0
aF0.0
aF0.0
aF0.0
aF0.0
aF0.0
aF0.0
aF0.0
aF0.0
aF0.0
aF0.0
aF0.0
aF0.0
aF0.0
aF0.0
aF0.0
aF0.0
aF0.0
aF0.0
aF0.0
aF0.0
aF0.0
aF0.003
aF0.0
aF0.0
aF0.0
aF-6.926999999999999e-05
aF0.0
aF0.0
aF0.0
aF0.0
aF0.0
aF0.0
aF0.0
aF0.0
aF0.0
aF0.0
aF0.0
aF0.0
aF0.0
aF0.0
aF0.0
aF0.0
aF0.0
aF0.0
aF0.0
aF0.0
aF0.0
aF0.0
aF0.0
aF0.0
aF0.0
aF0.0
aF0.0
aF0.0
aF0.0
aF0.0
aF0.0
aF0.0
aF0.0
aF0.0
aF0.0
aF0.0
aF0.0
aF0.0
aF0.0
aF0.0
aF0.0
aF0.0
aF0.0
aF0.0
aF0.0
aF0.0
aF0.0
aF0.0
aF0.0
aF0.0
aF0.0
aF0.0
aF0.0
aF0.0
aF0.00045456
aF0.0
aF0.0
aF0.0
aF0.0
aF0.0
aF0.0
aF0.0
aF0.0
aF0.0
aF0.0
aF0.0
aF0.0
aF0.0
aF0.0
aF0.0
aF0.0
aF0.0
aF0.0
aF0.0
aF0.0
aF0.0
aF0.0
aF0.0
aF0.0
aF0.0
aF0.0
aF0.0
aF0.0
aF0.0
aF0.0
aF0.0
aF0.0
aF0.0
aF0.0
aF0.0
aF0.0
aF0.0
aF0.0
aF0.0
aF0.0
aF0.0
aF0.0
aF0.0
aF0.0
aF0.0
aF0.0
aF0.0
aF0.0
aF0.0
aF0.0
aF0.0
aF0.0
aF0.0
aF0.0
aF0.0
aF0.0
aF0.0
aF0.0
aF0.0
aF0.0
aF0.0
aF0.0
aF0.0
aF0.0
aF0.0
aF0.0
aF0.0
aF0.0
aF0.0
aF0.0
aF0.0
aF0.0
aF0.0
aF0.0
aF0.0
aF0.0
aF0.0
aF0.0
aF0.0
aF0.0
aF0.0
aF0.0
aF0.0
aF0.0
aF0.0
aF0.0
aF0.0
aF0.0
aF0.0
aF0.0
aF0.0
aF0.0
aF0.0
aF0.0
aF0.0
aF0.0
aF0.0
aF0.0
aF0.0
aF0.0
aF0.0
aF0.0
aF0.0
aF0.0
aF0.0
aF0.0
aF0.0
aF0.0
aF0.0
aF0.0
aF0.0
aF0.0
aF0.0
aF0.0
aF0.0
aF0.0
aF0.0
aF0.0
aF0.0
aF0.0
aF0.0
aF0.0
asb.